,dataset,capacity,error_rate,m,k,hash_fn,minsup,found_exact,found_bloom,missing_from_exact,extra_on_bloom,extra_on_bloom_mean,extra_on_bloom_sd,false_positive %,mean_error_support,sd_error_support,generated_candidates_exact,generated_candidates_bloom,time_bloom,time_exact,factor_of_improvement,fit_function_bloom
0,retail.dat,100000,0.3,250592,2,<built-in function openssl_md5>,1500,68,86,0,18,460.44444444444446,235.78196666087322,20.93,556.515,650.051,45,63,0.666,0.23,0.35,[-1.14500756e-02  1.43140207e+00 -2.25058594e+01  2.64119963e+01]
1,retail.dat,100000,0.3,250592,2,<built-in function openssl_md5>,1400,78,94,0,16,469.6875,249.3566017649222,17.021,505.346,624.71,50,66,0.689,0.262,0.38,[-5.54472122e-03  9.18430507e-01 -1.86763420e+01  3.85296861e+01]
2,retail.dat,100000,0.3,250592,2,<built-in function openssl_md5>,1300,87,107,0,20,420.0,262.25312200238915,18.692,474.069,601.649,55,75,0.797,0.31,0.39,[-2.62833841e-03  5.49895323e-01 -1.10323153e+01  7.70382242e+00]
3,retail.dat,100000,0.3,250592,2,<built-in function openssl_md5>,1200,98,119,0,21,364.95238095238096,181.20377274283177,17.647,447.582,585.751,60,81,0.71,0.36,0.51,[-1.64364820e-03  4.18606931e-01 -1.05871196e+01  2.02931893e+01]
4,retail.dat,100000,0.3,250592,2,<built-in function openssl_md5>,1100,119,145,0,26,344.65384615384613,187.2310260095578,17.931,386.706,551.228,69,95,0.742,0.511,0.69,[-7.19315884e-04  2.68658493e-01 -1.05291881e+01  5.36794353e+01]
