,items,real_support,approx_support,error,level,fill
0,"['27', '29']",249682,252889,3207,1,"{'27': 43.281, '29': 44.937}"
1,"['27', '29', '17']",249654,252869,3215,2,"{'27': 43.281, '29': 44.937, '17': 49.267}"
2,"['27', '29', '12']",249285,252534,3249,2,"{'27': 43.281, '29': 44.937, '12': 49.208}"
3,"['27', '29', '18']",248907,252216,3309,2,"{'27': 43.281, '29': 44.937, '18': 49.158}"
4,"['27', '29', '12', '17']",249257,252514,3257,3,"{'27': 43.281, '29': 44.937, '12': 49.208, '17': 49.267}"
5,"['27', '29', '18', '17']",248879,252196,3317,3,"{'27': 43.281, '29': 44.937, '18': 49.158, '17': 49.267}"
6,"['27', '29', '18', '12']",248794,252118,3324,3,"{'27': 43.281, '29': 44.937, '18': 49.158, '12': 49.208}"
7,"['43', '29', '16', '18']",249866,253497,3631,3,"{'43': 44.081, '29': 44.937, '16': 48.482, '18': 49.158}"
8,"['29', '21', '31', '16']",247325,251954,4629,3,"{'29': 44.937, '21': 45.32, '31': 46.969, '16': 48.482}"
9,"['27', '29', '18', '12', '17']",248766,252098,3332,4,"{'27': 43.281, '29': 44.937, '18': 49.158, '12': 49.208, '17': 49.267}"
10,"['43', '29', '16', '18', '17']",249836,253475,3639,4,"{'43': 44.081, '29': 44.937, '16': 48.482, '18': 49.158, '17': 49.267}"
11,"['43', '29', '16', '18', '12']",249743,253395,3652,4,"{'43': 44.081, '29': 44.937, '16': 48.482, '18': 49.158, '12': 49.208}"
12,"['29', '21', '31', '16', '17']",247300,251936,4636,4,"{'29': 44.937, '21': 45.32, '31': 46.969, '16': 48.482, '17': 49.267}"
13,"['29', '21', '31', '16', '12']",247166,251824,4658,4,"{'29': 44.937, '21': 45.32, '31': 46.969, '16': 48.482, '12': 49.208}"
14,"['29', '21', '31', '16', '18']",246780,251495,4715,4,"{'29': 44.937, '21': 45.32, '31': 46.969, '16': 48.482, '18': 49.158}"
15,"['43', '29', '16', '18', '12', '17']",249713,253373,3660,5,"{'43': 44.081, '29': 44.937, '16': 48.482, '18': 49.158, '12': 49.208, '17': 49.267}"
16,"['29', '21', '31', '16', '12', '17']",247141,251806,4665,5,"{'29': 44.937, '21': 45.32, '31': 46.969, '16': 48.482, '12': 49.208, '17': 49.267}"
17,"['29', '21', '31', '16', '18', '17']",246755,251477,4722,5,"{'29': 44.937, '21': 45.32, '31': 46.969, '16': 48.482, '18': 49.158, '17': 49.267}"
18,"['29', '21', '31', '16', '18', '12']",246671,251406,4735,5,"{'29': 44.937, '21': 45.32, '31': 46.969, '16': 48.482, '18': 49.158, '12': 49.208}"
19,"['29', '21', '31', '16', '18', '12', '17']",246646,251388,4742,6,"{'29': 44.937, '21': 45.32, '31': 46.969, '16': 48.482, '18': 49.158, '12': 49.208, '17': 49.267}"
