,exact,bloomfilter,extra_on_bloom,missing_on_bloom,hll,extra_on_hll,missing_on_hll
0,"{'items': ['5'], 'found': '5', 'support': 2971, 'level': 0, 'jaccard': -1, 'filled': 0}","{'items': ['5'], 'found': '5', 'support': 2978, 'level': 0, 'jaccard': -1, 'filled': 31.885}","{'item': ['5', '29', '52'], 'real_support': 2953, 'approximated_support': 2963, 'level': 2, 'filled': {'5': 31.885, '29': 33.638, '52': 33.69}}","{'item': ['48', '36', '60'], 'real_support': 2960, 'approximated_support': 2959, 'level': 2, 'filled': 0}",,,
1,"{'items': ['48'], 'found': '48', 'support': 3013, 'level': 0, 'jaccard': -1, 'filled': 0}","{'items': ['48'], 'found': '48', 'support': 3013, 'level': 0, 'jaccard': -1, 'filled': 32.194}","{'item': ['5', '29', '52', '58'], 'real_support': 2952, 'approximated_support': 2961, 'level': 3, 'filled': {'5': 31.885, '29': 33.638, '52': 33.69, '58': 33.742}}","{'item': ['48', '36', '40'], 'real_support': 2961, 'approximated_support': 2959, 'level': 2, 'filled': 0}",,,
2,"{'items': ['56'], 'found': '56', 'support': 3021, 'level': 0, 'jaccard': -1, 'filled': 0}","{'items': ['66'], 'found': '66', 'support': 3019, 'level': 0, 'jaccard': -1, 'filled': 32.246}","{'item': ['5', '52', '58'], 'real_support': 2959, 'approximated_support': 2969, 'level': 2, 'filled': {'5': 31.885, '52': 33.69, '58': 33.742}}","{'item': ['48', '36', '40', '58'], 'real_support': 2960, 'approximated_support': 2958, 'level': 3, 'filled': 0}",,,
3,"{'items': ['66'], 'found': '66', 'support': 3021, 'level': 0, 'jaccard': -1, 'filled': 0}","{'items': ['56'], 'found': '56', 'support': 3020, 'level': 0, 'jaccard': -1, 'filled': 32.259}","{'item': ['56', '60', '29', '52'], 'real_support': 2956, 'approximated_support': 2961, 'level': 3, 'filled': {'56': 32.259, '60': 33.374, '29': 33.638, '52': 33.69}}","{'item': ['48', '60', '40', '58'], 'real_support': 2960, 'approximated_support': 2959, 'level': 3, 'filled': 0}",,,
4,"{'items': ['34'], 'found': '34', 'support': 3040, 'level': 0, 'jaccard': -1, 'filled': 0}","{'items': ['34'], 'found': '34', 'support': 3040, 'level': 0, 'jaccard': -1, 'filled': 32.433}","{'item': ['56', '60', '29', '52', '58'], 'real_support': 2955, 'approximated_support': 2960, 'level': 4, 'filled': {'56': 32.259, '60': 33.374, '29': 33.638, '52': 33.69, '58': 33.742}}",,,,
5,"{'items': ['62'], 'found': '62', 'support': 3060, 'level': 0, 'jaccard': -1, 'filled': 0}","{'items': ['62'], 'found': '62', 'support': 3060, 'level': 0, 'jaccard': -1, 'filled': 32.601}","{'item': ['34', '60', '40', '29', '52', '58'], 'real_support': 2959, 'approximated_support': 2965, 'level': 5, 'filled': {'34': 32.433, '60': 33.374, '40': 33.522, '29': 33.638, '52': 33.69, '58': 33.742}}",,,,
6,"{'items': ['7'], 'found': '7', 'support': 3076, 'level': 0, 'jaccard': -1, 'filled': 0}","{'items': ['7'], 'found': '7', 'support': 3073, 'level': 0, 'jaccard': -1, 'filled': 32.717}",,,,,
7,"{'items': ['36'], 'found': '36', 'support': 3099, 'level': 0, 'jaccard': -1, 'filled': 0}","{'items': ['36'], 'found': '36', 'support': 3097, 'level': 0, 'jaccard': -1, 'filled': 32.929}",,,,,
8,"{'items': ['60'], 'found': '60', 'support': 3149, 'level': 0, 'jaccard': -1, 'filled': 0}","{'items': ['60'], 'found': '60', 'support': 3149, 'level': 0, 'jaccard': -1, 'filled': 33.374}",,,,,
9,"{'items': ['40'], 'found': '40', 'support': 3170, 'level': 0, 'jaccard': -1, 'filled': 0}","{'items': ['40'], 'found': '40', 'support': 3166, 'level': 0, 'jaccard': -1, 'filled': 33.522}",,,,,
10,"{'items': ['29'], 'found': '29', 'support': 3181, 'level': 0, 'jaccard': -1, 'filled': 0}","{'items': ['29'], 'found': '29', 'support': 3180, 'level': 0, 'jaccard': -1, 'filled': 33.638}",,,,,
11,"{'items': ['52'], 'found': '52', 'support': 3185, 'level': 0, 'jaccard': -1, 'filled': 0}","{'items': ['52'], 'found': '52', 'support': 3186, 'level': 0, 'jaccard': -1, 'filled': 33.69}",,,,,
12,"{'items': ['58'], 'found': '58', 'support': 3195, 'level': 0, 'jaccard': -1, 'filled': 0}","{'items': ['58'], 'found': '58', 'support': 3192, 'level': 0, 'jaccard': -1, 'filled': 33.742}",,,,,
13,"{'items': ['5', '52'], 'found': '52', 'support': 2960, 'level': 1, 'jaccard': -1, 'filled': 0}","{'items': ['62', '36'], 'found': '36', 'support': 2965, 'level': 1, 'jaccard': -1, 'filled': {'62': 32.601, '36': 32.929}}",,,,,
14,"{'items': ['62', '36'], 'found': '36', 'support': 2963, 'level': 1, 'jaccard': -1, 'filled': 0}","{'items': ['5', '29'], 'found': '29', 'support': 2970, 'level': 1, 'jaccard': -1, 'filled': {'5': 31.885, '29': 33.638}}",,,,,
15,"{'items': ['5', '29'], 'found': '29', 'support': 2964, 'level': 1, 'jaccard': -1, 'filled': 0}","{'items': ['5', '52'], 'found': '52', 'support': 2970, 'level': 1, 'jaccard': -1, 'filled': {'5': 31.885, '52': 33.69}}",,,,,
16,"{'items': ['5', '58'], 'found': '58', 'support': 2970, 'level': 1, 'jaccard': -1, 'filled': 0}","{'items': ['5', '58'], 'found': '58', 'support': 2976, 'level': 1, 'jaccard': -1, 'filled': {'5': 31.885, '58': 33.742}}",,,,,
17,"{'items': ['56', '60'], 'found': '60', 'support': 2974, 'level': 1, 'jaccard': -1, 'filled': 0}","{'items': ['56', '60'], 'found': '60', 'support': 2977, 'level': 1, 'jaccard': -1, 'filled': {'56': 32.259, '60': 33.374}}",,,,,
18,"{'items': ['7', '36'], 'found': '36', 'support': 2979, 'level': 1, 'jaccard': -1, 'filled': 0}","{'items': ['7', '36'], 'found': '36', 'support': 2978, 'level': 1, 'jaccard': -1, 'filled': {'7': 32.717, '36': 32.929}}",,,,,
19,"{'items': ['48', '60'], 'found': '60', 'support': 2986, 'level': 1, 'jaccard': -1, 'filled': 0}","{'items': ['48', '36'], 'found': '36', 'support': 2986, 'level': 1, 'jaccard': -1, 'filled': {'48': 32.194, '36': 32.929}}",,,,,
20,"{'items': ['48', '36'], 'found': '36', 'support': 2987, 'level': 1, 'jaccard': -1, 'filled': 0}","{'items': ['48', '60'], 'found': '60', 'support': 2986, 'level': 1, 'jaccard': -1, 'filled': {'48': 32.194, '60': 33.374}}",,,,,
21,"{'items': ['48', '40'], 'found': '40', 'support': 2987, 'level': 1, 'jaccard': -1, 'filled': 0}","{'items': ['48', '40'], 'found': '40', 'support': 2986, 'level': 1, 'jaccard': -1, 'filled': {'48': 32.194, '40': 33.522}}",,,,,
22,"{'items': ['34', '60'], 'found': '60', 'support': 2995, 'level': 1, 'jaccard': -1, 'filled': 0}","{'items': ['66', '40'], 'found': '40', 'support': 2994, 'level': 1, 'jaccard': -1, 'filled': {'66': 32.246, '40': 33.522}}",,,,,
23,"{'items': ['56', '40'], 'found': '40', 'support': 2996, 'level': 1, 'jaccard': -1, 'filled': 0}","{'items': ['56', '40'], 'found': '40', 'support': 2995, 'level': 1, 'jaccard': -1, 'filled': {'56': 32.259, '40': 33.522}}",,,,,
24,"{'items': ['66', '40'], 'found': '40', 'support': 2997, 'level': 1, 'jaccard': -1, 'filled': 0}","{'items': ['34', '60'], 'found': '60', 'support': 2999, 'level': 1, 'jaccard': -1, 'filled': {'34': 32.433, '60': 33.374}}",,,,,
25,"{'items': ['48', '29'], 'found': '29', 'support': 2998, 'level': 1, 'jaccard': -1, 'filled': 0}","{'items': ['48', '29'], 'found': '29', 'support': 3000, 'level': 1, 'jaccard': -1, 'filled': {'48': 32.194, '29': 33.638}}",,,,,
26,"{'items': ['48', '52'], 'found': '52', 'support': 3002, 'level': 1, 'jaccard': -1, 'filled': 0}","{'items': ['48', '52'], 'found': '52', 'support': 3006, 'level': 1, 'jaccard': -1, 'filled': {'48': 32.194, '52': 33.69}}",,,,,
27,"{'items': ['56', '29'], 'found': '29', 'support': 3006, 'level': 1, 'jaccard': -1, 'filled': 0}","{'items': ['56', '29'], 'found': '29', 'support': 3007, 'level': 1, 'jaccard': -1, 'filled': {'56': 32.259, '29': 33.638}}",,,,,
28,"{'items': ['66', '52'], 'found': '52', 'support': 3010, 'level': 1, 'jaccard': -1, 'filled': 0}","{'items': ['48', '58'], 'found': '58', 'support': 3011, 'level': 1, 'jaccard': -1, 'filled': {'48': 32.194, '58': 33.742}}",,,,,
29,"{'items': ['48', '58'], 'found': '58', 'support': 3012, 'level': 1, 'jaccard': -1, 'filled': 0}","{'items': ['66', '52'], 'found': '52', 'support': 3011, 'level': 1, 'jaccard': -1, 'filled': {'66': 32.246, '52': 33.69}}",,,,,
30,"{'items': ['66', '29'], 'found': '29', 'support': 3013, 'level': 1, 'jaccard': -1, 'filled': 0}","{'items': ['66', '29'], 'found': '29', 'support': 3012, 'level': 1, 'jaccard': -1, 'filled': {'66': 32.246, '29': 33.638}}",,,,,
31,"{'items': ['62', '60'], 'found': '60', 'support': 3014, 'level': 1, 'jaccard': -1, 'filled': 0}","{'items': ['56', '52'], 'found': '52', 'support': 3016, 'level': 1, 'jaccard': -1, 'filled': {'56': 32.259, '52': 33.69}}",,,,,
32,"{'items': ['56', '52'], 'found': '52', 'support': 3016, 'level': 1, 'jaccard': -1, 'filled': 0}","{'items': ['66', '58'], 'found': '58', 'support': 3017, 'level': 1, 'jaccard': -1, 'filled': {'66': 32.246, '58': 33.742}}",,,,,
33,"{'items': ['34', '40'], 'found': '40', 'support': 3017, 'level': 1, 'jaccard': -1, 'filled': 0}","{'items': ['34', '40'], 'found': '40', 'support': 3017, 'level': 1, 'jaccard': -1, 'filled': {'34': 32.433, '40': 33.522}}",,,,,
34,"{'items': ['56', '58'], 'found': '58', 'support': 3020, 'level': 1, 'jaccard': -1, 'filled': 0}","{'items': ['62', '60'], 'found': '60', 'support': 3017, 'level': 1, 'jaccard': -1, 'filled': {'62': 32.601, '60': 33.374}}",,,,,
35,"{'items': ['66', '58'], 'found': '58', 'support': 3020, 'level': 1, 'jaccard': -1, 'filled': 0}","{'items': ['66', '60'], 'found': '60', 'support': 3019, 'level': 1, 'jaccard': -1, 'filled': {'66': 32.246, '60': 33.374}}",,,,,
36,"{'items': ['66', '60'], 'found': '60', 'support': 3021, 'level': 1, 'jaccard': -1, 'filled': 0}","{'items': ['56', '58'], 'found': '58', 'support': 3019, 'level': 1, 'jaccard': -1, 'filled': {'56': 32.259, '58': 33.742}}",,,,,
37,"{'items': ['34', '52'], 'found': '52', 'support': 3031, 'level': 1, 'jaccard': -1, 'filled': 0}","{'items': ['7', '60'], 'found': '60', 'support': 3031, 'level': 1, 'jaccard': -1, 'filled': {'7': 32.717, '60': 33.374}}",,,,,
38,"{'items': ['7', '60'], 'found': '60', 'support': 3031, 'level': 1, 'jaccard': -1, 'filled': 0}","{'items': ['34', '52'], 'found': '52', 'support': 3034, 'level': 1, 'jaccard': -1, 'filled': {'34': 32.433, '52': 33.69}}",,,,,
39,"{'items': ['34', '29'], 'found': '29', 'support': 3036, 'level': 1, 'jaccard': -1, 'filled': 0}","{'items': ['34', '29'], 'found': '29', 'support': 3036, 'level': 1, 'jaccard': -1, 'filled': {'34': 32.433, '29': 33.638}}",,,,,
40,"{'items': ['34', '58'], 'found': '58', 'support': 3039, 'level': 1, 'jaccard': -1, 'filled': 0}","{'items': ['34', '58'], 'found': '58', 'support': 3039, 'level': 1, 'jaccard': -1, 'filled': {'34': 32.433, '58': 33.742}}",,,,,
41,"{'items': ['62', '40'], 'found': '40', 'support': 3045, 'level': 1, 'jaccard': -1, 'filled': 0}","{'items': ['62', '40'], 'found': '40', 'support': 3043, 'level': 1, 'jaccard': -1, 'filled': {'62': 32.601, '40': 33.522}}",,,,,
42,"{'items': ['62', '29'], 'found': '29', 'support': 3045, 'level': 1, 'jaccard': -1, 'filled': 0}","{'items': ['62', '29'], 'found': '29', 'support': 3046, 'level': 1, 'jaccard': -1, 'filled': {'62': 32.601, '29': 33.638}}",,,,,
43,"{'items': ['62', '52'], 'found': '52', 'support': 3049, 'level': 1, 'jaccard': -1, 'filled': 0}","{'items': ['7', '40'], 'found': '40', 'support': 3046, 'level': 1, 'jaccard': -1, 'filled': {'7': 32.717, '40': 33.522}}",,,,,
44,"{'items': ['7', '40'], 'found': '40', 'support': 3050, 'level': 1, 'jaccard': -1, 'filled': 0}","{'items': ['62', '52'], 'found': '52', 'support': 3052, 'level': 1, 'jaccard': -1, 'filled': {'62': 32.601, '52': 33.69}}",,,,,
45,"{'items': ['36', '60'], 'found': '60', 'support': 3052, 'level': 1, 'jaccard': -1, 'filled': 0}","{'items': ['36', '60'], 'found': '60', 'support': 3054, 'level': 1, 'jaccard': -1, 'filled': {'36': 32.929, '60': 33.374}}",,,,,
46,"{'items': ['62', '58'], 'found': '58', 'support': 3060, 'level': 1, 'jaccard': -1, 'filled': 0}","{'items': ['62', '58'], 'found': '58', 'support': 3060, 'level': 1, 'jaccard': -1, 'filled': {'62': 32.601, '58': 33.742}}",,,,,
47,"{'items': ['7', '52'], 'found': '52', 'support': 3065, 'level': 1, 'jaccard': -1, 'filled': 0}","{'items': ['7', '52'], 'found': '52', 'support': 3065, 'level': 1, 'jaccard': -1, 'filled': {'7': 32.717, '52': 33.69}}",,,,,
48,"{'items': ['7', '29'], 'found': '29', 'support': 3069, 'level': 1, 'jaccard': -1, 'filled': 0}","{'items': ['7', '29'], 'found': '29', 'support': 3066, 'level': 1, 'jaccard': -1, 'filled': {'7': 32.717, '29': 33.638}}",,,,,
49,"{'items': ['36', '40'], 'found': '40', 'support': 3073, 'level': 1, 'jaccard': -1, 'filled': 0}","{'items': ['7', '58'], 'found': '58', 'support': 3071, 'level': 1, 'jaccard': -1, 'filled': {'7': 32.717, '58': 33.742}}",,,,,
50,"{'items': ['7', '58'], 'found': '58', 'support': 3075, 'level': 1, 'jaccard': -1, 'filled': 0}","{'items': ['36', '40'], 'found': '40', 'support': 3071, 'level': 1, 'jaccard': -1, 'filled': {'36': 32.929, '40': 33.522}}",,,,,
51,"{'items': ['36', '29'], 'found': '29', 'support': 3084, 'level': 1, 'jaccard': -1, 'filled': 0}","{'items': ['36', '29'], 'found': '29', 'support': 3084, 'level': 1, 'jaccard': -1, 'filled': {'36': 32.929, '29': 33.638}}",,,,,
52,"{'items': ['36', '52'], 'found': '52', 'support': 3088, 'level': 1, 'jaccard': -1, 'filled': 0}","{'items': ['36', '52'], 'found': '52', 'support': 3090, 'level': 1, 'jaccard': -1, 'filled': {'36': 32.929, '52': 33.69}}",,,,,
53,"{'items': ['36', '58'], 'found': '58', 'support': 3098, 'level': 1, 'jaccard': -1, 'filled': 0}","{'items': ['36', '58'], 'found': '58', 'support': 3096, 'level': 1, 'jaccard': -1, 'filled': {'36': 32.929, '58': 33.742}}",,,,,
54,"{'items': ['60', '40'], 'found': '40', 'support': 3124, 'level': 1, 'jaccard': -1, 'filled': 0}","{'items': ['60', '40'], 'found': '40', 'support': 3123, 'level': 1, 'jaccard': -1, 'filled': {'60': 33.374, '40': 33.522}}",,,,,
55,"{'items': ['60', '29'], 'found': '29', 'support': 3136, 'level': 1, 'jaccard': -1, 'filled': 0}","{'items': ['60', '29'], 'found': '29', 'support': 3138, 'level': 1, 'jaccard': -1, 'filled': {'60': 33.374, '29': 33.638}}",,,,,
56,"{'items': ['60', '52'], 'found': '52', 'support': 3138, 'level': 1, 'jaccard': -1, 'filled': 0}","{'items': ['60', '52'], 'found': '52', 'support': 3142, 'level': 1, 'jaccard': -1, 'filled': {'60': 33.374, '52': 33.69}}",,,,,
57,"{'items': ['60', '58'], 'found': '58', 'support': 3148, 'level': 1, 'jaccard': -1, 'filled': 0}","{'items': ['60', '58'], 'found': '58', 'support': 3148, 'level': 1, 'jaccard': -1, 'filled': {'60': 33.374, '58': 33.742}}",,,,,
58,"{'items': ['40', '29'], 'found': '29', 'support': 3155, 'level': 1, 'jaccard': -1, 'filled': 0}","{'items': ['40', '29'], 'found': '29', 'support': 3153, 'level': 1, 'jaccard': -1, 'filled': {'40': 33.522, '29': 33.638}}",,,,,
59,"{'items': ['40', '52'], 'found': '52', 'support': 3159, 'level': 1, 'jaccard': -1, 'filled': 0}","{'items': ['40', '52'], 'found': '52', 'support': 3159, 'level': 1, 'jaccard': -1, 'filled': {'40': 33.522, '52': 33.69}}",,,,,
60,"{'items': ['40', '58'], 'found': '58', 'support': 3169, 'level': 1, 'jaccard': -1, 'filled': 0}","{'items': ['40', '58'], 'found': '58', 'support': 3165, 'level': 1, 'jaccard': -1, 'filled': {'40': 33.522, '58': 33.742}}",,,,,
61,"{'items': ['29', '52'], 'found': '52', 'support': 3170, 'level': 1, 'jaccard': -1, 'filled': 0}","{'items': ['29', '52'], 'found': '52', 'support': 3172, 'level': 1, 'jaccard': -1, 'filled': {'29': 33.638, '52': 33.69}}",,,,,
62,"{'items': ['29', '58'], 'found': '58', 'support': 3180, 'level': 1, 'jaccard': -1, 'filled': 0}","{'items': ['29', '58'], 'found': '58', 'support': 3178, 'level': 1, 'jaccard': -1, 'filled': {'29': 33.638, '58': 33.742}}",,,,,
63,"{'items': ['52', '58'], 'found': '58', 'support': 3184, 'level': 1, 'jaccard': -1, 'filled': 0}","{'items': ['52', '58'], 'found': '58', 'support': 3184, 'level': 1, 'jaccard': -1, 'filled': {'52': 33.69, '58': 33.742}}",,,,,
64,"{'items': ['48', '36', '60'], 'found': '60', 'support': 2960, 'level': 2, 'jaccard': -1, 'filled': 0}","{'items': ['48', '60', '40'], 'found': '40', 'support': 2961, 'level': 2, 'jaccard': -1, 'filled': {'48': 32.194, '60': 33.374, '40': 33.522}}",,,,,
65,"{'items': ['48', '36', '40'], 'found': '40', 'support': 2961, 'level': 2, 'jaccard': -1, 'filled': 0}","{'items': ['5', '29', '52'], 'found': '52', 'support': 2963, 'level': 2, 'jaccard': -1, 'filled': {'5': 31.885, '29': 33.638, '52': 33.69}}",,,,,
66,"{'items': ['48', '60', '40'], 'found': '40', 'support': 2961, 'level': 2, 'jaccard': -1, 'filled': 0}","{'items': ['62', '36', '58'], 'found': '58', 'support': 2965, 'level': 2, 'jaccard': -1, 'filled': {'62': 32.601, '36': 32.929, '58': 33.742}}",,,,,
67,"{'items': ['56', '60', '29'], 'found': '29', 'support': 2961, 'level': 2, 'jaccard': -1, 'filled': 0}","{'items': ['56', '60', '29'], 'found': '29', 'support': 2966, 'level': 2, 'jaccard': -1, 'filled': {'56': 32.259, '60': 33.374, '29': 33.638}}",,,,,
68,"{'items': ['5', '29', '58'], 'found': '58', 'support': 2963, 'level': 2, 'jaccard': -1, 'filled': 0}","{'items': ['5', '29', '58'], 'found': '58', 'support': 2969, 'level': 2, 'jaccard': -1, 'filled': {'5': 31.885, '29': 33.638, '58': 33.742}}",,,,,
69,"{'items': ['62', '36', '58'], 'found': '58', 'support': 2963, 'level': 2, 'jaccard': -1, 'filled': 0}","{'items': ['5', '52', '58'], 'found': '58', 'support': 2969, 'level': 2, 'jaccard': -1, 'filled': {'5': 31.885, '52': 33.69, '58': 33.742}}",,,,,
70,"{'items': ['7', '36', '52'], 'found': '52', 'support': 2968, 'level': 2, 'jaccard': -1, 'filled': 0}","{'items': ['7', '36', '52'], 'found': '52', 'support': 2971, 'level': 2, 'jaccard': -1, 'filled': {'7': 32.717, '36': 32.929, '52': 33.69}}",,,,,
71,"{'items': ['56', '60', '52'], 'found': '52', 'support': 2969, 'level': 2, 'jaccard': -1, 'filled': 0}","{'items': ['48', '36', '29'], 'found': '29', 'support': 2972, 'level': 2, 'jaccard': -1, 'filled': {'48': 32.194, '36': 32.929, '29': 33.638}}",,,,,
72,"{'items': ['48', '36', '29'], 'found': '29', 'support': 2972, 'level': 2, 'jaccard': -1, 'filled': 0}","{'items': ['56', '60', '52'], 'found': '52', 'support': 2972, 'level': 2, 'jaccard': -1, 'filled': {'56': 32.259, '60': 33.374, '52': 33.69}}",,,,,
73,"{'items': ['48', '40', '29'], 'found': '29', 'support': 2972, 'level': 2, 'jaccard': -1, 'filled': 0}","{'items': ['7', '36', '29'], 'found': '29', 'support': 2972, 'level': 2, 'jaccard': -1, 'filled': {'7': 32.717, '36': 32.929, '29': 33.638}}",,,,,
74,"{'items': ['7', '36', '29'], 'found': '29', 'support': 2972, 'level': 2, 'jaccard': -1, 'filled': 0}","{'items': ['48', '40', '29'], 'found': '29', 'support': 2973, 'level': 2, 'jaccard': -1, 'filled': {'48': 32.194, '40': 33.522, '29': 33.638}}",,,,,
75,"{'items': ['48', '60', '29'], 'found': '29', 'support': 2973, 'level': 2, 'jaccard': -1, 'filled': 0}","{'items': ['48', '60', '29'], 'found': '29', 'support': 2975, 'level': 2, 'jaccard': -1, 'filled': {'48': 32.194, '60': 33.374, '29': 33.638}}",,,,,
76,"{'items': ['56', '60', '58'], 'found': '58', 'support': 2973, 'level': 2, 'jaccard': -1, 'filled': 0}","{'items': ['56', '60', '58'], 'found': '58', 'support': 2975, 'level': 2, 'jaccard': -1, 'filled': {'56': 32.259, '60': 33.374, '58': 33.742}}",,,,,
77,"{'items': ['34', '60', '40'], 'found': '40', 'support': 2973, 'level': 2, 'jaccard': -1, 'filled': 0}","{'items': ['34', '60', '40'], 'found': '40', 'support': 2977, 'level': 2, 'jaccard': -1, 'filled': {'34': 32.433, '60': 33.374, '40': 33.522}}",,,,,
78,"{'items': ['48', '60', '52'], 'found': '52', 'support': 2975, 'level': 2, 'jaccard': -1, 'filled': 0}","{'items': ['7', '36', '58'], 'found': '58', 'support': 2977, 'level': 2, 'jaccard': -1, 'filled': {'7': 32.717, '36': 32.929, '58': 33.742}}",,,,,
79,"{'items': ['48', '36', '52'], 'found': '52', 'support': 2976, 'level': 2, 'jaccard': -1, 'filled': 0}","{'items': ['48', '36', '52'], 'found': '52', 'support': 2978, 'level': 2, 'jaccard': -1, 'filled': {'48': 32.194, '36': 32.929, '52': 33.69}}",,,,,
80,"{'items': ['48', '40', '52'], 'found': '52', 'support': 2976, 'level': 2, 'jaccard': -1, 'filled': 0}","{'items': ['48', '60', '52'], 'found': '52', 'support': 2979, 'level': 2, 'jaccard': -1, 'filled': {'48': 32.194, '60': 33.374, '52': 33.69}}",,,,,
81,"{'items': ['7', '36', '58'], 'found': '58', 'support': 2978, 'level': 2, 'jaccard': -1, 'filled': 0}","{'items': ['48', '40', '52'], 'found': '52', 'support': 2979, 'level': 2, 'jaccard': -1, 'filled': {'48': 32.194, '40': 33.522, '52': 33.69}}",,,,,
82,"{'items': ['56', '40', '29'], 'found': '29', 'support': 2981, 'level': 2, 'jaccard': -1, 'filled': 0}","{'items': ['56', '40', '29'], 'found': '29', 'support': 2982, 'level': 2, 'jaccard': -1, 'filled': {'56': 32.259, '40': 33.522, '29': 33.638}}",,,,,
83,"{'items': ['48', '60', '58'], 'found': '58', 'support': 2985, 'level': 2, 'jaccard': -1, 'filled': 0}","{'items': ['48', '36', '58'], 'found': '58', 'support': 2984, 'level': 2, 'jaccard': -1, 'filled': {'48': 32.194, '36': 32.929, '58': 33.742}}",,,,,
84,"{'items': ['48', '36', '58'], 'found': '58', 'support': 2986, 'level': 2, 'jaccard': -1, 'filled': 0}","{'items': ['48', '60', '58'], 'found': '58', 'support': 2985, 'level': 2, 'jaccard': -1, 'filled': {'48': 32.194, '60': 33.374, '58': 33.742}}",,,,,
85,"{'items': ['48', '40', '58'], 'found': '58', 'support': 2986, 'level': 2, 'jaccard': -1, 'filled': 0}","{'items': ['48', '40', '58'], 'found': '58', 'support': 2985, 'level': 2, 'jaccard': -1, 'filled': {'48': 32.194, '40': 33.522, '58': 33.742}}",,,,,
86,"{'items': ['66', '40', '52'], 'found': '52', 'support': 2986, 'level': 2, 'jaccard': -1, 'filled': 0}","{'items': ['66', '40', '52'], 'found': '52', 'support': 2986, 'level': 2, 'jaccard': -1, 'filled': {'66': 32.246, '40': 33.522, '52': 33.69}}",,,,,
87,"{'items': ['34', '60', '52'], 'found': '52', 'support': 2986, 'level': 2, 'jaccard': -1, 'filled': 0}","{'items': ['66', '40', '29'], 'found': '29', 'support': 2987, 'level': 2, 'jaccard': -1, 'filled': {'66': 32.246, '40': 33.522, '29': 33.638}}",,,,,
88,"{'items': ['48', '29', '52'], 'found': '52', 'support': 2987, 'level': 2, 'jaccard': -1, 'filled': 0}","{'items': ['56', '40', '52'], 'found': '52', 'support': 2991, 'level': 2, 'jaccard': -1, 'filled': {'56': 32.259, '40': 33.522, '52': 33.69}}",,,,,
89,"{'items': ['66', '40', '29'], 'found': '29', 'support': 2989, 'level': 2, 'jaccard': -1, 'filled': 0}","{'items': ['48', '29', '52'], 'found': '52', 'support': 2992, 'level': 2, 'jaccard': -1, 'filled': {'48': 32.194, '29': 33.638, '52': 33.69}}",,,,,
90,"{'items': ['56', '40', '52'], 'found': '52', 'support': 2991, 'level': 2, 'jaccard': -1, 'filled': 0}","{'items': ['66', '40', '58'], 'found': '58', 'support': 2992, 'level': 2, 'jaccard': -1, 'filled': {'66': 32.246, '40': 33.522, '58': 33.742}}",,,,,
91,"{'items': ['34', '60', '29'], 'found': '29', 'support': 2991, 'level': 2, 'jaccard': -1, 'filled': 0}","{'items': ['34', '60', '52'], 'found': '52', 'support': 2993, 'level': 2, 'jaccard': -1, 'filled': {'34': 32.433, '60': 33.374, '52': 33.69}}",,,,,
92,"{'items': ['34', '60', '58'], 'found': '58', 'support': 2994, 'level': 2, 'jaccard': -1, 'filled': 0}","{'items': ['66', '60', '40'], 'found': '40', 'support': 2994, 'level': 2, 'jaccard': -1, 'filled': {'66': 32.246, '60': 33.374, '40': 33.522}}",,,,,
93,"{'items': ['56', '40', '58'], 'found': '58', 'support': 2995, 'level': 2, 'jaccard': -1, 'filled': 0}","{'items': ['56', '40', '58'], 'found': '58', 'support': 2994, 'level': 2, 'jaccard': -1, 'filled': {'56': 32.259, '40': 33.522, '58': 33.742}}",,,,,
94,"{'items': ['66', '40', '58'], 'found': '58', 'support': 2996, 'level': 2, 'jaccard': -1, 'filled': 0}","{'items': ['34', '60', '29'], 'found': '29', 'support': 2994, 'level': 2, 'jaccard': -1, 'filled': {'34': 32.433, '60': 33.374, '29': 33.638}}",,,,,
95,"{'items': ['48', '29', '58'], 'found': '58', 'support': 2997, 'level': 2, 'jaccard': -1, 'filled': 0}","{'items': ['34', '60', '58'], 'found': '58', 'support': 2997, 'level': 2, 'jaccard': -1, 'filled': {'34': 32.433, '60': 33.374, '58': 33.742}}",,,,,
96,"{'items': ['66', '60', '40'], 'found': '40', 'support': 2997, 'level': 2, 'jaccard': -1, 'filled': 0}","{'items': ['48', '29', '58'], 'found': '58', 'support': 2998, 'level': 2, 'jaccard': -1, 'filled': {'48': 32.194, '29': 33.638, '58': 33.742}}",,,,,
97,"{'items': ['62', '60', '40'], 'found': '40', 'support': 2999, 'level': 2, 'jaccard': -1, 'filled': 0}","{'items': ['62', '60', '40'], 'found': '40', 'support': 3000, 'level': 2, 'jaccard': -1, 'filled': {'62': 32.601, '60': 33.374, '40': 33.522}}",,,,,
98,"{'items': ['48', '52', '58'], 'found': '58', 'support': 3001, 'level': 2, 'jaccard': -1, 'filled': 0}","{'items': ['56', '29', '52'], 'found': '52', 'support': 3003, 'level': 2, 'jaccard': -1, 'filled': {'56': 32.259, '29': 33.638, '52': 33.69}}",,,,,
99,"{'items': ['56', '29', '52'], 'found': '52', 'support': 3001, 'level': 2, 'jaccard': -1, 'filled': 0}","{'items': ['48', '52', '58'], 'found': '58', 'support': 3004, 'level': 2, 'jaccard': -1, 'filled': {'48': 32.194, '52': 33.69, '58': 33.742}}",,,,,
100,"{'items': ['62', '60', '29'], 'found': '29', 'support': 3001, 'level': 2, 'jaccard': -1, 'filled': 0}","{'items': ['66', '29', '52'], 'found': '52', 'support': 3005, 'level': 2, 'jaccard': -1, 'filled': {'66': 32.246, '29': 33.638, '52': 33.69}}",,,,,
101,"{'items': ['66', '29', '52'], 'found': '52', 'support': 3002, 'level': 2, 'jaccard': -1, 'filled': 0}","{'items': ['56', '29', '58'], 'found': '58', 'support': 3006, 'level': 2, 'jaccard': -1, 'filled': {'56': 32.259, '29': 33.638, '58': 33.742}}",,,,,
102,"{'items': ['62', '60', '52'], 'found': '52', 'support': 3003, 'level': 2, 'jaccard': -1, 'filled': 0}","{'items': ['62', '60', '29'], 'found': '29', 'support': 3006, 'level': 2, 'jaccard': -1, 'filled': {'62': 32.601, '60': 33.374, '29': 33.638}}",,,,,
103,"{'items': ['56', '29', '58'], 'found': '58', 'support': 3005, 'level': 2, 'jaccard': -1, 'filled': 0}","{'items': ['7', '60', '40'], 'found': '40', 'support': 3006, 'level': 2, 'jaccard': -1, 'filled': {'7': 32.717, '60': 33.374, '40': 33.522}}",,,,,
104,"{'items': ['7', '60', '40'], 'found': '40', 'support': 3006, 'level': 2, 'jaccard': -1, 'filled': 0}","{'items': ['62', '60', '52'], 'found': '52', 'support': 3009, 'level': 2, 'jaccard': -1, 'filled': {'62': 32.601, '60': 33.374, '52': 33.69}}",,,,,
105,"{'items': ['34', '40', '52'], 'found': '52', 'support': 3008, 'level': 2, 'jaccard': -1, 'filled': 0}","{'items': ['66', '52', '58'], 'found': '58', 'support': 3010, 'level': 2, 'jaccard': -1, 'filled': {'66': 32.246, '52': 33.69, '58': 33.742}}",,,,,
106,"{'items': ['66', '52', '58'], 'found': '58', 'support': 3009, 'level': 2, 'jaccard': -1, 'filled': 0}","{'items': ['66', '60', '52'], 'found': '52', 'support': 3011, 'level': 2, 'jaccard': -1, 'filled': {'66': 32.246, '60': 33.374, '52': 33.69}}",,,,,
107,"{'items': ['66', '60', '52'], 'found': '52', 'support': 3010, 'level': 2, 'jaccard': -1, 'filled': 0}","{'items': ['66', '29', '58'], 'found': '58', 'support': 3011, 'level': 2, 'jaccard': -1, 'filled': {'66': 32.246, '29': 33.638, '58': 33.742}}",,,,,
108,"{'items': ['66', '29', '58'], 'found': '58', 'support': 3012, 'level': 2, 'jaccard': -1, 'filled': 0}","{'items': ['34', '40', '52'], 'found': '52', 'support': 3011, 'level': 2, 'jaccard': -1, 'filled': {'34': 32.433, '40': 33.522, '52': 33.69}}",,,,,
109,"{'items': ['66', '60', '29'], 'found': '29', 'support': 3013, 'level': 2, 'jaccard': -1, 'filled': 0}","{'items': ['66', '60', '29'], 'found': '29', 'support': 3012, 'level': 2, 'jaccard': -1, 'filled': {'66': 32.246, '60': 33.374, '29': 33.638}}",,,,,
110,"{'items': ['34', '40', '29'], 'found': '29', 'support': 3013, 'level': 2, 'jaccard': -1, 'filled': 0}","{'items': ['34', '40', '29'], 'found': '29', 'support': 3013, 'level': 2, 'jaccard': -1, 'filled': {'34': 32.433, '40': 33.522, '29': 33.638}}",,,,,
111,"{'items': ['62', '60', '58'], 'found': '58', 'support': 3014, 'level': 2, 'jaccard': -1, 'filled': 0}","{'items': ['56', '52', '58'], 'found': '58', 'support': 3014, 'level': 2, 'jaccard': -1, 'filled': {'56': 32.259, '52': 33.69, '58': 33.742}}",,,,,
112,"{'items': ['56', '52', '58'], 'found': '58', 'support': 3015, 'level': 2, 'jaccard': -1, 'filled': 0}","{'items': ['34', '40', '58'], 'found': '58', 'support': 3016, 'level': 2, 'jaccard': -1, 'filled': {'34': 32.433, '40': 33.522, '58': 33.742}}",,,,,
113,"{'items': ['34', '40', '58'], 'found': '58', 'support': 3016, 'level': 2, 'jaccard': -1, 'filled': 0}","{'items': ['66', '60', '58'], 'found': '58', 'support': 3017, 'level': 2, 'jaccard': -1, 'filled': {'66': 32.246, '60': 33.374, '58': 33.742}}",,,,,
114,"{'items': ['66', '60', '58'], 'found': '58', 'support': 3020, 'level': 2, 'jaccard': -1, 'filled': 0}","{'items': ['62', '60', '58'], 'found': '58', 'support': 3017, 'level': 2, 'jaccard': -1, 'filled': {'62': 32.601, '60': 33.374, '58': 33.742}}",,,,,
115,"{'items': ['7', '60', '52'], 'found': '52', 'support': 3020, 'level': 2, 'jaccard': -1, 'filled': 0}","{'items': ['7', '60', '52'], 'found': '52', 'support': 3024, 'level': 2, 'jaccard': -1, 'filled': {'7': 32.717, '60': 33.374, '52': 33.69}}",,,,,
116,"{'items': ['7', '60', '29'], 'found': '29', 'support': 3024, 'level': 2, 'jaccard': -1, 'filled': 0}","{'items': ['7', '60', '29'], 'found': '29', 'support': 3025, 'level': 2, 'jaccard': -1, 'filled': {'7': 32.717, '60': 33.374, '29': 33.638}}",,,,,
117,"{'items': ['34', '29', '52'], 'found': '52', 'support': 3027, 'level': 2, 'jaccard': -1, 'filled': 0}","{'items': ['36', '60', '40'], 'found': '40', 'support': 3028, 'level': 2, 'jaccard': -1, 'filled': {'36': 32.929, '60': 33.374, '40': 33.522}}",,,,,
118,"{'items': ['36', '60', '40'], 'found': '40', 'support': 3027, 'level': 2, 'jaccard': -1, 'filled': 0}","{'items': ['34', '29', '52'], 'found': '52', 'support': 3030, 'level': 2, 'jaccard': -1, 'filled': {'34': 32.433, '29': 33.638, '52': 33.69}}",,,,,
119,"{'items': ['34', '52', '58'], 'found': '58', 'support': 3030, 'level': 2, 'jaccard': -1, 'filled': 0}","{'items': ['62', '40', '29'], 'found': '29', 'support': 3030, 'level': 2, 'jaccard': -1, 'filled': {'62': 32.601, '40': 33.522, '29': 33.638}}",,,,,
120,"{'items': ['62', '40', '29'], 'found': '29', 'support': 3030, 'level': 2, 'jaccard': -1, 'filled': 0}","{'items': ['7', '60', '58'], 'found': '58', 'support': 3030, 'level': 2, 'jaccard': -1, 'filled': {'7': 32.717, '60': 33.374, '58': 33.742}}",,,,,
121,"{'items': ['7', '60', '58'], 'found': '58', 'support': 3030, 'level': 2, 'jaccard': -1, 'filled': 0}","{'items': ['34', '52', '58'], 'found': '58', 'support': 3033, 'level': 2, 'jaccard': -1, 'filled': {'34': 32.433, '52': 33.69, '58': 33.742}}",,,,,
122,"{'items': ['62', '40', '52'], 'found': '52', 'support': 3034, 'level': 2, 'jaccard': -1, 'filled': 0}","{'items': ['34', '29', '58'], 'found': '58', 'support': 3034, 'level': 2, 'jaccard': -1, 'filled': {'34': 32.433, '29': 33.638, '58': 33.742}}",,,,,
123,"{'items': ['62', '29', '52'], 'found': '52', 'support': 3034, 'level': 2, 'jaccard': -1, 'filled': 0}","{'items': ['62', '40', '52'], 'found': '52', 'support': 3036, 'level': 2, 'jaccard': -1, 'filled': {'62': 32.601, '40': 33.522, '52': 33.69}}",,,,,
124,"{'items': ['34', '29', '58'], 'found': '58', 'support': 3035, 'level': 2, 'jaccard': -1, 'filled': 0}","{'items': ['62', '29', '52'], 'found': '52', 'support': 3039, 'level': 2, 'jaccard': -1, 'filled': {'62': 32.601, '29': 33.638, '52': 33.69}}",,,,,
125,"{'items': ['7', '40', '52'], 'found': '52', 'support': 3039, 'level': 2, 'jaccard': -1, 'filled': 0}","{'items': ['7', '40', '29'], 'found': '29', 'support': 3039, 'level': 2, 'jaccard': -1, 'filled': {'7': 32.717, '40': 33.522, '29': 33.638}}",,,,,
126,"{'items': ['36', '60', '29'], 'found': '29', 'support': 3039, 'level': 2, 'jaccard': -1, 'filled': 0}","{'items': ['7', '40', '52'], 'found': '52', 'support': 3039, 'level': 2, 'jaccard': -1, 'filled': {'7': 32.717, '40': 33.522, '52': 33.69}}",,,,,
127,"{'items': ['36', '60', '52'], 'found': '52', 'support': 3041, 'level': 2, 'jaccard': -1, 'filled': 0}","{'items': ['36', '60', '29'], 'found': '29', 'support': 3042, 'level': 2, 'jaccard': -1, 'filled': {'36': 32.929, '60': 33.374, '29': 33.638}}",,,,,
128,"{'items': ['7', '40', '29'], 'found': '29', 'support': 3043, 'level': 2, 'jaccard': -1, 'filled': 0}","{'items': ['62', '40', '58'], 'found': '58', 'support': 3043, 'level': 2, 'jaccard': -1, 'filled': {'62': 32.601, '40': 33.522, '58': 33.742}}",,,,,
129,"{'items': ['62', '40', '58'], 'found': '58', 'support': 3045, 'level': 2, 'jaccard': -1, 'filled': 0}","{'items': ['7', '40', '58'], 'found': '58', 'support': 3045, 'level': 2, 'jaccard': -1, 'filled': {'7': 32.717, '40': 33.522, '58': 33.742}}",,,,,
130,"{'items': ['62', '29', '58'], 'found': '58', 'support': 3045, 'level': 2, 'jaccard': -1, 'filled': 0}","{'items': ['62', '29', '58'], 'found': '58', 'support': 3046, 'level': 2, 'jaccard': -1, 'filled': {'62': 32.601, '29': 33.638, '58': 33.742}}",,,,,
131,"{'items': ['62', '52', '58'], 'found': '58', 'support': 3049, 'level': 2, 'jaccard': -1, 'filled': 0}","{'items': ['36', '60', '52'], 'found': '52', 'support': 3046, 'level': 2, 'jaccard': -1, 'filled': {'36': 32.929, '60': 33.374, '52': 33.69}}",,,,,
132,"{'items': ['7', '40', '58'], 'found': '58', 'support': 3049, 'level': 2, 'jaccard': -1, 'filled': 0}","{'items': ['62', '52', '58'], 'found': '58', 'support': 3052, 'level': 2, 'jaccard': -1, 'filled': {'62': 32.601, '52': 33.69, '58': 33.742}}",,,,,
133,"{'items': ['36', '60', '58'], 'found': '58', 'support': 3051, 'level': 2, 'jaccard': -1, 'filled': 0}","{'items': ['36', '60', '58'], 'found': '58', 'support': 3052, 'level': 2, 'jaccard': -1, 'filled': {'36': 32.929, '60': 33.374, '58': 33.742}}",,,,,
134,"{'items': ['7', '29', '52'], 'found': '52', 'support': 3058, 'level': 2, 'jaccard': -1, 'filled': 0}","{'items': ['36', '40', '29'], 'found': '29', 'support': 3057, 'level': 2, 'jaccard': -1, 'filled': {'36': 32.929, '40': 33.522, '29': 33.638}}",,,,,
135,"{'items': ['36', '40', '29'], 'found': '29', 'support': 3058, 'level': 2, 'jaccard': -1, 'filled': 0}","{'items': ['7', '29', '52'], 'found': '52', 'support': 3059, 'level': 2, 'jaccard': -1, 'filled': {'7': 32.717, '29': 33.638, '52': 33.69}}",,,,,
136,"{'items': ['36', '40', '52'], 'found': '52', 'support': 3062, 'level': 2, 'jaccard': -1, 'filled': 0}","{'items': ['36', '40', '52'], 'found': '52', 'support': 3063, 'level': 2, 'jaccard': -1, 'filled': {'36': 32.929, '40': 33.522, '52': 33.69}}",,,,,
137,"{'items': ['7', '52', '58'], 'found': '58', 'support': 3064, 'level': 2, 'jaccard': -1, 'filled': 0}","{'items': ['7', '52', '58'], 'found': '58', 'support': 3064, 'level': 2, 'jaccard': -1, 'filled': {'7': 32.717, '52': 33.69, '58': 33.742}}",,,,,
138,"{'items': ['7', '29', '58'], 'found': '58', 'support': 3068, 'level': 2, 'jaccard': -1, 'filled': 0}","{'items': ['7', '29', '58'], 'found': '58', 'support': 3065, 'level': 2, 'jaccard': -1, 'filled': {'7': 32.717, '29': 33.638, '58': 33.742}}",,,,,
139,"{'items': ['36', '40', '58'], 'found': '58', 'support': 3072, 'level': 2, 'jaccard': -1, 'filled': 0}","{'items': ['36', '40', '58'], 'found': '58', 'support': 3069, 'level': 2, 'jaccard': -1, 'filled': {'36': 32.929, '40': 33.522, '58': 33.742}}",,,,,
140,"{'items': ['36', '29', '52'], 'found': '52', 'support': 3073, 'level': 2, 'jaccard': -1, 'filled': 0}","{'items': ['36', '29', '52'], 'found': '52', 'support': 3077, 'level': 2, 'jaccard': -1, 'filled': {'36': 32.929, '29': 33.638, '52': 33.69}}",,,,,
141,"{'items': ['36', '29', '58'], 'found': '58', 'support': 3083, 'level': 2, 'jaccard': -1, 'filled': 0}","{'items': ['36', '29', '58'], 'found': '58', 'support': 3083, 'level': 2, 'jaccard': -1, 'filled': {'36': 32.929, '29': 33.638, '58': 33.742}}",,,,,
142,"{'items': ['36', '52', '58'], 'found': '58', 'support': 3087, 'level': 2, 'jaccard': -1, 'filled': 0}","{'items': ['36', '52', '58'], 'found': '58', 'support': 3088, 'level': 2, 'jaccard': -1, 'filled': {'36': 32.929, '52': 33.69, '58': 33.742}}",,,,,
143,"{'items': ['60', '40', '29'], 'found': '29', 'support': 3111, 'level': 2, 'jaccard': -1, 'filled': 0}","{'items': ['60', '40', '29'], 'found': '29', 'support': 3112, 'level': 2, 'jaccard': -1, 'filled': {'60': 33.374, '40': 33.522, '29': 33.638}}",,,,,
144,"{'items': ['60', '40', '52'], 'found': '52', 'support': 3113, 'level': 2, 'jaccard': -1, 'filled': 0}","{'items': ['60', '40', '52'], 'found': '52', 'support': 3115, 'level': 2, 'jaccard': -1, 'filled': {'60': 33.374, '40': 33.522, '52': 33.69}}",,,,,
145,"{'items': ['60', '40', '58'], 'found': '58', 'support': 3123, 'level': 2, 'jaccard': -1, 'filled': 0}","{'items': ['60', '40', '58'], 'found': '58', 'support': 3121, 'level': 2, 'jaccard': -1, 'filled': {'60': 33.374, '40': 33.522, '58': 33.742}}",,,,,
146,"{'items': ['60', '29', '52'], 'found': '52', 'support': 3125, 'level': 2, 'jaccard': -1, 'filled': 0}","{'items': ['60', '29', '52'], 'found': '52', 'support': 3130, 'level': 2, 'jaccard': -1, 'filled': {'60': 33.374, '29': 33.638, '52': 33.69}}",,,,,
147,"{'items': ['60', '29', '58'], 'found': '58', 'support': 3135, 'level': 2, 'jaccard': -1, 'filled': 0}","{'items': ['60', '29', '58'], 'found': '58', 'support': 3136, 'level': 2, 'jaccard': -1, 'filled': {'60': 33.374, '29': 33.638, '58': 33.742}}",,,,,
148,"{'items': ['60', '52', '58'], 'found': '58', 'support': 3137, 'level': 2, 'jaccard': -1, 'filled': 0}","{'items': ['60', '52', '58'], 'found': '58', 'support': 3140, 'level': 2, 'jaccard': -1, 'filled': {'60': 33.374, '52': 33.69, '58': 33.742}}",,,,,
149,"{'items': ['40', '29', '52'], 'found': '52', 'support': 3144, 'level': 2, 'jaccard': -1, 'filled': 0}","{'items': ['40', '29', '52'], 'found': '52', 'support': 3145, 'level': 2, 'jaccard': -1, 'filled': {'40': 33.522, '29': 33.638, '52': 33.69}}",,,,,
150,"{'items': ['40', '29', '58'], 'found': '58', 'support': 3154, 'level': 2, 'jaccard': -1, 'filled': 0}","{'items': ['40', '29', '58'], 'found': '58', 'support': 3151, 'level': 2, 'jaccard': -1, 'filled': {'40': 33.522, '29': 33.638, '58': 33.742}}",,,,,
151,"{'items': ['40', '52', '58'], 'found': '58', 'support': 3158, 'level': 2, 'jaccard': -1, 'filled': 0}","{'items': ['40', '52', '58'], 'found': '58', 'support': 3157, 'level': 2, 'jaccard': -1, 'filled': {'40': 33.522, '52': 33.69, '58': 33.742}}",,,,,
152,"{'items': ['29', '52', '58'], 'found': '58', 'support': 3169, 'level': 2, 'jaccard': -1, 'filled': 0}","{'items': ['29', '52', '58'], 'found': '58', 'support': 3171, 'level': 2, 'jaccard': -1, 'filled': {'29': 33.638, '52': 33.69, '58': 33.742}}",,,,,
153,"{'items': ['48', '36', '40', '58'], 'found': '58', 'support': 2960, 'level': 3, 'jaccard': -1, 'filled': 0}","{'items': ['5', '29', '52', '58'], 'found': '58', 'support': 2961, 'level': 3, 'jaccard': -1, 'filled': {'5': 31.885, '29': 33.638, '52': 33.69, '58': 33.742}}",,,,,
154,"{'items': ['48', '60', '40', '58'], 'found': '58', 'support': 2960, 'level': 3, 'jaccard': -1, 'filled': 0}","{'items': ['56', '60', '29', '52'], 'found': '52', 'support': 2961, 'level': 3, 'jaccard': -1, 'filled': {'56': 32.259, '60': 33.374, '29': 33.638, '52': 33.69}}",,,,,
155,"{'items': ['56', '60', '29', '58'], 'found': '58', 'support': 2960, 'level': 3, 'jaccard': -1, 'filled': 0}","{'items': ['56', '60', '29', '58'], 'found': '58', 'support': 2964, 'level': 3, 'jaccard': -1, 'filled': {'56': 32.259, '60': 33.374, '29': 33.638, '58': 33.742}}",,,,,
156,"{'items': ['48', '36', '29', '52'], 'found': '52', 'support': 2961, 'level': 3, 'jaccard': -1, 'filled': 0}","{'items': ['7', '36', '29', '52'], 'found': '52', 'support': 2964, 'level': 3, 'jaccard': -1, 'filled': {'7': 32.717, '36': 32.929, '29': 33.638, '52': 33.69}}",,,,,
157,"{'items': ['48', '40', '29', '52'], 'found': '52', 'support': 2961, 'level': 3, 'jaccard': -1, 'filled': 0}","{'items': ['48', '36', '29', '52'], 'found': '52', 'support': 2965, 'level': 3, 'jaccard': -1, 'filled': {'48': 32.194, '36': 32.929, '29': 33.638, '52': 33.69}}",,,,,
158,"{'items': ['7', '36', '29', '52'], 'found': '52', 'support': 2961, 'level': 3, 'jaccard': -1, 'filled': 0}","{'items': ['48', '40', '29', '52'], 'found': '52', 'support': 2966, 'level': 3, 'jaccard': -1, 'filled': {'48': 32.194, '40': 33.522, '29': 33.638, '52': 33.69}}",,,,,
159,"{'items': ['48', '60', '29', '52'], 'found': '52', 'support': 2962, 'level': 3, 'jaccard': -1, 'filled': 0}","{'items': ['48', '60', '29', '52'], 'found': '52', 'support': 2968, 'level': 3, 'jaccard': -1, 'filled': {'48': 32.194, '60': 33.374, '29': 33.638, '52': 33.69}}",,,,,
160,"{'items': ['34', '60', '40', '52'], 'found': '52', 'support': 2964, 'level': 3, 'jaccard': -1, 'filled': 0}","{'items': ['7', '36', '29', '58'], 'found': '58', 'support': 2970, 'level': 3, 'jaccard': -1, 'filled': {'7': 32.717, '36': 32.929, '29': 33.638, '58': 33.742}}",,,,,
161,"{'items': ['7', '36', '52', '58'], 'found': '58', 'support': 2967, 'level': 3, 'jaccard': -1, 'filled': 0}","{'items': ['7', '36', '52', '58'], 'found': '58', 'support': 2970, 'level': 3, 'jaccard': -1, 'filled': {'7': 32.717, '36': 32.929, '52': 33.69, '58': 33.742}}",,,,,
162,"{'items': ['56', '60', '52', '58'], 'found': '58', 'support': 2968, 'level': 3, 'jaccard': -1, 'filled': 0}","{'items': ['48', '36', '29', '58'], 'found': '58', 'support': 2971, 'level': 3, 'jaccard': -1, 'filled': {'48': 32.194, '36': 32.929, '29': 33.638, '58': 33.742}}",,,,,
163,"{'items': ['34', '60', '40', '29'], 'found': '29', 'support': 2969, 'level': 3, 'jaccard': -1, 'filled': 0}","{'items': ['56', '60', '52', '58'], 'found': '58', 'support': 2971, 'level': 3, 'jaccard': -1, 'filled': {'56': 32.259, '60': 33.374, '52': 33.69, '58': 33.742}}",,,,,
164,"{'items': ['48', '36', '29', '58'], 'found': '58', 'support': 2971, 'level': 3, 'jaccard': -1, 'filled': 0}","{'items': ['34', '60', '40', '52'], 'found': '52', 'support': 2971, 'level': 3, 'jaccard': -1, 'filled': {'34': 32.433, '60': 33.374, '40': 33.522, '52': 33.69}}",,,,,
165,"{'items': ['48', '40', '29', '58'], 'found': '58', 'support': 2971, 'level': 3, 'jaccard': -1, 'filled': 0}","{'items': ['48', '40', '29', '58'], 'found': '58', 'support': 2972, 'level': 3, 'jaccard': -1, 'filled': {'48': 32.194, '40': 33.522, '29': 33.638, '58': 33.742}}",,,,,
166,"{'items': ['7', '36', '29', '58'], 'found': '58', 'support': 2971, 'level': 3, 'jaccard': -1, 'filled': 0}","{'items': ['34', '60', '40', '29'], 'found': '29', 'support': 2972, 'level': 3, 'jaccard': -1, 'filled': {'34': 32.433, '60': 33.374, '40': 33.522, '29': 33.638}}",,,,,
167,"{'items': ['48', '60', '29', '58'], 'found': '58', 'support': 2972, 'level': 3, 'jaccard': -1, 'filled': 0}","{'items': ['48', '60', '29', '58'], 'found': '58', 'support': 2974, 'level': 3, 'jaccard': -1, 'filled': {'48': 32.194, '60': 33.374, '29': 33.638, '58': 33.742}}",,,,,
168,"{'items': ['34', '60', '40', '58'], 'found': '58', 'support': 2972, 'level': 3, 'jaccard': -1, 'filled': 0}","{'items': ['34', '60', '40', '58'], 'found': '58', 'support': 2975, 'level': 3, 'jaccard': -1, 'filled': {'34': 32.433, '60': 33.374, '40': 33.522, '58': 33.742}}",,,,,
169,"{'items': ['48', '60', '52', '58'], 'found': '58', 'support': 2974, 'level': 3, 'jaccard': -1, 'filled': 0}","{'items': ['48', '36', '52', '58'], 'found': '58', 'support': 2977, 'level': 3, 'jaccard': -1, 'filled': {'48': 32.194, '36': 32.929, '52': 33.69, '58': 33.742}}",,,,,
170,"{'items': ['48', '36', '52', '58'], 'found': '58', 'support': 2975, 'level': 3, 'jaccard': -1, 'filled': 0}","{'items': ['48', '60', '52', '58'], 'found': '58', 'support': 2978, 'level': 3, 'jaccard': -1, 'filled': {'48': 32.194, '60': 33.374, '52': 33.69, '58': 33.742}}",,,,,
171,"{'items': ['48', '40', '52', '58'], 'found': '58', 'support': 2975, 'level': 3, 'jaccard': -1, 'filled': 0}","{'items': ['48', '40', '52', '58'], 'found': '58', 'support': 2978, 'level': 3, 'jaccard': -1, 'filled': {'48': 32.194, '40': 33.522, '52': 33.69, '58': 33.742}}",,,,,
172,"{'items': ['56', '40', '29', '52'], 'found': '52', 'support': 2976, 'level': 3, 'jaccard': -1, 'filled': 0}","{'items': ['56', '40', '29', '52'], 'found': '52', 'support': 2978, 'level': 3, 'jaccard': -1, 'filled': {'56': 32.259, '40': 33.522, '29': 33.638, '52': 33.69}}",,,,,
173,"{'items': ['66', '40', '29', '52'], 'found': '52', 'support': 2978, 'level': 3, 'jaccard': -1, 'filled': 0}","{'items': ['66', '40', '29', '52'], 'found': '52', 'support': 2980, 'level': 3, 'jaccard': -1, 'filled': {'66': 32.246, '40': 33.522, '29': 33.638, '52': 33.69}}",,,,,
174,"{'items': ['56', '40', '29', '58'], 'found': '58', 'support': 2980, 'level': 3, 'jaccard': -1, 'filled': 0}","{'items': ['56', '40', '29', '58'], 'found': '58', 'support': 2981, 'level': 3, 'jaccard': -1, 'filled': {'56': 32.259, '40': 33.522, '29': 33.638, '58': 33.742}}",,,,,
175,"{'items': ['34', '60', '29', '52'], 'found': '52', 'support': 2982, 'level': 3, 'jaccard': -1, 'filled': 0}","{'items': ['66', '40', '52', '58'], 'found': '58', 'support': 2985, 'level': 3, 'jaccard': -1, 'filled': {'66': 32.246, '40': 33.522, '52': 33.69, '58': 33.742}}",,,,,
176,"{'items': ['66', '40', '52', '58'], 'found': '58', 'support': 2985, 'level': 3, 'jaccard': -1, 'filled': 0}","{'items': ['66', '60', '40', '52'], 'found': '52', 'support': 2986, 'level': 3, 'jaccard': -1, 'filled': {'66': 32.246, '60': 33.374, '40': 33.522, '52': 33.69}}",,,,,
177,"{'items': ['34', '60', '52', '58'], 'found': '58', 'support': 2985, 'level': 3, 'jaccard': -1, 'filled': 0}","{'items': ['66', '40', '29', '58'], 'found': '58', 'support': 2986, 'level': 3, 'jaccard': -1, 'filled': {'66': 32.246, '40': 33.522, '29': 33.638, '58': 33.742}}",,,,,
178,"{'items': ['48', '29', '52', '58'], 'found': '58', 'support': 2986, 'level': 3, 'jaccard': -1, 'filled': 0}","{'items': ['66', '60', '40', '29'], 'found': '29', 'support': 2987, 'level': 3, 'jaccard': -1, 'filled': {'66': 32.246, '60': 33.374, '40': 33.522, '29': 33.638}}",,,,,
179,"{'items': ['66', '60', '40', '52'], 'found': '52', 'support': 2986, 'level': 3, 'jaccard': -1, 'filled': 0}","{'items': ['56', '40', '52', '58'], 'found': '58', 'support': 2989, 'level': 3, 'jaccard': -1, 'filled': {'56': 32.259, '40': 33.522, '52': 33.69, '58': 33.742}}",,,,,
180,"{'items': ['62', '60', '40', '29'], 'found': '29', 'support': 2986, 'level': 3, 'jaccard': -1, 'filled': 0}","{'items': ['34', '60', '29', '52'], 'found': '52', 'support': 2989, 'level': 3, 'jaccard': -1, 'filled': {'34': 32.433, '60': 33.374, '29': 33.638, '52': 33.69}}",,,,,
181,"{'items': ['66', '40', '29', '58'], 'found': '58', 'support': 2988, 'level': 3, 'jaccard': -1, 'filled': 0}","{'items': ['62', '60', '40', '29'], 'found': '29', 'support': 2989, 'level': 3, 'jaccard': -1, 'filled': {'62': 32.601, '60': 33.374, '40': 33.522, '29': 33.638}}",,,,,
182,"{'items': ['62', '60', '40', '52'], 'found': '52', 'support': 2988, 'level': 3, 'jaccard': -1, 'filled': 0}","{'items': ['48', '29', '52', '58'], 'found': '58', 'support': 2991, 'level': 3, 'jaccard': -1, 'filled': {'48': 32.194, '29': 33.638, '52': 33.69, '58': 33.742}}",,,,,
183,"{'items': ['66', '60', '40', '29'], 'found': '29', 'support': 2989, 'level': 3, 'jaccard': -1, 'filled': 0}","{'items': ['66', '60', '40', '58'], 'found': '58', 'support': 2992, 'level': 3, 'jaccard': -1, 'filled': {'66': 32.246, '60': 33.374, '40': 33.522, '58': 33.742}}",,,,,
184,"{'items': ['56', '40', '52', '58'], 'found': '58', 'support': 2990, 'level': 3, 'jaccard': -1, 'filled': 0}","{'items': ['34', '60', '52', '58'], 'found': '58', 'support': 2992, 'level': 3, 'jaccard': -1, 'filled': {'34': 32.433, '60': 33.374, '52': 33.69, '58': 33.742}}",,,,,
185,"{'items': ['34', '60', '29', '58'], 'found': '58', 'support': 2990, 'level': 3, 'jaccard': -1, 'filled': 0}","{'items': ['34', '60', '29', '58'], 'found': '58', 'support': 2993, 'level': 3, 'jaccard': -1, 'filled': {'34': 32.433, '60': 33.374, '29': 33.638, '58': 33.742}}",,,,,
186,"{'items': ['62', '60', '29', '52'], 'found': '52', 'support': 2990, 'level': 3, 'jaccard': -1, 'filled': 0}","{'items': ['62', '60', '40', '52'], 'found': '52', 'support': 2993, 'level': 3, 'jaccard': -1, 'filled': {'62': 32.601, '60': 33.374, '40': 33.522, '52': 33.69}}",,,,,
187,"{'items': ['7', '60', '40', '52'], 'found': '52', 'support': 2995, 'level': 3, 'jaccard': -1, 'filled': 0}","{'items': ['62', '60', '29', '52'], 'found': '52', 'support': 2998, 'level': 3, 'jaccard': -1, 'filled': {'62': 32.601, '60': 33.374, '29': 33.638, '52': 33.69}}",,,,,
188,"{'items': ['66', '60', '40', '58'], 'found': '58', 'support': 2996, 'level': 3, 'jaccard': -1, 'filled': 0}","{'items': ['7', '60', '40', '52'], 'found': '52', 'support': 2998, 'level': 3, 'jaccard': -1, 'filled': {'7': 32.717, '60': 33.374, '40': 33.522, '52': 33.69}}",,,,,
189,"{'items': ['62', '60', '40', '58'], 'found': '58', 'support': 2999, 'level': 3, 'jaccard': -1, 'filled': 0}","{'items': ['7', '60', '40', '29'], 'found': '29', 'support': 2999, 'level': 3, 'jaccard': -1, 'filled': {'7': 32.717, '60': 33.374, '40': 33.522, '29': 33.638}}",,,,,
190,"{'items': ['7', '60', '40', '29'], 'found': '29', 'support': 2999, 'level': 3, 'jaccard': -1, 'filled': 0}","{'items': ['62', '60', '40', '58'], 'found': '58', 'support': 3000, 'level': 3, 'jaccard': -1, 'filled': {'62': 32.601, '60': 33.374, '40': 33.522, '58': 33.742}}",,,,,
191,"{'items': ['56', '29', '52', '58'], 'found': '58', 'support': 3000, 'level': 3, 'jaccard': -1, 'filled': 0}","{'items': ['56', '29', '52', '58'], 'found': '58', 'support': 3001, 'level': 3, 'jaccard': -1, 'filled': {'56': 32.259, '29': 33.638, '52': 33.69, '58': 33.742}}",,,,,
192,"{'items': ['66', '29', '52', '58'], 'found': '58', 'support': 3001, 'level': 3, 'jaccard': -1, 'filled': 0}","{'items': ['66', '29', '52', '58'], 'found': '58', 'support': 3003, 'level': 3, 'jaccard': -1, 'filled': {'66': 32.246, '29': 33.638, '52': 33.69, '58': 33.742}}",,,,,
193,"{'items': ['62', '60', '29', '58'], 'found': '58', 'support': 3001, 'level': 3, 'jaccard': -1, 'filled': 0}","{'items': ['7', '60', '40', '58'], 'found': '58', 'support': 3004, 'level': 3, 'jaccard': -1, 'filled': {'7': 32.717, '60': 33.374, '40': 33.522, '58': 33.742}}",,,,,
194,"{'items': ['66', '60', '29', '52'], 'found': '52', 'support': 3002, 'level': 3, 'jaccard': -1, 'filled': 0}","{'items': ['66', '60', '29', '52'], 'found': '52', 'support': 3005, 'level': 3, 'jaccard': -1, 'filled': {'66': 32.246, '60': 33.374, '29': 33.638, '52': 33.69}}",,,,,
195,"{'items': ['62', '60', '52', '58'], 'found': '58', 'support': 3003, 'level': 3, 'jaccard': -1, 'filled': 0}","{'items': ['62', '60', '29', '58'], 'found': '58', 'support': 3006, 'level': 3, 'jaccard': -1, 'filled': {'62': 32.601, '60': 33.374, '29': 33.638, '58': 33.742}}",,,,,
196,"{'items': ['34', '40', '29', '52'], 'found': '52', 'support': 3004, 'level': 3, 'jaccard': -1, 'filled': 0}","{'items': ['34', '40', '29', '52'], 'found': '52', 'support': 3007, 'level': 3, 'jaccard': -1, 'filled': {'34': 32.433, '40': 33.522, '29': 33.638, '52': 33.69}}",,,,,
197,"{'items': ['7', '60', '40', '58'], 'found': '58', 'support': 3005, 'level': 3, 'jaccard': -1, 'filled': 0}","{'items': ['62', '60', '52', '58'], 'found': '58', 'support': 3009, 'level': 3, 'jaccard': -1, 'filled': {'62': 32.601, '60': 33.374, '52': 33.69, '58': 33.742}}",,,,,
198,"{'items': ['34', '40', '52', '58'], 'found': '58', 'support': 3007, 'level': 3, 'jaccard': -1, 'filled': 0}","{'items': ['66', '60', '52', '58'], 'found': '58', 'support': 3010, 'level': 3, 'jaccard': -1, 'filled': {'66': 32.246, '60': 33.374, '52': 33.69, '58': 33.742}}",,,,,
199,"{'items': ['66', '60', '52', '58'], 'found': '58', 'support': 3009, 'level': 3, 'jaccard': -1, 'filled': 0}","{'items': ['34', '40', '52', '58'], 'found': '58', 'support': 3010, 'level': 3, 'jaccard': -1, 'filled': {'34': 32.433, '40': 33.522, '52': 33.69, '58': 33.742}}",,,,,
200,"{'items': ['66', '60', '29', '58'], 'found': '58', 'support': 3012, 'level': 3, 'jaccard': -1, 'filled': 0}","{'items': ['66', '60', '29', '58'], 'found': '58', 'support': 3011, 'level': 3, 'jaccard': -1, 'filled': {'66': 32.246, '60': 33.374, '29': 33.638, '58': 33.742}}",,,,,
201,"{'items': ['34', '40', '29', '58'], 'found': '58', 'support': 3012, 'level': 3, 'jaccard': -1, 'filled': 0}","{'items': ['34', '40', '29', '58'], 'found': '58', 'support': 3011, 'level': 3, 'jaccard': -1, 'filled': {'34': 32.433, '40': 33.522, '29': 33.638, '58': 33.742}}",,,,,
202,"{'items': ['7', '60', '29', '52'], 'found': '52', 'support': 3013, 'level': 3, 'jaccard': -1, 'filled': 0}","{'items': ['7', '60', '29', '52'], 'found': '52', 'support': 3017, 'level': 3, 'jaccard': -1, 'filled': {'7': 32.717, '60': 33.374, '29': 33.638, '52': 33.69}}",,,,,
203,"{'items': ['36', '60', '40', '29'], 'found': '29', 'support': 3014, 'level': 3, 'jaccard': -1, 'filled': 0}","{'items': ['36', '60', '40', '29'], 'found': '29', 'support': 3017, 'level': 3, 'jaccard': -1, 'filled': {'36': 32.929, '60': 33.374, '40': 33.522, '29': 33.638}}",,,,,
204,"{'items': ['36', '60', '40', '52'], 'found': '52', 'support': 3016, 'level': 3, 'jaccard': -1, 'filled': 0}","{'items': ['36', '60', '40', '52'], 'found': '52', 'support': 3020, 'level': 3, 'jaccard': -1, 'filled': {'36': 32.929, '60': 33.374, '40': 33.522, '52': 33.69}}",,,,,
205,"{'items': ['62', '40', '29', '52'], 'found': '52', 'support': 3019, 'level': 3, 'jaccard': -1, 'filled': 0}","{'items': ['62', '40', '29', '52'], 'found': '52', 'support': 3022, 'level': 3, 'jaccard': -1, 'filled': {'62': 32.601, '40': 33.522, '29': 33.638, '52': 33.69}}",,,,,
206,"{'items': ['7', '60', '52', '58'], 'found': '58', 'support': 3019, 'level': 3, 'jaccard': -1, 'filled': 0}","{'items': ['7', '60', '52', '58'], 'found': '58', 'support': 3022, 'level': 3, 'jaccard': -1, 'filled': {'7': 32.717, '60': 33.374, '52': 33.69, '58': 33.742}}",,,,,
207,"{'items': ['7', '60', '29', '58'], 'found': '58', 'support': 3023, 'level': 3, 'jaccard': -1, 'filled': 0}","{'items': ['7', '60', '29', '58'], 'found': '58', 'support': 3023, 'level': 3, 'jaccard': -1, 'filled': {'7': 32.717, '60': 33.374, '29': 33.638, '58': 33.742}}",,,,,
208,"{'items': ['34', '29', '52', '58'], 'found': '58', 'support': 3026, 'level': 3, 'jaccard': -1, 'filled': 0}","{'items': ['36', '60', '40', '58'], 'found': '58', 'support': 3026, 'level': 3, 'jaccard': -1, 'filled': {'36': 32.929, '60': 33.374, '40': 33.522, '58': 33.742}}",,,,,
209,"{'items': ['36', '60', '40', '58'], 'found': '58', 'support': 3026, 'level': 3, 'jaccard': -1, 'filled': 0}","{'items': ['34', '29', '52', '58'], 'found': '58', 'support': 3028, 'level': 3, 'jaccard': -1, 'filled': {'34': 32.433, '29': 33.638, '52': 33.69, '58': 33.742}}",,,,,
210,"{'items': ['36', '60', '29', '52'], 'found': '52', 'support': 3028, 'level': 3, 'jaccard': -1, 'filled': 0}","{'items': ['62', '40', '29', '58'], 'found': '58', 'support': 3030, 'level': 3, 'jaccard': -1, 'filled': {'62': 32.601, '40': 33.522, '29': 33.638, '58': 33.742}}",,,,,
211,"{'items': ['62', '40', '29', '58'], 'found': '58', 'support': 3030, 'level': 3, 'jaccard': -1, 'filled': 0}","{'items': ['7', '40', '29', '52'], 'found': '52', 'support': 3032, 'level': 3, 'jaccard': -1, 'filled': {'7': 32.717, '40': 33.522, '29': 33.638, '52': 33.69}}",,,,,
212,"{'items': ['7', '40', '29', '52'], 'found': '52', 'support': 3032, 'level': 3, 'jaccard': -1, 'filled': 0}","{'items': ['36', '60', '29', '52'], 'found': '52', 'support': 3035, 'level': 3, 'jaccard': -1, 'filled': {'36': 32.929, '60': 33.374, '29': 33.638, '52': 33.69}}",,,,,
213,"{'items': ['62', '40', '52', '58'], 'found': '58', 'support': 3034, 'level': 3, 'jaccard': -1, 'filled': 0}","{'items': ['62', '40', '52', '58'], 'found': '58', 'support': 3036, 'level': 3, 'jaccard': -1, 'filled': {'62': 32.601, '40': 33.522, '52': 33.69, '58': 33.742}}",,,,,
214,"{'items': ['62', '29', '52', '58'], 'found': '58', 'support': 3034, 'level': 3, 'jaccard': -1, 'filled': 0}","{'items': ['7', '40', '52', '58'], 'found': '58', 'support': 3037, 'level': 3, 'jaccard': -1, 'filled': {'7': 32.717, '40': 33.522, '52': 33.69, '58': 33.742}}",,,,,
215,"{'items': ['7', '40', '52', '58'], 'found': '58', 'support': 3038, 'level': 3, 'jaccard': -1, 'filled': 0}","{'items': ['7', '40', '29', '58'], 'found': '58', 'support': 3038, 'level': 3, 'jaccard': -1, 'filled': {'7': 32.717, '40': 33.522, '29': 33.638, '58': 33.742}}",,,,,
216,"{'items': ['36', '60', '29', '58'], 'found': '58', 'support': 3038, 'level': 3, 'jaccard': -1, 'filled': 0}","{'items': ['62', '29', '52', '58'], 'found': '58', 'support': 3039, 'level': 3, 'jaccard': -1, 'filled': {'62': 32.601, '29': 33.638, '52': 33.69, '58': 33.742}}",,,,,
217,"{'items': ['36', '60', '52', '58'], 'found': '58', 'support': 3040, 'level': 3, 'jaccard': -1, 'filled': 0}","{'items': ['36', '60', '29', '58'], 'found': '58', 'support': 3041, 'level': 3, 'jaccard': -1, 'filled': {'36': 32.929, '60': 33.374, '29': 33.638, '58': 33.742}}",,,,,
218,"{'items': ['7', '40', '29', '58'], 'found': '58', 'support': 3042, 'level': 3, 'jaccard': -1, 'filled': 0}","{'items': ['36', '60', '52', '58'], 'found': '58', 'support': 3045, 'level': 3, 'jaccard': -1, 'filled': {'36': 32.929, '60': 33.374, '52': 33.69, '58': 33.742}}",,,,,
219,"{'items': ['36', '40', '29', '52'], 'found': '52', 'support': 3047, 'level': 3, 'jaccard': -1, 'filled': 0}","{'items': ['36', '40', '29', '52'], 'found': '52', 'support': 3050, 'level': 3, 'jaccard': -1, 'filled': {'36': 32.929, '40': 33.522, '29': 33.638, '52': 33.69}}",,,,,
220,"{'items': ['7', '29', '52', '58'], 'found': '58', 'support': 3057, 'level': 3, 'jaccard': -1, 'filled': 0}","{'items': ['36', '40', '29', '58'], 'found': '58', 'support': 3056, 'level': 3, 'jaccard': -1, 'filled': {'36': 32.929, '40': 33.522, '29': 33.638, '58': 33.742}}",,,,,
221,"{'items': ['36', '40', '29', '58'], 'found': '58', 'support': 3057, 'level': 3, 'jaccard': -1, 'filled': 0}","{'items': ['7', '29', '52', '58'], 'found': '58', 'support': 3057, 'level': 3, 'jaccard': -1, 'filled': {'7': 32.717, '29': 33.638, '52': 33.69, '58': 33.742}}",,,,,
222,"{'items': ['36', '40', '52', '58'], 'found': '58', 'support': 3061, 'level': 3, 'jaccard': -1, 'filled': 0}","{'items': ['36', '40', '52', '58'], 'found': '58', 'support': 3062, 'level': 3, 'jaccard': -1, 'filled': {'36': 32.929, '40': 33.522, '52': 33.69, '58': 33.742}}",,,,,
223,"{'items': ['36', '29', '52', '58'], 'found': '58', 'support': 3072, 'level': 3, 'jaccard': -1, 'filled': 0}","{'items': ['36', '29', '52', '58'], 'found': '58', 'support': 3075, 'level': 3, 'jaccard': -1, 'filled': {'36': 32.929, '29': 33.638, '52': 33.69, '58': 33.742}}",,,,,
224,"{'items': ['60', '40', '29', '52'], 'found': '52', 'support': 3100, 'level': 3, 'jaccard': -1, 'filled': 0}","{'items': ['60', '40', '29', '52'], 'found': '52', 'support': 3104, 'level': 3, 'jaccard': -1, 'filled': {'60': 33.374, '40': 33.522, '29': 33.638, '52': 33.69}}",,,,,
225,"{'items': ['60', '40', '29', '58'], 'found': '58', 'support': 3110, 'level': 3, 'jaccard': -1, 'filled': 0}","{'items': ['60', '40', '29', '58'], 'found': '58', 'support': 3110, 'level': 3, 'jaccard': -1, 'filled': {'60': 33.374, '40': 33.522, '29': 33.638, '58': 33.742}}",,,,,
226,"{'items': ['60', '40', '52', '58'], 'found': '58', 'support': 3112, 'level': 3, 'jaccard': -1, 'filled': 0}","{'items': ['60', '40', '52', '58'], 'found': '58', 'support': 3114, 'level': 3, 'jaccard': -1, 'filled': {'60': 33.374, '40': 33.522, '52': 33.69, '58': 33.742}}",,,,,
227,"{'items': ['60', '29', '52', '58'], 'found': '58', 'support': 3124, 'level': 3, 'jaccard': -1, 'filled': 0}","{'items': ['60', '29', '52', '58'], 'found': '58', 'support': 3129, 'level': 3, 'jaccard': -1, 'filled': {'60': 33.374, '29': 33.638, '52': 33.69, '58': 33.742}}",,,,,
228,"{'items': ['40', '29', '52', '58'], 'found': '58', 'support': 3143, 'level': 3, 'jaccard': -1, 'filled': 0}","{'items': ['40', '29', '52', '58'], 'found': '58', 'support': 3144, 'level': 3, 'jaccard': -1, 'filled': {'40': 33.522, '29': 33.638, '52': 33.69, '58': 33.742}}",,,,,
229,"{'items': ['48', '36', '29', '52', '58'], 'found': '58', 'support': 2960, 'level': 4, 'jaccard': -1, 'filled': 0}","{'items': ['56', '60', '29', '52', '58'], 'found': '58', 'support': 2960, 'level': 4, 'jaccard': -1, 'filled': {'56': 32.259, '60': 33.374, '29': 33.638, '52': 33.69, '58': 33.742}}",,,,,
230,"{'items': ['48', '40', '29', '52', '58'], 'found': '58', 'support': 2960, 'level': 4, 'jaccard': -1, 'filled': 0}","{'items': ['7', '36', '29', '52', '58'], 'found': '58', 'support': 2963, 'level': 4, 'jaccard': -1, 'filled': {'7': 32.717, '36': 32.929, '29': 33.638, '52': 33.69, '58': 33.742}}",,,,,
231,"{'items': ['34', '60', '40', '29', '52'], 'found': '52', 'support': 2960, 'level': 4, 'jaccard': -1, 'filled': 0}","{'items': ['48', '36', '29', '52', '58'], 'found': '58', 'support': 2964, 'level': 4, 'jaccard': -1, 'filled': {'48': 32.194, '36': 32.929, '29': 33.638, '52': 33.69, '58': 33.742}}",,,,,
232,"{'items': ['7', '36', '29', '52', '58'], 'found': '58', 'support': 2960, 'level': 4, 'jaccard': -1, 'filled': 0}","{'items': ['48', '40', '29', '52', '58'], 'found': '58', 'support': 2964, 'level': 4, 'jaccard': -1, 'filled': {'48': 32.194, '40': 33.522, '29': 33.638, '52': 33.69, '58': 33.742}}",,,,,
233,"{'items': ['48', '60', '29', '52', '58'], 'found': '58', 'support': 2961, 'level': 4, 'jaccard': -1, 'filled': 0}","{'items': ['48', '60', '29', '52', '58'], 'found': '58', 'support': 2967, 'level': 4, 'jaccard': -1, 'filled': {'48': 32.194, '60': 33.374, '29': 33.638, '52': 33.69, '58': 33.742}}",,,,,
234,"{'items': ['34', '60', '40', '52', '58'], 'found': '58', 'support': 2963, 'level': 4, 'jaccard': -1, 'filled': 0}","{'items': ['34', '60', '40', '29', '52'], 'found': '52', 'support': 2967, 'level': 4, 'jaccard': -1, 'filled': {'34': 32.433, '60': 33.374, '40': 33.522, '29': 33.638, '52': 33.69}}",,,,,
235,"{'items': ['34', '60', '40', '29', '58'], 'found': '58', 'support': 2968, 'level': 4, 'jaccard': -1, 'filled': 0}","{'items': ['34', '60', '40', '52', '58'], 'found': '58', 'support': 2970, 'level': 4, 'jaccard': -1, 'filled': {'34': 32.433, '60': 33.374, '40': 33.522, '52': 33.69, '58': 33.742}}",,,,,
236,"{'items': ['56', '40', '29', '52', '58'], 'found': '58', 'support': 2975, 'level': 4, 'jaccard': -1, 'filled': 0}","{'items': ['34', '60', '40', '29', '58'], 'found': '58', 'support': 2971, 'level': 4, 'jaccard': -1, 'filled': {'34': 32.433, '60': 33.374, '40': 33.522, '29': 33.638, '58': 33.742}}",,,,,
237,"{'items': ['62', '60', '40', '29', '52'], 'found': '52', 'support': 2975, 'level': 4, 'jaccard': -1, 'filled': 0}","{'items': ['56', '40', '29', '52', '58'], 'found': '58', 'support': 2976, 'level': 4, 'jaccard': -1, 'filled': {'56': 32.259, '40': 33.522, '29': 33.638, '52': 33.69, '58': 33.742}}",,,,,
238,"{'items': ['66', '40', '29', '52', '58'], 'found': '58', 'support': 2977, 'level': 4, 'jaccard': -1, 'filled': 0}","{'items': ['66', '40', '29', '52', '58'], 'found': '58', 'support': 2978, 'level': 4, 'jaccard': -1, 'filled': {'66': 32.246, '40': 33.522, '29': 33.638, '52': 33.69, '58': 33.742}}",,,,,
239,"{'items': ['66', '60', '40', '29', '52'], 'found': '52', 'support': 2978, 'level': 4, 'jaccard': -1, 'filled': 0}","{'items': ['66', '60', '40', '29', '52'], 'found': '52', 'support': 2980, 'level': 4, 'jaccard': -1, 'filled': {'66': 32.246, '60': 33.374, '40': 33.522, '29': 33.638, '52': 33.69}}",,,,,
240,"{'items': ['34', '60', '29', '52', '58'], 'found': '58', 'support': 2981, 'level': 4, 'jaccard': -1, 'filled': 0}","{'items': ['62', '60', '40', '29', '52'], 'found': '52', 'support': 2982, 'level': 4, 'jaccard': -1, 'filled': {'62': 32.601, '60': 33.374, '40': 33.522, '29': 33.638, '52': 33.69}}",,,,,
241,"{'items': ['66', '60', '40', '52', '58'], 'found': '58', 'support': 2985, 'level': 4, 'jaccard': -1, 'filled': 0}","{'items': ['66', '60', '40', '52', '58'], 'found': '58', 'support': 2985, 'level': 4, 'jaccard': -1, 'filled': {'66': 32.246, '60': 33.374, '40': 33.522, '52': 33.69, '58': 33.742}}",,,,,
242,"{'items': ['62', '60', '40', '29', '58'], 'found': '58', 'support': 2986, 'level': 4, 'jaccard': -1, 'filled': 0}","{'items': ['66', '60', '40', '29', '58'], 'found': '58', 'support': 2986, 'level': 4, 'jaccard': -1, 'filled': {'66': 32.246, '60': 33.374, '40': 33.522, '29': 33.638, '58': 33.742}}",,,,,
243,"{'items': ['66', '60', '40', '29', '58'], 'found': '58', 'support': 2988, 'level': 4, 'jaccard': -1, 'filled': 0}","{'items': ['34', '60', '29', '52', '58'], 'found': '58', 'support': 2987, 'level': 4, 'jaccard': -1, 'filled': {'34': 32.433, '60': 33.374, '29': 33.638, '52': 33.69, '58': 33.742}}",,,,,
244,"{'items': ['62', '60', '40', '52', '58'], 'found': '58', 'support': 2988, 'level': 4, 'jaccard': -1, 'filled': 0}","{'items': ['62', '60', '40', '29', '58'], 'found': '58', 'support': 2989, 'level': 4, 'jaccard': -1, 'filled': {'62': 32.601, '60': 33.374, '40': 33.522, '29': 33.638, '58': 33.742}}",,,,,
245,"{'items': ['7', '60', '40', '29', '52'], 'found': '52', 'support': 2988, 'level': 4, 'jaccard': -1, 'filled': 0}","{'items': ['7', '60', '40', '29', '52'], 'found': '52', 'support': 2992, 'level': 4, 'jaccard': -1, 'filled': {'7': 32.717, '60': 33.374, '40': 33.522, '29': 33.638, '52': 33.69}}",,,,,
246,"{'items': ['62', '60', '29', '52', '58'], 'found': '58', 'support': 2990, 'level': 4, 'jaccard': -1, 'filled': 0}","{'items': ['62', '60', '40', '52', '58'], 'found': '58', 'support': 2993, 'level': 4, 'jaccard': -1, 'filled': {'62': 32.601, '60': 33.374, '40': 33.522, '52': 33.69, '58': 33.742}}",,,,,
247,"{'items': ['7', '60', '40', '52', '58'], 'found': '58', 'support': 2994, 'level': 4, 'jaccard': -1, 'filled': 0}","{'items': ['7', '60', '40', '29', '58'], 'found': '58', 'support': 2997, 'level': 4, 'jaccard': -1, 'filled': {'7': 32.717, '60': 33.374, '40': 33.522, '29': 33.638, '58': 33.742}}",,,,,
248,"{'items': ['7', '60', '40', '29', '58'], 'found': '58', 'support': 2998, 'level': 4, 'jaccard': -1, 'filled': 0}","{'items': ['7', '60', '40', '52', '58'], 'found': '58', 'support': 2997, 'level': 4, 'jaccard': -1, 'filled': {'7': 32.717, '60': 33.374, '40': 33.522, '52': 33.69, '58': 33.742}}",,,,,
249,"{'items': ['66', '60', '29', '52', '58'], 'found': '58', 'support': 3001, 'level': 4, 'jaccard': -1, 'filled': 0}","{'items': ['62', '60', '29', '52', '58'], 'found': '58', 'support': 2998, 'level': 4, 'jaccard': -1, 'filled': {'62': 32.601, '60': 33.374, '29': 33.638, '52': 33.69, '58': 33.742}}",,,,,
250,"{'items': ['34', '40', '29', '52', '58'], 'found': '58', 'support': 3003, 'level': 4, 'jaccard': -1, 'filled': 0}","{'items': ['66', '60', '29', '52', '58'], 'found': '58', 'support': 3003, 'level': 4, 'jaccard': -1, 'filled': {'66': 32.246, '60': 33.374, '29': 33.638, '52': 33.69, '58': 33.742}}",,,,,
251,"{'items': ['36', '60', '40', '29', '52'], 'found': '52', 'support': 3003, 'level': 4, 'jaccard': -1, 'filled': 0}","{'items': ['34', '40', '29', '52', '58'], 'found': '58', 'support': 3006, 'level': 4, 'jaccard': -1, 'filled': {'34': 32.433, '40': 33.522, '29': 33.638, '52': 33.69, '58': 33.742}}",,,,,
252,"{'items': ['7', '60', '29', '52', '58'], 'found': '58', 'support': 3012, 'level': 4, 'jaccard': -1, 'filled': 0}","{'items': ['36', '60', '40', '29', '52'], 'found': '52', 'support': 3009, 'level': 4, 'jaccard': -1, 'filled': {'36': 32.929, '60': 33.374, '40': 33.522, '29': 33.638, '52': 33.69}}",,,,,
253,"{'items': ['36', '60', '40', '29', '58'], 'found': '58', 'support': 3013, 'level': 4, 'jaccard': -1, 'filled': 0}","{'items': ['36', '60', '40', '29', '58'], 'found': '58', 'support': 3015, 'level': 4, 'jaccard': -1, 'filled': {'36': 32.929, '60': 33.374, '40': 33.522, '29': 33.638, '58': 33.742}}",,,,,
254,"{'items': ['36', '60', '40', '52', '58'], 'found': '58', 'support': 3015, 'level': 4, 'jaccard': -1, 'filled': 0}","{'items': ['7', '60', '29', '52', '58'], 'found': '58', 'support': 3016, 'level': 4, 'jaccard': -1, 'filled': {'7': 32.717, '60': 33.374, '29': 33.638, '52': 33.69, '58': 33.742}}",,,,,
255,"{'items': ['62', '40', '29', '52', '58'], 'found': '58', 'support': 3019, 'level': 4, 'jaccard': -1, 'filled': 0}","{'items': ['36', '60', '40', '52', '58'], 'found': '58', 'support': 3019, 'level': 4, 'jaccard': -1, 'filled': {'36': 32.929, '60': 33.374, '40': 33.522, '52': 33.69, '58': 33.742}}",,,,,
256,"{'items': ['36', '60', '29', '52', '58'], 'found': '58', 'support': 3027, 'level': 4, 'jaccard': -1, 'filled': 0}","{'items': ['62', '40', '29', '52', '58'], 'found': '58', 'support': 3022, 'level': 4, 'jaccard': -1, 'filled': {'62': 32.601, '40': 33.522, '29': 33.638, '52': 33.69, '58': 33.742}}",,,,,
257,"{'items': ['7', '40', '29', '52', '58'], 'found': '58', 'support': 3031, 'level': 4, 'jaccard': -1, 'filled': 0}","{'items': ['7', '40', '29', '52', '58'], 'found': '58', 'support': 3031, 'level': 4, 'jaccard': -1, 'filled': {'7': 32.717, '40': 33.522, '29': 33.638, '52': 33.69, '58': 33.742}}",,,,,
258,"{'items': ['36', '40', '29', '52', '58'], 'found': '58', 'support': 3046, 'level': 4, 'jaccard': -1, 'filled': 0}","{'items': ['36', '60', '29', '52', '58'], 'found': '58', 'support': 3034, 'level': 4, 'jaccard': -1, 'filled': {'36': 32.929, '60': 33.374, '29': 33.638, '52': 33.69, '58': 33.742}}",,,,,
259,"{'items': ['60', '40', '29', '52', '58'], 'found': '58', 'support': 3099, 'level': 4, 'jaccard': -1, 'filled': 0}","{'items': ['36', '40', '29', '52', '58'], 'found': '58', 'support': 3048, 'level': 4, 'jaccard': -1, 'filled': {'36': 32.929, '40': 33.522, '29': 33.638, '52': 33.69, '58': 33.742}}",,,,,
260,"{'items': ['62', '60', '40', '29', '52', '58'], 'found': '58', 'support': 2975, 'level': 5, 'jaccard': -1, 'filled': 0}","{'items': ['60', '40', '29', '52', '58'], 'found': '58', 'support': 3103, 'level': 4, 'jaccard': -1, 'filled': {'60': 33.374, '40': 33.522, '29': 33.638, '52': 33.69, '58': 33.742}}",,,,,
261,"{'items': ['66', '60', '40', '29', '52', '58'], 'found': '58', 'support': 2977, 'level': 5, 'jaccard': -1, 'filled': 0}","{'items': ['34', '60', '40', '29', '52', '58'], 'found': '58', 'support': 2965, 'level': 5, 'jaccard': -1, 'filled': {'34': 32.433, '60': 33.374, '40': 33.522, '29': 33.638, '52': 33.69, '58': 33.742}}",,,,,
262,"{'items': ['7', '60', '40', '29', '52', '58'], 'found': '58', 'support': 2987, 'level': 5, 'jaccard': -1, 'filled': 0}","{'items': ['66', '60', '40', '29', '52', '58'], 'found': '58', 'support': 2978, 'level': 5, 'jaccard': -1, 'filled': {'66': 32.246, '60': 33.374, '40': 33.522, '29': 33.638, '52': 33.69, '58': 33.742}}",,,,,
263,"{'items': ['36', '60', '40', '29', '52', '58'], 'found': '58', 'support': 3002, 'level': 5, 'jaccard': -1, 'filled': 0}","{'items': ['62', '60', '40', '29', '52', '58'], 'found': '58', 'support': 2982, 'level': 5, 'jaccard': -1, 'filled': {'62': 32.601, '60': 33.374, '40': 33.522, '29': 33.638, '52': 33.69, '58': 33.742}}",,,,,
264,,"{'items': ['7', '60', '40', '29', '52', '58'], 'found': '58', 'support': 2990, 'level': 5, 'jaccard': -1, 'filled': {'7': 32.717, '60': 33.374, '40': 33.522, '29': 33.638, '52': 33.69, '58': 33.742}}",,,,,
265,,"{'items': ['36', '60', '40', '29', '52', '58'], 'found': '58', 'support': 3008, 'level': 5, 'jaccard': -1, 'filled': {'36': 32.929, '60': 33.374, '40': 33.522, '29': 33.638, '52': 33.69, '58': 33.742}}",,,,,
