,items,real_support,approx_support,error,level,fill
0,"['56', '66', '34', '7']",2637,2645,8,3,"{'56': 32.007, '66': 32.065, '34': 32.22, '7': 32.51}"
1,"['48', '66', '34', '7']",2629,2642,13,3,"{'48': 31.982, '66': 32.065, '34': 32.22, '7': 32.51}"
2,"['56', '66', '34', '62', '52']",2639,2641,2,4,"{'56': 32.007, '66': 32.065, '34': 32.22, '62': 32.381, '52': 33.4}"
3,"['5', '34', '62', '36', '60']",2637,2641,4,4,"{'5': 31.672, '34': 32.22, '62': 32.381, '36': 32.659, '60': 33.103}"
4,"['5', '66', '34', '62', '52']",2638,2644,6,4,"{'5': 31.672, '66': 32.065, '34': 32.22, '62': 32.381, '52': 33.4}"
5,"['5', '66', '34', '36', '40']",2638,2644,6,4,"{'5': 31.672, '66': 32.065, '34': 32.22, '36': 32.659, '40': 33.297}"
6,"['5', '48', '62', '60', '40']",2637,2644,7,4,"{'5': 31.672, '48': 31.982, '62': 32.381, '60': 33.103, '40': 33.297}"
7,"['5', '66', '34', '62', '40']",2636,2643,7,4,"{'5': 31.672, '66': 32.065, '34': 32.22, '62': 32.381, '40': 33.297}"
8,"['5', '48', '66', '36', '40']",2638,2646,8,4,"{'5': 31.672, '48': 31.982, '66': 32.065, '36': 32.659, '40': 33.297}"
9,"['5', '48', '62', '60', '52']",2639,2647,8,4,"{'5': 31.672, '48': 31.982, '62': 32.381, '60': 33.103, '52': 33.4}"
10,"['5', '62', '7', '36', '40']",2637,2645,8,4,"{'5': 31.672, '62': 32.381, '7': 32.51, '36': 32.659, '40': 33.297}"
11,"['56', '66', '34', '7', '60']",2637,2645,8,4,"{'56': 32.007, '66': 32.065, '34': 32.22, '7': 32.51, '60': 33.103}"
12,"['56', '66', '34', '7', '29']",2635,2643,8,4,"{'56': 32.007, '66': 32.065, '34': 32.22, '7': 32.51, '29': 33.348}"
13,"['5', '48', '62', '36', '40']",2637,2646,9,4,"{'5': 31.672, '48': 31.982, '62': 32.381, '36': 32.659, '40': 33.297}"
14,"['5', '48', '62', '36', '52']",2639,2648,9,4,"{'5': 31.672, '48': 31.982, '62': 32.381, '36': 32.659, '52': 33.4}"
15,"['5', '66', '34', '7', '52']",2639,2648,9,4,"{'5': 31.672, '66': 32.065, '34': 32.22, '7': 32.51, '52': 33.4}"
16,"['5', '62', '7', '36', '52']",2639,2648,9,4,"{'5': 31.672, '62': 32.381, '7': 32.51, '36': 32.659, '52': 33.4}"
17,"['56', '66', '34', '7', '52']",2632,2641,9,4,"{'56': 32.007, '66': 32.065, '34': 32.22, '7': 32.51, '52': 33.4}"
18,"['56', '66', '34', '7', '58']",2636,2645,9,4,"{'56': 32.007, '66': 32.065, '34': 32.22, '7': 32.51, '58': 33.49}"
19,"['5', '34', '62', '7', '60']",2628,2640,12,4,"{'5': 31.672, '34': 32.22, '62': 32.381, '7': 32.51, '60': 33.103}"
20,"['5', '48', '7', '36', '52']",2639,2652,13,4,"{'5': 31.672, '48': 31.982, '7': 32.51, '36': 32.659, '52': 33.4}"
21,"['5', '66', '34', '7', '40']",2630,2643,13,4,"{'5': 31.672, '66': 32.065, '34': 32.22, '7': 32.51, '40': 33.297}"
22,"['48', '66', '34', '7', '60']",2629,2642,13,4,"{'48': 31.982, '66': 32.065, '34': 32.22, '7': 32.51, '60': 33.103}"
23,"['48', '66', '34', '7', '29']",2627,2640,13,4,"{'48': 31.982, '66': 32.065, '34': 32.22, '7': 32.51, '29': 33.348}"
24,"['5', '48', '7', '60', '40']",2631,2645,14,4,"{'5': 31.672, '48': 31.982, '7': 32.51, '60': 33.103, '40': 33.297}"
25,"['48', '66', '34', '7', '58']",2628,2642,14,4,"{'48': 31.982, '66': 32.065, '34': 32.22, '7': 32.51, '58': 33.49}"
26,"['5', '48', '7', '36', '40']",2629,2644,15,4,"{'5': 31.672, '48': 31.982, '7': 32.51, '36': 32.659, '40': 33.297}"
27,"['5', '56', '36', '60', '40', '58']",2639,2641,2,5,"{'5': 31.672, '56': 32.007, '36': 32.659, '60': 33.103, '40': 33.297, '58': 33.49}"
28,"['56', '66', '34', '62', '60', '52']",2639,2641,2,5,"{'56': 32.007, '66': 32.065, '34': 32.22, '62': 32.381, '60': 33.103, '52': 33.4}"
29,"['56', '66', '34', '62', '52', '58']",2639,2641,2,5,"{'56': 32.007, '66': 32.065, '34': 32.22, '62': 32.381, '52': 33.4, '58': 33.49}"
30,"['56', '66', '62', '7', '40', '52']",2639,2642,3,5,"{'56': 32.007, '66': 32.065, '62': 32.381, '7': 32.51, '40': 33.297, '52': 33.4}"
31,"['5', '56', '66', '40', '29', '52']",2636,2640,4,5,"{'5': 31.672, '56': 32.007, '66': 32.065, '40': 33.297, '29': 33.348, '52': 33.4}"
32,"['5', '56', '66', '40', '52', '58']",2639,2643,4,5,"{'5': 31.672, '56': 32.007, '66': 32.065, '40': 33.297, '52': 33.4, '58': 33.49}"
33,"['5', '34', '62', '36', '60', '58']",2637,2641,4,5,"{'5': 31.672, '34': 32.22, '62': 32.381, '36': 32.659, '60': 33.103, '58': 33.49}"
34,"['5', '56', '34', '7', '29', '52']",2639,2644,5,5,"{'5': 31.672, '56': 32.007, '34': 32.22, '7': 32.51, '29': 33.348, '52': 33.4}"
35,"['5', '66', '34', '62', '60', '52']",2638,2644,6,5,"{'5': 31.672, '66': 32.065, '34': 32.22, '62': 32.381, '60': 33.103, '52': 33.4}"
36,"['5', '66', '34', '62', '52', '58']",2638,2644,6,5,"{'5': 31.672, '66': 32.065, '34': 32.22, '62': 32.381, '52': 33.4, '58': 33.49}"
37,"['5', '66', '34', '36', '60', '40']",2638,2644,6,5,"{'5': 31.672, '66': 32.065, '34': 32.22, '36': 32.659, '60': 33.103, '40': 33.297}"
38,"['5', '48', '62', '60', '40', '58']",2637,2644,7,5,"{'5': 31.672, '48': 31.982, '62': 32.381, '60': 33.103, '40': 33.297, '58': 33.49}"
39,"['5', '66', '34', '62', '60', '40']",2636,2643,7,5,"{'5': 31.672, '66': 32.065, '34': 32.22, '62': 32.381, '60': 33.103, '40': 33.297}"
40,"['5', '66', '34', '62', '40', '58']",2636,2643,7,5,"{'5': 31.672, '66': 32.065, '34': 32.22, '62': 32.381, '40': 33.297, '58': 33.49}"
41,"['5', '66', '34', '62', '29', '52']",2634,2641,7,5,"{'5': 31.672, '66': 32.065, '34': 32.22, '62': 32.381, '29': 33.348, '52': 33.4}"
42,"['5', '66', '34', '36', '40', '29']",2634,2641,7,5,"{'5': 31.672, '66': 32.065, '34': 32.22, '36': 32.659, '40': 33.297, '29': 33.348}"
43,"['5', '66', '34', '36', '40', '58']",2637,2644,7,5,"{'5': 31.672, '66': 32.065, '34': 32.22, '36': 32.659, '40': 33.297, '58': 33.49}"
44,"['5', '62', '7', '36', '40', '29']",2634,2641,7,5,"{'5': 31.672, '62': 32.381, '7': 32.51, '36': 32.659, '40': 33.297, '29': 33.348}"
45,"['5', '48', '66', '36', '60', '40']",2638,2646,8,5,"{'5': 31.672, '48': 31.982, '66': 32.065, '36': 32.659, '60': 33.103, '40': 33.297}"
46,"['5', '48', '62', '60', '40', '29']",2632,2640,8,5,"{'5': 31.672, '48': 31.982, '62': 32.381, '60': 33.103, '40': 33.297, '29': 33.348}"
47,"['5', '48', '62', '60', '52', '58']",2639,2647,8,5,"{'5': 31.672, '48': 31.982, '62': 32.381, '60': 33.103, '52': 33.4, '58': 33.49}"
48,"['5', '66', '34', '62', '40', '29']",2632,2640,8,5,"{'5': 31.672, '66': 32.065, '34': 32.22, '62': 32.381, '40': 33.297, '29': 33.348}"
49,"['5', '34', '7', '36', '60', '29']",2639,2647,8,5,"{'5': 31.672, '34': 32.22, '7': 32.51, '36': 32.659, '60': 33.103, '29': 33.348}"
50,"['5', '62', '7', '36', '40', '58']",2637,2645,8,5,"{'5': 31.672, '62': 32.381, '7': 32.51, '36': 32.659, '40': 33.297, '58': 33.49}"
51,"['5', '62', '7', '36', '29', '52']",2636,2644,8,5,"{'5': 31.672, '62': 32.381, '7': 32.51, '36': 32.659, '29': 33.348, '52': 33.4}"
52,"['56', '66', '34', '7', '60', '29']",2635,2643,8,5,"{'56': 32.007, '66': 32.065, '34': 32.22, '7': 32.51, '60': 33.103, '29': 33.348}"
53,"['5', '48', '66', '36', '40', '29']",2634,2643,9,5,"{'5': 31.672, '48': 31.982, '66': 32.065, '36': 32.659, '40': 33.297, '29': 33.348}"
54,"['5', '48', '66', '36', '40', '58']",2637,2646,9,5,"{'5': 31.672, '48': 31.982, '66': 32.065, '36': 32.659, '40': 33.297, '58': 33.49}"
55,"['5', '48', '62', '36', '40', '58']",2637,2646,9,5,"{'5': 31.672, '48': 31.982, '62': 32.381, '36': 32.659, '40': 33.297, '58': 33.49}"
56,"['5', '48', '62', '36', '52', '58']",2639,2648,9,5,"{'5': 31.672, '48': 31.982, '62': 32.381, '36': 32.659, '52': 33.4, '58': 33.49}"
57,"['5', '48', '62', '60', '29', '52']",2634,2643,9,5,"{'5': 31.672, '48': 31.982, '62': 32.381, '60': 33.103, '29': 33.348, '52': 33.4}"
58,"['5', '66', '34', '7', '60', '52']",2639,2648,9,5,"{'5': 31.672, '66': 32.065, '34': 32.22, '7': 32.51, '60': 33.103, '52': 33.4}"
59,"['5', '66', '34', '7', '29', '52']",2637,2646,9,5,"{'5': 31.672, '66': 32.065, '34': 32.22, '7': 32.51, '29': 33.348, '52': 33.4}"
60,"['5', '34', '7', '36', '60', '52']",2632,2641,9,5,"{'5': 31.672, '34': 32.22, '7': 32.51, '36': 32.659, '60': 33.103, '52': 33.4}"
61,"['5', '62', '7', '36', '52', '58']",2639,2648,9,5,"{'5': 31.672, '62': 32.381, '7': 32.51, '36': 32.659, '52': 33.4, '58': 33.49}"
62,"['56', '66', '34', '7', '60', '52']",2632,2641,9,5,"{'56': 32.007, '66': 32.065, '34': 32.22, '7': 32.51, '60': 33.103, '52': 33.4}"
63,"['56', '66', '34', '7', '60', '58']",2636,2645,9,5,"{'56': 32.007, '66': 32.065, '34': 32.22, '7': 32.51, '60': 33.103, '58': 33.49}"
64,"['56', '66', '34', '7', '29', '58']",2634,2643,9,5,"{'56': 32.007, '66': 32.065, '34': 32.22, '7': 32.51, '29': 33.348, '58': 33.49}"
65,"['5', '48', '34', '36', '60', '40']",2637,2647,10,5,"{'5': 31.672, '48': 31.982, '34': 32.22, '36': 32.659, '60': 33.103, '40': 33.297}"
66,"['5', '48', '62', '36', '29', '52']",2632,2642,10,5,"{'5': 31.672, '48': 31.982, '62': 32.381, '36': 32.659, '29': 33.348, '52': 33.4}"
67,"['5', '66', '34', '7', '52', '58']",2638,2648,10,5,"{'5': 31.672, '66': 32.065, '34': 32.22, '7': 32.51, '52': 33.4, '58': 33.49}"
68,"['56', '66', '34', '7', '52', '58']",2631,2641,10,5,"{'56': 32.007, '66': 32.065, '34': 32.22, '7': 32.51, '52': 33.4, '58': 33.49}"
69,"['5', '48', '7', '60', '29', '52']",2637,2648,11,5,"{'5': 31.672, '48': 31.982, '7': 32.51, '60': 33.103, '29': 33.348, '52': 33.4}"
70,"['5', '48', '7', '36', '29', '52']",2636,2648,12,5,"{'5': 31.672, '48': 31.982, '7': 32.51, '36': 32.659, '29': 33.348, '52': 33.4}"
71,"['5', '34', '62', '7', '60', '58']",2628,2640,12,5,"{'5': 31.672, '34': 32.22, '62': 32.381, '7': 32.51, '60': 33.103, '58': 33.49}"
72,"['5', '48', '7', '60', '40', '29']",2628,2641,13,5,"{'5': 31.672, '48': 31.982, '7': 32.51, '60': 33.103, '40': 33.297, '29': 33.348}"
73,"['5', '48', '7', '60', '52', '58']",2639,2652,13,5,"{'5': 31.672, '48': 31.982, '7': 32.51, '60': 33.103, '52': 33.4, '58': 33.49}"
74,"['5', '66', '34', '7', '60', '40']",2630,2643,13,5,"{'5': 31.672, '66': 32.065, '34': 32.22, '7': 32.51, '60': 33.103, '40': 33.297}"
75,"['5', '66', '34', '7', '40', '29']",2628,2641,13,5,"{'5': 31.672, '66': 32.065, '34': 32.22, '7': 32.51, '40': 33.297, '29': 33.348}"
76,"['48', '66', '34', '7', '60', '29']",2627,2640,13,5,"{'48': 31.982, '66': 32.065, '34': 32.22, '7': 32.51, '60': 33.103, '29': 33.348}"
77,"['66', '34', '62', '7', '40', '52']",2636,2649,13,5,"{'66': 32.065, '34': 32.22, '62': 32.381, '7': 32.51, '40': 33.297, '52': 33.4}"
78,"['5', '48', '7', '36', '52', '58']",2638,2652,14,5,"{'5': 31.672, '48': 31.982, '7': 32.51, '36': 32.659, '52': 33.4, '58': 33.49}"
79,"['5', '66', '34', '7', '40', '58']",2629,2643,14,5,"{'5': 31.672, '66': 32.065, '34': 32.22, '7': 32.51, '40': 33.297, '58': 33.49}"
80,"['48', '66', '34', '7', '60', '58']",2628,2642,14,5,"{'48': 31.982, '66': 32.065, '34': 32.22, '7': 32.51, '60': 33.103, '58': 33.49}"
81,"['48', '66', '34', '7', '29', '58']",2626,2640,14,5,"{'48': 31.982, '66': 32.065, '34': 32.22, '7': 32.51, '29': 33.348, '58': 33.49}"
82,"['5', '48', '7', '36', '40', '29']",2626,2641,15,5,"{'5': 31.672, '48': 31.982, '7': 32.51, '36': 32.659, '40': 33.297, '29': 33.348}"
83,"['5', '48', '7', '60', '40', '58']",2630,2645,15,5,"{'5': 31.672, '48': 31.982, '7': 32.51, '60': 33.103, '40': 33.297, '58': 33.49}"
84,"['5', '48', '7', '36', '40', '58']",2628,2644,16,5,"{'5': 31.672, '48': 31.982, '7': 32.51, '36': 32.659, '40': 33.297, '58': 33.49}"
85,"['56', '66', '34', '62', '60', '52', '58']",2639,2641,2,6,"{'56': 32.007, '66': 32.065, '34': 32.22, '62': 32.381, '60': 33.103, '52': 33.4, '58': 33.49}"
86,"['56', '66', '62', '7', '60', '40', '52']",2639,2642,3,6,"{'56': 32.007, '66': 32.065, '62': 32.381, '7': 32.51, '60': 33.103, '40': 33.297, '52': 33.4}"
87,"['56', '66', '62', '7', '40', '52', '58']",2639,2642,3,6,"{'56': 32.007, '66': 32.065, '62': 32.381, '7': 32.51, '40': 33.297, '52': 33.4, '58': 33.49}"
88,"['56', '34', '62', '7', '60', '40', '29']",2639,2642,3,6,"{'56': 32.007, '34': 32.22, '62': 32.381, '7': 32.51, '60': 33.103, '40': 33.297, '29': 33.348}"
89,"['5', '56', '66', '60', '40', '29', '52']",2636,2640,4,6,"{'5': 31.672, '56': 32.007, '66': 32.065, '60': 33.103, '40': 33.297, '29': 33.348, '52': 33.4}"
90,"['5', '56', '66', '60', '40', '52', '58']",2639,2643,4,6,"{'5': 31.672, '56': 32.007, '66': 32.065, '60': 33.103, '40': 33.297, '52': 33.4, '58': 33.49}"
91,"['5', '56', '66', '40', '29', '52', '58']",2635,2640,5,6,"{'5': 31.672, '56': 32.007, '66': 32.065, '40': 33.297, '29': 33.348, '52': 33.4, '58': 33.49}"
92,"['56', '34', '62', '7', '60', '40', '52']",2636,2641,5,6,"{'56': 32.007, '34': 32.22, '62': 32.381, '7': 32.51, '60': 33.103, '40': 33.297, '52': 33.4}"
93,"['5', '56', '34', '7', '29', '52', '58']",2638,2644,6,6,"{'5': 31.672, '56': 32.007, '34': 32.22, '7': 32.51, '29': 33.348, '52': 33.4, '58': 33.49}"
94,"['5', '66', '34', '62', '60', '52', '58']",2638,2644,6,6,"{'5': 31.672, '66': 32.065, '34': 32.22, '62': 32.381, '60': 33.103, '52': 33.4, '58': 33.49}"
95,"['48', '56', '66', '36', '40', '29', '52']",2636,2642,6,6,"{'48': 31.982, '56': 32.007, '66': 32.065, '36': 32.659, '40': 33.297, '29': 33.348, '52': 33.4}"
96,"['5', '66', '34', '62', '60', '40', '58']",2636,2643,7,6,"{'5': 31.672, '66': 32.065, '34': 32.22, '62': 32.381, '60': 33.103, '40': 33.297, '58': 33.49}"
97,"['5', '66', '34', '62', '60', '29', '52']",2634,2641,7,6,"{'5': 31.672, '66': 32.065, '34': 32.22, '62': 32.381, '60': 33.103, '29': 33.348, '52': 33.4}"
98,"['5', '66', '34', '62', '29', '52', '58']",2634,2641,7,6,"{'5': 31.672, '66': 32.065, '34': 32.22, '62': 32.381, '29': 33.348, '52': 33.4, '58': 33.49}"
99,"['5', '66', '34', '36', '60', '40', '29']",2634,2641,7,6,"{'5': 31.672, '66': 32.065, '34': 32.22, '36': 32.659, '60': 33.103, '40': 33.297, '29': 33.348}"
100,"['5', '66', '34', '36', '60', '40', '58']",2637,2644,7,6,"{'5': 31.672, '66': 32.065, '34': 32.22, '36': 32.659, '60': 33.103, '40': 33.297, '58': 33.49}"
101,"['5', '62', '7', '36', '40', '29', '58']",2634,2641,7,6,"{'5': 31.672, '62': 32.381, '7': 32.51, '36': 32.659, '40': 33.297, '29': 33.348, '58': 33.49}"
102,"['5', '48', '62', '60', '40', '29', '58']",2632,2640,8,6,"{'5': 31.672, '48': 31.982, '62': 32.381, '60': 33.103, '40': 33.297, '29': 33.348, '58': 33.49}"
103,"['5', '56', '7', '60', '40', '29', '52']",2637,2645,8,6,"{'5': 31.672, '56': 32.007, '7': 32.51, '60': 33.103, '40': 33.297, '29': 33.348, '52': 33.4}"
104,"['5', '66', '34', '62', '60', '40', '29']",2632,2640,8,6,"{'5': 31.672, '66': 32.065, '34': 32.22, '62': 32.381, '60': 33.103, '40': 33.297, '29': 33.348}"
105,"['5', '66', '34', '62', '40', '29', '58']",2632,2640,8,6,"{'5': 31.672, '66': 32.065, '34': 32.22, '62': 32.381, '40': 33.297, '29': 33.348, '58': 33.49}"
106,"['5', '66', '34', '36', '40', '29', '58']",2633,2641,8,6,"{'5': 31.672, '66': 32.065, '34': 32.22, '36': 32.659, '40': 33.297, '29': 33.348, '58': 33.49}"
107,"['5', '62', '7', '36', '29', '52', '58']",2636,2644,8,6,"{'5': 31.672, '62': 32.381, '7': 32.51, '36': 32.659, '29': 33.348, '52': 33.4, '58': 33.49}"
108,"['5', '48', '66', '36', '60', '40', '29']",2634,2643,9,6,"{'5': 31.672, '48': 31.982, '66': 32.065, '36': 32.659, '60': 33.103, '40': 33.297, '29': 33.348}"
109,"['5', '48', '66', '36', '60', '40', '58']",2637,2646,9,6,"{'5': 31.672, '48': 31.982, '66': 32.065, '36': 32.659, '60': 33.103, '40': 33.297, '58': 33.49}"
110,"['5', '48', '62', '60', '29', '52', '58']",2634,2643,9,6,"{'5': 31.672, '48': 31.982, '62': 32.381, '60': 33.103, '29': 33.348, '52': 33.4, '58': 33.49}"
111,"['5', '56', '7', '60', '40', '52', '58']",2639,2648,9,6,"{'5': 31.672, '56': 32.007, '7': 32.51, '60': 33.103, '40': 33.297, '52': 33.4, '58': 33.49}"
112,"['5', '66', '34', '7', '60', '29', '52']",2637,2646,9,6,"{'5': 31.672, '66': 32.065, '34': 32.22, '7': 32.51, '60': 33.103, '29': 33.348, '52': 33.4}"
113,"['5', '34', '7', '36', '60', '29', '58']",2638,2647,9,6,"{'5': 31.672, '34': 32.22, '7': 32.51, '36': 32.659, '60': 33.103, '29': 33.348, '58': 33.49}"
114,"['56', '66', '34', '7', '60', '29', '58']",2634,2643,9,6,"{'56': 32.007, '66': 32.065, '34': 32.22, '7': 32.51, '60': 33.103, '29': 33.348, '58': 33.49}"
115,"['5', '48', '66', '36', '40', '29', '58']",2633,2643,10,6,"{'5': 31.672, '48': 31.982, '66': 32.065, '36': 32.659, '40': 33.297, '29': 33.348, '58': 33.49}"
116,"['5', '48', '62', '36', '29', '52', '58']",2632,2642,10,6,"{'5': 31.672, '48': 31.982, '62': 32.381, '36': 32.659, '29': 33.348, '52': 33.4, '58': 33.49}"
117,"['5', '66', '34', '7', '60', '52', '58']",2638,2648,10,6,"{'5': 31.672, '66': 32.065, '34': 32.22, '7': 32.51, '60': 33.103, '52': 33.4, '58': 33.49}"
118,"['5', '66', '34', '7', '29', '52', '58']",2636,2646,10,6,"{'5': 31.672, '66': 32.065, '34': 32.22, '7': 32.51, '29': 33.348, '52': 33.4, '58': 33.49}"
119,"['5', '34', '7', '36', '60', '52', '58']",2631,2641,10,6,"{'5': 31.672, '34': 32.22, '7': 32.51, '36': 32.659, '60': 33.103, '52': 33.4, '58': 33.49}"
120,"['56', '66', '34', '7', '60', '52', '58']",2631,2641,10,6,"{'56': 32.007, '66': 32.065, '34': 32.22, '7': 32.51, '60': 33.103, '52': 33.4, '58': 33.49}"
121,"['5', '48', '34', '36', '60', '40', '29']",2633,2644,11,6,"{'5': 31.672, '48': 31.982, '34': 32.22, '36': 32.659, '60': 33.103, '40': 33.297, '29': 33.348}"
122,"['5', '48', '34', '36', '60', '40', '58']",2636,2647,11,6,"{'5': 31.672, '48': 31.982, '34': 32.22, '36': 32.659, '60': 33.103, '40': 33.297, '58': 33.49}"
123,"['5', '48', '7', '60', '29', '52', '58']",2636,2648,12,6,"{'5': 31.672, '48': 31.982, '7': 32.51, '60': 33.103, '29': 33.348, '52': 33.4, '58': 33.49}"
124,"['5', '48', '7', '36', '29', '52', '58']",2635,2648,13,6,"{'5': 31.672, '48': 31.982, '7': 32.51, '36': 32.659, '29': 33.348, '52': 33.4, '58': 33.49}"
125,"['5', '66', '34', '7', '60', '40', '29']",2628,2641,13,6,"{'5': 31.672, '66': 32.065, '34': 32.22, '7': 32.51, '60': 33.103, '40': 33.297, '29': 33.348}"
126,"['66', '34', '62', '7', '60', '40', '52']",2636,2649,13,6,"{'66': 32.065, '34': 32.22, '62': 32.381, '7': 32.51, '60': 33.103, '40': 33.297, '52': 33.4}"
127,"['66', '34', '62', '7', '40', '29', '52']",2634,2647,13,6,"{'66': 32.065, '34': 32.22, '62': 32.381, '7': 32.51, '40': 33.297, '29': 33.348, '52': 33.4}"
128,"['66', '34', '62', '7', '40', '52', '58']",2636,2649,13,6,"{'66': 32.065, '34': 32.22, '62': 32.381, '7': 32.51, '40': 33.297, '52': 33.4, '58': 33.49}"
129,"['5', '48', '7', '60', '40', '29', '58']",2627,2641,14,6,"{'5': 31.672, '48': 31.982, '7': 32.51, '60': 33.103, '40': 33.297, '29': 33.348, '58': 33.49}"
130,"['5', '66', '34', '7', '60', '40', '58']",2629,2643,14,6,"{'5': 31.672, '66': 32.065, '34': 32.22, '7': 32.51, '60': 33.103, '40': 33.297, '58': 33.49}"
131,"['5', '66', '34', '7', '40', '29', '58']",2627,2641,14,6,"{'5': 31.672, '66': 32.065, '34': 32.22, '7': 32.51, '40': 33.297, '29': 33.348, '58': 33.49}"
132,"['48', '66', '34', '7', '60', '29', '58']",2626,2640,14,6,"{'48': 31.982, '66': 32.065, '34': 32.22, '7': 32.51, '60': 33.103, '29': 33.348, '58': 33.49}"
133,"['5', '48', '7', '36', '40', '29', '58']",2625,2641,16,6,"{'5': 31.672, '48': 31.982, '7': 32.51, '36': 32.659, '40': 33.297, '29': 33.348, '58': 33.49}"
134,"['56', '66', '62', '7', '60', '40', '52', '58']",2639,2642,3,7,"{'56': 32.007, '66': 32.065, '62': 32.381, '7': 32.51, '60': 33.103, '40': 33.297, '52': 33.4, '58': 33.49}"
135,"['56', '34', '62', '7', '60', '40', '29', '58']",2639,2642,3,7,"{'56': 32.007, '34': 32.22, '62': 32.381, '7': 32.51, '60': 33.103, '40': 33.297, '29': 33.348, '58': 33.49}"
136,"['5', '56', '66', '60', '40', '29', '52', '58']",2635,2640,5,7,"{'5': 31.672, '56': 32.007, '66': 32.065, '60': 33.103, '40': 33.297, '29': 33.348, '52': 33.4, '58': 33.49}"
137,"['56', '34', '62', '7', '60', '40', '52', '58']",2636,2641,5,7,"{'56': 32.007, '34': 32.22, '62': 32.381, '7': 32.51, '60': 33.103, '40': 33.297, '52': 33.4, '58': 33.49}"
138,"['48', '56', '66', '36', '60', '40', '29', '52']",2636,2642,6,7,"{'48': 31.982, '56': 32.007, '66': 32.065, '36': 32.659, '60': 33.103, '40': 33.297, '29': 33.348, '52': 33.4}"
139,"['5', '66', '34', '62', '60', '29', '52', '58']",2634,2641,7,7,"{'5': 31.672, '66': 32.065, '34': 32.22, '62': 32.381, '60': 33.103, '29': 33.348, '52': 33.4, '58': 33.49}"
140,"['48', '56', '66', '36', '40', '29', '52', '58']",2635,2642,7,7,"{'48': 31.982, '56': 32.007, '66': 32.065, '36': 32.659, '40': 33.297, '29': 33.348, '52': 33.4, '58': 33.49}"
141,"['34', '62', '7', '36', '60', '40', '29', '52']",2639,2646,7,7,"{'34': 32.22, '62': 32.381, '7': 32.51, '36': 32.659, '60': 33.103, '40': 33.297, '29': 33.348, '52': 33.4}"
142,"['5', '66', '34', '62', '60', '40', '29', '58']",2632,2640,8,7,"{'5': 31.672, '66': 32.065, '34': 32.22, '62': 32.381, '60': 33.103, '40': 33.297, '29': 33.348, '58': 33.49}"
143,"['5', '66', '34', '36', '60', '40', '29', '58']",2633,2641,8,7,"{'5': 31.672, '66': 32.065, '34': 32.22, '36': 32.659, '60': 33.103, '40': 33.297, '29': 33.348, '58': 33.49}"
144,"['5', '56', '7', '60', '40', '29', '52', '58']",2636,2645,9,7,"{'5': 31.672, '56': 32.007, '7': 32.51, '60': 33.103, '40': 33.297, '29': 33.348, '52': 33.4, '58': 33.49}"
145,"['5', '48', '66', '36', '60', '40', '29', '58']",2633,2643,10,7,"{'5': 31.672, '48': 31.982, '66': 32.065, '36': 32.659, '60': 33.103, '40': 33.297, '29': 33.348, '58': 33.49}"
146,"['5', '66', '34', '7', '60', '29', '52', '58']",2636,2646,10,7,"{'5': 31.672, '66': 32.065, '34': 32.22, '7': 32.51, '60': 33.103, '29': 33.348, '52': 33.4, '58': 33.49}"
147,"['5', '48', '34', '36', '60', '40', '29', '58']",2632,2644,12,7,"{'5': 31.672, '48': 31.982, '34': 32.22, '36': 32.659, '60': 33.103, '40': 33.297, '29': 33.348, '58': 33.49}"
148,"['66', '34', '62', '7', '60', '40', '29', '52']",2634,2647,13,7,"{'66': 32.065, '34': 32.22, '62': 32.381, '7': 32.51, '60': 33.103, '40': 33.297, '29': 33.348, '52': 33.4}"
149,"['66', '34', '62', '7', '60', '40', '52', '58']",2636,2649,13,7,"{'66': 32.065, '34': 32.22, '62': 32.381, '7': 32.51, '60': 33.103, '40': 33.297, '52': 33.4, '58': 33.49}"
150,"['66', '34', '62', '7', '40', '29', '52', '58']",2634,2647,13,7,"{'66': 32.065, '34': 32.22, '62': 32.381, '7': 32.51, '40': 33.297, '29': 33.348, '52': 33.4, '58': 33.49}"
151,"['5', '66', '34', '7', '60', '40', '29', '58']",2627,2641,14,7,"{'5': 31.672, '66': 32.065, '34': 32.22, '7': 32.51, '60': 33.103, '40': 33.297, '29': 33.348, '58': 33.49}"
152,"['48', '56', '66', '36', '60', '40', '29', '52', '58']",2635,2642,7,8,"{'48': 31.982, '56': 32.007, '66': 32.065, '36': 32.659, '60': 33.103, '40': 33.297, '29': 33.348, '52': 33.4, '58': 33.49}"
153,"['34', '62', '7', '36', '60', '40', '29', '52', '58']",2639,2646,7,8,"{'34': 32.22, '62': 32.381, '7': 32.51, '36': 32.659, '60': 33.103, '40': 33.297, '29': 33.348, '52': 33.4, '58': 33.49}"
154,"['66', '34', '62', '7', '60', '40', '29', '52', '58']",2634,2647,13,8,"{'66': 32.065, '34': 32.22, '62': 32.381, '7': 32.51, '60': 33.103, '40': 33.297, '29': 33.348, '52': 33.4, '58': 33.49}"
