,items,real_support,approx_support,error,level,fill
0,"['4430', '180', '170']",45483,45520,37,2,"{'4430': 31.051, '180': 31.968, '170': 32.131}"
1,"['4430', '184', '170']",45483,45520,37,2,"{'4430': 31.051, '184': 31.968, '170': 32.131}"
2,"['4436', '4428', '180']",45430,45501,71,2,"{'4436': 31.323, '4428': 31.921, '180': 31.968}"
3,"['4436', '4428', '184']",45430,45501,71,2,"{'4436': 31.323, '4428': 31.921, '184': 31.968}"
4,"['4436', '4432', '170']",45442,45516,74,2,"{'4436': 31.323, '4432': 31.7, '170': 32.131}"
5,"['7092', '4434', '4428', '4438']",45493,45513,20,3,"{'7092': 31.559, '4434': 31.746, '4428': 31.921, '4438': 32.334}"
6,"['4430', '180', '184', '170']",45483,45520,37,3,"{'4430': 31.051, '180': 31.968, '184': 31.968, '170': 32.131}"
7,"['4436', '4428', '180', '184']",45430,45501,71,3,"{'4436': 31.323, '4428': 31.921, '180': 31.968, '184': 31.968}"
8,"['4436', '4432', '7062', '4438']",45474,45551,77,3,"{'4436': 31.323, '4432': 31.7, '7062': 32.157, '4438': 32.334}"
9,"['7092', '4428', '180', '7062', '4438']",45483,45510,27,4,"{'7092': 31.559, '4428': 31.921, '180': 31.968, '7062': 32.157, '4438': 32.334}"
10,"['7092', '4428', '184', '7062', '4438']",45483,45510,27,4,"{'7092': 31.559, '4428': 31.921, '184': 31.968, '7062': 32.157, '4438': 32.334}"
11,"['4940', '4432', '170', '7062', '4438']",45481,45514,33,4,"{'4940': 31.612, '4432': 31.7, '170': 32.131, '7062': 32.157, '4438': 32.334}"
12,"['4436', '180', '170', '7062', '4438']",45489,45569,80,4,"{'4436': 31.323, '180': 31.968, '170': 32.131, '7062': 32.157, '4438': 32.334}"
13,"['4436', '184', '170', '7062', '4438']",45489,45569,80,4,"{'4436': 31.323, '184': 31.968, '170': 32.131, '7062': 32.157, '4438': 32.334}"
14,"['7092', '4428', '180', '184', '7062', '4438']",45483,45510,27,5,"{'7092': 31.559, '4428': 31.921, '180': 31.968, '184': 31.968, '7062': 32.157, '4438': 32.334}"
15,"['4434', '4428', '180', '170', '7062', '4438']",45465,45507,42,5,"{'4434': 31.746, '4428': 31.921, '180': 31.968, '170': 32.131, '7062': 32.157, '4438': 32.334}"
16,"['4434', '4428', '184', '170', '7062', '4438']",45465,45507,42,5,"{'4434': 31.746, '4428': 31.921, '184': 31.968, '170': 32.131, '7062': 32.157, '4438': 32.334}"
17,"['4432', '4428', '180', '170', '7062', '4438']",45434,45504,70,5,"{'4432': 31.7, '4428': 31.921, '180': 31.968, '170': 32.131, '7062': 32.157, '4438': 32.334}"
18,"['4432', '4428', '184', '170', '7062', '4438']",45434,45504,70,5,"{'4432': 31.7, '4428': 31.921, '184': 31.968, '170': 32.131, '7062': 32.157, '4438': 32.334}"
19,"['4436', '180', '184', '170', '7062', '4438']",45489,45569,80,5,"{'4436': 31.323, '180': 31.968, '184': 31.968, '170': 32.131, '7062': 32.157, '4438': 32.334}"
20,"['4434', '4428', '180', '184', '170', '7062', '4438']",45465,45507,42,6,"{'4434': 31.746, '4428': 31.921, '180': 31.968, '184': 31.968, '170': 32.131, '7062': 32.157, '4438': 32.334}"
21,"['4432', '4428', '180', '184', '170', '7062', '4438']",45434,45504,70,6,"{'4432': 31.7, '4428': 31.921, '180': 31.968, '184': 31.968, '170': 32.131, '7062': 32.157, '4438': 32.334}"
