,exact,bloomfilter,extra_on_bloom,missing_on_bloom,hll,extra_on_hll,missing_on_hll
0,"{'items': ['28'], 'found': '28', 'support': 270565, 'level': 0, 'jaccard': -1, 'filled': 0}","{'items': ['28'], 'found': '28', 'support': 270458, 'level': 0, 'jaccard': -1, 'filled': 41.704}",,,,,
1,"{'items': ['15'], 'found': '15', 'support': 272918, 'level': 0, 'jaccard': -1, 'filled': 0}","{'items': ['15'], 'found': '15', 'support': 272898, 'level': 0, 'jaccard': -1, 'filled': 41.987}",,,,,
2,"{'items': ['24'], 'found': '24', 'support': 274213, 'level': 0, 'jaccard': -1, 'filled': 0}","{'items': ['24'], 'found': '24', 'support': 274132, 'level': 0, 'jaccard': -1, 'filled': 42.13}",,,,,
3,"{'items': ['27'], 'found': '27', 'support': 284036, 'level': 0, 'jaccard': -1, 'filled': 0}","{'items': ['27'], 'found': '27', 'support': 284204, 'level': 0, 'jaccard': -1, 'filled': 43.281}",,,,,
4,"{'items': ['43'], 'found': '43', 'support': 291396, 'level': 0, 'jaccard': -1, 'filled': 0}","{'items': ['43'], 'found': '43', 'support': 291320, 'level': 0, 'jaccard': -1, 'filled': 44.081}",,,,,
5,"{'items': ['29'], 'found': '29', 'support': 299191, 'level': 0, 'jaccard': -1, 'filled': 0}","{'items': ['29'], 'found': '29', 'support': 299051, 'level': 0, 'jaccard': -1, 'filled': 44.937}",,,,,
6,"{'items': ['21'], 'found': '21', 'support': 302446, 'level': 0, 'jaccard': -1, 'filled': 0}","{'items': ['21'], 'found': '21', 'support': 302549, 'level': 0, 'jaccard': -1, 'filled': 45.32}",,,,,
7,"{'items': ['31'], 'found': '31', 'support': 318014, 'level': 0, 'jaccard': -1, 'filled': 0}","{'items': ['31'], 'found': '31', 'support': 317897, 'level': 0, 'jaccard': -1, 'filled': 46.969}",,,,,
8,"{'items': ['16'], 'found': '16', 'support': 332414, 'level': 0, 'jaccard': -1, 'filled': 0}","{'items': ['16'], 'found': '16', 'support': 332403, 'level': 0, 'jaccard': -1, 'filled': 48.482}",,,,,
9,"{'items': ['18'], 'found': '18', 'support': 339095, 'level': 0, 'jaccard': -1, 'filled': 0}","{'items': ['18'], 'found': '18', 'support': 339024, 'level': 0, 'jaccard': -1, 'filled': 49.158}",,,,,
10,"{'items': ['12'], 'found': '12', 'support': 339601, 'level': 0, 'jaccard': -1, 'filled': 0}","{'items': ['12'], 'found': '12', 'support': 339519, 'level': 0, 'jaccard': -1, 'filled': 49.208}",,,,,
11,"{'items': ['17'], 'found': '17', 'support': 340151, 'level': 0, 'jaccard': -1, 'filled': 0}","{'items': ['17'], 'found': '17', 'support': 340103, 'level': 0, 'jaccard': -1, 'filled': 49.267}",,,,,
12,"{'items': ['27', '31'], 'found': '31', 'support': 266632, 'level': 1, 'jaccard': -1, 'filled': 0}","{'items': ['15', '16'], 'found': '16', 'support': 267796, 'level': 1, 'jaccard': -1, 'filled': {'15': 41.987, '16': 48.482}}",,,,,
13,"{'items': ['15', '16'], 'found': '16', 'support': 267037, 'level': 1, 'jaccard': -1, 'filled': 0}","{'items': ['27', '31'], 'found': '31', 'support': 268447, 'level': 1, 'jaccard': -1, 'filled': {'27': 43.281, '31': 46.969}}",,,,,
14,"{'items': ['24', '16'], 'found': '16', 'support': 267887, 'level': 1, 'jaccard': -1, 'filled': 0}","{'items': ['24', '16'], 'found': '16', 'support': 268599, 'level': 1, 'jaccard': -1, 'filled': {'24': 42.13, '16': 48.482}}",,,,,
15,"{'items': ['29', '21'], 'found': '21', 'support': 268665, 'level': 1, 'jaccard': -1, 'filled': 0}","{'items': ['28', '18'], 'found': '18', 'support': 269649, 'level': 1, 'jaccard': -1, 'filled': {'28': 41.704, '18': 49.158}}",,,,,
16,"{'items': ['28', '18'], 'found': '18', 'support': 269629, 'level': 1, 'jaccard': -1, 'filled': 0}","{'items': ['28', '12'], 'found': '12', 'support': 270110, 'level': 1, 'jaccard': -1, 'filled': {'28': 41.704, '12': 49.208}}",,,,,
17,"{'items': ['28', '12'], 'found': '12', 'support': 270164, 'level': 1, 'jaccard': -1, 'filled': 0}","{'items': ['28', '17'], 'found': '17', 'support': 270441, 'level': 1, 'jaccard': -1, 'filled': {'28': 41.704, '17': 49.267}}",,,,,
18,"{'items': ['28', '17'], 'found': '17', 'support': 270537, 'level': 1, 'jaccard': -1, 'filled': 0}","{'items': ['29', '21'], 'found': '21', 'support': 270620, 'level': 1, 'jaccard': -1, 'filled': {'29': 44.937, '21': 45.32}}",,,,,
19,"{'items': ['15', '18'], 'found': '18', 'support': 271948, 'level': 1, 'jaccard': -1, 'filled': 0}","{'items': ['15', '18'], 'found': '18', 'support': 272031, 'level': 1, 'jaccard': -1, 'filled': {'15': 41.987, '18': 49.158}}",,,,,
20,"{'items': ['15', '12'], 'found': '12', 'support': 272399, 'level': 1, 'jaccard': -1, 'filled': 0}","{'items': ['15', '12'], 'found': '12', 'support': 272421, 'level': 1, 'jaccard': -1, 'filled': {'15': 41.987, '12': 49.208}}",,,,,
21,"{'items': ['27', '21'], 'found': '21', 'support': 272438, 'level': 1, 'jaccard': -1, 'filled': 0}","{'items': ['15', '17'], 'found': '17', 'support': 272876, 'level': 1, 'jaccard': -1, 'filled': {'15': 41.987, '17': 49.267}}",,,,,
22,"{'items': ['15', '17'], 'found': '17', 'support': 272887, 'level': 1, 'jaccard': -1, 'filled': 0}","{'items': ['27', '21'], 'found': '21', 'support': 273327, 'level': 1, 'jaccard': -1, 'filled': {'27': 43.281, '21': 45.32}}",,,,,
23,"{'items': ['43', '31'], 'found': '31', 'support': 273126, 'level': 1, 'jaccard': -1, 'filled': 0}","{'items': ['24', '18'], 'found': '18', 'support': 273345, 'level': 1, 'jaccard': -1, 'filled': {'24': 42.13, '18': 49.158}}",,,,,
24,"{'items': ['24', '18'], 'found': '18', 'support': 273333, 'level': 1, 'jaccard': -1, 'filled': 0}","{'items': ['24', '12'], 'found': '12', 'support': 273715, 'level': 1, 'jaccard': -1, 'filled': {'24': 42.13, '12': 49.208}}",,,,,
25,"{'items': ['24', '12'], 'found': '12', 'support': 273759, 'level': 1, 'jaccard': -1, 'filled': 0}","{'items': ['24', '17'], 'found': '17', 'support': 274115, 'level': 1, 'jaccard': -1, 'filled': {'24': 42.13, '17': 49.267}}",,,,,
26,"{'items': ['24', '17'], 'found': '17', 'support': 274190, 'level': 1, 'jaccard': -1, 'filled': 0}","{'items': ['43', '31'], 'found': '31', 'support': 274538, 'level': 1, 'jaccard': -1, 'filled': {'43': 44.081, '31': 46.969}}",,,,,
27,"{'items': ['27', '16'], 'found': '16', 'support': 277963, 'level': 1, 'jaccard': -1, 'filled': 0}","{'items': ['27', '16'], 'found': '16', 'support': 278748, 'level': 1, 'jaccard': -1, 'filled': {'27': 43.281, '16': 48.482}}",,,,,
28,"{'items': ['29', '31'], 'found': '31', 'support': 279681, 'level': 1, 'jaccard': -1, 'filled': 0}","{'items': ['29', '31'], 'found': '31', 'support': 280944, 'level': 1, 'jaccard': -1, 'filled': {'29': 44.937, '31': 46.969}}",,,,,
29,"{'items': ['27', '18'], 'found': '18', 'support': 283186, 'level': 1, 'jaccard': -1, 'filled': 0}","{'items': ['27', '18'], 'found': '18', 'support': 283426, 'level': 1, 'jaccard': -1, 'filled': {'27': 43.281, '18': 49.158}}",,,,,
30,"{'items': ['27', '12'], 'found': '12', 'support': 283580, 'level': 1, 'jaccard': -1, 'filled': 0}","{'items': ['27', '12'], 'found': '12', 'support': 283775, 'level': 1, 'jaccard': -1, 'filled': {'27': 43.281, '12': 49.208}}",,,,,
31,"{'items': ['27', '17'], 'found': '17', 'support': 284008, 'level': 1, 'jaccard': -1, 'filled': 0}","{'items': ['27', '17'], 'found': '17', 'support': 284183, 'level': 1, 'jaccard': -1, 'filled': {'27': 43.281, '17': 49.267}}",,,,,
32,"{'items': ['21', '31'], 'found': '31', 'support': 284154, 'level': 1, 'jaccard': -1, 'filled': 0}","{'items': ['21', '31'], 'found': '31', 'support': 285430, 'level': 1, 'jaccard': -1, 'filled': {'21': 45.32, '31': 46.969}}",,,,,
33,"{'items': ['43', '16'], 'found': '16', 'support': 285220, 'level': 1, 'jaccard': -1, 'filled': 0}","{'items': ['43', '16'], 'found': '16', 'support': 285733, 'level': 1, 'jaccard': -1, 'filled': {'43': 44.081, '16': 48.482}}",,,,,
34,"{'items': ['43', '18'], 'found': '18', 'support': 290493, 'level': 1, 'jaccard': -1, 'filled': 0}","{'items': ['43', '18'], 'found': '18', 'support': 290493, 'level': 1, 'jaccard': -1, 'filled': {'43': 44.081, '18': 49.158}}",,,,,
35,"{'items': ['43', '12'], 'found': '12', 'support': 290899, 'level': 1, 'jaccard': -1, 'filled': 0}","{'items': ['43', '12'], 'found': '12', 'support': 290848, 'level': 1, 'jaccard': -1, 'filled': {'43': 44.081, '12': 49.208}}",,,,,
36,"{'items': ['43', '17'], 'found': '17', 'support': 291366, 'level': 1, 'jaccard': -1, 'filled': 0}","{'items': ['43', '17'], 'found': '17', 'support': 291297, 'level': 1, 'jaccard': -1, 'filled': {'43': 44.081, '17': 49.267}}",,,,,
37,"{'items': ['29', '16'], 'found': '16', 'support': 291958, 'level': 1, 'jaccard': -1, 'filled': 0}","{'items': ['29', '16'], 'found': '16', 'support': 292412, 'level': 1, 'jaccard': -1, 'filled': {'29': 44.937, '16': 48.482}}",,,,,
38,"{'items': ['21', '16'], 'found': '16', 'support': 295351, 'level': 1, 'jaccard': -1, 'filled': 0}","{'items': ['21', '16'], 'found': '16', 'support': 295986, 'level': 1, 'jaccard': -1, 'filled': {'21': 45.32, '16': 48.482}}",,,,,
39,"{'items': ['29', '18'], 'found': '18', 'support': 298197, 'level': 1, 'jaccard': -1, 'filled': 0}","{'items': ['29', '18'], 'found': '18', 'support': 298118, 'level': 1, 'jaccard': -1, 'filled': {'29': 44.937, '18': 49.158}}",,,,,
40,"{'items': ['29', '12'], 'found': '12', 'support': 298680, 'level': 1, 'jaccard': -1, 'filled': 0}","{'items': ['29', '12'], 'found': '12', 'support': 298555, 'level': 1, 'jaccard': -1, 'filled': {'29': 44.937, '12': 49.208}}",,,,,
41,"{'items': ['29', '17'], 'found': '17', 'support': 299159, 'level': 1, 'jaccard': -1, 'filled': 0}","{'items': ['29', '17'], 'found': '17', 'support': 299028, 'level': 1, 'jaccard': -1, 'filled': {'29': 44.937, '17': 49.267}}",,,,,
42,"{'items': ['21', '18'], 'found': '18', 'support': 301478, 'level': 1, 'jaccard': -1, 'filled': 0}","{'items': ['21', '18'], 'found': '18', 'support': 301631, 'level': 1, 'jaccard': -1, 'filled': {'21': 45.32, '18': 49.158}}",,,,,
43,"{'items': ['21', '12'], 'found': '12', 'support': 301939, 'level': 1, 'jaccard': -1, 'filled': 0}","{'items': ['21', '12'], 'found': '12', 'support': 302057, 'level': 1, 'jaccard': -1, 'filled': {'21': 45.32, '12': 49.208}}",,,,,
44,"{'items': ['21', '17'], 'found': '17', 'support': 302415, 'level': 1, 'jaccard': -1, 'filled': 0}","{'items': ['21', '17'], 'found': '17', 'support': 302525, 'level': 1, 'jaccard': -1, 'filled': {'21': 45.32, '17': 49.267}}",,,,,
45,"{'items': ['31', '16'], 'found': '16', 'support': 312204, 'level': 1, 'jaccard': -1, 'filled': 0}","{'items': ['31', '16'], 'found': '16', 'support': 312309, 'level': 1, 'jaccard': -1, 'filled': {'31': 46.969, '16': 48.482}}",,,,,
46,"{'items': ['31', '18'], 'found': '18', 'support': 317103, 'level': 1, 'jaccard': -1, 'filled': 0}","{'items': ['31', '18'], 'found': '18', 'support': 317029, 'level': 1, 'jaccard': -1, 'filled': {'31': 46.969, '18': 49.158}}",,,,,
47,"{'items': ['31', '12'], 'found': '12', 'support': 317536, 'level': 1, 'jaccard': -1, 'filled': 0}","{'items': ['31', '12'], 'found': '12', 'support': 317432, 'level': 1, 'jaccard': -1, 'filled': {'31': 46.969, '12': 49.208}}",,,,,
48,"{'items': ['31', '17'], 'found': '17', 'support': 317988, 'level': 1, 'jaccard': -1, 'filled': 0}","{'items': ['31', '17'], 'found': '17', 'support': 317877, 'level': 1, 'jaccard': -1, 'filled': {'31': 46.969, '17': 49.267}}",,,,,
49,"{'items': ['16', '18'], 'found': '18', 'support': 331648, 'level': 1, 'jaccard': -1, 'filled': 0}","{'items': ['16', '18'], 'found': '18', 'support': 331654, 'level': 1, 'jaccard': -1, 'filled': {'16': 48.482, '18': 49.158}}",,,,,
50,"{'items': ['16', '12'], 'found': '12', 'support': 332165, 'level': 1, 'jaccard': -1, 'filled': 0}","{'items': ['16', '12'], 'found': '12', 'support': 332154, 'level': 1, 'jaccard': -1, 'filled': {'16': 48.482, '12': 49.208}}",,,,,
51,"{'items': ['16', '17'], 'found': '17', 'support': 332382, 'level': 1, 'jaccard': -1, 'filled': 0}","{'items': ['16', '17'], 'found': '17', 'support': 332378, 'level': 1, 'jaccard': -1, 'filled': {'16': 48.482, '17': 49.267}}",,,,,
52,"{'items': ['18', '12'], 'found': '12', 'support': 338921, 'level': 1, 'jaccard': -1, 'filled': 0}","{'items': ['18', '12'], 'found': '12', 'support': 338845, 'level': 1, 'jaccard': -1, 'filled': {'18': 49.158, '12': 49.208}}",,,,,
53,"{'items': ['18', '17'], 'found': '17', 'support': 339063, 'level': 1, 'jaccard': -1, 'filled': 0}","{'items': ['18', '17'], 'found': '17', 'support': 338999, 'level': 1, 'jaccard': -1, 'filled': {'18': 49.158, '17': 49.267}}",,,,,
54,"{'items': ['12', '17'], 'found': '17', 'support': 339569, 'level': 1, 'jaccard': -1, 'filled': 0}","{'items': ['12', '17'], 'found': '17', 'support': 339494, 'level': 1, 'jaccard': -1, 'filled': {'12': 49.208, '17': 49.267}}",,,,,
55,"{'items': ['27', '31', '18'], 'found': '18', 'support': 265923, 'level': 2, 'jaccard': -1, 'filled': 0}","{'items': ['15', '16', '18'], 'found': '18', 'support': 267233, 'level': 2, 'jaccard': -1, 'filled': {'15': 41.987, '16': 48.482, '18': 49.158}}",,,,,
56,"{'items': ['27', '31', '12'], 'found': '12', 'support': 266253, 'level': 2, 'jaccard': -1, 'filled': 0}","{'items': ['15', '16', '12'], 'found': '12', 'support': 267622, 'level': 2, 'jaccard': -1, 'filled': {'15': 41.987, '16': 48.482, '12': 49.208}}",,,,,
57,"{'items': ['15', '16', '18'], 'found': '18', 'support': 266387, 'level': 2, 'jaccard': -1, 'filled': 0}","{'items': ['15', '16', '17'], 'found': '17', 'support': 267774, 'level': 2, 'jaccard': -1, 'filled': {'15': 41.987, '16': 48.482, '17': 49.267}}",,,,,
58,"{'items': ['27', '31', '17'], 'found': '17', 'support': 266610, 'level': 2, 'jaccard': -1, 'filled': 0}","{'items': ['27', '31', '18'], 'found': '18', 'support': 267828, 'level': 2, 'jaccard': -1, 'filled': {'27': 43.281, '31': 46.969, '18': 49.158}}",,,,,
59,"{'items': ['27', '21', '16'], 'found': '16', 'support': 266624, 'level': 2, 'jaccard': -1, 'filled': 0}","{'items': ['24', '16', '18'], 'found': '18', 'support': 268050, 'level': 2, 'jaccard': -1, 'filled': {'24': 42.13, '16': 48.482, '18': 49.158}}",,,,,
60,"{'items': ['15', '16', '12'], 'found': '12', 'support': 266842, 'level': 2, 'jaccard': -1, 'filled': 0}","{'items': ['27', '31', '12'], 'found': '12', 'support': 268110, 'level': 2, 'jaccard': -1, 'filled': {'27': 43.281, '31': 46.969, '12': 49.208}}",,,,,
61,"{'items': ['15', '16', '17'], 'found': '17', 'support': 267006, 'level': 2, 'jaccard': -1, 'filled': 0}","{'items': ['27', '21', '16'], 'found': '16', 'support': 268208, 'level': 2, 'jaccard': -1, 'filled': {'27': 43.281, '21': 45.32, '16': 48.482}}",,,,,
62,"{'items': ['24', '16', '18'], 'found': '18', 'support': 267256, 'level': 2, 'jaccard': -1, 'filled': 0}","{'items': ['24', '16', '12'], 'found': '12', 'support': 268424, 'level': 2, 'jaccard': -1, 'filled': {'24': 42.13, '16': 48.482, '12': 49.208}}",,,,,
63,"{'items': ['24', '16', '12'], 'found': '12', 'support': 267690, 'level': 2, 'jaccard': -1, 'filled': 0}","{'items': ['27', '31', '17'], 'found': '17', 'support': 268430, 'level': 2, 'jaccard': -1, 'filled': {'27': 43.281, '31': 46.969, '17': 49.267}}",,,,,
64,"{'items': ['29', '21', '18'], 'found': '18', 'support': 267772, 'level': 2, 'jaccard': -1, 'filled': 0}","{'items': ['24', '16', '17'], 'found': '17', 'support': 268582, 'level': 2, 'jaccard': -1, 'filled': {'24': 42.13, '16': 48.482, '17': 49.267}}",,,,,
65,"{'items': ['24', '16', '17'], 'found': '17', 'support': 267864, 'level': 2, 'jaccard': -1, 'filled': 0}","{'items': ['28', '18', '12'], 'found': '12', 'support': 269558, 'level': 2, 'jaccard': -1, 'filled': {'28': 41.704, '18': 49.158, '12': 49.208}}",,,,,
66,"{'items': ['29', '21', '12'], 'found': '12', 'support': 268212, 'level': 2, 'jaccard': -1, 'filled': 0}","{'items': ['28', '18', '17'], 'found': '17', 'support': 269632, 'level': 2, 'jaccard': -1, 'filled': {'28': 41.704, '18': 49.158, '17': 49.267}}",,,,,
67,"{'items': ['43', '31', '16'], 'found': '16', 'support': 268464, 'level': 2, 'jaccard': -1, 'filled': 0}","{'items': ['29', '21', '18'], 'found': '18', 'support': 269824, 'level': 2, 'jaccard': -1, 'filled': {'29': 44.937, '21': 45.32, '18': 49.158}}",,,,,
68,"{'items': ['29', '21', '17'], 'found': '17', 'support': 268634, 'level': 2, 'jaccard': -1, 'filled': 0}","{'items': ['28', '12', '17'], 'found': '17', 'support': 270093, 'level': 2, 'jaccard': -1, 'filled': {'28': 41.704, '12': 49.208, '17': 49.267}}",,,,,
69,"{'items': ['28', '18', '12'], 'found': '12', 'support': 269522, 'level': 2, 'jaccard': -1, 'filled': 0}","{'items': ['29', '21', '12'], 'found': '12', 'support': 270207, 'level': 2, 'jaccard': -1, 'filled': {'29': 44.937, '21': 45.32, '12': 49.208}}",,,,,
70,"{'items': ['28', '18', '17'], 'found': '17', 'support': 269601, 'level': 2, 'jaccard': -1, 'filled': 0}","{'items': ['43', '31', '16'], 'found': '16', 'support': 270427, 'level': 2, 'jaccard': -1, 'filled': {'43': 44.081, '31': 46.969, '16': 48.482}}",,,,,
71,"{'items': ['28', '12', '17'], 'found': '17', 'support': 270136, 'level': 2, 'jaccard': -1, 'filled': 0}","{'items': ['29', '21', '17'], 'found': '17', 'support': 270598, 'level': 2, 'jaccard': -1, 'filled': {'29': 44.937, '21': 45.32, '17': 49.267}}",,,,,
72,"{'items': ['27', '21', '18'], 'found': '18', 'support': 271615, 'level': 2, 'jaccard': -1, 'filled': 0}","{'items': ['15', '18', '12'], 'found': '12', 'support': 271930, 'level': 2, 'jaccard': -1, 'filled': {'15': 41.987, '18': 49.158, '12': 49.208}}",,,,,
73,"{'items': ['15', '18', '12'], 'found': '12', 'support': 271837, 'level': 2, 'jaccard': -1, 'filled': 0}","{'items': ['15', '18', '17'], 'found': '17', 'support': 272009, 'level': 2, 'jaccard': -1, 'filled': {'15': 41.987, '18': 49.158, '17': 49.267}}",,,,,
74,"{'items': ['15', '18', '17'], 'found': '17', 'support': 271917, 'level': 2, 'jaccard': -1, 'filled': 0}","{'items': ['15', '12', '17'], 'found': '17', 'support': 272399, 'level': 2, 'jaccard': -1, 'filled': {'15': 41.987, '12': 49.208, '17': 49.267}}",,,,,
75,"{'items': ['27', '21', '12'], 'found': '12', 'support': 271999, 'level': 2, 'jaccard': -1, 'filled': 0}","{'items': ['27', '21', '18'], 'found': '18', 'support': 272583, 'level': 2, 'jaccard': -1, 'filled': {'27': 43.281, '21': 45.32, '18': 49.158}}",,,,,
76,"{'items': ['43', '31', '18'], 'found': '18', 'support': 272362, 'level': 2, 'jaccard': -1, 'filled': 0}","{'items': ['27', '21', '12'], 'found': '12', 'support': 272919, 'level': 2, 'jaccard': -1, 'filled': {'27': 43.281, '21': 45.32, '12': 49.208}}",,,,,
77,"{'items': ['15', '12', '17'], 'found': '17', 'support': 272368, 'level': 2, 'jaccard': -1, 'filled': 0}","{'items': ['24', '18', '12'], 'found': '12', 'support': 273216, 'level': 2, 'jaccard': -1, 'filled': {'24': 42.13, '18': 49.158, '12': 49.208}}",,,,,
78,"{'items': ['27', '21', '17'], 'found': '17', 'support': 272410, 'level': 2, 'jaccard': -1, 'filled': 0}","{'items': ['27', '21', '17'], 'found': '17', 'support': 273306, 'level': 2, 'jaccard': -1, 'filled': {'27': 43.281, '21': 45.32, '17': 49.267}}",,,,,
79,"{'items': ['43', '31', '12'], 'found': '12', 'support': 272718, 'level': 2, 'jaccard': -1, 'filled': 0}","{'items': ['24', '18', '17'], 'found': '17', 'support': 273328, 'level': 2, 'jaccard': -1, 'filled': {'24': 42.13, '18': 49.158, '17': 49.267}}",,,,,
80,"{'items': ['43', '31', '17'], 'found': '17', 'support': 273101, 'level': 2, 'jaccard': -1, 'filled': 0}","{'items': ['24', '12', '17'], 'found': '17', 'support': 273698, 'level': 2, 'jaccard': -1, 'filled': {'24': 42.13, '12': 49.208, '17': 49.267}}",,,,,
81,"{'items': ['24', '18', '12'], 'found': '12', 'support': 273193, 'level': 2, 'jaccard': -1, 'filled': 0}","{'items': ['43', '31', '18'], 'found': '18', 'support': 273872, 'level': 2, 'jaccard': -1, 'filled': {'43': 44.081, '31': 46.969, '18': 49.158}}",,,,,
82,"{'items': ['24', '18', '17'], 'found': '17', 'support': 273310, 'level': 2, 'jaccard': -1, 'filled': 0}","{'items': ['43', '31', '12'], 'found': '12', 'support': 274175, 'level': 2, 'jaccard': -1, 'filled': {'43': 44.081, '31': 46.969, '12': 49.208}}",,,,,
83,"{'items': ['24', '12', '17'], 'found': '17', 'support': 273736, 'level': 2, 'jaccard': -1, 'filled': 0}","{'items': ['43', '31', '17'], 'found': '17', 'support': 274519, 'level': 2, 'jaccard': -1, 'filled': {'43': 44.081, '31': 46.969, '17': 49.267}}",,,,,
84,"{'items': ['29', '31', '16'], 'found': '16', 'support': 274211, 'level': 2, 'jaccard': -1, 'filled': 0}","{'items': ['29', '31', '16'], 'found': '16', 'support': 276054, 'level': 2, 'jaccard': -1, 'filled': {'29': 44.937, '31': 46.969, '16': 48.482}}",,,,,
85,"{'items': ['27', '16', '18'], 'found': '18', 'support': 277383, 'level': 2, 'jaccard': -1, 'filled': 0}","{'items': ['27', '16', '18'], 'found': '18', 'support': 278231, 'level': 2, 'jaccard': -1, 'filled': {'27': 43.281, '16': 48.482, '18': 49.158}}",,,,,
86,"{'items': ['27', '16', '12'], 'found': '12', 'support': 277785, 'level': 2, 'jaccard': -1, 'filled': 0}","{'items': ['27', '16', '12'], 'found': '12', 'support': 278584, 'level': 2, 'jaccard': -1, 'filled': {'27': 43.281, '16': 48.482, '12': 49.208}}",,,,,
87,"{'items': ['27', '16', '17'], 'found': '17', 'support': 277935, 'level': 2, 'jaccard': -1, 'filled': 0}","{'items': ['27', '16', '17'], 'found': '17', 'support': 278727, 'level': 2, 'jaccard': -1, 'filled': {'27': 43.281, '16': 48.482, '17': 49.267}}",,,,,
88,"{'items': ['21', '31', '16'], 'found': '16', 'support': 278779, 'level': 2, 'jaccard': -1, 'filled': 0}","{'items': ['29', '31', '18'], 'found': '18', 'support': 280200, 'level': 2, 'jaccard': -1, 'filled': {'29': 44.937, '31': 46.969, '18': 49.158}}",,,,,
89,"{'items': ['29', '31', '18'], 'found': '18', 'support': 278848, 'level': 2, 'jaccard': -1, 'filled': 0}","{'items': ['29', '31', '12'], 'found': '12', 'support': 280563, 'level': 2, 'jaccard': -1, 'filled': {'29': 44.937, '31': 46.969, '12': 49.208}}",,,,,
90,"{'items': ['29', '31', '12'], 'found': '12', 'support': 279263, 'level': 2, 'jaccard': -1, 'filled': 0}","{'items': ['21', '31', '16'], 'found': '16', 'support': 280579, 'level': 2, 'jaccard': -1, 'filled': {'21': 45.32, '31': 46.969, '16': 48.482}}",,,,,
91,"{'items': ['29', '31', '17'], 'found': '17', 'support': 279655, 'level': 2, 'jaccard': -1, 'filled': 0}","{'items': ['29', '31', '17'], 'found': '17', 'support': 280925, 'level': 2, 'jaccard': -1, 'filled': {'29': 44.937, '31': 46.969, '17': 49.267}}",,,,,
92,"{'items': ['27', '18', '12'], 'found': '12', 'support': 283057, 'level': 2, 'jaccard': -1, 'filled': 0}","{'items': ['27', '18', '12'], 'found': '12', 'support': 283302, 'level': 2, 'jaccard': -1, 'filled': {'27': 43.281, '18': 49.158, '12': 49.208}}",,,,,
93,"{'items': ['27', '18', '17'], 'found': '17', 'support': 283158, 'level': 2, 'jaccard': -1, 'filled': 0}","{'items': ['27', '18', '17'], 'found': '17', 'support': 283404, 'level': 2, 'jaccard': -1, 'filled': {'27': 43.281, '18': 49.158, '17': 49.267}}",,,,,
94,"{'items': ['21', '31', '18'], 'found': '18', 'support': 283334, 'level': 2, 'jaccard': -1, 'filled': 0}","{'items': ['27', '12', '17'], 'found': '17', 'support': 283754, 'level': 2, 'jaccard': -1, 'filled': {'27': 43.281, '12': 49.208, '17': 49.267}}",,,,,
95,"{'items': ['27', '12', '17'], 'found': '17', 'support': 283552, 'level': 2, 'jaccard': -1, 'filled': 0}","{'items': ['21', '31', '18'], 'found': '18', 'support': 284689, 'level': 2, 'jaccard': -1, 'filled': {'21': 45.32, '31': 46.969, '18': 49.158}}",,,,,
96,"{'items': ['21', '31', '12'], 'found': '12', 'support': 283729, 'level': 2, 'jaccard': -1, 'filled': 0}","{'items': ['21', '31', '12'], 'found': '12', 'support': 285043, 'level': 2, 'jaccard': -1, 'filled': {'21': 45.32, '31': 46.969, '12': 49.208}}",,,,,
97,"{'items': ['21', '31', '17'], 'found': '17', 'support': 284129, 'level': 2, 'jaccard': -1, 'filled': 0}","{'items': ['43', '16', '18'], 'found': '18', 'support': 285172, 'level': 2, 'jaccard': -1, 'filled': {'43': 44.081, '16': 48.482, '18': 49.158}}",,,,,
98,"{'items': ['43', '16', '18'], 'found': '18', 'support': 284589, 'level': 2, 'jaccard': -1, 'filled': 0}","{'items': ['21', '31', '17'], 'found': '17', 'support': 285411, 'level': 2, 'jaccard': -1, 'filled': {'21': 45.32, '31': 46.969, '17': 49.267}}",,,,,
99,"{'items': ['43', '16', '12'], 'found': '12', 'support': 285004, 'level': 2, 'jaccard': -1, 'filled': 0}","{'items': ['43', '16', '12'], 'found': '12', 'support': 285535, 'level': 2, 'jaccard': -1, 'filled': {'43': 44.081, '16': 48.482, '12': 49.208}}",,,,,
100,"{'items': ['43', '16', '17'], 'found': '17', 'support': 285190, 'level': 2, 'jaccard': -1, 'filled': 0}","{'items': ['43', '16', '17'], 'found': '17', 'support': 285710, 'level': 2, 'jaccard': -1, 'filled': {'43': 44.081, '16': 48.482, '17': 49.267}}",,,,,
101,"{'items': ['43', '18', '12'], 'found': '12', 'support': 290341, 'level': 2, 'jaccard': -1, 'filled': 0}","{'items': ['43', '18', '12'], 'found': '12', 'support': 290349, 'level': 2, 'jaccard': -1, 'filled': {'43': 44.081, '18': 49.158, '12': 49.208}}",,,,,
102,"{'items': ['43', '18', '17'], 'found': '17', 'support': 290463, 'level': 2, 'jaccard': -1, 'filled': 0}","{'items': ['43', '18', '17'], 'found': '17', 'support': 290470, 'level': 2, 'jaccard': -1, 'filled': {'43': 44.081, '18': 49.158, '17': 49.267}}",,,,,
103,"{'items': ['43', '12', '17'], 'found': '17', 'support': 290869, 'level': 2, 'jaccard': -1, 'filled': 0}","{'items': ['43', '12', '17'], 'found': '17', 'support': 290825, 'level': 2, 'jaccard': -1, 'filled': {'43': 44.081, '12': 49.208, '17': 49.267}}",,,,,
104,"{'items': ['29', '16', '18'], 'found': '18', 'support': 291245, 'level': 2, 'jaccard': -1, 'filled': 0}","{'items': ['29', '16', '18'], 'found': '18', 'support': 291769, 'level': 2, 'jaccard': -1, 'filled': {'29': 44.937, '16': 48.482, '18': 49.158}}",,,,,
105,"{'items': ['29', '16', '12'], 'found': '12', 'support': 291738, 'level': 2, 'jaccard': -1, 'filled': 0}","{'items': ['29', '16', '12'], 'found': '12', 'support': 292212, 'level': 2, 'jaccard': -1, 'filled': {'29': 44.937, '16': 48.482, '12': 49.208}}",,,,,
106,"{'items': ['29', '16', '17'], 'found': '17', 'support': 291926, 'level': 2, 'jaccard': -1, 'filled': 0}","{'items': ['29', '16', '17'], 'found': '17', 'support': 292389, 'level': 2, 'jaccard': -1, 'filled': {'29': 44.937, '16': 48.482, '17': 49.267}}",,,,,
107,"{'items': ['21', '16', '18'], 'found': '18', 'support': 294663, 'level': 2, 'jaccard': -1, 'filled': 0}","{'items': ['21', '16', '18'], 'found': '18', 'support': 295356, 'level': 2, 'jaccard': -1, 'filled': {'21': 45.32, '16': 48.482, '18': 49.158}}",,,,,
108,"{'items': ['21', '16', '12'], 'found': '12', 'support': 295134, 'level': 2, 'jaccard': -1, 'filled': 0}","{'items': ['21', '16', '12'], 'found': '12', 'support': 295788, 'level': 2, 'jaccard': -1, 'filled': {'21': 45.32, '16': 48.482, '12': 49.208}}",,,,,
109,"{'items': ['21', '16', '17'], 'found': '17', 'support': 295320, 'level': 2, 'jaccard': -1, 'filled': 0}","{'items': ['21', '16', '17'], 'found': '17', 'support': 295963, 'level': 2, 'jaccard': -1, 'filled': {'21': 45.32, '16': 48.482, '17': 49.267}}",,,,,
110,"{'items': ['29', '18', '12'], 'found': '12', 'support': 298041, 'level': 2, 'jaccard': -1, 'filled': 0}","{'items': ['29', '18', '12'], 'found': '12', 'support': 297973, 'level': 2, 'jaccard': -1, 'filled': {'29': 44.937, '18': 49.158, '12': 49.208}}",,,,,
111,"{'items': ['29', '18', '17'], 'found': '17', 'support': 298165, 'level': 2, 'jaccard': -1, 'filled': 0}","{'items': ['29', '18', '17'], 'found': '17', 'support': 298094, 'level': 2, 'jaccard': -1, 'filled': {'29': 44.937, '18': 49.158, '17': 49.267}}",,,,,
112,"{'items': ['29', '12', '17'], 'found': '17', 'support': 298648, 'level': 2, 'jaccard': -1, 'filled': 0}","{'items': ['29', '12', '17'], 'found': '17', 'support': 298531, 'level': 2, 'jaccard': -1, 'filled': {'29': 44.937, '12': 49.208, '17': 49.267}}",,,,,
113,"{'items': ['21', '18', '12'], 'found': '12', 'support': 301317, 'level': 2, 'jaccard': -1, 'filled': 0}","{'items': ['21', '18', '12'], 'found': '12', 'support': 301475, 'level': 2, 'jaccard': -1, 'filled': {'21': 45.32, '18': 49.158, '12': 49.208}}",,,,,
114,"{'items': ['21', '18', '17'], 'found': '17', 'support': 301447, 'level': 2, 'jaccard': -1, 'filled': 0}","{'items': ['21', '18', '17'], 'found': '17', 'support': 301608, 'level': 2, 'jaccard': -1, 'filled': {'21': 45.32, '18': 49.158, '17': 49.267}}",,,,,
115,"{'items': ['21', '12', '17'], 'found': '17', 'support': 301908, 'level': 2, 'jaccard': -1, 'filled': 0}","{'items': ['21', '12', '17'], 'found': '17', 'support': 302033, 'level': 2, 'jaccard': -1, 'filled': {'21': 45.32, '12': 49.208, '17': 49.267}}",,,,,
116,"{'items': ['31', '16', '18'], 'found': '18', 'support': 311569, 'level': 2, 'jaccard': -1, 'filled': 0}","{'items': ['31', '16', '18'], 'found': '18', 'support': 311717, 'level': 2, 'jaccard': -1, 'filled': {'31': 46.969, '16': 48.482, '18': 49.158}}",,,,,
117,"{'items': ['31', '16', '12'], 'found': '12', 'support': 312009, 'level': 2, 'jaccard': -1, 'filled': 0}","{'items': ['31', '16', '12'], 'found': '12', 'support': 312125, 'level': 2, 'jaccard': -1, 'filled': {'31': 46.969, '16': 48.482, '12': 49.208}}",,,,,
118,"{'items': ['31', '16', '17'], 'found': '17', 'support': 312178, 'level': 2, 'jaccard': -1, 'filled': 0}","{'items': ['31', '16', '17'], 'found': '17', 'support': 312289, 'level': 2, 'jaccard': -1, 'filled': {'31': 46.969, '16': 48.482, '17': 49.267}}",,,,,
119,"{'items': ['31', '18', '12'], 'found': '12', 'support': 316960, 'level': 2, 'jaccard': -1, 'filled': 0}","{'items': ['31', '18', '12'], 'found': '12', 'support': 316888, 'level': 2, 'jaccard': -1, 'filled': {'31': 46.969, '18': 49.158, '12': 49.208}}",,,,,
120,"{'items': ['31', '18', '17'], 'found': '17', 'support': 317077, 'level': 2, 'jaccard': -1, 'filled': 0}","{'items': ['31', '18', '17'], 'found': '17', 'support': 317008, 'level': 2, 'jaccard': -1, 'filled': {'31': 46.969, '18': 49.158, '17': 49.267}}",,,,,
121,"{'items': ['31', '12', '17'], 'found': '17', 'support': 317510, 'level': 2, 'jaccard': -1, 'filled': 0}","{'items': ['31', '12', '17'], 'found': '17', 'support': 317411, 'level': 2, 'jaccard': -1, 'filled': {'31': 46.969, '12': 49.208, '17': 49.267}}",,,,,
122,"{'items': ['16', '18', '12'], 'found': '12', 'support': 331490, 'level': 2, 'jaccard': -1, 'filled': 0}","{'items': ['16', '18', '12'], 'found': '12', 'support': 331498, 'level': 2, 'jaccard': -1, 'filled': {'16': 48.482, '18': 49.158, '12': 49.208}}",,,,,
123,"{'items': ['16', '18', '17'], 'found': '17', 'support': 331616, 'level': 2, 'jaccard': -1, 'filled': 0}","{'items': ['16', '18', '17'], 'found': '17', 'support': 331629, 'level': 2, 'jaccard': -1, 'filled': {'16': 48.482, '18': 49.158, '17': 49.267}}",,,,,
124,"{'items': ['16', '12', '17'], 'found': '17', 'support': 332133, 'level': 2, 'jaccard': -1, 'filled': 0}","{'items': ['16', '12', '17'], 'found': '17', 'support': 332129, 'level': 2, 'jaccard': -1, 'filled': {'16': 48.482, '12': 49.208, '17': 49.267}}",,,,,
125,"{'items': ['18', '12', '17'], 'found': '17', 'support': 338889, 'level': 2, 'jaccard': -1, 'filled': 0}","{'items': ['18', '12', '17'], 'found': '17', 'support': 338820, 'level': 2, 'jaccard': -1, 'filled': {'18': 49.158, '12': 49.208, '17': 49.267}}",,,,,
126,"{'items': ['27', '31', '18', '12'], 'found': '12', 'support': 265818, 'level': 3, 'jaccard': -1, 'filled': 0}","{'items': ['15', '16', '18', '12'], 'found': '12', 'support': 267141, 'level': 3, 'jaccard': -1, 'filled': {'15': 41.987, '16': 48.482, '18': 49.158, '12': 49.208}}",,,,,
127,"{'items': ['27', '31', '18', '17'], 'found': '17', 'support': 265901, 'level': 3, 'jaccard': -1, 'filled': 0}","{'items': ['15', '16', '18', '17'], 'found': '17', 'support': 267211, 'level': 3, 'jaccard': -1, 'filled': {'15': 41.987, '16': 48.482, '18': 49.158, '17': 49.267}}",,,,,
128,"{'items': ['27', '21', '16', '18'], 'found': '18', 'support': 266061, 'level': 3, 'jaccard': -1, 'filled': 0}","{'items': ['15', '16', '12', '17'], 'found': '17', 'support': 267600, 'level': 3, 'jaccard': -1, 'filled': {'15': 41.987, '16': 48.482, '12': 49.208, '17': 49.267}}",,,,,
129,"{'items': ['27', '31', '12', '17'], 'found': '17', 'support': 266231, 'level': 3, 'jaccard': -1, 'filled': 0}","{'items': ['27', '21', '16', '18'], 'found': '18', 'support': 267713, 'level': 3, 'jaccard': -1, 'filled': {'27': 43.281, '21': 45.32, '16': 48.482, '18': 49.158}}",,,,,
130,"{'items': ['15', '16', '18', '12'], 'found': '12', 'support': 266283, 'level': 3, 'jaccard': -1, 'filled': 0}","{'items': ['27', '31', '18', '12'], 'found': '12', 'support': 267729, 'level': 3, 'jaccard': -1, 'filled': {'27': 43.281, '31': 46.969, '18': 49.158, '12': 49.208}}",,,,,
131,"{'items': ['15', '16', '18', '17'], 'found': '17', 'support': 266356, 'level': 3, 'jaccard': -1, 'filled': 0}","{'items': ['27', '31', '18', '17'], 'found': '17', 'support': 267811, 'level': 3, 'jaccard': -1, 'filled': {'27': 43.281, '31': 46.969, '18': 49.158, '17': 49.267}}",,,,,
132,"{'items': ['27', '21', '16', '12'], 'found': '12', 'support': 266452, 'level': 3, 'jaccard': -1, 'filled': 0}","{'items': ['24', '16', '18', '12'], 'found': '12', 'support': 267936, 'level': 3, 'jaccard': -1, 'filled': {'24': 42.13, '16': 48.482, '18': 49.158, '12': 49.208}}",,,,,
133,"{'items': ['27', '21', '16', '17'], 'found': '17', 'support': 266596, 'level': 3, 'jaccard': -1, 'filled': 0}","{'items': ['24', '16', '18', '17'], 'found': '17', 'support': 268033, 'level': 3, 'jaccard': -1, 'filled': {'24': 42.13, '16': 48.482, '18': 49.158, '17': 49.267}}",,,,,
134,"{'items': ['15', '16', '12', '17'], 'found': '17', 'support': 266811, 'level': 3, 'jaccard': -1, 'filled': 0}","{'items': ['27', '21', '16', '12'], 'found': '12', 'support': 268052, 'level': 3, 'jaccard': -1, 'filled': {'27': 43.281, '21': 45.32, '16': 48.482, '12': 49.208}}",,,,,
135,"{'items': ['24', '16', '18', '12'], 'found': '12', 'support': 267128, 'level': 3, 'jaccard': -1, 'filled': 0}","{'items': ['27', '31', '12', '17'], 'found': '17', 'support': 268093, 'level': 3, 'jaccard': -1, 'filled': {'27': 43.281, '31': 46.969, '12': 49.208, '17': 49.267}}",,,,,
136,"{'items': ['24', '16', '18', '17'], 'found': '17', 'support': 267233, 'level': 3, 'jaccard': -1, 'filled': 0}","{'items': ['27', '21', '16', '17'], 'found': '17', 'support': 268187, 'level': 3, 'jaccard': -1, 'filled': {'27': 43.281, '21': 45.32, '16': 48.482, '17': 49.267}}",,,,,
137,"{'items': ['29', '21', '18', '12'], 'found': '12', 'support': 267625, 'level': 3, 'jaccard': -1, 'filled': 0}","{'items': ['24', '16', '12', '17'], 'found': '17', 'support': 268407, 'level': 3, 'jaccard': -1, 'filled': {'24': 42.13, '16': 48.482, '12': 49.208, '17': 49.267}}",,,,,
138,"{'items': ['24', '16', '12', '17'], 'found': '17', 'support': 267667, 'level': 3, 'jaccard': -1, 'filled': 0}","{'items': ['28', '18', '12', '17'], 'found': '17', 'support': 269541, 'level': 3, 'jaccard': -1, 'filled': {'28': 41.704, '18': 49.158, '12': 49.208, '17': 49.267}}",,,,,
139,"{'items': ['29', '21', '18', '17'], 'found': '17', 'support': 267741, 'level': 3, 'jaccard': -1, 'filled': 0}","{'items': ['29', '21', '18', '12'], 'found': '12', 'support': 269694, 'level': 3, 'jaccard': -1, 'filled': {'29': 44.937, '21': 45.32, '18': 49.158, '12': 49.208}}",,,,,
140,"{'items': ['43', '31', '16', '18'], 'found': '18', 'support': 267936, 'level': 3, 'jaccard': -1, 'filled': 0}","{'items': ['29', '21', '18', '17'], 'found': '17', 'support': 269802, 'level': 3, 'jaccard': -1, 'filled': {'29': 44.937, '21': 45.32, '18': 49.158, '17': 49.267}}",,,,,
141,"{'items': ['29', '21', '12', '17'], 'found': '17', 'support': 268181, 'level': 3, 'jaccard': -1, 'filled': 0}","{'items': ['43', '31', '16', '18'], 'found': '18', 'support': 269977, 'level': 3, 'jaccard': -1, 'filled': {'43': 44.081, '31': 46.969, '16': 48.482, '18': 49.158}}",,,,,
142,"{'items': ['43', '31', '16', '12'], 'found': '12', 'support': 268296, 'level': 3, 'jaccard': -1, 'filled': 0}","{'items': ['29', '21', '12', '17'], 'found': '17', 'support': 270185, 'level': 3, 'jaccard': -1, 'filled': {'29': 44.937, '21': 45.32, '12': 49.208, '17': 49.267}}",,,,,
143,"{'items': ['43', '31', '16', '17'], 'found': '17', 'support': 268439, 'level': 3, 'jaccard': -1, 'filled': 0}","{'items': ['43', '31', '16', '12'], 'found': '12', 'support': 270282, 'level': 3, 'jaccard': -1, 'filled': {'43': 44.081, '31': 46.969, '16': 48.482, '12': 49.208}}",,,,,
144,"{'items': ['28', '18', '12', '17'], 'found': '17', 'support': 269494, 'level': 3, 'jaccard': -1, 'filled': 0}","{'items': ['43', '31', '16', '17'], 'found': '17', 'support': 270408, 'level': 3, 'jaccard': -1, 'filled': {'43': 44.081, '31': 46.969, '16': 48.482, '17': 49.267}}",,,,,
145,"{'items': ['27', '21', '18', '12'], 'found': '12', 'support': 271492, 'level': 3, 'jaccard': -1, 'filled': 0}","{'items': ['15', '18', '12', '17'], 'found': '17', 'support': 271908, 'level': 3, 'jaccard': -1, 'filled': {'15': 41.987, '18': 49.158, '12': 49.208, '17': 49.267}}",,,,,
146,"{'items': ['27', '21', '18', '17'], 'found': '17', 'support': 271587, 'level': 3, 'jaccard': -1, 'filled': 0}","{'items': ['27', '21', '18', '12'], 'found': '12', 'support': 272466, 'level': 3, 'jaccard': -1, 'filled': {'27': 43.281, '21': 45.32, '18': 49.158, '12': 49.208}}",,,,,
147,"{'items': ['15', '18', '12', '17'], 'found': '17', 'support': 271806, 'level': 3, 'jaccard': -1, 'filled': 0}","{'items': ['27', '21', '18', '17'], 'found': '17', 'support': 272562, 'level': 3, 'jaccard': -1, 'filled': {'27': 43.281, '21': 45.32, '18': 49.158, '17': 49.267}}",,,,,
148,"{'items': ['27', '21', '12', '17'], 'found': '17', 'support': 271971, 'level': 3, 'jaccard': -1, 'filled': 0}","{'items': ['27', '21', '12', '17'], 'found': '17', 'support': 272898, 'level': 3, 'jaccard': -1, 'filled': {'27': 43.281, '21': 45.32, '12': 49.208, '17': 49.267}}",,,,,
149,"{'items': ['43', '31', '18', '12'], 'found': '12', 'support': 272239, 'level': 3, 'jaccard': -1, 'filled': 0}","{'items': ['24', '18', '12', '17'], 'found': '17', 'support': 273199, 'level': 3, 'jaccard': -1, 'filled': {'24': 42.13, '18': 49.158, '12': 49.208, '17': 49.267}}",,,,,
150,"{'items': ['43', '31', '18', '17'], 'found': '17', 'support': 272337, 'level': 3, 'jaccard': -1, 'filled': 0}","{'items': ['43', '31', '18', '12'], 'found': '12', 'support': 273761, 'level': 3, 'jaccard': -1, 'filled': {'43': 44.081, '31': 46.969, '18': 49.158, '12': 49.208}}",,,,,
151,"{'items': ['43', '31', '12', '17'], 'found': '17', 'support': 272693, 'level': 3, 'jaccard': -1, 'filled': 0}","{'items': ['43', '31', '18', '17'], 'found': '17', 'support': 273853, 'level': 3, 'jaccard': -1, 'filled': {'43': 44.081, '31': 46.969, '18': 49.158, '17': 49.267}}",,,,,
152,"{'items': ['24', '18', '12', '17'], 'found': '17', 'support': 273170, 'level': 3, 'jaccard': -1, 'filled': 0}","{'items': ['43', '31', '12', '17'], 'found': '17', 'support': 274156, 'level': 3, 'jaccard': -1, 'filled': {'43': 44.081, '31': 46.969, '12': 49.208, '17': 49.267}}",,,,,
153,"{'items': ['29', '31', '16', '18'], 'found': '18', 'support': 273617, 'level': 3, 'jaccard': -1, 'filled': 0}","{'items': ['29', '31', '16', '18'], 'found': '18', 'support': 275537, 'level': 3, 'jaccard': -1, 'filled': {'29': 44.937, '31': 46.969, '16': 48.482, '18': 49.158}}",,,,,
154,"{'items': ['29', '31', '16', '12'], 'found': '12', 'support': 274039, 'level': 3, 'jaccard': -1, 'filled': 0}","{'items': ['29', '31', '16', '12'], 'found': '12', 'support': 275904, 'level': 3, 'jaccard': -1, 'filled': {'29': 44.937, '31': 46.969, '16': 48.482, '12': 49.208}}",,,,,
155,"{'items': ['29', '31', '16', '17'], 'found': '17', 'support': 274185, 'level': 3, 'jaccard': -1, 'filled': 0}","{'items': ['29', '31', '16', '17'], 'found': '17', 'support': 276035, 'level': 3, 'jaccard': -1, 'filled': {'29': 44.937, '31': 46.969, '16': 48.482, '17': 49.267}}",,,,,
156,"{'items': ['27', '16', '18', '12'], 'found': '12', 'support': 277266, 'level': 3, 'jaccard': -1, 'filled': 0}","{'items': ['27', '16', '18', '12'], 'found': '12', 'support': 278122, 'level': 3, 'jaccard': -1, 'filled': {'27': 43.281, '16': 48.482, '18': 49.158, '12': 49.208}}",,,,,
157,"{'items': ['27', '16', '18', '17'], 'found': '17', 'support': 277355, 'level': 3, 'jaccard': -1, 'filled': 0}","{'items': ['27', '16', '18', '17'], 'found': '17', 'support': 278211, 'level': 3, 'jaccard': -1, 'filled': {'27': 43.281, '16': 48.482, '18': 49.158, '17': 49.267}}",,,,,
158,"{'items': ['27', '16', '12', '17'], 'found': '17', 'support': 277757, 'level': 3, 'jaccard': -1, 'filled': 0}","{'items': ['27', '16', '12', '17'], 'found': '17', 'support': 278563, 'level': 3, 'jaccard': -1, 'filled': {'27': 43.281, '16': 48.482, '12': 49.208, '17': 49.267}}",,,,,
159,"{'items': ['21', '31', '16', '18'], 'found': '18', 'support': 278201, 'level': 3, 'jaccard': -1, 'filled': 0}","{'items': ['21', '31', '16', '18'], 'found': '18', 'support': 280066, 'level': 3, 'jaccard': -1, 'filled': {'21': 45.32, '31': 46.969, '16': 48.482, '18': 49.158}}",,,,,
160,"{'items': ['21', '31', '16', '12'], 'found': '12', 'support': 278603, 'level': 3, 'jaccard': -1, 'filled': 0}","{'items': ['29', '31', '18', '12'], 'found': '12', 'support': 280085, 'level': 3, 'jaccard': -1, 'filled': {'29': 44.937, '31': 46.969, '18': 49.158, '12': 49.208}}",,,,,
161,"{'items': ['29', '31', '18', '12'], 'found': '12', 'support': 278720, 'level': 3, 'jaccard': -1, 'filled': 0}","{'items': ['29', '31', '18', '17'], 'found': '17', 'support': 280180, 'level': 3, 'jaccard': -1, 'filled': {'29': 44.937, '31': 46.969, '18': 49.158, '17': 49.267}}",,,,,
162,"{'items': ['21', '31', '16', '17'], 'found': '17', 'support': 278754, 'level': 3, 'jaccard': -1, 'filled': 0}","{'items': ['21', '31', '16', '12'], 'found': '12', 'support': 280424, 'level': 3, 'jaccard': -1, 'filled': {'21': 45.32, '31': 46.969, '16': 48.482, '12': 49.208}}",,,,,
163,"{'items': ['29', '31', '18', '17'], 'found': '17', 'support': 278822, 'level': 3, 'jaccard': -1, 'filled': 0}","{'items': ['29', '31', '12', '17'], 'found': '17', 'support': 280543, 'level': 3, 'jaccard': -1, 'filled': {'29': 44.937, '31': 46.969, '12': 49.208, '17': 49.267}}",,,,,
164,"{'items': ['29', '31', '12', '17'], 'found': '17', 'support': 279237, 'level': 3, 'jaccard': -1, 'filled': 0}","{'items': ['21', '31', '16', '17'], 'found': '17', 'support': 280560, 'level': 3, 'jaccard': -1, 'filled': {'21': 45.32, '31': 46.969, '16': 48.482, '17': 49.267}}",,,,,
165,"{'items': ['27', '18', '12', '17'], 'found': '17', 'support': 283029, 'level': 3, 'jaccard': -1, 'filled': 0}","{'items': ['27', '18', '12', '17'], 'found': '17', 'support': 283281, 'level': 3, 'jaccard': -1, 'filled': {'27': 43.281, '18': 49.158, '12': 49.208, '17': 49.267}}",,,,,
166,"{'items': ['21', '31', '18', '12'], 'found': '12', 'support': 283202, 'level': 3, 'jaccard': -1, 'filled': 0}","{'items': ['21', '31', '18', '12'], 'found': '12', 'support': 284567, 'level': 3, 'jaccard': -1, 'filled': {'21': 45.32, '31': 46.969, '18': 49.158, '12': 49.208}}",,,,,
167,"{'items': ['21', '31', '18', '17'], 'found': '17', 'support': 283309, 'level': 3, 'jaccard': -1, 'filled': 0}","{'items': ['21', '31', '18', '17'], 'found': '17', 'support': 284670, 'level': 3, 'jaccard': -1, 'filled': {'21': 45.32, '31': 46.969, '18': 49.158, '17': 49.267}}",,,,,
168,"{'items': ['21', '31', '12', '17'], 'found': '17', 'support': 283704, 'level': 3, 'jaccard': -1, 'filled': 0}","{'items': ['21', '31', '12', '17'], 'found': '17', 'support': 285024, 'level': 3, 'jaccard': -1, 'filled': {'21': 45.32, '31': 46.969, '12': 49.208, '17': 49.267}}",,,,,
169,"{'items': ['43', '16', '18', '12'], 'found': '12', 'support': 284449, 'level': 3, 'jaccard': -1, 'filled': 0}","{'items': ['43', '16', '18', '12'], 'found': '12', 'support': 285044, 'level': 3, 'jaccard': -1, 'filled': {'43': 44.081, '16': 48.482, '18': 49.158, '12': 49.208}}",,,,,
170,"{'items': ['43', '16', '18', '17'], 'found': '17', 'support': 284559, 'level': 3, 'jaccard': -1, 'filled': 0}","{'items': ['43', '16', '18', '17'], 'found': '17', 'support': 285149, 'level': 3, 'jaccard': -1, 'filled': {'43': 44.081, '16': 48.482, '18': 49.158, '17': 49.267}}",,,,,
171,"{'items': ['43', '16', '12', '17'], 'found': '17', 'support': 284974, 'level': 3, 'jaccard': -1, 'filled': 0}","{'items': ['43', '16', '12', '17'], 'found': '17', 'support': 285512, 'level': 3, 'jaccard': -1, 'filled': {'43': 44.081, '16': 48.482, '12': 49.208, '17': 49.267}}",,,,,
172,"{'items': ['43', '18', '12', '17'], 'found': '17', 'support': 290311, 'level': 3, 'jaccard': -1, 'filled': 0}","{'items': ['43', '18', '12', '17'], 'found': '17', 'support': 290326, 'level': 3, 'jaccard': -1, 'filled': {'43': 44.081, '18': 49.158, '12': 49.208, '17': 49.267}}",,,,,
173,"{'items': ['29', '16', '18', '12'], 'found': '12', 'support': 291104, 'level': 3, 'jaccard': -1, 'filled': 0}","{'items': ['29', '16', '18', '12'], 'found': '12', 'support': 291645, 'level': 3, 'jaccard': -1, 'filled': {'29': 44.937, '16': 48.482, '18': 49.158, '12': 49.208}}",,,,,
174,"{'items': ['29', '16', '18', '17'], 'found': '17', 'support': 291213, 'level': 3, 'jaccard': -1, 'filled': 0}","{'items': ['29', '16', '18', '17'], 'found': '17', 'support': 291746, 'level': 3, 'jaccard': -1, 'filled': {'29': 44.937, '16': 48.482, '18': 49.158, '17': 49.267}}",,,,,
175,"{'items': ['29', '16', '12', '17'], 'found': '17', 'support': 291706, 'level': 3, 'jaccard': -1, 'filled': 0}","{'items': ['29', '16', '12', '17'], 'found': '17', 'support': 292189, 'level': 3, 'jaccard': -1, 'filled': {'29': 44.937, '16': 48.482, '12': 49.208, '17': 49.267}}",,,,,
176,"{'items': ['21', '16', '18', '12'], 'found': '12', 'support': 294517, 'level': 3, 'jaccard': -1, 'filled': 0}","{'items': ['21', '16', '18', '12'], 'found': '12', 'support': 295220, 'level': 3, 'jaccard': -1, 'filled': {'21': 45.32, '16': 48.482, '18': 49.158, '12': 49.208}}",,,,,
177,"{'items': ['21', '16', '18', '17'], 'found': '17', 'support': 294632, 'level': 3, 'jaccard': -1, 'filled': 0}","{'items': ['21', '16', '18', '17'], 'found': '17', 'support': 295332, 'level': 3, 'jaccard': -1, 'filled': {'21': 45.32, '16': 48.482, '18': 49.158, '17': 49.267}}",,,,,
178,"{'items': ['21', '16', '12', '17'], 'found': '17', 'support': 295103, 'level': 3, 'jaccard': -1, 'filled': 0}","{'items': ['21', '16', '12', '17'], 'found': '17', 'support': 295764, 'level': 3, 'jaccard': -1, 'filled': {'21': 45.32, '16': 48.482, '12': 49.208, '17': 49.267}}",,,,,
179,"{'items': ['29', '18', '12', '17'], 'found': '17', 'support': 298009, 'level': 3, 'jaccard': -1, 'filled': 0}","{'items': ['29', '18', '12', '17'], 'found': '17', 'support': 297949, 'level': 3, 'jaccard': -1, 'filled': {'29': 44.937, '18': 49.158, '12': 49.208, '17': 49.267}}",,,,,
180,"{'items': ['21', '18', '12', '17'], 'found': '17', 'support': 301286, 'level': 3, 'jaccard': -1, 'filled': 0}","{'items': ['21', '18', '12', '17'], 'found': '17', 'support': 301452, 'level': 3, 'jaccard': -1, 'filled': {'21': 45.32, '18': 49.158, '12': 49.208, '17': 49.267}}",,,,,
181,"{'items': ['31', '16', '18', '12'], 'found': '12', 'support': 311437, 'level': 3, 'jaccard': -1, 'filled': 0}","{'items': ['31', '16', '18', '12'], 'found': '12', 'support': 311592, 'level': 3, 'jaccard': -1, 'filled': {'31': 46.969, '16': 48.482, '18': 49.158, '12': 49.208}}",,,,,
182,"{'items': ['31', '16', '18', '17'], 'found': '17', 'support': 311543, 'level': 3, 'jaccard': -1, 'filled': 0}","{'items': ['31', '16', '18', '17'], 'found': '17', 'support': 311697, 'level': 3, 'jaccard': -1, 'filled': {'31': 46.969, '16': 48.482, '18': 49.158, '17': 49.267}}",,,,,
183,"{'items': ['31', '16', '12', '17'], 'found': '17', 'support': 311983, 'level': 3, 'jaccard': -1, 'filled': 0}","{'items': ['31', '16', '12', '17'], 'found': '17', 'support': 312104, 'level': 3, 'jaccard': -1, 'filled': {'31': 46.969, '16': 48.482, '12': 49.208, '17': 49.267}}",,,,,
184,"{'items': ['31', '18', '12', '17'], 'found': '17', 'support': 316934, 'level': 3, 'jaccard': -1, 'filled': 0}","{'items': ['31', '18', '12', '17'], 'found': '17', 'support': 316867, 'level': 3, 'jaccard': -1, 'filled': {'31': 46.969, '18': 49.158, '12': 49.208, '17': 49.267}}",,,,,
185,"{'items': ['16', '18', '12', '17'], 'found': '17', 'support': 331458, 'level': 3, 'jaccard': -1, 'filled': 0}","{'items': ['16', '18', '12', '17'], 'found': '17', 'support': 331473, 'level': 3, 'jaccard': -1, 'filled': {'16': 48.482, '18': 49.158, '12': 49.208, '17': 49.267}}",,,,,
186,"{'items': ['27', '31', '18', '12', '17'], 'found': '17', 'support': 265796, 'level': 4, 'jaccard': -1, 'filled': 0}","{'items': ['15', '16', '18', '12', '17'], 'found': '17', 'support': 267119, 'level': 4, 'jaccard': -1, 'filled': {'15': 41.987, '16': 48.482, '18': 49.158, '12': 49.208, '17': 49.267}}",,,,,
187,"{'items': ['27', '21', '16', '18', '12'], 'found': '12', 'support': 265949, 'level': 4, 'jaccard': -1, 'filled': 0}","{'items': ['27', '21', '16', '18', '12'], 'found': '12', 'support': 267608, 'level': 4, 'jaccard': -1, 'filled': {'27': 43.281, '21': 45.32, '16': 48.482, '18': 49.158, '12': 49.208}}",,,,,
188,"{'items': ['27', '21', '16', '18', '17'], 'found': '17', 'support': 266033, 'level': 4, 'jaccard': -1, 'filled': 0}","{'items': ['27', '21', '16', '18', '17'], 'found': '17', 'support': 267692, 'level': 4, 'jaccard': -1, 'filled': {'27': 43.281, '21': 45.32, '16': 48.482, '18': 49.158, '17': 49.267}}",,,,,
189,"{'items': ['15', '16', '18', '12', '17'], 'found': '17', 'support': 266252, 'level': 4, 'jaccard': -1, 'filled': 0}","{'items': ['27', '31', '18', '12', '17'], 'found': '17', 'support': 267712, 'level': 4, 'jaccard': -1, 'filled': {'27': 43.281, '31': 46.969, '18': 49.158, '12': 49.208, '17': 49.267}}",,,,,
190,"{'items': ['27', '21', '16', '12', '17'], 'found': '17', 'support': 266424, 'level': 4, 'jaccard': -1, 'filled': 0}","{'items': ['24', '16', '18', '12', '17'], 'found': '17', 'support': 267919, 'level': 4, 'jaccard': -1, 'filled': {'24': 42.13, '16': 48.482, '18': 49.158, '12': 49.208, '17': 49.267}}",,,,,
191,"{'items': ['24', '16', '18', '12', '17'], 'found': '17', 'support': 267105, 'level': 4, 'jaccard': -1, 'filled': 0}","{'items': ['27', '21', '16', '12', '17'], 'found': '17', 'support': 268032, 'level': 4, 'jaccard': -1, 'filled': {'27': 43.281, '21': 45.32, '16': 48.482, '12': 49.208, '17': 49.267}}",,,,,
192,"{'items': ['29', '21', '18', '12', '17'], 'found': '17', 'support': 267594, 'level': 4, 'jaccard': -1, 'filled': 0}","{'items': ['29', '21', '18', '12', '17'], 'found': '17', 'support': 269671, 'level': 4, 'jaccard': -1, 'filled': {'29': 44.937, '21': 45.32, '18': 49.158, '12': 49.208, '17': 49.267}}",,,,,
193,"{'items': ['43', '31', '16', '18', '12'], 'found': '12', 'support': 267820, 'level': 4, 'jaccard': -1, 'filled': 0}","{'items': ['43', '31', '16', '18', '12'], 'found': '12', 'support': 269875, 'level': 4, 'jaccard': -1, 'filled': {'43': 44.081, '31': 46.969, '16': 48.482, '18': 49.158, '12': 49.208}}",,,,,
194,"{'items': ['43', '31', '16', '18', '17'], 'found': '17', 'support': 267911, 'level': 4, 'jaccard': -1, 'filled': 0}","{'items': ['43', '31', '16', '18', '17'], 'found': '17', 'support': 269958, 'level': 4, 'jaccard': -1, 'filled': {'43': 44.081, '31': 46.969, '16': 48.482, '18': 49.158, '17': 49.267}}",,,,,
195,"{'items': ['43', '31', '16', '12', '17'], 'found': '17', 'support': 268271, 'level': 4, 'jaccard': -1, 'filled': 0}","{'items': ['43', '31', '16', '12', '17'], 'found': '17', 'support': 270264, 'level': 4, 'jaccard': -1, 'filled': {'43': 44.081, '31': 46.969, '16': 48.482, '12': 49.208, '17': 49.267}}",,,,,
196,"{'items': ['27', '21', '18', '12', '17'], 'found': '17', 'support': 271464, 'level': 4, 'jaccard': -1, 'filled': 0}","{'items': ['27', '21', '18', '12', '17'], 'found': '17', 'support': 272445, 'level': 4, 'jaccard': -1, 'filled': {'27': 43.281, '21': 45.32, '18': 49.158, '12': 49.208, '17': 49.267}}",,,,,
197,"{'items': ['43', '31', '18', '12', '17'], 'found': '17', 'support': 272214, 'level': 4, 'jaccard': -1, 'filled': 0}","{'items': ['43', '31', '18', '12', '17'], 'found': '17', 'support': 273742, 'level': 4, 'jaccard': -1, 'filled': {'43': 44.081, '31': 46.969, '18': 49.158, '12': 49.208, '17': 49.267}}",,,,,
198,"{'items': ['29', '31', '16', '18', '12'], 'found': '12', 'support': 273500, 'level': 4, 'jaccard': -1, 'filled': 0}","{'items': ['29', '31', '16', '18', '12'], 'found': '12', 'support': 275436, 'level': 4, 'jaccard': -1, 'filled': {'29': 44.937, '31': 46.969, '16': 48.482, '18': 49.158, '12': 49.208}}",,,,,
199,"{'items': ['29', '31', '16', '18', '17'], 'found': '17', 'support': 273591, 'level': 4, 'jaccard': -1, 'filled': 0}","{'items': ['29', '31', '16', '18', '17'], 'found': '17', 'support': 275517, 'level': 4, 'jaccard': -1, 'filled': {'29': 44.937, '31': 46.969, '16': 48.482, '18': 49.158, '17': 49.267}}",,,,,
200,"{'items': ['29', '31', '16', '12', '17'], 'found': '17', 'support': 274013, 'level': 4, 'jaccard': -1, 'filled': 0}","{'items': ['29', '31', '16', '12', '17'], 'found': '17', 'support': 275885, 'level': 4, 'jaccard': -1, 'filled': {'29': 44.937, '31': 46.969, '16': 48.482, '12': 49.208, '17': 49.267}}",,,,,
201,"{'items': ['27', '16', '18', '12', '17'], 'found': '17', 'support': 277238, 'level': 4, 'jaccard': -1, 'filled': 0}","{'items': ['27', '16', '18', '12', '17'], 'found': '17', 'support': 278101, 'level': 4, 'jaccard': -1, 'filled': {'27': 43.281, '16': 48.482, '18': 49.158, '12': 49.208, '17': 49.267}}",,,,,
202,"{'items': ['21', '31', '16', '18', '12'], 'found': '12', 'support': 278080, 'level': 4, 'jaccard': -1, 'filled': 0}","{'items': ['21', '31', '16', '18', '12'], 'found': '12', 'support': 279957, 'level': 4, 'jaccard': -1, 'filled': {'21': 45.32, '31': 46.969, '16': 48.482, '18': 49.158, '12': 49.208}}",,,,,
203,"{'items': ['21', '31', '16', '18', '17'], 'found': '17', 'support': 278176, 'level': 4, 'jaccard': -1, 'filled': 0}","{'items': ['21', '31', '16', '18', '17'], 'found': '17', 'support': 280047, 'level': 4, 'jaccard': -1, 'filled': {'21': 45.32, '31': 46.969, '16': 48.482, '18': 49.158, '17': 49.267}}",,,,,
204,"{'items': ['21', '31', '16', '12', '17'], 'found': '17', 'support': 278578, 'level': 4, 'jaccard': -1, 'filled': 0}","{'items': ['29', '31', '18', '12', '17'], 'found': '17', 'support': 280066, 'level': 4, 'jaccard': -1, 'filled': {'29': 44.937, '31': 46.969, '18': 49.158, '12': 49.208, '17': 49.267}}",,,,,
205,"{'items': ['29', '31', '18', '12', '17'], 'found': '17', 'support': 278694, 'level': 4, 'jaccard': -1, 'filled': 0}","{'items': ['21', '31', '16', '12', '17'], 'found': '17', 'support': 280405, 'level': 4, 'jaccard': -1, 'filled': {'21': 45.32, '31': 46.969, '16': 48.482, '12': 49.208, '17': 49.267}}",,,,,
206,"{'items': ['21', '31', '18', '12', '17'], 'found': '17', 'support': 283177, 'level': 4, 'jaccard': -1, 'filled': 0}","{'items': ['21', '31', '18', '12', '17'], 'found': '17', 'support': 284547, 'level': 4, 'jaccard': -1, 'filled': {'21': 45.32, '31': 46.969, '18': 49.158, '12': 49.208, '17': 49.267}}",,,,,
207,"{'items': ['43', '16', '18', '12', '17'], 'found': '17', 'support': 284419, 'level': 4, 'jaccard': -1, 'filled': 0}","{'items': ['43', '16', '18', '12', '17'], 'found': '17', 'support': 285021, 'level': 4, 'jaccard': -1, 'filled': {'43': 44.081, '16': 48.482, '18': 49.158, '12': 49.208, '17': 49.267}}",,,,,
208,"{'items': ['29', '16', '18', '12', '17'], 'found': '17', 'support': 291072, 'level': 4, 'jaccard': -1, 'filled': 0}","{'items': ['29', '16', '18', '12', '17'], 'found': '17', 'support': 291622, 'level': 4, 'jaccard': -1, 'filled': {'29': 44.937, '16': 48.482, '18': 49.158, '12': 49.208, '17': 49.267}}",,,,,
209,"{'items': ['21', '16', '18', '12', '17'], 'found': '17', 'support': 294486, 'level': 4, 'jaccard': -1, 'filled': 0}","{'items': ['21', '16', '18', '12', '17'], 'found': '17', 'support': 295197, 'level': 4, 'jaccard': -1, 'filled': {'21': 45.32, '16': 48.482, '18': 49.158, '12': 49.208, '17': 49.267}}",,,,,
210,"{'items': ['31', '16', '18', '12', '17'], 'found': '17', 'support': 311411, 'level': 4, 'jaccard': -1, 'filled': 0}","{'items': ['31', '16', '18', '12', '17'], 'found': '17', 'support': 311571, 'level': 4, 'jaccard': -1, 'filled': {'31': 46.969, '16': 48.482, '18': 49.158, '12': 49.208, '17': 49.267}}",,,,,
211,"{'items': ['27', '21', '16', '18', '12', '17'], 'found': '17', 'support': 265921, 'level': 5, 'jaccard': -1, 'filled': 0}","{'items': ['27', '21', '16', '18', '12', '17'], 'found': '17', 'support': 267588, 'level': 5, 'jaccard': -1, 'filled': {'27': 43.281, '21': 45.32, '16': 48.482, '18': 49.158, '12': 49.208, '17': 49.267}}",,,,,
212,"{'items': ['43', '31', '16', '18', '12', '17'], 'found': '17', 'support': 267795, 'level': 5, 'jaccard': -1, 'filled': 0}","{'items': ['43', '31', '16', '18', '12', '17'], 'found': '17', 'support': 269856, 'level': 5, 'jaccard': -1, 'filled': {'43': 44.081, '31': 46.969, '16': 48.482, '18': 49.158, '12': 49.208, '17': 49.267}}",,,,,
213,"{'items': ['29', '31', '16', '18', '12', '17'], 'found': '17', 'support': 273474, 'level': 5, 'jaccard': -1, 'filled': 0}","{'items': ['29', '31', '16', '18', '12', '17'], 'found': '17', 'support': 275417, 'level': 5, 'jaccard': -1, 'filled': {'29': 44.937, '31': 46.969, '16': 48.482, '18': 49.158, '12': 49.208, '17': 49.267}}",,,,,
214,"{'items': ['21', '31', '16', '18', '12', '17'], 'found': '17', 'support': 278055, 'level': 5, 'jaccard': -1, 'filled': 0}","{'items': ['21', '31', '16', '18', '12', '17'], 'found': '17', 'support': 279938, 'level': 5, 'jaccard': -1, 'filled': {'21': 45.32, '31': 46.969, '16': 48.482, '18': 49.158, '12': 49.208, '17': 49.267}}",,,,,
