,items,real_support,approx_support,error,level,fill
0,"['475', '48']",1428,1554,126,1,"{'475': 1.338, '48': 25.678}"
1,"['271', '39']",1434,1586,152,1,"{'271': 1.293, '39': 30.743}"
2,"['101', '39']",1400,1586,186,1,"{'101': 1.381, '39': 30.743}"
3,"['110', '48']",1380,1611,231,1,"{'110': 1.725, '48': 25.678}"
4,"['36', '48']",1416,1696,280,1,"{'36': 1.812, '48': 25.678}"
5,"['310', '48', '39']",1347,1571,224,2,"{'310': 1.601, '48': 25.678, '39': 30.743}"
6,"['110', '38', '48']",1361,1586,225,2,"{'110': 1.725, '38': 9.609, '48': 25.678}"
7,"['36', '38', '48']",1360,1634,274,2,"{'36': 1.812, '38': 9.609, '48': 25.678}"
8,"['237', '48', '39']",1244,1554,310,2,"{'237': 1.872, '48': 25.678, '39': 30.743}"
9,"['225', '48', '39']",1400,1728,328,2,"{'225': 2.01, '48': 25.678, '39': 30.743}"
10,"['170', '48', '39']",1206,1537,331,2,"{'170': 1.913, '48': 25.678, '39': 30.743}"
11,"['170', '38', '48', '39']",1193,1518,325,3,"{'170': 1.913, '38': 9.609, '48': 25.678, '39': 30.743}"
12,"['32', '38', '48', '39']",1236,2034,798,3,"{'32': 9.348, '38': 9.609, '48': 25.678, '39': 30.743}"
