,exact,approx_bloom,exact_support,approx_support,level,error,filled,jaccard_real,jaccard_approx
0,"{'items': ['31'], 'found': '31', 'support': 318014, 'level': 0, 'jaccard': -1, 'filled': 0}","{'items': ['31'], 'found': '31', 'support': 317897, 'level': 0, 'jaccard': -1, 'filled': 46.969}",318014,317897,0,-117,46.969,-1,-1
1,"{'items': ['12'], 'found': '12', 'support': 339601, 'level': 0, 'jaccard': -1, 'filled': 0}","{'items': ['12'], 'found': '12', 'support': 339519, 'level': 0, 'jaccard': -1, 'filled': 49.208}",339601,339519,0,-82,49.208,-1,-1
2,"{'items': ['18'], 'found': '18', 'support': 339095, 'level': 0, 'jaccard': -1, 'filled': 0}","{'items': ['18'], 'found': '18', 'support': 339024, 'level': 0, 'jaccard': -1, 'filled': 49.158}",339095,339024,0,-71,49.158,-1,-1
3,"{'items': ['17'], 'found': '17', 'support': 340151, 'level': 0, 'jaccard': -1, 'filled': 0}","{'items': ['17'], 'found': '17', 'support': 340103, 'level': 0, 'jaccard': -1, 'filled': 49.267}",340151,340103,0,-48,49.267,-1,-1
4,"{'items': ['16'], 'found': '16', 'support': 332414, 'level': 0, 'jaccard': -1, 'filled': 0}","{'items': ['16'], 'found': '16', 'support': 332403, 'level': 0, 'jaccard': -1, 'filled': 48.482}",332414,332403,0,-11,48.482,-1,-1
5,"{'items': ['21'], 'found': '21', 'support': 302446, 'level': 0, 'jaccard': -1, 'filled': 0}","{'items': ['21'], 'found': '21', 'support': 302549, 'level': 0, 'jaccard': -1, 'filled': 45.32}",302446,302549,0,103,45.32,-1,-1
6,"{'items': ['31', '17'], 'found': '17', 'support': 317988, 'level': 1, 'jaccard': -1, 'filled': 0}","{'items': ['31', '17'], 'found': '17', 'support': 317877, 'level': 1, 'jaccard': -1, 'filled': {'31': 46.969, '17': 49.267}}",317988,317877,1,-111,"{'31': 46.969, '17': 49.267}",-1,-1
7,"{'items': ['31', '12'], 'found': '12', 'support': 317536, 'level': 1, 'jaccard': -1, 'filled': 0}","{'items': ['31', '12'], 'found': '12', 'support': 317432, 'level': 1, 'jaccard': -1, 'filled': {'31': 46.969, '12': 49.208}}",317536,317432,1,-104,"{'31': 46.969, '12': 49.208}",-1,-1
8,"{'items': ['18', '12'], 'found': '12', 'support': 338921, 'level': 1, 'jaccard': -1, 'filled': 0}","{'items': ['18', '12'], 'found': '12', 'support': 338845, 'level': 1, 'jaccard': -1, 'filled': {'18': 49.158, '12': 49.208}}",338921,338845,1,-76,"{'18': 49.158, '12': 49.208}",-1,-1
9,"{'items': ['12', '17'], 'found': '17', 'support': 339569, 'level': 1, 'jaccard': -1, 'filled': 0}","{'items': ['12', '17'], 'found': '17', 'support': 339494, 'level': 1, 'jaccard': -1, 'filled': {'12': 49.208, '17': 49.267}}",339569,339494,1,-75,"{'12': 49.208, '17': 49.267}",-1,-1
10,"{'items': ['31', '18'], 'found': '18', 'support': 317103, 'level': 1, 'jaccard': -1, 'filled': 0}","{'items': ['31', '18'], 'found': '18', 'support': 317029, 'level': 1, 'jaccard': -1, 'filled': {'31': 46.969, '18': 49.158}}",317103,317029,1,-74,"{'31': 46.969, '18': 49.158}",-1,-1
11,"{'items': ['18', '17'], 'found': '17', 'support': 339063, 'level': 1, 'jaccard': -1, 'filled': 0}","{'items': ['18', '17'], 'found': '17', 'support': 338999, 'level': 1, 'jaccard': -1, 'filled': {'18': 49.158, '17': 49.267}}",339063,338999,1,-64,"{'18': 49.158, '17': 49.267}",-1,-1
12,"{'items': ['16', '12'], 'found': '12', 'support': 332165, 'level': 1, 'jaccard': -1, 'filled': 0}","{'items': ['16', '12'], 'found': '12', 'support': 332154, 'level': 1, 'jaccard': -1, 'filled': {'16': 48.482, '12': 49.208}}",332165,332154,1,-11,"{'16': 48.482, '12': 49.208}",-1,-1
13,"{'items': ['16', '17'], 'found': '17', 'support': 332382, 'level': 1, 'jaccard': -1, 'filled': 0}","{'items': ['16', '17'], 'found': '17', 'support': 332378, 'level': 1, 'jaccard': -1, 'filled': {'16': 48.482, '17': 49.267}}",332382,332378,1,-4,"{'16': 48.482, '17': 49.267}",-1,-1
14,"{'items': ['16', '18'], 'found': '18', 'support': 331648, 'level': 1, 'jaccard': -1, 'filled': 0}","{'items': ['16', '18'], 'found': '18', 'support': 331654, 'level': 1, 'jaccard': -1, 'filled': {'16': 48.482, '18': 49.158}}",331648,331654,1,6,"{'16': 48.482, '18': 49.158}",-1,-1
15,"{'items': ['31', '16'], 'found': '16', 'support': 312204, 'level': 1, 'jaccard': -1, 'filled': 0}","{'items': ['31', '16'], 'found': '16', 'support': 312309, 'level': 1, 'jaccard': -1, 'filled': {'31': 46.969, '16': 48.482}}",312204,312309,1,105,"{'31': 46.969, '16': 48.482}",-1,-1
16,"{'items': ['21', '17'], 'found': '17', 'support': 302415, 'level': 1, 'jaccard': -1, 'filled': 0}","{'items': ['21', '17'], 'found': '17', 'support': 302525, 'level': 1, 'jaccard': -1, 'filled': {'21': 45.32, '17': 49.267}}",302415,302525,1,110,"{'21': 45.32, '17': 49.267}",-1,-1
17,"{'items': ['21', '12'], 'found': '12', 'support': 301939, 'level': 1, 'jaccard': -1, 'filled': 0}","{'items': ['21', '12'], 'found': '12', 'support': 302057, 'level': 1, 'jaccard': -1, 'filled': {'21': 45.32, '12': 49.208}}",301939,302057,1,118,"{'21': 45.32, '12': 49.208}",-1,-1
18,"{'items': ['21', '18'], 'found': '18', 'support': 301478, 'level': 1, 'jaccard': -1, 'filled': 0}","{'items': ['21', '18'], 'found': '18', 'support': 301631, 'level': 1, 'jaccard': -1, 'filled': {'21': 45.32, '18': 49.158}}",301478,301631,1,153,"{'21': 45.32, '18': 49.158}",-1,-1
19,"{'items': ['31', '12', '17'], 'found': '17', 'support': 317510, 'level': 2, 'jaccard': -1, 'filled': 0}","{'items': ['31', '12', '17'], 'found': '17', 'support': 317411, 'level': 2, 'jaccard': -1, 'filled': {'31': 46.969, '12': 49.208, '17': 49.267}}",317510,317411,2,-99,"{'31': 46.969, '12': 49.208, '17': 49.267}",-1,-1
20,"{'items': ['31', '18', '12'], 'found': '12', 'support': 316960, 'level': 2, 'jaccard': -1, 'filled': 0}","{'items': ['31', '18', '12'], 'found': '12', 'support': 316888, 'level': 2, 'jaccard': -1, 'filled': {'31': 46.969, '18': 49.158, '12': 49.208}}",316960,316888,2,-72,"{'31': 46.969, '18': 49.158, '12': 49.208}",-1,-1
21,"{'items': ['31', '18', '17'], 'found': '17', 'support': 317077, 'level': 2, 'jaccard': -1, 'filled': 0}","{'items': ['31', '18', '17'], 'found': '17', 'support': 317008, 'level': 2, 'jaccard': -1, 'filled': {'31': 46.969, '18': 49.158, '17': 49.267}}",317077,317008,2,-69,"{'31': 46.969, '18': 49.158, '17': 49.267}",-1,-1
22,"{'items': ['18', '12', '17'], 'found': '17', 'support': 338889, 'level': 2, 'jaccard': -1, 'filled': 0}","{'items': ['18', '12', '17'], 'found': '17', 'support': 338820, 'level': 2, 'jaccard': -1, 'filled': {'18': 49.158, '12': 49.208, '17': 49.267}}",338889,338820,2,-69,"{'18': 49.158, '12': 49.208, '17': 49.267}",-1,-1
23,"{'items': ['16', '12', '17'], 'found': '17', 'support': 332133, 'level': 2, 'jaccard': -1, 'filled': 0}","{'items': ['16', '12', '17'], 'found': '17', 'support': 332129, 'level': 2, 'jaccard': -1, 'filled': {'16': 48.482, '12': 49.208, '17': 49.267}}",332133,332129,2,-4,"{'16': 48.482, '12': 49.208, '17': 49.267}",-1,-1
24,"{'items': ['16', '18', '12'], 'found': '12', 'support': 331490, 'level': 2, 'jaccard': -1, 'filled': 0}","{'items': ['16', '18', '12'], 'found': '12', 'support': 331498, 'level': 2, 'jaccard': -1, 'filled': {'16': 48.482, '18': 49.158, '12': 49.208}}",331490,331498,2,8,"{'16': 48.482, '18': 49.158, '12': 49.208}",-1,-1
25,"{'items': ['16', '18', '17'], 'found': '17', 'support': 331616, 'level': 2, 'jaccard': -1, 'filled': 0}","{'items': ['16', '18', '17'], 'found': '17', 'support': 331629, 'level': 2, 'jaccard': -1, 'filled': {'16': 48.482, '18': 49.158, '17': 49.267}}",331616,331629,2,13,"{'16': 48.482, '18': 49.158, '17': 49.267}",-1,-1
26,"{'items': ['31', '16', '17'], 'found': '17', 'support': 312178, 'level': 2, 'jaccard': -1, 'filled': 0}","{'items': ['31', '16', '17'], 'found': '17', 'support': 312289, 'level': 2, 'jaccard': -1, 'filled': {'31': 46.969, '16': 48.482, '17': 49.267}}",312178,312289,2,111,"{'31': 46.969, '16': 48.482, '17': 49.267}",-1,-1
27,"{'items': ['31', '16', '12'], 'found': '12', 'support': 312009, 'level': 2, 'jaccard': -1, 'filled': 0}","{'items': ['31', '16', '12'], 'found': '12', 'support': 312125, 'level': 2, 'jaccard': -1, 'filled': {'31': 46.969, '16': 48.482, '12': 49.208}}",312009,312125,2,116,"{'31': 46.969, '16': 48.482, '12': 49.208}",-1,-1
28,"{'items': ['21', '12', '17'], 'found': '17', 'support': 301908, 'level': 2, 'jaccard': -1, 'filled': 0}","{'items': ['21', '12', '17'], 'found': '17', 'support': 302033, 'level': 2, 'jaccard': -1, 'filled': {'21': 45.32, '12': 49.208, '17': 49.267}}",301908,302033,2,125,"{'21': 45.32, '12': 49.208, '17': 49.267}",-1,-1
29,"{'items': ['31', '16', '18'], 'found': '18', 'support': 311569, 'level': 2, 'jaccard': -1, 'filled': 0}","{'items': ['31', '16', '18'], 'found': '18', 'support': 311717, 'level': 2, 'jaccard': -1, 'filled': {'31': 46.969, '16': 48.482, '18': 49.158}}",311569,311717,2,148,"{'31': 46.969, '16': 48.482, '18': 49.158}",-1,-1
30,"{'items': ['21', '18', '12'], 'found': '12', 'support': 301317, 'level': 2, 'jaccard': -1, 'filled': 0}","{'items': ['21', '18', '12'], 'found': '12', 'support': 301475, 'level': 2, 'jaccard': -1, 'filled': {'21': 45.32, '18': 49.158, '12': 49.208}}",301317,301475,2,158,"{'21': 45.32, '18': 49.158, '12': 49.208}",-1,-1
31,"{'items': ['21', '18', '17'], 'found': '17', 'support': 301447, 'level': 2, 'jaccard': -1, 'filled': 0}","{'items': ['21', '18', '17'], 'found': '17', 'support': 301608, 'level': 2, 'jaccard': -1, 'filled': {'21': 45.32, '18': 49.158, '17': 49.267}}",301447,301608,2,161,"{'21': 45.32, '18': 49.158, '17': 49.267}",-1,-1
32,"{'items': ['31', '18', '12', '17'], 'found': '17', 'support': 316934, 'level': 3, 'jaccard': -1, 'filled': 0}","{'items': ['31', '18', '12', '17'], 'found': '17', 'support': 316867, 'level': 3, 'jaccard': -1, 'filled': {'31': 46.969, '18': 49.158, '12': 49.208, '17': 49.267}}",316934,316867,3,-67,"{'31': 46.969, '18': 49.158, '12': 49.208, '17': 49.267}",-1,-1
33,"{'items': ['16', '18', '12', '17'], 'found': '17', 'support': 331458, 'level': 3, 'jaccard': -1, 'filled': 0}","{'items': ['16', '18', '12', '17'], 'found': '17', 'support': 331473, 'level': 3, 'jaccard': -1, 'filled': {'16': 48.482, '18': 49.158, '12': 49.208, '17': 49.267}}",331458,331473,3,15,"{'16': 48.482, '18': 49.158, '12': 49.208, '17': 49.267}",-1,-1
34,"{'items': ['31', '16', '12', '17'], 'found': '17', 'support': 311983, 'level': 3, 'jaccard': -1, 'filled': 0}","{'items': ['31', '16', '12', '17'], 'found': '17', 'support': 312104, 'level': 3, 'jaccard': -1, 'filled': {'31': 46.969, '16': 48.482, '12': 49.208, '17': 49.267}}",311983,312104,3,121,"{'31': 46.969, '16': 48.482, '12': 49.208, '17': 49.267}",-1,-1
35,"{'items': ['31', '16', '18', '17'], 'found': '17', 'support': 311543, 'level': 3, 'jaccard': -1, 'filled': 0}","{'items': ['31', '16', '18', '17'], 'found': '17', 'support': 311697, 'level': 3, 'jaccard': -1, 'filled': {'31': 46.969, '16': 48.482, '18': 49.158, '17': 49.267}}",311543,311697,3,154,"{'31': 46.969, '16': 48.482, '18': 49.158, '17': 49.267}",-1,-1
36,"{'items': ['31', '16', '18', '12'], 'found': '12', 'support': 311437, 'level': 3, 'jaccard': -1, 'filled': 0}","{'items': ['31', '16', '18', '12'], 'found': '12', 'support': 311592, 'level': 3, 'jaccard': -1, 'filled': {'31': 46.969, '16': 48.482, '18': 49.158, '12': 49.208}}",311437,311592,3,155,"{'31': 46.969, '16': 48.482, '18': 49.158, '12': 49.208}",-1,-1
37,"{'items': ['21', '18', '12', '17'], 'found': '17', 'support': 301286, 'level': 3, 'jaccard': -1, 'filled': 0}","{'items': ['21', '18', '12', '17'], 'found': '17', 'support': 301452, 'level': 3, 'jaccard': -1, 'filled': {'21': 45.32, '18': 49.158, '12': 49.208, '17': 49.267}}",301286,301452,3,166,"{'21': 45.32, '18': 49.158, '12': 49.208, '17': 49.267}",-1,-1
38,"{'items': ['31', '16', '18', '12', '17'], 'found': '17', 'support': 311411, 'level': 4, 'jaccard': -1, 'filled': 0}","{'items': ['31', '16', '18', '12', '17'], 'found': '17', 'support': 311571, 'level': 4, 'jaccard': -1, 'filled': {'31': 46.969, '16': 48.482, '18': 49.158, '12': 49.208, '17': 49.267}}",311411,311571,4,160,"{'31': 46.969, '16': 48.482, '18': 49.158, '12': 49.208, '17': 49.267}",-1,-1
