,exact,approx_bloom,exact_support,approx_support,level,error,filled,jaccard_real,jaccard_approx
0,"{'items': ['354'], 'found': '354', 'support': 5835, 'level': 0, 'jaccard': -1, 'filled': 0}","{'items': ['354'], 'found': '354', 'support': 5812, 'level': 0, 'jaccard': -1, 'filled': 4.533}",5835,5812,0,-23,4.533,-1,-1
1,"{'items': ['120'], 'found': '120', 'support': 4973, 'level': 0, 'jaccard': -1, 'filled': 0}","{'items': ['120'], 'found': '120', 'support': 4959, 'level': 0, 'jaccard': -1, 'filled': 3.881}",4973,4959,0,-14,3.881,-1,-1
2,"{'items': ['692'], 'found': '692', 'support': 4993, 'level': 0, 'jaccard': -1, 'filled': 0}","{'items': ['692'], 'found': '692', 'support': 4981, 'level': 0, 'jaccard': -1, 'filled': 3.898}",4993,4981,0,-12,3.898,-1,-1
3,"{'items': ['937'], 'found': '937', 'support': 4681, 'level': 0, 'jaccard': -1, 'filled': 0}","{'items': ['937'], 'found': '937', 'support': 4670, 'level': 0, 'jaccard': -1, 'filled': 3.659}",4681,4670,0,-11,3.659,-1,-1
4,"{'items': ['919'], 'found': '919', 'support': 3710, 'level': 0, 'jaccard': -1, 'filled': 0}","{'items': ['919'], 'found': '919', 'support': 3700, 'level': 0, 'jaccard': -1, 'filled': 2.91}",3710,3700,0,-10,2.91,-1,-1
5,"{'items': ['21'], 'found': '21', 'support': 2666, 'level': 0, 'jaccard': -1, 'filled': 0}","{'items': ['21'], 'found': '21', 'support': 2657, 'level': 0, 'jaccard': -1, 'filled': 2.099}",2666,2657,0,-9,2.099,-1,-1
6,"{'items': ['494'], 'found': '494', 'support': 5102, 'level': 0, 'jaccard': -1, 'filled': 0}","{'items': ['494'], 'found': '494', 'support': 5093, 'level': 0, 'jaccard': -1, 'filled': 3.983}",5102,5093,0,-9,3.983,-1,-1
7,"{'items': ['676'], 'found': '676', 'support': 2717, 'level': 0, 'jaccard': -1, 'filled': 0}","{'items': ['676'], 'found': '676', 'support': 2709, 'level': 0, 'jaccard': -1, 'filled': 2.139}",2717,2709,0,-8,2.139,-1,-1
8,"{'items': ['205'], 'found': '205', 'support': 3605, 'level': 0, 'jaccard': -1, 'filled': 0}","{'items': ['205'], 'found': '205', 'support': 3597, 'level': 0, 'jaccard': -1, 'filled': 2.83}",3605,3597,0,-8,2.83,-1,-1
9,"{'items': ['39'], 'found': '39', 'support': 4258, 'level': 0, 'jaccard': -1, 'filled': 0}","{'items': ['39'], 'found': '39', 'support': 4250, 'level': 0, 'jaccard': -1, 'filled': 3.335}",4258,4250,0,-8,3.335,-1,-1
10,"{'items': ['392'], 'found': '392', 'support': 2420, 'level': 0, 'jaccard': -1, 'filled': 0}","{'items': ['392'], 'found': '392', 'support': 2413, 'level': 0, 'jaccard': -1, 'filled': 1.907}",2420,2413,0,-7,1.907,-1,-1
11,"{'items': ['571'], 'found': '571', 'support': 2902, 'level': 0, 'jaccard': -1, 'filled': 0}","{'items': ['571'], 'found': '571', 'support': 2895, 'level': 0, 'jaccard': -1, 'filled': 2.285}",2902,2895,0,-7,2.285,-1,-1
12,"{'items': ['489'], 'found': '489', 'support': 3420, 'level': 0, 'jaccard': -1, 'filled': 0}","{'items': ['489'], 'found': '489', 'support': 3413, 'level': 0, 'jaccard': -1, 'filled': 2.688}",3420,3413,0,-7,2.688,-1,-1
13,"{'items': ['706'], 'found': '706', 'support': 1923, 'level': 0, 'jaccard': -1, 'filled': 0}","{'items': ['706'], 'found': '706', 'support': 1917, 'level': 0, 'jaccard': -1, 'filled': 1.518}",1923,1917,0,-6,1.518,-1,-1
14,"{'items': ['874'], 'found': '874', 'support': 2237, 'level': 0, 'jaccard': -1, 'filled': 0}","{'items': ['874'], 'found': '874', 'support': 2231, 'level': 0, 'jaccard': -1, 'filled': 1.765}",2237,2231,0,-6,1.765,-1,-1
15,"{'items': ['606'], 'found': '606', 'support': 2668, 'level': 0, 'jaccard': -1, 'filled': 0}","{'items': ['606'], 'found': '606', 'support': 2662, 'level': 0, 'jaccard': -1, 'filled': 2.102}",2668,2662,0,-6,2.102,-1,-1
16,"{'items': ['541'], 'found': '541', 'support': 3735, 'level': 0, 'jaccard': -1, 'filled': 0}","{'items': ['541'], 'found': '541', 'support': 3729, 'level': 0, 'jaccard': -1, 'filled': 2.933}",3735,3729,0,-6,2.933,-1,-1
17,"{'items': ['362'], 'found': '362', 'support': 4388, 'level': 0, 'jaccard': -1, 'filled': 0}","{'items': ['362'], 'found': '362', 'support': 4382, 'level': 0, 'jaccard': -1, 'filled': 3.437}",4388,4382,0,-6,3.437,-1,-1
18,"{'items': ['722'], 'found': '722', 'support': 5845, 'level': 0, 'jaccard': -1, 'filled': 0}","{'items': ['722'], 'found': '722', 'support': 5839, 'level': 0, 'jaccard': -1, 'filled': 4.554}",5845,5839,0,-6,4.554,-1,-1
19,"{'items': ['25'], 'found': '25', 'support': 1395, 'level': 0, 'jaccard': -1, 'filled': 0}","{'items': ['25'], 'found': '25', 'support': 1390, 'level': 0, 'jaccard': -1, 'filled': 1.104}",1395,1390,0,-5,1.104,-1,-1
20,"{'items': ['765'], 'found': '765', 'support': 1705, 'level': 0, 'jaccard': -1, 'filled': 0}","{'items': ['765'], 'found': '765', 'support': 1700, 'level': 0, 'jaccard': -1, 'filled': 1.348}",1705,1700,0,-5,1.348,-1,-1
21,"{'items': ['427'], 'found': '427', 'support': 1856, 'level': 0, 'jaccard': -1, 'filled': 0}","{'items': ['427'], 'found': '427', 'support': 1851, 'level': 0, 'jaccard': -1, 'filled': 1.467}",1856,1851,0,-5,1.467,-1,-1
22,"{'items': ['893'], 'found': '893', 'support': 1947, 'level': 0, 'jaccard': -1, 'filled': 0}","{'items': ['893'], 'found': '893', 'support': 1942, 'level': 0, 'jaccard': -1, 'filled': 1.539}",1947,1942,0,-5,1.539,-1,-1
23,"{'items': ['196'], 'found': '196', 'support': 2096, 'level': 0, 'jaccard': -1, 'filled': 0}","{'items': ['196'], 'found': '196', 'support': 2091, 'level': 0, 'jaccard': -1, 'filled': 1.656}",2096,2091,0,-5,1.656,-1,-1
24,"{'items': ['6'], 'found': '6', 'support': 2149, 'level': 0, 'jaccard': -1, 'filled': 0}","{'items': ['6'], 'found': '6', 'support': 2144, 'level': 0, 'jaccard': -1, 'filled': 1.697}",2149,2144,0,-5,1.697,-1,-1
25,"{'items': ['112'], 'found': '112', 'support': 2680, 'level': 0, 'jaccard': -1, 'filled': 0}","{'items': ['112'], 'found': '112', 'support': 2675, 'level': 0, 'jaccard': -1, 'filled': 2.113}",2680,2675,0,-5,2.113,-1,-1
26,"{'items': ['844'], 'found': '844', 'support': 2814, 'level': 0, 'jaccard': -1, 'filled': 0}","{'items': ['844'], 'found': '844', 'support': 2809, 'level': 0, 'jaccard': -1, 'filled': 2.217}",2814,2809,0,-5,2.217,-1,-1
27,"{'items': ['825'], 'found': '825', 'support': 3085, 'level': 0, 'jaccard': -1, 'filled': 0}","{'items': ['825'], 'found': '825', 'support': 3080, 'level': 0, 'jaccard': -1, 'filled': 2.429}",3085,3080,0,-5,2.429,-1,-1
28,"{'items': ['823'], 'found': '823', 'support': 1031, 'level': 0, 'jaccard': -1, 'filled': 0}","{'items': ['823'], 'found': '823', 'support': 1027, 'level': 0, 'jaccard': -1, 'filled': 0.816}",1031,1027,0,-4,0.816,-1,-1
29,"{'items': ['632'], 'found': '632', 'support': 1070, 'level': 0, 'jaccard': -1, 'filled': 0}","{'items': ['632'], 'found': '632', 'support': 1066, 'level': 0, 'jaccard': -1, 'filled': 0.847}",1070,1066,0,-4,0.847,-1,-1
30,"{'items': ['964'], 'found': '964', 'support': 1518, 'level': 0, 'jaccard': -1, 'filled': 0}","{'items': ['964'], 'found': '964', 'support': 1514, 'level': 0, 'jaccard': -1, 'filled': 1.202}",1518,1514,0,-4,1.202,-1,-1
31,"{'items': ['981'], 'found': '981', 'support': 1542, 'level': 0, 'jaccard': -1, 'filled': 0}","{'items': ['981'], 'found': '981', 'support': 1538, 'level': 0, 'jaccard': -1, 'filled': 1.22}",1542,1538,0,-4,1.22,-1,-1
32,"{'items': ['769'], 'found': '769', 'support': 1622, 'level': 0, 'jaccard': -1, 'filled': 0}","{'items': ['769'], 'found': '769', 'support': 1618, 'level': 0, 'jaccard': -1, 'filled': 1.284}",1622,1618,0,-4,1.284,-1,-1
33,"{'items': ['910'], 'found': '910', 'support': 1695, 'level': 0, 'jaccard': -1, 'filled': 0}","{'items': ['910'], 'found': '910', 'support': 1691, 'level': 0, 'jaccard': -1, 'filled': 1.341}",1695,1691,0,-4,1.341,-1,-1
34,"{'items': ['687'], 'found': '687', 'support': 1762, 'level': 0, 'jaccard': -1, 'filled': 0}","{'items': ['687'], 'found': '687', 'support': 1758, 'level': 0, 'jaccard': -1, 'filled': 1.394}",1762,1758,0,-4,1.394,-1,-1
35,"{'items': ['227'], 'found': '227', 'support': 1818, 'level': 0, 'jaccard': -1, 'filled': 0}","{'items': ['227'], 'found': '227', 'support': 1814, 'level': 0, 'jaccard': -1, 'filled': 1.438}",1818,1814,0,-4,1.438,-1,-1
36,"{'items': ['763'], 'found': '763', 'support': 1862, 'level': 0, 'jaccard': -1, 'filled': 0}","{'items': ['763'], 'found': '763', 'support': 1858, 'level': 0, 'jaccard': -1, 'filled': 1.472}",1862,1858,0,-4,1.472,-1,-1
37,"{'items': ['373'], 'found': '373', 'support': 2007, 'level': 0, 'jaccard': -1, 'filled': 0}","{'items': ['373'], 'found': '373', 'support': 2003, 'level': 0, 'jaccard': -1, 'filled': 1.586}",2007,2003,0,-4,1.586,-1,-1
38,"{'items': ['280'], 'found': '280', 'support': 2108, 'level': 0, 'jaccard': -1, 'filled': 0}","{'items': ['280'], 'found': '280', 'support': 2104, 'level': 0, 'jaccard': -1, 'filled': 1.666}",2108,2104,0,-4,1.666,-1,-1
39,"{'items': ['744'], 'found': '744', 'support': 2177, 'level': 0, 'jaccard': -1, 'filled': 0}","{'items': ['744'], 'found': '744', 'support': 2173, 'level': 0, 'jaccard': -1, 'filled': 1.72}",2177,2173,0,-4,1.72,-1,-1
40,"{'items': ['523'], 'found': '523', 'support': 2244, 'level': 0, 'jaccard': -1, 'filled': 0}","{'items': ['523'], 'found': '523', 'support': 2240, 'level': 0, 'jaccard': -1, 'filled': 1.773}",2244,2240,0,-4,1.773,-1,-1
41,"{'items': ['885'], 'found': '885', 'support': 3043, 'level': 0, 'jaccard': -1, 'filled': 0}","{'items': ['885'], 'found': '885', 'support': 3039, 'level': 0, 'jaccard': -1, 'filled': 2.396}",3043,3039,0,-4,2.396,-1,-1
42,"{'items': ['509'], 'found': '509', 'support': 3044, 'level': 0, 'jaccard': -1, 'filled': 0}","{'items': ['509'], 'found': '509', 'support': 3040, 'level': 0, 'jaccard': -1, 'filled': 2.397}",3044,3040,0,-4,2.397,-1,-1
43,"{'items': ['75'], 'found': '75', 'support': 3151, 'level': 0, 'jaccard': -1, 'filled': 0}","{'items': ['75'], 'found': '75', 'support': 3147, 'level': 0, 'jaccard': -1, 'filled': 2.481}",3151,3147,0,-4,2.481,-1,-1
44,"{'items': ['470'], 'found': '470', 'support': 4137, 'level': 0, 'jaccard': -1, 'filled': 0}","{'items': ['470'], 'found': '470', 'support': 4133, 'level': 0, 'jaccard': -1, 'filled': 3.245}",4137,4133,0,-4,3.245,-1,-1
45,"{'items': ['529'], 'found': '529', 'support': 7057, 'level': 0, 'jaccard': -1, 'filled': 0}","{'items': ['529'], 'found': '529', 'support': 7053, 'level': 0, 'jaccard': -1, 'filled': 5.474}",7057,7053,0,-4,5.474,-1,-1
46,"{'items': ['368'], 'found': '368', 'support': 7828, 'level': 0, 'jaccard': -1, 'filled': 0}","{'items': ['368'], 'found': '368', 'support': 7824, 'level': 0, 'jaccard': -1, 'filled': 6.054}",7828,7824,0,-4,6.054,-1,-1
47,"{'items': ['912'], 'found': '912', 'support': 1009, 'level': 0, 'jaccard': -1, 'filled': 0}","{'items': ['912'], 'found': '912', 'support': 1006, 'level': 0, 'jaccard': -1, 'filled': 0.8}",1009,1006,0,-3,0.8,-1,-1
48,"{'items': ['258'], 'found': '258', 'support': 1036, 'level': 0, 'jaccard': -1, 'filled': 0}","{'items': ['258'], 'found': '258', 'support': 1033, 'level': 0, 'jaccard': -1, 'filled': 0.822}",1036,1033,0,-3,0.822,-1,-1
49,"{'items': ['546'], 'found': '546', 'support': 1050, 'level': 0, 'jaccard': -1, 'filled': 0}","{'items': ['546'], 'found': '546', 'support': 1047, 'level': 0, 'jaccard': -1, 'filled': 0.833}",1050,1047,0,-3,0.833,-1,-1
50,"{'items': ['563'], 'found': '563', 'support': 1065, 'level': 0, 'jaccard': -1, 'filled': 0}","{'items': ['563'], 'found': '563', 'support': 1062, 'level': 0, 'jaccard': -1, 'filled': 0.845}",1065,1062,0,-3,0.845,-1,-1
51,"{'items': ['173'], 'found': '173', 'support': 1080, 'level': 0, 'jaccard': -1, 'filled': 0}","{'items': ['173'], 'found': '173', 'support': 1077, 'level': 0, 'jaccard': -1, 'filled': 0.856}",1080,1077,0,-3,0.856,-1,-1
52,"{'items': ['105'], 'found': '105', 'support': 1100, 'level': 0, 'jaccard': -1, 'filled': 0}","{'items': ['105'], 'found': '105', 'support': 1097, 'level': 0, 'jaccard': -1, 'filled': 0.872}",1100,1097,0,-3,0.872,-1,-1
53,"{'items': ['554'], 'found': '554', 'support': 1114, 'level': 0, 'jaccard': -1, 'filled': 0}","{'items': ['554'], 'found': '554', 'support': 1111, 'level': 0, 'jaccard': -1, 'filled': 0.883}",1114,1111,0,-3,0.883,-1,-1
54,"{'items': ['357'], 'found': '357', 'support': 1142, 'level': 0, 'jaccard': -1, 'filled': 0}","{'items': ['357'], 'found': '357', 'support': 1139, 'level': 0, 'jaccard': -1, 'filled': 0.905}",1142,1139,0,-3,0.905,-1,-1
55,"{'items': ['988'], 'found': '988', 'support': 1164, 'level': 0, 'jaccard': -1, 'filled': 0}","{'items': ['988'], 'found': '988', 'support': 1161, 'level': 0, 'jaccard': -1, 'filled': 0.923}",1164,1161,0,-3,0.923,-1,-1
56,"{'items': ['573'], 'found': '573', 'support': 1229, 'level': 0, 'jaccard': -1, 'filled': 0}","{'items': ['573'], 'found': '573', 'support': 1226, 'level': 0, 'jaccard': -1, 'filled': 0.974}",1229,1226,0,-3,0.974,-1,-1
57,"{'items': ['309'], 'found': '309', 'support': 1262, 'level': 0, 'jaccard': -1, 'filled': 0}","{'items': ['309'], 'found': '309', 'support': 1259, 'level': 0, 'jaccard': -1, 'filled': 1.0}",1262,1259,0,-3,1.0,-1,-1
58,"{'items': ['578'], 'found': '578', 'support': 1290, 'level': 0, 'jaccard': -1, 'filled': 0}","{'items': ['578'], 'found': '578', 'support': 1287, 'level': 0, 'jaccard': -1, 'filled': 1.022}",1290,1287,0,-3,1.022,-1,-1
59,"{'items': ['504'], 'found': '504', 'support': 1296, 'level': 0, 'jaccard': -1, 'filled': 0}","{'items': ['504'], 'found': '504', 'support': 1293, 'level': 0, 'jaccard': -1, 'filled': 1.027}",1296,1293,0,-3,1.027,-1,-1
60,"{'items': ['804'], 'found': '804', 'support': 1315, 'level': 0, 'jaccard': -1, 'filled': 0}","{'items': ['804'], 'found': '804', 'support': 1312, 'level': 0, 'jaccard': -1, 'filled': 1.042}",1315,1312,0,-3,1.042,-1,-1
61,"{'items': ['815'], 'found': '815', 'support': 1358, 'level': 0, 'jaccard': -1, 'filled': 0}","{'items': ['815'], 'found': '815', 'support': 1355, 'level': 0, 'jaccard': -1, 'filled': 1.076}",1358,1355,0,-3,1.076,-1,-1
62,"{'items': ['583'], 'found': '583', 'support': 1389, 'level': 0, 'jaccard': -1, 'filled': 0}","{'items': ['583'], 'found': '583', 'support': 1386, 'level': 0, 'jaccard': -1, 'filled': 1.101}",1389,1386,0,-3,1.101,-1,-1
63,"{'items': ['33'], 'found': '33', 'support': 1460, 'level': 0, 'jaccard': -1, 'filled': 0}","{'items': ['33'], 'found': '33', 'support': 1457, 'level': 0, 'jaccard': -1, 'filled': 1.157}",1460,1457,0,-3,1.157,-1,-1
64,"{'items': ['820'], 'found': '820', 'support': 1473, 'level': 0, 'jaccard': -1, 'filled': 0}","{'items': ['820'], 'found': '820', 'support': 1470, 'level': 0, 'jaccard': -1, 'filled': 1.167}",1473,1470,0,-3,1.167,-1,-1
65,"{'items': ['469'], 'found': '469', 'support': 1502, 'level': 0, 'jaccard': -1, 'filled': 0}","{'items': ['469'], 'found': '469', 'support': 1499, 'level': 0, 'jaccard': -1, 'filled': 1.19}",1502,1499,0,-3,1.19,-1,-1
66,"{'items': ['534'], 'found': '534', 'support': 1531, 'level': 0, 'jaccard': -1, 'filled': 0}","{'items': ['534'], 'found': '534', 'support': 1528, 'level': 0, 'jaccard': -1, 'filled': 1.213}",1531,1528,0,-3,1.213,-1,-1
67,"{'items': ['516'], 'found': '516', 'support': 1544, 'level': 0, 'jaccard': -1, 'filled': 0}","{'items': ['516'], 'found': '516', 'support': 1541, 'level': 0, 'jaccard': -1, 'filled': 1.223}",1544,1541,0,-3,1.223,-1,-1
68,"{'items': ['884'], 'found': '884', 'support': 1645, 'level': 0, 'jaccard': -1, 'filled': 0}","{'items': ['884'], 'found': '884', 'support': 1642, 'level': 0, 'jaccard': -1, 'filled': 1.303}",1645,1642,0,-3,1.303,-1,-1
69,"{'items': ['887'], 'found': '887', 'support': 1671, 'level': 0, 'jaccard': -1, 'filled': 0}","{'items': ['887'], 'found': '887', 'support': 1668, 'level': 0, 'jaccard': -1, 'filled': 1.323}",1671,1668,0,-3,1.323,-1,-1
70,"{'items': ['100'], 'found': '100', 'support': 1749, 'level': 0, 'jaccard': -1, 'filled': 0}","{'items': ['100'], 'found': '100', 'support': 1746, 'level': 0, 'jaccard': -1, 'filled': 1.384}",1749,1746,0,-3,1.384,-1,-1
71,"{'items': ['975'], 'found': '975', 'support': 1764, 'level': 0, 'jaccard': -1, 'filled': 0}","{'items': ['975'], 'found': '975', 'support': 1761, 'level': 0, 'jaccard': -1, 'filled': 1.396}",1764,1761,0,-3,1.396,-1,-1
72,"{'items': ['449'], 'found': '449', 'support': 1890, 'level': 0, 'jaccard': -1, 'filled': 0}","{'items': ['449'], 'found': '449', 'support': 1887, 'level': 0, 'jaccard': -1, 'filled': 1.495}",1890,1887,0,-3,1.495,-1,-1
73,"{'items': ['841'], 'found': '841', 'support': 1927, 'level': 0, 'jaccard': -1, 'filled': 0}","{'items': ['841'], 'found': '841', 'support': 1924, 'level': 0, 'jaccard': -1, 'filled': 1.524}",1927,1924,0,-3,1.524,-1,-1
74,"{'items': ['52'], 'found': '52', 'support': 1983, 'level': 0, 'jaccard': -1, 'filled': 0}","{'items': ['52'], 'found': '52', 'support': 1980, 'level': 0, 'jaccard': -1, 'filled': 1.568}",1983,1980,0,-3,1.568,-1,-1
75,"{'items': ['450'], 'found': '450', 'support': 2082, 'level': 0, 'jaccard': -1, 'filled': 0}","{'items': ['450'], 'found': '450', 'support': 2079, 'level': 0, 'jaccard': -1, 'filled': 1.646}",2082,2079,0,-3,1.646,-1,-1
76,"{'items': ['472'], 'found': '472', 'support': 2125, 'level': 0, 'jaccard': -1, 'filled': 0}","{'items': ['472'], 'found': '472', 'support': 2122, 'level': 0, 'jaccard': -1, 'filled': 1.68}",2125,2122,0,-3,1.68,-1,-1
77,"{'items': ['334'], 'found': '334', 'support': 2146, 'level': 0, 'jaccard': -1, 'filled': 0}","{'items': ['334'], 'found': '334', 'support': 2143, 'level': 0, 'jaccard': -1, 'filled': 1.696}",2146,2143,0,-3,1.696,-1,-1
78,"{'items': ['809'], 'found': '809', 'support': 2163, 'level': 0, 'jaccard': -1, 'filled': 0}","{'items': ['809'], 'found': '809', 'support': 2160, 'level': 0, 'jaccard': -1, 'filled': 1.71}",2163,2160,0,-3,1.71,-1,-1
79,"{'items': ['579'], 'found': '579', 'support': 2164, 'level': 0, 'jaccard': -1, 'filled': 0}","{'items': ['579'], 'found': '579', 'support': 2161, 'level': 0, 'jaccard': -1, 'filled': 1.71}",2164,2161,0,-3,1.71,-1,-1
80,"{'items': ['161'], 'found': '161', 'support': 2320, 'level': 0, 'jaccard': -1, 'filled': 0}","{'items': ['161'], 'found': '161', 'support': 2317, 'level': 0, 'jaccard': -1, 'filled': 1.833}",2320,2317,0,-3,1.833,-1,-1
81,"{'items': ['788'], 'found': '788', 'support': 2386, 'level': 0, 'jaccard': -1, 'filled': 0}","{'items': ['788'], 'found': '788', 'support': 2383, 'level': 0, 'jaccard': -1, 'filled': 1.884}",2386,2383,0,-3,1.884,-1,-1
82,"{'items': ['38'], 'found': '38', 'support': 2402, 'level': 0, 'jaccard': -1, 'filled': 0}","{'items': ['38'], 'found': '38', 'support': 2399, 'level': 0, 'jaccard': -1, 'filled': 1.897}",2402,2399,0,-3,1.897,-1,-1
83,"{'items': ['78'], 'found': '78', 'support': 2471, 'level': 0, 'jaccard': -1, 'filled': 0}","{'items': ['78'], 'found': '78', 'support': 2468, 'level': 0, 'jaccard': -1, 'filled': 1.951}",2471,2468,0,-3,1.951,-1,-1
84,"{'items': ['274'], 'found': '274', 'support': 2628, 'level': 0, 'jaccard': -1, 'filled': 0}","{'items': ['274'], 'found': '274', 'support': 2625, 'level': 0, 'jaccard': -1, 'filled': 2.074}",2628,2625,0,-3,2.074,-1,-1
85,"{'items': ['132'], 'found': '132', 'support': 2641, 'level': 0, 'jaccard': -1, 'filled': 0}","{'items': ['132'], 'found': '132', 'support': 2638, 'level': 0, 'jaccard': -1, 'filled': 2.084}",2641,2638,0,-3,2.084,-1,-1
86,"{'items': ['140'], 'found': '140', 'support': 2687, 'level': 0, 'jaccard': -1, 'filled': 0}","{'items': ['140'], 'found': '140', 'support': 2684, 'level': 0, 'jaccard': -1, 'filled': 2.119}",2687,2684,0,-3,2.119,-1,-1
87,"{'items': ['239'], 'found': '239', 'support': 2742, 'level': 0, 'jaccard': -1, 'filled': 0}","{'items': ['239'], 'found': '239', 'support': 2739, 'level': 0, 'jaccard': -1, 'filled': 2.163}",2742,2739,0,-3,2.163,-1,-1
88,"{'items': ['279'], 'found': '279', 'support': 3014, 'level': 0, 'jaccard': -1, 'filled': 0}","{'items': ['279'], 'found': '279', 'support': 3011, 'level': 0, 'jaccard': -1, 'filled': 2.375}",3014,3011,0,-3,2.375,-1,-1
89,"{'items': ['886'], 'found': '886', 'support': 3053, 'level': 0, 'jaccard': -1, 'filled': 0}","{'items': ['886'], 'found': '886', 'support': 3050, 'level': 0, 'jaccard': -1, 'filled': 2.406}",3053,3050,0,-3,2.406,-1,-1
90,"{'items': ['350'], 'found': '350', 'support': 3069, 'level': 0, 'jaccard': -1, 'filled': 0}","{'items': ['350'], 'found': '350', 'support': 3066, 'level': 0, 'jaccard': -1, 'filled': 2.418}",3069,3066,0,-3,2.418,-1,-1
91,"{'items': ['947'], 'found': '947', 'support': 3690, 'level': 0, 'jaccard': -1, 'filled': 0}","{'items': ['947'], 'found': '947', 'support': 3687, 'level': 0, 'jaccard': -1, 'filled': 2.9}",3690,3687,0,-3,2.9,-1,-1
92,"{'items': ['460'], 'found': '460', 'support': 4438, 'level': 0, 'jaccard': -1, 'filled': 0}","{'items': ['460'], 'found': '460', 'support': 4435, 'level': 0, 'jaccard': -1, 'filled': 3.478}",4438,4435,0,-3,3.478,-1,-1
93,"{'items': ['511'], 'found': '511', 'support': 1015, 'level': 0, 'jaccard': -1, 'filled': 0}","{'items': ['511'], 'found': '511', 'support': 1013, 'level': 0, 'jaccard': -1, 'filled': 0.805}",1015,1013,0,-2,0.805,-1,-1
94,"{'items': ['325'], 'found': '325', 'support': 1022, 'level': 0, 'jaccard': -1, 'filled': 0}","{'items': ['325'], 'found': '325', 'support': 1020, 'level': 0, 'jaccard': -1, 'filled': 0.811}",1022,1020,0,-2,0.811,-1,-1
95,"{'items': ['628'], 'found': '628', 'support': 1102, 'level': 0, 'jaccard': -1, 'filled': 0}","{'items': ['628'], 'found': '628', 'support': 1100, 'level': 0, 'jaccard': -1, 'filled': 0.874}",1102,1100,0,-2,0.874,-1,-1
96,"{'items': ['992'], 'found': '992', 'support': 1116, 'level': 0, 'jaccard': -1, 'filled': 0}","{'items': ['992'], 'found': '992', 'support': 1114, 'level': 0, 'jaccard': -1, 'filled': 0.886}",1116,1114,0,-2,0.886,-1,-1
97,"{'items': ['733'], 'found': '733', 'support': 1141, 'level': 0, 'jaccard': -1, 'filled': 0}","{'items': ['733'], 'found': '733', 'support': 1139, 'level': 0, 'jaccard': -1, 'filled': 0.905}",1141,1139,0,-2,0.905,-1,-1
98,"{'items': ['978'], 'found': '978', 'support': 1141, 'level': 0, 'jaccard': -1, 'filled': 0}","{'items': ['978'], 'found': '978', 'support': 1139, 'level': 0, 'jaccard': -1, 'filled': 0.905}",1141,1139,0,-2,0.905,-1,-1
99,"{'items': ['515'], 'found': '515', 'support': 1166, 'level': 0, 'jaccard': -1, 'filled': 0}","{'items': ['515'], 'found': '515', 'support': 1164, 'level': 0, 'jaccard': -1, 'filled': 0.925}",1166,1164,0,-2,0.925,-1,-1
100,"{'items': ['348'], 'found': '348', 'support': 1226, 'level': 0, 'jaccard': -1, 'filled': 0}","{'items': ['348'], 'found': '348', 'support': 1224, 'level': 0, 'jaccard': -1, 'filled': 0.972}",1226,1224,0,-2,0.972,-1,-1
101,"{'items': ['163'], 'found': '163', 'support': 1256, 'level': 0, 'jaccard': -1, 'filled': 0}","{'items': ['163'], 'found': '163', 'support': 1254, 'level': 0, 'jaccard': -1, 'filled': 0.996}",1256,1254,0,-2,0.996,-1,-1
102,"{'items': ['125'], 'found': '125', 'support': 1287, 'level': 0, 'jaccard': -1, 'filled': 0}","{'items': ['125'], 'found': '125', 'support': 1285, 'level': 0, 'jaccard': -1, 'filled': 1.021}",1287,1285,0,-2,1.021,-1,-1
103,"{'items': ['651'], 'found': '651', 'support': 1288, 'level': 0, 'jaccard': -1, 'filled': 0}","{'items': ['651'], 'found': '651', 'support': 1286, 'level': 0, 'jaccard': -1, 'filled': 1.022}",1288,1286,0,-2,1.022,-1,-1
104,"{'items': ['649'], 'found': '649', 'support': 1292, 'level': 0, 'jaccard': -1, 'filled': 0}","{'items': ['649'], 'found': '649', 'support': 1290, 'level': 0, 'jaccard': -1, 'filled': 1.025}",1292,1290,0,-2,1.025,-1,-1
105,"{'items': ['707'], 'found': '707', 'support': 1354, 'level': 0, 'jaccard': -1, 'filled': 0}","{'items': ['707'], 'found': '707', 'support': 1352, 'level': 0, 'jaccard': -1, 'filled': 1.073}",1354,1352,0,-2,1.073,-1,-1
106,"{'items': ['319'], 'found': '319', 'support': 1371, 'level': 0, 'jaccard': -1, 'filled': 0}","{'items': ['319'], 'found': '319', 'support': 1369, 'level': 0, 'jaccard': -1, 'filled': 1.087}",1371,1369,0,-2,1.087,-1,-1
107,"{'items': ['424'], 'found': '424', 'support': 1448, 'level': 0, 'jaccard': -1, 'filled': 0}","{'items': ['424'], 'found': '424', 'support': 1446, 'level': 0, 'jaccard': -1, 'filled': 1.148}",1448,1446,0,-2,1.148,-1,-1
108,"{'items': ['846'], 'found': '846', 'support': 1480, 'level': 0, 'jaccard': -1, 'filled': 0}","{'items': ['846'], 'found': '846', 'support': 1478, 'level': 0, 'jaccard': -1, 'filled': 1.173}",1480,1478,0,-2,1.173,-1,-1
109,"{'items': ['85'], 'found': '85', 'support': 1555, 'level': 0, 'jaccard': -1, 'filled': 0}","{'items': ['85'], 'found': '85', 'support': 1553, 'level': 0, 'jaccard': -1, 'filled': 1.232}",1555,1553,0,-2,1.232,-1,-1
110,"{'items': ['952'], 'found': '952', 'support': 1574, 'level': 0, 'jaccard': -1, 'filled': 0}","{'items': ['952'], 'found': '952', 'support': 1572, 'level': 0, 'jaccard': -1, 'filled': 1.247}",1574,1572,0,-2,1.247,-1,-1
111,"{'items': ['740'], 'found': '740', 'support': 1632, 'level': 0, 'jaccard': -1, 'filled': 0}","{'items': ['740'], 'found': '740', 'support': 1630, 'level': 0, 'jaccard': -1, 'filled': 1.293}",1632,1630,0,-2,1.293,-1,-1
112,"{'items': ['984'], 'found': '984', 'support': 1756, 'level': 0, 'jaccard': -1, 'filled': 0}","{'items': ['984'], 'found': '984', 'support': 1754, 'level': 0, 'jaccard': -1, 'filled': 1.39}",1756,1754,0,-2,1.39,-1,-1
113,"{'items': ['932'], 'found': '932', 'support': 1786, 'level': 0, 'jaccard': -1, 'filled': 0}","{'items': ['932'], 'found': '932', 'support': 1784, 'level': 0, 'jaccard': -1, 'filled': 1.414}",1786,1784,0,-2,1.414,-1,-1
114,"{'items': ['290'], 'found': '290', 'support': 1793, 'level': 0, 'jaccard': -1, 'filled': 0}","{'items': ['290'], 'found': '290', 'support': 1791, 'level': 0, 'jaccard': -1, 'filled': 1.42}",1793,1791,0,-2,1.42,-1,-1
115,"{'items': ['658'], 'found': '658', 'support': 1881, 'level': 0, 'jaccard': -1, 'filled': 0}","{'items': ['658'], 'found': '658', 'support': 1879, 'level': 0, 'jaccard': -1, 'filled': 1.488}",1881,1879,0,-2,1.488,-1,-1
116,"{'items': ['27'], 'found': '27', 'support': 2165, 'level': 0, 'jaccard': -1, 'filled': 0}","{'items': ['27'], 'found': '27', 'support': 2163, 'level': 0, 'jaccard': -1, 'filled': 1.712}",2165,2163,0,-2,1.712,-1,-1
117,"{'items': ['204'], 'found': '204', 'support': 2174, 'level': 0, 'jaccard': -1, 'filled': 0}","{'items': ['204'], 'found': '204', 'support': 2172, 'level': 0, 'jaccard': -1, 'filled': 1.719}",2174,2172,0,-2,1.719,-1,-1
118,"{'items': ['116'], 'found': '116', 'support': 2193, 'level': 0, 'jaccard': -1, 'filled': 0}","{'items': ['116'], 'found': '116', 'support': 2191, 'level': 0, 'jaccard': -1, 'filled': 1.733}",2193,2191,0,-2,1.733,-1,-1
119,"{'items': ['480'], 'found': '480', 'support': 2309, 'level': 0, 'jaccard': -1, 'filled': 0}","{'items': ['480'], 'found': '480', 'support': 2307, 'level': 0, 'jaccard': -1, 'filled': 1.825}",2309,2307,0,-2,1.825,-1,-1
120,"{'items': ['69'], 'found': '69', 'support': 2370, 'level': 0, 'jaccard': -1, 'filled': 0}","{'items': ['69'], 'found': '69', 'support': 2368, 'level': 0, 'jaccard': -1, 'filled': 1.873}",2370,2368,0,-2,1.873,-1,-1
121,"{'items': ['778'], 'found': '778', 'support': 2514, 'level': 0, 'jaccard': -1, 'filled': 0}","{'items': ['778'], 'found': '778', 'support': 2512, 'level': 0, 'jaccard': -1, 'filled': 1.985}",2514,2512,0,-2,1.985,-1,-1
122,"{'items': ['151'], 'found': '151', 'support': 2611, 'level': 0, 'jaccard': -1, 'filled': 0}","{'items': ['151'], 'found': '151', 'support': 2609, 'level': 0, 'jaccard': -1, 'filled': 2.061}",2611,2609,0,-2,2.061,-1,-1
123,"{'items': ['617'], 'found': '617', 'support': 2614, 'level': 0, 'jaccard': -1, 'filled': 0}","{'items': ['617'], 'found': '617', 'support': 2612, 'level': 0, 'jaccard': -1, 'filled': 2.063}",2614,2612,0,-2,2.063,-1,-1
124,"{'items': ['653'], 'found': '653', 'support': 2634, 'level': 0, 'jaccard': -1, 'filled': 0}","{'items': ['653'], 'found': '653', 'support': 2632, 'level': 0, 'jaccard': -1, 'filled': 2.079}",2634,2632,0,-2,2.079,-1,-1
125,"{'items': ['797'], 'found': '797', 'support': 2684, 'level': 0, 'jaccard': -1, 'filled': 0}","{'items': ['797'], 'found': '797', 'support': 2682, 'level': 0, 'jaccard': -1, 'filled': 2.118}",2684,2682,0,-2,2.118,-1,-1
126,"{'items': ['960'], 'found': '960', 'support': 2732, 'level': 0, 'jaccard': -1, 'filled': 0}","{'items': ['960'], 'found': '960', 'support': 2730, 'level': 0, 'jaccard': -1, 'filled': 2.155}",2732,2730,0,-2,2.155,-1,-1
127,"{'items': ['526'], 'found': '526', 'support': 2793, 'level': 0, 'jaccard': -1, 'filled': 0}","{'items': ['526'], 'found': '526', 'support': 2791, 'level': 0, 'jaccard': -1, 'filled': 2.204}",2793,2791,0,-2,2.204,-1,-1
128,"{'items': ['631'], 'found': '631', 'support': 2793, 'level': 0, 'jaccard': -1, 'filled': 0}","{'items': ['631'], 'found': '631', 'support': 2791, 'level': 0, 'jaccard': -1, 'filled': 2.203}",2793,2791,0,-2,2.203,-1,-1
129,"{'items': ['871'], 'found': '871', 'support': 2810, 'level': 0, 'jaccard': -1, 'filled': 0}","{'items': ['871'], 'found': '871', 'support': 2808, 'level': 0, 'jaccard': -1, 'filled': 2.217}",2810,2808,0,-2,2.217,-1,-1
130,"{'items': ['675'], 'found': '675', 'support': 2976, 'level': 0, 'jaccard': -1, 'filled': 0}","{'items': ['675'], 'found': '675', 'support': 2974, 'level': 0, 'jaccard': -1, 'filled': 2.346}",2976,2974,0,-2,2.346,-1,-1
131,"{'items': ['598'], 'found': '598', 'support': 3219, 'level': 0, 'jaccard': -1, 'filled': 0}","{'items': ['598'], 'found': '598', 'support': 3217, 'level': 0, 'jaccard': -1, 'filled': 2.535}",3219,3217,0,-2,2.535,-1,-1
132,"{'items': ['32'], 'found': '32', 'support': 4248, 'level': 0, 'jaccard': -1, 'filled': 0}","{'items': ['32'], 'found': '32', 'support': 4246, 'level': 0, 'jaccard': -1, 'filled': 3.333}",4248,4246,0,-2,3.333,-1,-1
133,"{'items': ['145'], 'found': '145', 'support': 4559, 'level': 0, 'jaccard': -1, 'filled': 0}","{'items': ['145'], 'found': '145', 'support': 4557, 'level': 0, 'jaccard': -1, 'filled': 3.572}",4559,4557,0,-2,3.572,-1,-1
134,"{'items': ['366'], 'found': '366', 'support': 1031, 'level': 0, 'jaccard': -1, 'filled': 0}","{'items': ['366'], 'found': '366', 'support': 1030, 'level': 0, 'jaccard': -1, 'filled': 0.819}",1031,1030,0,-1,0.819,-1,-1
135,"{'items': ['710'], 'found': '710', 'support': 1044, 'level': 0, 'jaccard': -1, 'filled': 0}","{'items': ['710'], 'found': '710', 'support': 1043, 'level': 0, 'jaccard': -1, 'filled': 0.83}",1044,1043,0,-1,0.83,-1,-1
136,"{'items': ['490'], 'found': '490', 'support': 1066, 'level': 0, 'jaccard': -1, 'filled': 0}","{'items': ['490'], 'found': '490', 'support': 1065, 'level': 0, 'jaccard': -1, 'filled': 0.847}",1066,1065,0,-1,0.847,-1,-1
137,"{'items': ['122'], 'found': '122', 'support': 1081, 'level': 0, 'jaccard': -1, 'filled': 0}","{'items': ['122'], 'found': '122', 'support': 1080, 'level': 0, 'jaccard': -1, 'filled': 0.858}",1081,1080,0,-1,0.858,-1,-1
138,"{'items': ['468'], 'found': '468', 'support': 1089, 'level': 0, 'jaccard': -1, 'filled': 0}","{'items': ['468'], 'found': '468', 'support': 1088, 'level': 0, 'jaccard': -1, 'filled': 0.865}",1089,1088,0,-1,0.865,-1,-1
139,"{'items': ['708'], 'found': '708', 'support': 1090, 'level': 0, 'jaccard': -1, 'filled': 0}","{'items': ['708'], 'found': '708', 'support': 1089, 'level': 0, 'jaccard': -1, 'filled': 0.866}",1090,1089,0,-1,0.866,-1,-1
140,"{'items': ['394'], 'found': '394', 'support': 1145, 'level': 0, 'jaccard': -1, 'filled': 0}","{'items': ['394'], 'found': '394', 'support': 1144, 'level': 0, 'jaccard': -1, 'filled': 0.909}",1145,1144,0,-1,0.909,-1,-1
141,"{'items': ['104'], 'found': '104', 'support': 1158, 'level': 0, 'jaccard': -1, 'filled': 0}","{'items': ['104'], 'found': '104', 'support': 1157, 'level': 0, 'jaccard': -1, 'filled': 0.92}",1158,1157,0,-1,0.92,-1,-1
142,"{'items': ['527'], 'found': '527', 'support': 1185, 'level': 0, 'jaccard': -1, 'filled': 0}","{'items': ['527'], 'found': '527', 'support': 1184, 'level': 0, 'jaccard': -1, 'filled': 0.941}",1185,1184,0,-1,0.941,-1,-1
143,"{'items': ['550'], 'found': '550', 'support': 1203, 'level': 0, 'jaccard': -1, 'filled': 0}","{'items': ['550'], 'found': '550', 'support': 1202, 'level': 0, 'jaccard': -1, 'filled': 0.955}",1203,1202,0,-1,0.955,-1,-1
144,"{'items': ['207'], 'found': '207', 'support': 1214, 'level': 0, 'jaccard': -1, 'filled': 0}","{'items': ['207'], 'found': '207', 'support': 1213, 'level': 0, 'jaccard': -1, 'filled': 0.964}",1214,1213,0,-1,0.964,-1,-1
145,"{'items': ['843'], 'found': '843', 'support': 1222, 'level': 0, 'jaccard': -1, 'filled': 0}","{'items': ['843'], 'found': '843', 'support': 1221, 'level': 0, 'jaccard': -1, 'filled': 0.97}",1222,1221,0,-1,0.97,-1,-1
146,"{'items': ['181'], 'found': '181', 'support': 1235, 'level': 0, 'jaccard': -1, 'filled': 0}","{'items': ['181'], 'found': '181', 'support': 1234, 'level': 0, 'jaccard': -1, 'filled': 0.98}",1235,1234,0,-1,0.98,-1,-1
147,"{'items': ['718'], 'found': '718', 'support': 1238, 'level': 0, 'jaccard': -1, 'filled': 0}","{'items': ['718'], 'found': '718', 'support': 1237, 'level': 0, 'jaccard': -1, 'filled': 0.982}",1238,1237,0,-1,0.982,-1,-1
148,"{'items': ['810'], 'found': '810', 'support': 1267, 'level': 0, 'jaccard': -1, 'filled': 0}","{'items': ['810'], 'found': '810', 'support': 1266, 'level': 0, 'jaccard': -1, 'filled': 1.006}",1267,1266,0,-1,1.006,-1,-1
149,"{'items': ['991'], 'found': '991', 'support': 1268, 'level': 0, 'jaccard': -1, 'filled': 0}","{'items': ['991'], 'found': '991', 'support': 1267, 'level': 0, 'jaccard': -1, 'filled': 1.006}",1268,1267,0,-1,1.006,-1,-1
150,"{'items': ['574'], 'found': '574', 'support': 1297, 'level': 0, 'jaccard': -1, 'filled': 0}","{'items': ['574'], 'found': '574', 'support': 1296, 'level': 0, 'jaccard': -1, 'filled': 1.03}",1297,1296,0,-1,1.03,-1,-1
151,"{'items': ['963'], 'found': '963', 'support': 1327, 'level': 0, 'jaccard': -1, 'filled': 0}","{'items': ['963'], 'found': '963', 'support': 1326, 'level': 0, 'jaccard': -1, 'filled': 1.053}",1327,1326,0,-1,1.053,-1,-1
152,"{'items': ['678'], 'found': '678', 'support': 1329, 'level': 0, 'jaccard': -1, 'filled': 0}","{'items': ['678'], 'found': '678', 'support': 1328, 'level': 0, 'jaccard': -1, 'filled': 1.054}",1329,1328,0,-1,1.054,-1,-1
153,"{'items': ['834'], 'found': '834', 'support': 1373, 'level': 0, 'jaccard': -1, 'filled': 0}","{'items': ['834'], 'found': '834', 'support': 1372, 'level': 0, 'jaccard': -1, 'filled': 1.089}",1373,1372,0,-1,1.089,-1,-1
154,"{'items': ['4'], 'found': '4', 'support': 1394, 'level': 0, 'jaccard': -1, 'filled': 0}","{'items': ['4'], 'found': '4', 'support': 1393, 'level': 0, 'jaccard': -1, 'filled': 1.106}",1394,1393,0,-1,1.106,-1,-1
155,"{'items': ['240'], 'found': '240', 'support': 1399, 'level': 0, 'jaccard': -1, 'filled': 0}","{'items': ['240'], 'found': '240', 'support': 1398, 'level': 0, 'jaccard': -1, 'filled': 1.11}",1399,1398,0,-1,1.11,-1,-1
156,"{'items': ['234'], 'found': '234', 'support': 1416, 'level': 0, 'jaccard': -1, 'filled': 0}","{'items': ['234'], 'found': '234', 'support': 1415, 'level': 0, 'jaccard': -1, 'filled': 1.124}",1416,1415,0,-1,1.124,-1,-1
157,"{'items': ['500'], 'found': '500', 'support': 1444, 'level': 0, 'jaccard': -1, 'filled': 0}","{'items': ['500'], 'found': '500', 'support': 1443, 'level': 0, 'jaccard': -1, 'filled': 1.146}",1444,1443,0,-1,1.146,-1,-1
158,"{'items': ['198'], 'found': '198', 'support': 1461, 'level': 0, 'jaccard': -1, 'filled': 0}","{'items': ['198'], 'found': '198', 'support': 1460, 'level': 0, 'jaccard': -1, 'filled': 1.159}",1461,1460,0,-1,1.159,-1,-1
159,"{'items': ['736'], 'found': '736', 'support': 1470, 'level': 0, 'jaccard': -1, 'filled': 0}","{'items': ['736'], 'found': '736', 'support': 1469, 'level': 0, 'jaccard': -1, 'filled': 1.166}",1470,1469,0,-1,1.166,-1,-1
160,"{'items': ['867'], 'found': '867', 'support': 1530, 'level': 0, 'jaccard': -1, 'filled': 0}","{'items': ['867'], 'found': '867', 'support': 1529, 'level': 0, 'jaccard': -1, 'filled': 1.214}",1530,1529,0,-1,1.214,-1,-1
161,"{'items': ['168'], 'found': '168', 'support': 1538, 'level': 0, 'jaccard': -1, 'filled': 0}","{'items': ['168'], 'found': '168', 'support': 1537, 'level': 0, 'jaccard': -1, 'filled': 1.22}",1538,1537,0,-1,1.22,-1,-1
162,"{'items': ['351'], 'found': '351', 'support': 1641, 'level': 0, 'jaccard': -1, 'filled': 0}","{'items': ['351'], 'found': '351', 'support': 1640, 'level': 0, 'jaccard': -1, 'filled': 1.301}",1641,1640,0,-1,1.301,-1,-1
163,"{'items': ['45'], 'found': '45', 'support': 1728, 'level': 0, 'jaccard': -1, 'filled': 0}","{'items': ['45'], 'found': '45', 'support': 1727, 'level': 0, 'jaccard': -1, 'filled': 1.37}",1728,1727,0,-1,1.37,-1,-1
164,"{'items': ['805'], 'found': '805', 'support': 1789, 'level': 0, 'jaccard': -1, 'filled': 0}","{'items': ['805'], 'found': '805', 'support': 1788, 'level': 0, 'jaccard': -1, 'filled': 1.417}",1789,1788,0,-1,1.417,-1,-1
165,"{'items': ['90'], 'found': '90', 'support': 1875, 'level': 0, 'jaccard': -1, 'filled': 0}","{'items': ['90'], 'found': '90', 'support': 1874, 'level': 0, 'jaccard': -1, 'filled': 1.485}",1875,1874,0,-1,1.485,-1,-1
166,"{'items': ['440'], 'found': '440', 'support': 1943, 'level': 0, 'jaccard': -1, 'filled': 0}","{'items': ['440'], 'found': '440', 'support': 1942, 'level': 0, 'jaccard': -1, 'filled': 1.538}",1943,1942,0,-1,1.538,-1,-1
167,"{'items': ['774'], 'found': '774', 'support': 2046, 'level': 0, 'jaccard': -1, 'filled': 0}","{'items': ['774'], 'found': '774', 'support': 2045, 'level': 0, 'jaccard': -1, 'filled': 1.619}",2046,2045,0,-1,1.619,-1,-1
168,"{'items': ['970'], 'found': '970', 'support': 2086, 'level': 0, 'jaccard': -1, 'filled': 0}","{'items': ['970'], 'found': '970', 'support': 2085, 'level': 0, 'jaccard': -1, 'filled': 1.65}",2086,2085,0,-1,1.65,-1,-1
169,"{'items': ['620'], 'found': '620', 'support': 2100, 'level': 0, 'jaccard': -1, 'filled': 0}","{'items': ['620'], 'found': '620', 'support': 2099, 'level': 0, 'jaccard': -1, 'filled': 1.662}",2100,2099,0,-1,1.662,-1,-1
170,"{'items': ['738'], 'found': '738', 'support': 2129, 'level': 0, 'jaccard': -1, 'filled': 0}","{'items': ['738'], 'found': '738', 'support': 2128, 'level': 0, 'jaccard': -1, 'filled': 1.685}",2129,2128,0,-1,1.685,-1,-1
171,"{'items': ['242'], 'found': '242', 'support': 2325, 'level': 0, 'jaccard': -1, 'filled': 0}","{'items': ['242'], 'found': '242', 'support': 2324, 'level': 0, 'jaccard': -1, 'filled': 1.838}",2325,2324,0,-1,1.838,-1,-1
172,"{'items': ['663'], 'found': '663', 'support': 2354, 'level': 0, 'jaccard': -1, 'filled': 0}","{'items': ['663'], 'found': '663', 'support': 2353, 'level': 0, 'jaccard': -1, 'filled': 1.861}",2354,2353,0,-1,1.861,-1,-1
173,"{'items': ['921'], 'found': '921', 'support': 2425, 'level': 0, 'jaccard': -1, 'filled': 0}","{'items': ['921'], 'found': '921', 'support': 2424, 'level': 0, 'jaccard': -1, 'filled': 1.916}",2425,2424,0,-1,1.916,-1,-1
174,"{'items': ['522'], 'found': '522', 'support': 2725, 'level': 0, 'jaccard': -1, 'filled': 0}","{'items': ['522'], 'found': '522', 'support': 2724, 'level': 0, 'jaccard': -1, 'filled': 2.151}",2725,2724,0,-1,2.151,-1,-1
175,"{'items': ['93'], 'found': '93', 'support': 2777, 'level': 0, 'jaccard': -1, 'filled': 0}","{'items': ['93'], 'found': '93', 'support': 2776, 'level': 0, 'jaccard': -1, 'filled': 2.191}",2777,2776,0,-1,2.191,-1,-1
176,"{'items': ['471'], 'found': '471', 'support': 2894, 'level': 0, 'jaccard': -1, 'filled': 0}","{'items': ['471'], 'found': '471', 'support': 2893, 'level': 0, 'jaccard': -1, 'filled': 2.283}",2894,2893,0,-1,2.283,-1,-1
177,"{'items': ['793'], 'found': '793', 'support': 3063, 'level': 0, 'jaccard': -1, 'filled': 0}","{'items': ['793'], 'found': '793', 'support': 3062, 'level': 0, 'jaccard': -1, 'filled': 2.414}",3063,3062,0,-1,2.414,-1,-1
178,"{'items': ['487'], 'found': '487', 'support': 3135, 'level': 0, 'jaccard': -1, 'filled': 0}","{'items': ['487'], 'found': '487', 'support': 3134, 'level': 0, 'jaccard': -1, 'filled': 2.471}",3135,3134,0,-1,2.471,-1,-1
179,"{'items': ['895'], 'found': '895', 'support': 3385, 'level': 0, 'jaccard': -1, 'filled': 0}","{'items': ['895'], 'found': '895', 'support': 3384, 'level': 0, 'jaccard': -1, 'filled': 2.665}",3385,3384,0,-1,2.665,-1,-1
180,"{'items': ['12'], 'found': '12', 'support': 3415, 'level': 0, 'jaccard': -1, 'filled': 0}","{'items': ['12'], 'found': '12', 'support': 3414, 'level': 0, 'jaccard': -1, 'filled': 2.688}",3415,3414,0,-1,2.688,-1,-1
181,"{'items': ['538'], 'found': '538', 'support': 3982, 'level': 0, 'jaccard': -1, 'filled': 0}","{'items': ['538'], 'found': '538', 'support': 3981, 'level': 0, 'jaccard': -1, 'filled': 3.128}",3982,3981,0,-1,3.128,-1,-1
182,"{'items': ['682'], 'found': '682', 'support': 4132, 'level': 0, 'jaccard': -1, 'filled': 0}","{'items': ['682'], 'found': '682', 'support': 4131, 'level': 0, 'jaccard': -1, 'filled': 3.244}",4132,4131,0,-1,3.244,-1,-1
183,"{'items': ['883'], 'found': '883', 'support': 4902, 'level': 0, 'jaccard': -1, 'filled': 0}","{'items': ['883'], 'found': '883', 'support': 4901, 'level': 0, 'jaccard': -1, 'filled': 3.836}",4902,4901,0,-1,3.836,-1,-1
184,"{'items': ['829'], 'found': '829', 'support': 6810, 'level': 0, 'jaccard': -1, 'filled': 0}","{'items': ['829'], 'found': '829', 'support': 6809, 'level': 0, 'jaccard': -1, 'filled': 5.29}",6810,6809,0,-1,5.29,-1,-1
185,"{'items': ['266'], 'found': '266', 'support': 1022, 'level': 0, 'jaccard': -1, 'filled': 0}","{'items': ['266'], 'found': '266', 'support': 1022, 'level': 0, 'jaccard': -1, 'filled': 0.813}",1022,1022,0,0,0.813,-1,-1
186,"{'items': ['201'], 'found': '201', 'support': 1029, 'level': 0, 'jaccard': -1, 'filled': 0}","{'items': ['201'], 'found': '201', 'support': 1029, 'level': 0, 'jaccard': -1, 'filled': 0.818}",1029,1029,0,0,0.818,-1,-1
187,"{'items': ['928'], 'found': '928', 'support': 1034, 'level': 0, 'jaccard': -1, 'filled': 0}","{'items': ['928'], 'found': '928', 'support': 1034, 'level': 0, 'jaccard': -1, 'filled': 0.822}",1034,1034,0,0,0.822,-1,-1
188,"{'items': ['5'], 'found': '5', 'support': 1094, 'level': 0, 'jaccard': -1, 'filled': 0}","{'items': ['5'], 'found': '5', 'support': 1094, 'level': 0, 'jaccard': -1, 'filled': 0.87}",1094,1094,0,0,0.87,-1,-1
189,"{'items': ['567'], 'found': '567', 'support': 1102, 'level': 0, 'jaccard': -1, 'filled': 0}","{'items': ['567'], 'found': '567', 'support': 1102, 'level': 0, 'jaccard': -1, 'filled': 0.876}",1102,1102,0,0,0.876,-1,-1
190,"{'items': ['361'], 'found': '361', 'support': 1104, 'level': 0, 'jaccard': -1, 'filled': 0}","{'items': ['361'], 'found': '361', 'support': 1104, 'level': 0, 'jaccard': -1, 'filled': 0.878}",1104,1104,0,0,0.878,-1,-1
191,"{'items': ['458'], 'found': '458', 'support': 1124, 'level': 0, 'jaccard': -1, 'filled': 0}","{'items': ['458'], 'found': '458', 'support': 1124, 'level': 0, 'jaccard': -1, 'filled': 0.893}",1124,1124,0,0,0.893,-1,-1
192,"{'items': ['941'], 'found': '941', 'support': 1126, 'level': 0, 'jaccard': -1, 'filled': 0}","{'items': ['941'], 'found': '941', 'support': 1126, 'level': 0, 'jaccard': -1, 'filled': 0.895}",1126,1126,0,0,0.895,-1,-1
193,"{'items': ['688'], 'found': '688', 'support': 1132, 'level': 0, 'jaccard': -1, 'filled': 0}","{'items': ['688'], 'found': '688', 'support': 1132, 'level': 0, 'jaccard': -1, 'filled': 0.899}",1132,1132,0,0,0.899,-1,-1
194,"{'items': ['157'], 'found': '157', 'support': 1140, 'level': 0, 'jaccard': -1, 'filled': 0}","{'items': ['157'], 'found': '157', 'support': 1140, 'level': 0, 'jaccard': -1, 'filled': 0.906}",1140,1140,0,0,0.906,-1,-1
195,"{'items': ['948'], 'found': '948', 'support': 1149, 'level': 0, 'jaccard': -1, 'filled': 0}","{'items': ['948'], 'found': '948', 'support': 1149, 'level': 0, 'jaccard': -1, 'filled': 0.913}",1149,1149,0,0,0.913,-1,-1
196,"{'items': ['322'], 'found': '322', 'support': 1154, 'level': 0, 'jaccard': -1, 'filled': 0}","{'items': ['322'], 'found': '322', 'support': 1154, 'level': 0, 'jaccard': -1, 'filled': 0.917}",1154,1154,0,0,0.917,-1,-1
197,"{'items': ['600'], 'found': '600', 'support': 1192, 'level': 0, 'jaccard': -1, 'filled': 0}","{'items': ['600'], 'found': '600', 'support': 1192, 'level': 0, 'jaccard': -1, 'filled': 0.947}",1192,1192,0,0,0.947,-1,-1
198,"{'items': ['716'], 'found': '716', 'support': 1199, 'level': 0, 'jaccard': -1, 'filled': 0}","{'items': ['716'], 'found': '716', 'support': 1199, 'level': 0, 'jaccard': -1, 'filled': 0.953}",1199,1199,0,0,0.953,-1,-1
199,"{'items': ['517'], 'found': '517', 'support': 1201, 'level': 0, 'jaccard': -1, 'filled': 0}","{'items': ['517'], 'found': '517', 'support': 1201, 'level': 0, 'jaccard': -1, 'filled': 0.954}",1201,1201,0,0,0.954,-1,-1
200,"{'items': ['94'], 'found': '94', 'support': 1201, 'level': 0, 'jaccard': -1, 'filled': 0}","{'items': ['94'], 'found': '94', 'support': 1201, 'level': 0, 'jaccard': -1, 'filled': 0.954}",1201,1201,0,0,0.954,-1,-1
201,"{'items': ['591'], 'found': '591', 'support': 1241, 'level': 0, 'jaccard': -1, 'filled': 0}","{'items': ['591'], 'found': '591', 'support': 1241, 'level': 0, 'jaccard': -1, 'filled': 0.986}",1241,1241,0,0,0.986,-1,-1
202,"{'items': ['860'], 'found': '860', 'support': 1255, 'level': 0, 'jaccard': -1, 'filled': 0}","{'items': ['860'], 'found': '860', 'support': 1255, 'level': 0, 'jaccard': -1, 'filled': 0.997}",1255,1255,0,0,0.997,-1,-1
203,"{'items': ['784'], 'found': '784', 'support': 1257, 'level': 0, 'jaccard': -1, 'filled': 0}","{'items': ['784'], 'found': '784', 'support': 1257, 'level': 0, 'jaccard': -1, 'filled': 0.998}",1257,1257,0,0,0.998,-1,-1
204,"{'items': ['530'], 'found': '530', 'support': 1263, 'level': 0, 'jaccard': -1, 'filled': 0}","{'items': ['530'], 'found': '530', 'support': 1263, 'level': 0, 'jaccard': -1, 'filled': 1.003}",1263,1263,0,0,1.003,-1,-1
205,"{'items': ['513'], 'found': '513', 'support': 1287, 'level': 0, 'jaccard': -1, 'filled': 0}","{'items': ['513'], 'found': '513', 'support': 1287, 'level': 0, 'jaccard': -1, 'filled': 1.022}",1287,1287,0,0,1.022,-1,-1
206,"{'items': ['576'], 'found': '576', 'support': 1337, 'level': 0, 'jaccard': -1, 'filled': 0}","{'items': ['576'], 'found': '576', 'support': 1337, 'level': 0, 'jaccard': -1, 'filled': 1.061}",1337,1337,0,0,1.061,-1,-1
207,"{'items': ['618'], 'found': '618', 'support': 1337, 'level': 0, 'jaccard': -1, 'filled': 0}","{'items': ['618'], 'found': '618', 'support': 1337, 'level': 0, 'jaccard': -1, 'filled': 1.062}",1337,1337,0,0,1.062,-1,-1
208,"{'items': ['335'], 'found': '335', 'support': 1345, 'level': 0, 'jaccard': -1, 'filled': 0}","{'items': ['335'], 'found': '335', 'support': 1345, 'level': 0, 'jaccard': -1, 'filled': 1.068}",1345,1345,0,0,1.068,-1,-1
209,"{'items': ['946'], 'found': '946', 'support': 1350, 'level': 0, 'jaccard': -1, 'filled': 0}","{'items': ['946'], 'found': '946', 'support': 1350, 'level': 0, 'jaccard': -1, 'filled': 1.072}",1350,1350,0,0,1.072,-1,-1
210,"{'items': ['41'], 'found': '41', 'support': 1353, 'level': 0, 'jaccard': -1, 'filled': 0}","{'items': ['41'], 'found': '41', 'support': 1353, 'level': 0, 'jaccard': -1, 'filled': 1.074}",1353,1353,0,0,1.074,-1,-1
211,"{'items': ['265'], 'found': '265', 'support': 1359, 'level': 0, 'jaccard': -1, 'filled': 0}","{'items': ['265'], 'found': '265', 'support': 1359, 'level': 0, 'jaccard': -1, 'filled': 1.079}",1359,1359,0,0,1.079,-1,-1
212,"{'items': ['308'], 'found': '308', 'support': 1402, 'level': 0, 'jaccard': -1, 'filled': 0}","{'items': ['308'], 'found': '308', 'support': 1402, 'level': 0, 'jaccard': -1, 'filled': 1.113}",1402,1402,0,0,1.113,-1,-1
213,"{'items': ['949'], 'found': '949', 'support': 1414, 'level': 0, 'jaccard': -1, 'filled': 0}","{'items': ['949'], 'found': '949', 'support': 1414, 'level': 0, 'jaccard': -1, 'filled': 1.123}",1414,1414,0,0,1.123,-1,-1
214,"{'items': ['143'], 'found': '143', 'support': 1417, 'level': 0, 'jaccard': -1, 'filled': 0}","{'items': ['143'], 'found': '143', 'support': 1417, 'level': 0, 'jaccard': -1, 'filled': 1.125}",1417,1417,0,0,1.125,-1,-1
215,"{'items': ['890'], 'found': '890', 'support': 1437, 'level': 0, 'jaccard': -1, 'filled': 0}","{'items': ['890'], 'found': '890', 'support': 1437, 'level': 0, 'jaccard': -1, 'filled': 1.141}",1437,1437,0,0,1.141,-1,-1
216,"{'items': ['906'], 'found': '906', 'support': 1444, 'level': 0, 'jaccard': -1, 'filled': 0}","{'items': ['906'], 'found': '906', 'support': 1444, 'level': 0, 'jaccard': -1, 'filled': 1.146}",1444,1444,0,0,1.146,-1,-1
217,"{'items': ['208'], 'found': '208', 'support': 1483, 'level': 0, 'jaccard': -1, 'filled': 0}","{'items': ['208'], 'found': '208', 'support': 1483, 'level': 0, 'jaccard': -1, 'filled': 1.177}",1483,1483,0,0,1.177,-1,-1
218,"{'items': ['641'], 'found': '641', 'support': 1494, 'level': 0, 'jaccard': -1, 'filled': 0}","{'items': ['641'], 'found': '641', 'support': 1494, 'level': 0, 'jaccard': -1, 'filled': 1.186}",1494,1494,0,0,1.186,-1,-1
219,"{'items': ['995'], 'found': '995', 'support': 1521, 'level': 0, 'jaccard': -1, 'filled': 0}","{'items': ['995'], 'found': '995', 'support': 1521, 'level': 0, 'jaccard': -1, 'filled': 1.207}",1521,1521,0,0,1.207,-1,-1
220,"{'items': ['630'], 'found': '630', 'support': 1523, 'level': 0, 'jaccard': -1, 'filled': 0}","{'items': ['630'], 'found': '630', 'support': 1523, 'level': 0, 'jaccard': -1, 'filled': 1.209}",1523,1523,0,0,1.209,-1,-1
221,"{'items': ['405'], 'found': '405', 'support': 1525, 'level': 0, 'jaccard': -1, 'filled': 0}","{'items': ['405'], 'found': '405', 'support': 1525, 'level': 0, 'jaccard': -1, 'filled': 1.21}",1525,1525,0,0,1.21,-1,-1
222,"{'items': ['1'], 'found': '1', 'support': 1535, 'level': 0, 'jaccard': -1, 'filled': 0}","{'items': ['1'], 'found': '1', 'support': 1535, 'level': 0, 'jaccard': -1, 'filled': 1.218}",1535,1535,0,0,1.218,-1,-1
223,"{'items': ['639'], 'found': '639', 'support': 1572, 'level': 0, 'jaccard': -1, 'filled': 0}","{'items': ['639'], 'found': '639', 'support': 1572, 'level': 0, 'jaccard': -1, 'filled': 1.247}",1572,1572,0,0,1.247,-1,-1
224,"{'items': ['857'], 'found': '857', 'support': 1588, 'level': 0, 'jaccard': -1, 'filled': 0}","{'items': ['857'], 'found': '857', 'support': 1588, 'level': 0, 'jaccard': -1, 'filled': 1.259}",1588,1588,0,0,1.259,-1,-1
225,"{'items': ['343'], 'found': '343', 'support': 1599, 'level': 0, 'jaccard': -1, 'filled': 0}","{'items': ['343'], 'found': '343', 'support': 1599, 'level': 0, 'jaccard': -1, 'filled': 1.269}",1599,1599,0,0,1.269,-1,-1
226,"{'items': ['17'], 'found': '17', 'support': 1683, 'level': 0, 'jaccard': -1, 'filled': 0}","{'items': ['17'], 'found': '17', 'support': 1683, 'level': 0, 'jaccard': -1, 'filled': 1.335}",1683,1683,0,0,1.335,-1,-1
227,"{'items': ['735'], 'found': '735', 'support': 1689, 'level': 0, 'jaccard': -1, 'filled': 0}","{'items': ['735'], 'found': '735', 'support': 1689, 'level': 0, 'jaccard': -1, 'filled': 1.34}",1689,1689,0,0,1.34,-1,-1
228,"{'items': ['115'], 'found': '115', 'support': 1775, 'level': 0, 'jaccard': -1, 'filled': 0}","{'items': ['115'], 'found': '115', 'support': 1775, 'level': 0, 'jaccard': -1, 'filled': 1.407}",1775,1775,0,0,1.407,-1,-1
229,"{'items': ['704'], 'found': '704', 'support': 1794, 'level': 0, 'jaccard': -1, 'filled': 0}","{'items': ['704'], 'found': '704', 'support': 1794, 'level': 0, 'jaccard': -1, 'filled': 1.422}",1794,1794,0,0,1.422,-1,-1
230,"{'items': ['55'], 'found': '55', 'support': 1959, 'level': 0, 'jaccard': -1, 'filled': 0}","{'items': ['55'], 'found': '55', 'support': 1959, 'level': 0, 'jaccard': -1, 'filled': 1.552}",1959,1959,0,0,1.552,-1,-1
231,"{'items': ['349'], 'found': '349', 'support': 2041, 'level': 0, 'jaccard': -1, 'filled': 0}","{'items': ['349'], 'found': '349', 'support': 2041, 'level': 0, 'jaccard': -1, 'filled': 1.616}",2041,2041,0,0,1.616,-1,-1
232,"{'items': ['878'], 'found': '878', 'support': 2047, 'level': 0, 'jaccard': -1, 'filled': 0}","{'items': ['878'], 'found': '878', 'support': 2047, 'level': 0, 'jaccard': -1, 'filled': 1.621}",2047,2047,0,0,1.621,-1,-1
233,"{'items': ['832'], 'found': '832', 'support': 2062, 'level': 0, 'jaccard': -1, 'filled': 0}","{'items': ['832'], 'found': '832', 'support': 2062, 'level': 0, 'jaccard': -1, 'filled': 1.633}",2062,2062,0,0,1.633,-1,-1
234,"{'items': ['387'], 'found': '387', 'support': 2089, 'level': 0, 'jaccard': -1, 'filled': 0}","{'items': ['387'], 'found': '387', 'support': 2089, 'level': 0, 'jaccard': -1, 'filled': 1.654}",2089,2089,0,0,1.654,-1,-1
235,"{'items': ['276'], 'found': '276', 'support': 2479, 'level': 0, 'jaccard': -1, 'filled': 0}","{'items': ['276'], 'found': '276', 'support': 2479, 'level': 0, 'jaccard': -1, 'filled': 1.96}",2479,2479,0,0,1.96,-1,-1
236,"{'items': ['674'], 'found': '674', 'support': 2527, 'level': 0, 'jaccard': -1, 'filled': 0}","{'items': ['674'], 'found': '674', 'support': 2527, 'level': 0, 'jaccard': -1, 'filled': 1.997}",2527,2527,0,0,1.997,-1,-1
237,"{'items': ['54'], 'found': '54', 'support': 2595, 'level': 0, 'jaccard': -1, 'filled': 0}","{'items': ['54'], 'found': '54', 'support': 2595, 'level': 0, 'jaccard': -1, 'filled': 2.05}",2595,2595,0,0,2.05,-1,-1
238,"{'items': ['236'], 'found': '236', 'support': 2618, 'level': 0, 'jaccard': -1, 'filled': 0}","{'items': ['236'], 'found': '236', 'support': 2618, 'level': 0, 'jaccard': -1, 'filled': 2.068}",2618,2618,0,0,2.068,-1,-1
239,"{'items': ['413'], 'found': '413', 'support': 2637, 'level': 0, 'jaccard': -1, 'filled': 0}","{'items': ['413'], 'found': '413', 'support': 2637, 'level': 0, 'jaccard': -1, 'filled': 2.083}",2637,2637,0,0,2.083,-1,-1
240,"{'items': ['390'], 'found': '390', 'support': 2685, 'level': 0, 'jaccard': -1, 'filled': 0}","{'items': ['390'], 'found': '390', 'support': 2685, 'level': 0, 'jaccard': -1, 'filled': 2.12}",2685,2685,0,0,2.12,-1,-1
241,"{'items': ['944'], 'found': '944', 'support': 2794, 'level': 0, 'jaccard': -1, 'filled': 0}","{'items': ['944'], 'found': '944', 'support': 2794, 'level': 0, 'jaccard': -1, 'filled': 2.206}",2794,2794,0,0,2.206,-1,-1
242,"{'items': ['72'], 'found': '72', 'support': 2852, 'level': 0, 'jaccard': -1, 'filled': 0}","{'items': ['72'], 'found': '72', 'support': 2852, 'level': 0, 'jaccard': -1, 'filled': 2.251}",2852,2852,0,0,2.251,-1,-1
243,"{'items': ['795'], 'found': '795', 'support': 3361, 'level': 0, 'jaccard': -1, 'filled': 0}","{'items': ['795'], 'found': '795', 'support': 3361, 'level': 0, 'jaccard': -1, 'filled': 2.647}",3361,3361,0,0,2.647,-1,-1
244,"{'items': ['720'], 'found': '720', 'support': 3864, 'level': 0, 'jaccard': -1, 'filled': 0}","{'items': ['720'], 'found': '720', 'support': 3864, 'level': 0, 'jaccard': -1, 'filled': 3.037}",3864,3864,0,0,3.037,-1,-1
245,"{'items': ['966'], 'found': '966', 'support': 3921, 'level': 0, 'jaccard': -1, 'filled': 0}","{'items': ['966'], 'found': '966', 'support': 3921, 'level': 0, 'jaccard': -1, 'filled': 3.081}",3921,3921,0,0,3.081,-1,-1
246,"{'items': ['789'], 'found': '789', 'support': 4309, 'level': 0, 'jaccard': -1, 'filled': 0}","{'items': ['789'], 'found': '789', 'support': 4309, 'level': 0, 'jaccard': -1, 'filled': 3.381}",4309,4309,0,0,3.381,-1,-1
247,"{'items': ['428'], 'found': '428', 'support': 1021, 'level': 0, 'jaccard': -1, 'filled': 0}","{'items': ['428'], 'found': '428', 'support': 1022, 'level': 0, 'jaccard': -1, 'filled': 0.812}",1021,1022,0,1,0.812,-1,-1
248,"{'items': ['429'], 'found': '429', 'support': 1037, 'level': 0, 'jaccard': -1, 'filled': 0}","{'items': ['429'], 'found': '429', 'support': 1038, 'level': 0, 'jaccard': -1, 'filled': 0.825}",1037,1038,0,1,0.825,-1,-1
249,"{'items': ['336'], 'found': '336', 'support': 1071, 'level': 0, 'jaccard': -1, 'filled': 0}","{'items': ['336'], 'found': '336', 'support': 1072, 'level': 0, 'jaccard': -1, 'filled': 0.852}",1071,1072,0,1,0.852,-1,-1
250,"{'items': ['126'], 'found': '126', 'support': 1075, 'level': 0, 'jaccard': -1, 'filled': 0}","{'items': ['126'], 'found': '126', 'support': 1076, 'level': 0, 'jaccard': -1, 'filled': 0.855}",1075,1076,0,1,0.855,-1,-1
251,"{'items': ['790'], 'found': '790', 'support': 1094, 'level': 0, 'jaccard': -1, 'filled': 0}","{'items': ['790'], 'found': '790', 'support': 1095, 'level': 0, 'jaccard': -1, 'filled': 0.87}",1094,1095,0,1,0.87,-1,-1
252,"{'items': ['378'], 'found': '378', 'support': 1149, 'level': 0, 'jaccard': -1, 'filled': 0}","{'items': ['378'], 'found': '378', 'support': 1150, 'level': 0, 'jaccard': -1, 'filled': 0.914}",1149,1150,0,1,0.914,-1,-1
253,"{'items': ['900'], 'found': '900', 'support': 1165, 'level': 0, 'jaccard': -1, 'filled': 0}","{'items': ['900'], 'found': '900', 'support': 1166, 'level': 0, 'jaccard': -1, 'filled': 0.927}",1165,1166,0,1,0.927,-1,-1
254,"{'items': ['111'], 'found': '111', 'support': 1171, 'level': 0, 'jaccard': -1, 'filled': 0}","{'items': ['111'], 'found': '111', 'support': 1172, 'level': 0, 'jaccard': -1, 'filled': 0.931}",1171,1172,0,1,0.931,-1,-1
255,"{'items': ['170'], 'found': '170', 'support': 1203, 'level': 0, 'jaccard': -1, 'filled': 0}","{'items': ['170'], 'found': '170', 'support': 1204, 'level': 0, 'jaccard': -1, 'filled': 0.957}",1203,1204,0,1,0.957,-1,-1
256,"{'items': ['197'], 'found': '197', 'support': 1230, 'level': 0, 'jaccard': -1, 'filled': 0}","{'items': ['197'], 'found': '197', 'support': 1231, 'level': 0, 'jaccard': -1, 'filled': 0.978}",1230,1231,0,1,0.978,-1,-1
257,"{'items': ['899'], 'found': '899', 'support': 1252, 'level': 0, 'jaccard': -1, 'filled': 0}","{'items': ['899'], 'found': '899', 'support': 1253, 'level': 0, 'jaccard': -1, 'filled': 0.995}",1252,1253,0,1,0.995,-1,-1
258,"{'items': ['422'], 'found': '422', 'support': 1255, 'level': 0, 'jaccard': -1, 'filled': 0}","{'items': ['422'], 'found': '422', 'support': 1256, 'level': 0, 'jaccard': -1, 'filled': 0.998}",1255,1256,0,1,0.998,-1,-1
259,"{'items': ['819'], 'found': '819', 'support': 1257, 'level': 0, 'jaccard': -1, 'filled': 0}","{'items': ['819'], 'found': '819', 'support': 1258, 'level': 0, 'jaccard': -1, 'filled': 0.999}",1257,1258,0,1,0.999,-1,-1
260,"{'items': ['701'], 'found': '701', 'support': 1283, 'level': 0, 'jaccard': -1, 'filled': 0}","{'items': ['701'], 'found': '701', 'support': 1284, 'level': 0, 'jaccard': -1, 'filled': 1.02}",1283,1284,0,1,1.02,-1,-1
261,"{'items': ['540'], 'found': '540', 'support': 1293, 'level': 0, 'jaccard': -1, 'filled': 0}","{'items': ['540'], 'found': '540', 'support': 1294, 'level': 0, 'jaccard': -1, 'filled': 1.028}",1293,1294,0,1,1.028,-1,-1
262,"{'items': ['665'], 'found': '665', 'support': 1297, 'level': 0, 'jaccard': -1, 'filled': 0}","{'items': ['665'], 'found': '665', 'support': 1298, 'level': 0, 'jaccard': -1, 'filled': 1.031}",1297,1298,0,1,1.031,-1,-1
263,"{'items': ['792'], 'found': '792', 'support': 1306, 'level': 0, 'jaccard': -1, 'filled': 0}","{'items': ['792'], 'found': '792', 'support': 1307, 'level': 0, 'jaccard': -1, 'filled': 1.038}",1306,1307,0,1,1.038,-1,-1
264,"{'items': ['58'], 'found': '58', 'support': 1330, 'level': 0, 'jaccard': -1, 'filled': 0}","{'items': ['58'], 'found': '58', 'support': 1331, 'level': 0, 'jaccard': -1, 'filled': 1.057}",1330,1331,0,1,1.057,-1,-1
265,"{'items': ['10'], 'found': '10', 'support': 1351, 'level': 0, 'jaccard': -1, 'filled': 0}","{'items': ['10'], 'found': '10', 'support': 1352, 'level': 0, 'jaccard': -1, 'filled': 1.073}",1351,1352,0,1,1.073,-1,-1
266,"{'items': ['448'], 'found': '448', 'support': 1370, 'level': 0, 'jaccard': -1, 'filled': 0}","{'items': ['448'], 'found': '448', 'support': 1371, 'level': 0, 'jaccard': -1, 'filled': 1.089}",1370,1371,0,1,1.089,-1,-1
267,"{'items': ['147'], 'found': '147', 'support': 1383, 'level': 0, 'jaccard': -1, 'filled': 0}","{'items': ['147'], 'found': '147', 'support': 1384, 'level': 0, 'jaccard': -1, 'filled': 1.099}",1383,1384,0,1,1.099,-1,-1
268,"{'items': ['310'], 'found': '310', 'support': 1390, 'level': 0, 'jaccard': -1, 'filled': 0}","{'items': ['310'], 'found': '310', 'support': 1391, 'level': 0, 'jaccard': -1, 'filled': 1.105}",1390,1391,0,1,1.105,-1,-1
269,"{'items': ['611'], 'found': '611', 'support': 1444, 'level': 0, 'jaccard': -1, 'filled': 0}","{'items': ['611'], 'found': '611', 'support': 1445, 'level': 0, 'jaccard': -1, 'filled': 1.147}",1444,1445,0,1,1.147,-1,-1
270,"{'items': ['162'], 'found': '162', 'support': 1450, 'level': 0, 'jaccard': -1, 'filled': 0}","{'items': ['162'], 'found': '162', 'support': 1451, 'level': 0, 'jaccard': -1, 'filled': 1.152}",1450,1451,0,1,1.152,-1,-1
271,"{'items': ['28'], 'found': '28', 'support': 1454, 'level': 0, 'jaccard': -1, 'filled': 0}","{'items': ['28'], 'found': '28', 'support': 1455, 'level': 0, 'jaccard': -1, 'filled': 1.155}",1454,1455,0,1,1.155,-1,-1
272,"{'items': ['326'], 'found': '326', 'support': 1488, 'level': 0, 'jaccard': -1, 'filled': 0}","{'items': ['326'], 'found': '326', 'support': 1489, 'level': 0, 'jaccard': -1, 'filled': 1.182}",1488,1489,0,1,1.182,-1,-1
273,"{'items': ['594'], 'found': '594', 'support': 1516, 'level': 0, 'jaccard': -1, 'filled': 0}","{'items': ['594'], 'found': '594', 'support': 1517, 'level': 0, 'jaccard': -1, 'filled': 1.204}",1516,1517,0,1,1.204,-1,-1
274,"{'items': ['812'], 'found': '812', 'support': 1518, 'level': 0, 'jaccard': -1, 'filled': 0}","{'items': ['812'], 'found': '812', 'support': 1519, 'level': 0, 'jaccard': -1, 'filled': 1.206}",1518,1519,0,1,1.206,-1,-1
275,"{'items': ['68'], 'found': '68', 'support': 1601, 'level': 0, 'jaccard': -1, 'filled': 0}","{'items': ['68'], 'found': '68', 'support': 1602, 'level': 0, 'jaccard': -1, 'filled': 1.271}",1601,1602,0,1,1.271,-1,-1
276,"{'items': ['31'], 'found': '31', 'support': 1666, 'level': 0, 'jaccard': -1, 'filled': 0}","{'items': ['31'], 'found': '31', 'support': 1667, 'level': 0, 'jaccard': -1, 'filled': 1.322}",1666,1667,0,1,1.322,-1,-1
277,"{'items': ['580'], 'found': '580', 'support': 1667, 'level': 0, 'jaccard': -1, 'filled': 0}","{'items': ['580'], 'found': '580', 'support': 1668, 'level': 0, 'jaccard': -1, 'filled': 1.322}",1667,1668,0,1,1.322,-1,-1
278,"{'items': ['385'], 'found': '385', 'support': 1676, 'level': 0, 'jaccard': -1, 'filled': 0}","{'items': ['385'], 'found': '385', 'support': 1677, 'level': 0, 'jaccard': -1, 'filled': 1.33}",1676,1677,0,1,1.33,-1,-1
279,"{'items': ['577'], 'found': '577', 'support': 1695, 'level': 0, 'jaccard': -1, 'filled': 0}","{'items': ['577'], 'found': '577', 'support': 1696, 'level': 0, 'jaccard': -1, 'filled': 1.345}",1695,1696,0,1,1.345,-1,-1
280,"{'items': ['110'], 'found': '110', 'support': 1801, 'level': 0, 'jaccard': -1, 'filled': 0}","{'items': ['110'], 'found': '110', 'support': 1802, 'level': 0, 'jaccard': -1, 'filled': 1.429}",1801,1802,0,1,1.429,-1,-1
281,"{'items': ['853'], 'found': '853', 'support': 1804, 'level': 0, 'jaccard': -1, 'filled': 0}","{'items': ['853'], 'found': '853', 'support': 1805, 'level': 0, 'jaccard': -1, 'filled': 1.431}",1804,1805,0,1,1.431,-1,-1
282,"{'items': ['897'], 'found': '897', 'support': 1935, 'level': 0, 'jaccard': -1, 'filled': 0}","{'items': ['897'], 'found': '897', 'support': 1936, 'level': 0, 'jaccard': -1, 'filled': 1.534}",1935,1936,0,1,1.534,-1,-1
283,"{'items': ['803'], 'found': '803', 'support': 2237, 'level': 0, 'jaccard': -1, 'filled': 0}","{'items': ['803'], 'found': '803', 'support': 2238, 'level': 0, 'jaccard': -1, 'filled': 1.771}",2237,2238,0,1,1.771,-1,-1
284,"{'items': ['70'], 'found': '70', 'support': 2411, 'level': 0, 'jaccard': -1, 'filled': 0}","{'items': ['70'], 'found': '70', 'support': 2412, 'level': 0, 'jaccard': -1, 'filled': 1.907}",2411,2412,0,1,1.907,-1,-1
285,"{'items': ['48'], 'found': '48', 'support': 2472, 'level': 0, 'jaccard': -1, 'filled': 0}","{'items': ['48'], 'found': '48', 'support': 2473, 'level': 0, 'jaccard': -1, 'filled': 1.955}",2472,2473,0,1,1.955,-1,-1
286,"{'items': ['661'], 'found': '661', 'support': 2693, 'level': 0, 'jaccard': -1, 'filled': 0}","{'items': ['661'], 'found': '661', 'support': 2694, 'level': 0, 'jaccard': -1, 'filled': 2.127}",2693,2694,0,1,2.127,-1,-1
287,"{'items': ['597'], 'found': '597', 'support': 2883, 'level': 0, 'jaccard': -1, 'filled': 0}","{'items': ['597'], 'found': '597', 'support': 2884, 'level': 0, 'jaccard': -1, 'filled': 2.276}",2883,2884,0,1,2.276,-1,-1
288,"{'items': ['918'], 'found': '918', 'support': 3012, 'level': 0, 'jaccard': -1, 'filled': 0}","{'items': ['918'], 'found': '918', 'support': 3013, 'level': 0, 'jaccard': -1, 'filled': 2.377}",3012,3013,0,1,2.377,-1,-1
289,"{'items': ['798'], 'found': '798', 'support': 3103, 'level': 0, 'jaccard': -1, 'filled': 0}","{'items': ['798'], 'found': '798', 'support': 3104, 'level': 0, 'jaccard': -1, 'filled': 2.447}",3103,3104,0,1,2.447,-1,-1
290,"{'items': ['614'], 'found': '614', 'support': 3134, 'level': 0, 'jaccard': -1, 'filled': 0}","{'items': ['614'], 'found': '614', 'support': 3135, 'level': 0, 'jaccard': -1, 'filled': 2.471}",3134,3135,0,1,2.471,-1,-1
291,"{'items': ['510'], 'found': '510', 'support': 3281, 'level': 0, 'jaccard': -1, 'filled': 0}","{'items': ['510'], 'found': '510', 'support': 3282, 'level': 0, 'jaccard': -1, 'filled': 2.585}",3281,3282,0,1,2.585,-1,-1
292,"{'items': ['183'], 'found': '183', 'support': 3883, 'level': 0, 'jaccard': -1, 'filled': 0}","{'items': ['183'], 'found': '183', 'support': 3884, 'level': 0, 'jaccard': -1, 'filled': 3.053}",3883,3884,0,1,3.053,-1,-1
293,"{'items': ['438'], 'found': '438', 'support': 4511, 'level': 0, 'jaccard': -1, 'filled': 0}","{'items': ['438'], 'found': '438', 'support': 4512, 'level': 0, 'jaccard': -1, 'filled': 3.537}",4511,4512,0,1,3.537,-1,-1
294,"{'items': ['217'], 'found': '217', 'support': 5375, 'level': 0, 'jaccard': -1, 'filled': 0}","{'items': ['217'], 'found': '217', 'support': 5376, 'level': 0, 'jaccard': -1, 'filled': 4.2}",5375,5376,0,1,4.2,-1,-1
295,"{'items': ['171'], 'found': '171', 'support': 1097, 'level': 0, 'jaccard': -1, 'filled': 0}","{'items': ['171'], 'found': '171', 'support': 1099, 'level': 0, 'jaccard': -1, 'filled': 0.874}",1097,1099,0,2,0.874,-1,-1
296,"{'items': ['377'], 'found': '377', 'support': 1149, 'level': 0, 'jaccard': -1, 'filled': 0}","{'items': ['377'], 'found': '377', 'support': 1151, 'level': 0, 'jaccard': -1, 'filled': 0.915}",1149,1151,0,2,0.915,-1,-1
297,"{'items': ['414'], 'found': '414', 'support': 1160, 'level': 0, 'jaccard': -1, 'filled': 0}","{'items': ['414'], 'found': '414', 'support': 1162, 'level': 0, 'jaccard': -1, 'filled': 0.923}",1160,1162,0,2,0.923,-1,-1
298,"{'items': ['859'], 'found': '859', 'support': 1242, 'level': 0, 'jaccard': -1, 'filled': 0}","{'items': ['859'], 'found': '859', 'support': 1244, 'level': 0, 'jaccard': -1, 'filled': 0.988}",1242,1244,0,2,0.988,-1,-1
299,"{'items': ['423'], 'found': '423', 'support': 1412, 'level': 0, 'jaccard': -1, 'filled': 0}","{'items': ['423'], 'found': '423', 'support': 1414, 'level': 0, 'jaccard': -1, 'filled': 1.123}",1412,1414,0,2,1.123,-1,-1
300,"{'items': ['496'], 'found': '496', 'support': 1428, 'level': 0, 'jaccard': -1, 'filled': 0}","{'items': ['496'], 'found': '496', 'support': 1430, 'level': 0, 'jaccard': -1, 'filled': 1.135}",1428,1430,0,2,1.135,-1,-1
301,"{'items': ['294'], 'found': '294', 'support': 1445, 'level': 0, 'jaccard': -1, 'filled': 0}","{'items': ['294'], 'found': '294', 'support': 1447, 'level': 0, 'jaccard': -1, 'filled': 1.148}",1445,1447,0,2,1.148,-1,-1
302,"{'items': ['950'], 'found': '950', 'support': 1463, 'level': 0, 'jaccard': -1, 'filled': 0}","{'items': ['950'], 'found': '950', 'support': 1465, 'level': 0, 'jaccard': -1, 'filled': 1.163}",1463,1465,0,2,1.163,-1,-1
303,"{'items': ['97'], 'found': '97', 'support': 1466, 'level': 0, 'jaccard': -1, 'filled': 0}","{'items': ['97'], 'found': '97', 'support': 1468, 'level': 0, 'jaccard': -1, 'filled': 1.165}",1466,1468,0,2,1.165,-1,-1
304,"{'items': ['461'], 'found': '461', 'support': 1498, 'level': 0, 'jaccard': -1, 'filled': 0}","{'items': ['461'], 'found': '461', 'support': 1500, 'level': 0, 'jaccard': -1, 'filled': 1.19}",1498,1500,0,2,1.19,-1,-1
305,"{'items': ['259'], 'found': '259', 'support': 1522, 'level': 0, 'jaccard': -1, 'filled': 0}","{'items': ['259'], 'found': '259', 'support': 1524, 'level': 0, 'jaccard': -1, 'filled': 1.21}",1522,1524,0,2,1.21,-1,-1
306,"{'items': ['185'], 'found': '185', 'support': 1529, 'level': 0, 'jaccard': -1, 'filled': 0}","{'items': ['185'], 'found': '185', 'support': 1531, 'level': 0, 'jaccard': -1, 'filled': 1.215}",1529,1531,0,2,1.215,-1,-1
307,"{'items': ['521'], 'found': '521', 'support': 1582, 'level': 0, 'jaccard': -1, 'filled': 0}","{'items': ['521'], 'found': '521', 'support': 1584, 'level': 0, 'jaccard': -1, 'filled': 1.257}",1582,1584,0,2,1.257,-1,-1
308,"{'items': ['572'], 'found': '572', 'support': 1589, 'level': 0, 'jaccard': -1, 'filled': 0}","{'items': ['572'], 'found': '572', 'support': 1591, 'level': 0, 'jaccard': -1, 'filled': 1.262}",1589,1591,0,2,1.262,-1,-1
309,"{'items': ['673'], 'found': '673', 'support': 1635, 'level': 0, 'jaccard': -1, 'filled': 0}","{'items': ['673'], 'found': '673', 'support': 1637, 'level': 0, 'jaccard': -1, 'filled': 1.299}",1635,1637,0,2,1.299,-1,-1
310,"{'items': ['982'], 'found': '982', 'support': 1640, 'level': 0, 'jaccard': -1, 'filled': 0}","{'items': ['982'], 'found': '982', 'support': 1642, 'level': 0, 'jaccard': -1, 'filled': 1.303}",1640,1642,0,2,1.303,-1,-1
311,"{'items': ['275'], 'found': '275', 'support': 1692, 'level': 0, 'jaccard': -1, 'filled': 0}","{'items': ['275'], 'found': '275', 'support': 1694, 'level': 0, 'jaccard': -1, 'filled': 1.343}",1692,1694,0,2,1.343,-1,-1
312,"{'items': ['967'], 'found': '967', 'support': 1695, 'level': 0, 'jaccard': -1, 'filled': 0}","{'items': ['967'], 'found': '967', 'support': 1697, 'level': 0, 'jaccard': -1, 'filled': 1.346}",1695,1697,0,2,1.346,-1,-1
313,"{'items': ['130'], 'found': '130', 'support': 1711, 'level': 0, 'jaccard': -1, 'filled': 0}","{'items': ['130'], 'found': '130', 'support': 1713, 'level': 0, 'jaccard': -1, 'filled': 1.358}",1711,1713,0,2,1.358,-1,-1
314,"{'items': ['43'], 'found': '43', 'support': 1721, 'level': 0, 'jaccard': -1, 'filled': 0}","{'items': ['43'], 'found': '43', 'support': 1723, 'level': 0, 'jaccard': -1, 'filled': 1.366}",1721,1723,0,2,1.366,-1,-1
315,"{'items': ['935'], 'found': '935', 'support': 1742, 'level': 0, 'jaccard': -1, 'filled': 0}","{'items': ['935'], 'found': '935', 'support': 1744, 'level': 0, 'jaccard': -1, 'filled': 1.383}",1742,1744,0,2,1.383,-1,-1
316,"{'items': ['923'], 'found': '923', 'support': 1753, 'level': 0, 'jaccard': -1, 'filled': 0}","{'items': ['923'], 'found': '923', 'support': 1755, 'level': 0, 'jaccard': -1, 'filled': 1.391}",1753,1755,0,2,1.391,-1,-1
317,"{'items': ['623'], 'found': '623', 'support': 1845, 'level': 0, 'jaccard': -1, 'filled': 0}","{'items': ['623'], 'found': '623', 'support': 1847, 'level': 0, 'jaccard': -1, 'filled': 1.464}",1845,1847,0,2,1.464,-1,-1
318,"{'items': ['332'], 'found': '332', 'support': 1861, 'level': 0, 'jaccard': -1, 'filled': 0}","{'items': ['332'], 'found': '332', 'support': 1863, 'level': 0, 'jaccard': -1, 'filled': 1.476}",1861,1863,0,2,1.476,-1,-1
319,"{'items': ['800'], 'found': '800', 'support': 1916, 'level': 0, 'jaccard': -1, 'filled': 0}","{'items': ['800'], 'found': '800', 'support': 1918, 'level': 0, 'jaccard': -1, 'filled': 1.519}",1916,1918,0,2,1.519,-1,-1
320,"{'items': ['210'], 'found': '210', 'support': 2009, 'level': 0, 'jaccard': -1, 'filled': 0}","{'items': ['210'], 'found': '210', 'support': 2011, 'level': 0, 'jaccard': -1, 'filled': 1.592}",2009,2011,0,2,1.592,-1,-1
321,"{'items': ['296'], 'found': '296', 'support': 2210, 'level': 0, 'jaccard': -1, 'filled': 0}","{'items': ['296'], 'found': '296', 'support': 2212, 'level': 0, 'jaccard': -1, 'filled': 1.751}",2210,2212,0,2,1.751,-1,-1
322,"{'items': ['752'], 'found': '752', 'support': 2578, 'level': 0, 'jaccard': -1, 'filled': 0}","{'items': ['752'], 'found': '752', 'support': 2580, 'level': 0, 'jaccard': -1, 'filled': 2.039}",2578,2580,0,2,2.039,-1,-1
323,"{'items': ['285'], 'found': '285', 'support': 2600, 'level': 0, 'jaccard': -1, 'filled': 0}","{'items': ['285'], 'found': '285', 'support': 2602, 'level': 0, 'jaccard': -1, 'filled': 2.056}",2600,2602,0,2,2.056,-1,-1
324,"{'items': ['593'], 'found': '593', 'support': 2601, 'level': 0, 'jaccard': -1, 'filled': 0}","{'items': ['593'], 'found': '593', 'support': 2603, 'level': 0, 'jaccard': -1, 'filled': 2.057}",2601,2603,0,2,2.057,-1,-1
325,"{'items': ['561'], 'found': '561', 'support': 2783, 'level': 0, 'jaccard': -1, 'filled': 0}","{'items': ['561'], 'found': '561', 'support': 2785, 'level': 0, 'jaccard': -1, 'filled': 2.199}",2783,2785,0,2,2.199,-1,-1
326,"{'items': ['175'], 'found': '175', 'support': 2791, 'level': 0, 'jaccard': -1, 'filled': 0}","{'items': ['175'], 'found': '175', 'support': 2793, 'level': 0, 'jaccard': -1, 'filled': 2.205}",2791,2793,0,2,2.205,-1,-1
327,"{'items': ['569'], 'found': '569', 'support': 2835, 'level': 0, 'jaccard': -1, 'filled': 0}","{'items': ['569'], 'found': '569', 'support': 2837, 'level': 0, 'jaccard': -1, 'filled': 2.239}",2835,2837,0,2,2.239,-1,-1
328,"{'items': ['581'], 'found': '581', 'support': 2943, 'level': 0, 'jaccard': -1, 'filled': 0}","{'items': ['581'], 'found': '581', 'support': 2945, 'level': 0, 'jaccard': -1, 'filled': 2.324}",2943,2945,0,2,2.324,-1,-1
329,"{'items': ['381'], 'found': '381', 'support': 2959, 'level': 0, 'jaccard': -1, 'filled': 0}","{'items': ['381'], 'found': '381', 'support': 2961, 'level': 0, 'jaccard': -1, 'filled': 2.336}",2959,2961,0,2,2.336,-1,-1
330,"{'items': ['401'], 'found': '401', 'support': 3667, 'level': 0, 'jaccard': -1, 'filled': 0}","{'items': ['401'], 'found': '401', 'support': 3669, 'level': 0, 'jaccard': -1, 'filled': 2.886}",3667,3669,0,2,2.886,-1,-1
331,"{'items': ['283'], 'found': '283', 'support': 4082, 'level': 0, 'jaccard': -1, 'filled': 0}","{'items': ['283'], 'found': '283', 'support': 4084, 'level': 0, 'jaccard': -1, 'filled': 3.207}",4082,4084,0,2,3.207,-1,-1
332,"{'items': ['419'], 'found': '419', 'support': 5057, 'level': 0, 'jaccard': -1, 'filled': 0}","{'items': ['419'], 'found': '419', 'support': 5059, 'level': 0, 'jaccard': -1, 'filled': 3.958}",5057,5059,0,2,3.958,-1,-1
333,"{'items': ['989'], 'found': '989', 'support': 1289, 'level': 0, 'jaccard': -1, 'filled': 0}","{'items': ['989'], 'found': '989', 'support': 1292, 'level': 0, 'jaccard': -1, 'filled': 1.026}",1289,1292,0,3,1.026,-1,-1
334,"{'items': ['749'], 'found': '749', 'support': 1330, 'level': 0, 'jaccard': -1, 'filled': 0}","{'items': ['749'], 'found': '749', 'support': 1333, 'level': 0, 'jaccard': -1, 'filled': 1.058}",1330,1333,0,3,1.058,-1,-1
335,"{'items': ['686'], 'found': '686', 'support': 1495, 'level': 0, 'jaccard': -1, 'filled': 0}","{'items': ['686'], 'found': '686', 'support': 1498, 'level': 0, 'jaccard': -1, 'filled': 1.189}",1495,1498,0,3,1.189,-1,-1
336,"{'items': ['129'], 'found': '129', 'support': 1547, 'level': 0, 'jaccard': -1, 'filled': 0}","{'items': ['129'], 'found': '129', 'support': 1550, 'level': 0, 'jaccard': -1, 'filled': 1.229}",1547,1550,0,3,1.229,-1,-1
337,"{'items': ['486'], 'found': '486', 'support': 1547, 'level': 0, 'jaccard': -1, 'filled': 0}","{'items': ['486'], 'found': '486', 'support': 1550, 'level': 0, 'jaccard': -1, 'filled': 1.229}",1547,1550,0,3,1.229,-1,-1
338,"{'items': ['51'], 'found': '51', 'support': 1612, 'level': 0, 'jaccard': -1, 'filled': 0}","{'items': ['51'], 'found': '51', 'support': 1615, 'level': 0, 'jaccard': -1, 'filled': 1.281}",1612,1615,0,3,1.281,-1,-1
339,"{'items': ['605'], 'found': '605', 'support': 1652, 'level': 0, 'jaccard': -1, 'filled': 0}","{'items': ['605'], 'found': '605', 'support': 1655, 'level': 0, 'jaccard': -1, 'filled': 1.313}",1652,1655,0,3,1.313,-1,-1
340,"{'items': ['214'], 'found': '214', 'support': 1893, 'level': 0, 'jaccard': -1, 'filled': 0}","{'items': ['214'], 'found': '214', 'support': 1896, 'level': 0, 'jaccard': -1, 'filled': 1.502}",1893,1896,0,3,1.502,-1,-1
341,"{'items': ['746'], 'found': '746', 'support': 1982, 'level': 0, 'jaccard': -1, 'filled': 0}","{'items': ['746'], 'found': '746', 'support': 1985, 'level': 0, 'jaccard': -1, 'filled': 1.572}",1982,1985,0,3,1.572,-1,-1
342,"{'items': ['826'], 'found': '826', 'support': 2022, 'level': 0, 'jaccard': -1, 'filled': 0}","{'items': ['826'], 'found': '826', 'support': 2025, 'level': 0, 'jaccard': -1, 'filled': 1.603}",2022,2025,0,3,1.603,-1,-1
343,"{'items': ['73'], 'found': '73', 'support': 2179, 'level': 0, 'jaccard': -1, 'filled': 0}","{'items': ['73'], 'found': '73', 'support': 2182, 'level': 0, 'jaccard': -1, 'filled': 1.727}",2179,2182,0,3,1.727,-1,-1
344,"{'items': ['780'], 'found': '780', 'support': 2306, 'level': 0, 'jaccard': -1, 'filled': 0}","{'items': ['780'], 'found': '780', 'support': 2309, 'level': 0, 'jaccard': -1, 'filled': 1.826}",2306,2309,0,3,1.826,-1,-1
345,"{'items': ['998'], 'found': '998', 'support': 2713, 'level': 0, 'jaccard': -1, 'filled': 0}","{'items': ['998'], 'found': '998', 'support': 2716, 'level': 0, 'jaccard': -1, 'filled': 2.145}",2713,2716,0,3,2.145,-1,-1
346,"{'items': ['57'], 'found': '57', 'support': 2743, 'level': 0, 'jaccard': -1, 'filled': 0}","{'items': ['57'], 'found': '57', 'support': 2746, 'level': 0, 'jaccard': -1, 'filled': 2.168}",2743,2746,0,3,2.168,-1,-1
347,"{'items': ['782'], 'found': '782', 'support': 2767, 'level': 0, 'jaccard': -1, 'filled': 0}","{'items': ['782'], 'found': '782', 'support': 2770, 'level': 0, 'jaccard': -1, 'filled': 2.187}",2767,2770,0,3,2.187,-1,-1
348,"{'items': ['854'], 'found': '854', 'support': 2847, 'level': 0, 'jaccard': -1, 'filled': 0}","{'items': ['854'], 'found': '854', 'support': 2850, 'level': 0, 'jaccard': -1, 'filled': 2.249}",2847,2850,0,3,2.249,-1,-1
349,"{'items': ['8'], 'found': '8', 'support': 3090, 'level': 0, 'jaccard': -1, 'filled': 0}","{'items': ['8'], 'found': '8', 'support': 3093, 'level': 0, 'jaccard': -1, 'filled': 2.439}",3090,3093,0,3,2.439,-1,-1
350,"{'items': ['862'], 'found': '862', 'support': 3649, 'level': 0, 'jaccard': -1, 'filled': 0}","{'items': ['862'], 'found': '862', 'support': 3652, 'level': 0, 'jaccard': -1, 'filled': 2.873}",3649,3652,0,3,2.873,-1,-1
351,"{'items': ['888'], 'found': '888', 'support': 3686, 'level': 0, 'jaccard': -1, 'filled': 0}","{'items': ['888'], 'found': '888', 'support': 3689, 'level': 0, 'jaccard': -1, 'filled': 2.902}",3686,3689,0,3,2.902,-1,-1
352,"{'items': ['914'], 'found': '914', 'support': 4037, 'level': 0, 'jaccard': -1, 'filled': 0}","{'items': ['914'], 'found': '914', 'support': 4040, 'level': 0, 'jaccard': -1, 'filled': 3.173}",4037,4040,0,3,3.173,-1,-1
353,"{'items': ['684'], 'found': '684', 'support': 5408, 'level': 0, 'jaccard': -1, 'filled': 0}","{'items': ['684'], 'found': '684', 'support': 5411, 'level': 0, 'jaccard': -1, 'filled': 4.227}",5408,5411,0,3,4.227,-1,-1
354,"{'items': ['766'], 'found': '766', 'support': 6265, 'level': 0, 'jaccard': -1, 'filled': 0}","{'items': ['766'], 'found': '766', 'support': 6268, 'level': 0, 'jaccard': -1, 'filled': 4.88}",6265,6268,0,3,4.88,-1,-1
355,"{'items': ['35'], 'found': '35', 'support': 1984, 'level': 0, 'jaccard': -1, 'filled': 0}","{'items': ['35'], 'found': '35', 'support': 1988, 'level': 0, 'jaccard': -1, 'filled': 1.575}",1984,1988,0,4,1.575,-1,-1
356,"{'items': ['192'], 'found': '192', 'support': 2004, 'level': 0, 'jaccard': -1, 'filled': 0}","{'items': ['192'], 'found': '192', 'support': 2008, 'level': 0, 'jaccard': -1, 'filled': 1.59}",2004,2008,0,4,1.59,-1,-1
357,"{'items': ['634'], 'found': '634', 'support': 2492, 'level': 0, 'jaccard': -1, 'filled': 0}","{'items': ['634'], 'found': '634', 'support': 2496, 'level': 0, 'jaccard': -1, 'filled': 1.973}",2492,2496,0,4,1.973,-1,-1
358,"{'items': ['548'], 'found': '548', 'support': 2843, 'level': 0, 'jaccard': -1, 'filled': 0}","{'items': ['548'], 'found': '548', 'support': 2847, 'level': 0, 'jaccard': -1, 'filled': 2.247}",2843,2847,0,4,2.247,-1,-1
359,"{'items': ['37'], 'found': '37', 'support': 1249, 'level': 0, 'jaccard': -1, 'filled': 0}","{'items': ['37'], 'found': '37', 'support': 1254, 'level': 0, 'jaccard': -1, 'filled': 0.996}",1249,1254,0,5,0.996,-1,-1
360,"{'items': ['154'], 'found': '154', 'support': 1447, 'level': 0, 'jaccard': -1, 'filled': 0}","{'items': ['154'], 'found': '154', 'support': 1452, 'level': 0, 'jaccard': -1, 'filled': 1.152}",1447,1452,0,5,1.152,-1,-1
361,"{'items': ['814'], 'found': '814', 'support': 1672, 'level': 0, 'jaccard': -1, 'filled': 0}","{'items': ['814'], 'found': '814', 'support': 1677, 'level': 0, 'jaccard': -1, 'filled': 1.33}",1672,1677,0,5,1.33,-1,-1
362,"{'items': ['403'], 'found': '403', 'support': 1722, 'level': 0, 'jaccard': -1, 'filled': 0}","{'items': ['403'], 'found': '403', 'support': 1727, 'level': 0, 'jaccard': -1, 'filled': 1.369}",1722,1727,0,5,1.369,-1,-1
363,"{'items': ['913'], 'found': '913', 'support': 1939, 'level': 0, 'jaccard': -1, 'filled': 0}","{'items': ['913'], 'found': '913', 'support': 1944, 'level': 0, 'jaccard': -1, 'filled': 1.54}",1939,1944,0,5,1.54,-1,-1
364,"{'items': ['411'], 'found': '411', 'support': 2047, 'level': 0, 'jaccard': -1, 'filled': 0}","{'items': ['411'], 'found': '411', 'support': 2052, 'level': 0, 'jaccard': -1, 'filled': 1.625}",2047,2052,0,5,1.625,-1,-1
365,"{'items': ['229'], 'found': '229', 'support': 2281, 'level': 0, 'jaccard': -1, 'filled': 0}","{'items': ['229'], 'found': '229', 'support': 2286, 'level': 0, 'jaccard': -1, 'filled': 1.809}",2281,2286,0,5,1.809,-1,-1
366,"{'items': ['638'], 'found': '638', 'support': 2288, 'level': 0, 'jaccard': -1, 'filled': 0}","{'items': ['638'], 'found': '638', 'support': 2293, 'level': 0, 'jaccard': -1, 'filled': 1.814}",2288,2293,0,5,1.814,-1,-1
367,"{'items': ['477'], 'found': '477', 'support': 2462, 'level': 0, 'jaccard': -1, 'filled': 0}","{'items': ['477'], 'found': '477', 'support': 2467, 'level': 0, 'jaccard': -1, 'filled': 1.95}",2462,2467,0,5,1.95,-1,-1
368,"{'items': ['775'], 'found': '775', 'support': 3771, 'level': 0, 'jaccard': -1, 'filled': 0}","{'items': ['775'], 'found': '775', 'support': 3776, 'level': 0, 'jaccard': -1, 'filled': 2.969}",3771,3776,0,5,2.969,-1,-1
369,"{'items': ['694'], 'found': '694', 'support': 2847, 'level': 0, 'jaccard': -1, 'filled': 0}","{'items': ['694'], 'found': '694', 'support': 2853, 'level': 0, 'jaccard': -1, 'filled': 2.251}",2847,2853,0,6,2.251,-1,-1
370,"{'items': ['346'], 'found': '346', 'support': 3470, 'level': 0, 'jaccard': -1, 'filled': 0}","{'items': ['346'], 'found': '346', 'support': 3477, 'level': 0, 'jaccard': -1, 'filled': 2.738}",3470,3477,0,7,2.738,-1,-1
371,"{'items': ['956'], 'found': '956', 'support': 3626, 'level': 0, 'jaccard': -1, 'filled': 0}","{'items': ['956'], 'found': '956', 'support': 3634, 'level': 0, 'jaccard': -1, 'filled': 2.859}",3626,3634,0,8,2.859,-1,-1
372,"{'items': ['71'], 'found': '71', 'support': 3507, 'level': 0, 'jaccard': -1, 'filled': 0}","{'items': ['71'], 'found': '71', 'support': 3516, 'level': 0, 'jaccard': -1, 'filled': 2.768}",3507,3516,0,9,2.768,-1,-1
373,"{'items': ['177'], 'found': '177', 'support': 4629, 'level': 0, 'jaccard': -1, 'filled': 0}","{'items': ['177'], 'found': '177', 'support': 4639, 'level': 0, 'jaccard': -1, 'filled': 3.635}",4629,4639,0,10,3.635,-1,-1
374,"{'items': ['758'], 'found': '758', 'support': 2860, 'level': 0, 'jaccard': -1, 'filled': 0}","{'items': ['758'], 'found': '758', 'support': 2872, 'level': 0, 'jaccard': -1, 'filled': 2.266}",2860,2872,0,12,2.266,-1,-1
375,"{'items': ['227', '390'], 'found': '390', 'support': 1049, 'level': 1, 'jaccard': -1, 'filled': 0}","{'items': ['227', '390'], 'found': '390', 'support': 1060, 'level': 1, 'jaccard': -1, 'filled': {'227': 1.438, '390': 2.12}}",1049,1060,1,11,"{'227': 1.438, '390': 2.12}",-1,-1
376,"{'items': ['704', '825'], 'found': '825', 'support': 1102, 'level': 1, 'jaccard': -1, 'filled': 0}","{'items': ['704', '825'], 'found': '825', 'support': 1115, 'level': 1, 'jaccard': -1, 'filled': {'704': 1.422, '825': 2.429}}",1102,1115,1,13,"{'704': 1.422, '825': 2.429}",-1,-1
377,"{'items': ['704', '39'], 'found': '39', 'support': 1107, 'level': 1, 'jaccard': -1, 'filled': 0}","{'items': ['704', '39'], 'found': '39', 'support': 1124, 'level': 1, 'jaccard': -1, 'filled': {'704': 1.422, '39': 3.335}}",1107,1124,1,17,"{'704': 1.422, '39': 3.335}",-1,-1
378,"{'items': ['825', '39'], 'found': '39', 'support': 1187, 'level': 1, 'jaccard': -1, 'filled': 0}","{'items': ['825', '39'], 'found': '39', 'support': 1238, 'level': 1, 'jaccard': -1, 'filled': {'825': 2.429, '39': 3.335}}",1187,1238,1,51,"{'825': 2.429, '39': 3.335}",-1,-1
379,"{'items': ['390', '722'], 'found': '722', 'support': 1042, 'level': 1, 'jaccard': -1, 'filled': 0}","{'items': ['390', '722'], 'found': '722', 'support': 1104, 'level': 1, 'jaccard': -1, 'filled': {'390': 2.12, '722': 4.554}}",1042,1104,1,62,"{'390': 2.12, '722': 4.554}",-1,-1
380,"{'items': ['346', '217'], 'found': '217', 'support': 1336, 'level': 1, 'jaccard': -1, 'filled': 0}","{'items': ['346', '217'], 'found': '217', 'support': 1403, 'level': 1, 'jaccard': -1, 'filled': {'346': 2.738, '217': 4.2}}",1336,1403,1,67,"{'346': 2.738, '217': 4.2}",-1,-1
381,"{'items': ['682', '368'], 'found': '368', 'support': 1193, 'level': 1, 'jaccard': -1, 'filled': 0}","{'items': ['682', '368'], 'found': '368', 'support': 1328, 'level': 1, 'jaccard': -1, 'filled': {'682': 3.244, '368': 6.054}}",1193,1328,1,135,"{'682': 3.244, '368': 6.054}",-1,-1
382,"{'items': ['789', '829'], 'found': '829', 'support': 1194, 'level': 1, 'jaccard': -1, 'filled': 0}","{'items': ['789', '829'], 'found': '829', 'support': 1330, 'level': 1, 'jaccard': -1, 'filled': {'789': 3.381, '829': 5.29}}",1194,1330,1,136,"{'789': 3.381, '829': 5.29}",-1,-1
383,"{'items': ['829', '368'], 'found': '368', 'support': 1194, 'level': 1, 'jaccard': -1, 'filled': 0}","{'items': ['829', '368'], 'found': '368', 'support': 1480, 'level': 1, 'jaccard': -1, 'filled': {'829': 5.29, '368': 6.054}}",1194,1480,1,286,"{'829': 5.29, '368': 6.054}",-1,-1
384,"{'items': ['704', '825', '39'], 'found': '39', 'support': 1035, 'level': 2, 'jaccard': -1, 'filled': 0}","{'items': ['704', '825', '39'], 'found': '39', 'support': 1042, 'level': 2, 'jaccard': -1, 'filled': {'704': 1.422, '825': 2.429, '39': 3.335}}",1035,1042,2,7,"{'704': 1.422, '825': 2.429, '39': 3.335}",-1,-1
