,exact,bloomfilter,extra_on_bloom,missing_on_bloom,hll,extra_on_hll,missing_on_hll
0,"{'items': ['79'], 'found': '79', 'support': 1600, 'level': 0, 'jaccard': -1, 'filled': 0}","{'items': ['79'], 'found': '79', 'support': 1600, 'level': 0, 'jaccard': -1, 'filled': 1.269}","{'item': ['271', '39'], 'real_support': 1434, 'approximated_support': 1637, 'level': 1, 'filled': {'271': 1.658, '39': 33.184}}",,,,
1,"{'items': ['2238'], 'found': '2238', 'support': 1715, 'level': 0, 'jaccard': -1, 'filled': 0}","{'items': ['2238'], 'found': '2238', 'support': 1713, 'level': 0, 'jaccard': -1, 'filled': 1.358}","{'item': ['475', '48'], 'real_support': 1428, 'approximated_support': 1619, 'level': 1, 'filled': {'475': 1.712, '48': 28.585}}",,,,
2,"{'items': ['270'], 'found': '270', 'support': 1734, 'level': 0, 'jaccard': -1, 'filled': 0}","{'items': ['270'], 'found': '270', 'support': 1734, 'level': 0, 'jaccard': -1, 'filled': 1.375}","{'item': ['101', '48'], 'real_support': 1311, 'approximated_support': 1567, 'level': 1, 'filled': {'101': 1.766, '48': 28.585}}",,,,
3,"{'items': ['147'], 'found': '147', 'support': 1779, 'level': 0, 'jaccard': -1, 'filled': 0}","{'items': ['147'], 'found': '147', 'support': 1779, 'level': 0, 'jaccard': -1, 'filled': 1.41}","{'item': ['101', '39'], 'real_support': 1400, 'approximated_support': 1674, 'level': 1, 'filled': {'101': 1.766, '39': 33.184}}",,,,
4,"{'items': ['1327'], 'found': '1327', 'support': 1786, 'level': 0, 'jaccard': -1, 'filled': 0}","{'items': ['1327'], 'found': '1327', 'support': 1788, 'level': 0, 'jaccard': -1, 'filled': 1.417}","{'item': ['310', '48', '39'], 'real_support': 1347, 'approximated_support': 1696, 'level': 2, 'filled': {'310': 2.049, '48': 28.585, '39': 33.184}}",,,,
5,"{'items': ['438'], 'found': '438', 'support': 1863, 'level': 0, 'jaccard': -1, 'filled': 0}","{'items': ['438'], 'found': '438', 'support': 1868, 'level': 0, 'jaccard': -1, 'filled': 1.48}","{'item': ['110', '38', '48'], 'real_support': 1361, 'approximated_support': 1763, 'level': 2, 'filled': {'110': 2.21, '38': 11.683, '48': 28.585}}",,,,
6,"{'items': ['413'], 'found': '413', 'support': 1880, 'level': 0, 'jaccard': -1, 'filled': 0}","{'items': ['413'], 'found': '413', 'support': 1877, 'level': 0, 'jaccard': -1, 'filled': 1.487}","{'item': ['110', '48'], 'real_support': 1380, 'approximated_support': 1789, 'level': 1, 'filled': {'110': 2.21, '48': 28.585}}",,,,
7,"{'items': ['271'], 'found': '271', 'support': 2094, 'level': 0, 'jaccard': -1, 'filled': 0}","{'items': ['271'], 'found': '271', 'support': 2095, 'level': 0, 'jaccard': -1, 'filled': 1.658}","{'item': ['110', '48', '39'], 'real_support': 1037, 'approximated_support': 1508, 'level': 2, 'filled': {'110': 2.21, '48': 28.585, '39': 33.184}}",,,,
8,"{'items': ['475'], 'found': '475', 'support': 2167, 'level': 0, 'jaccard': -1, 'filled': 0}","{'items': ['475'], 'found': '475', 'support': 2163, 'level': 0, 'jaccard': -1, 'filled': 1.712}","{'item': ['36', '38', '48'], 'real_support': 1360, 'approximated_support': 1771, 'level': 2, 'filled': {'36': 2.314, '38': 11.683, '48': 28.585}}",,,,
9,"{'items': ['101'], 'found': '101', 'support': 2237, 'level': 0, 'jaccard': -1, 'filled': 0}","{'items': ['101'], 'found': '101', 'support': 2232, 'level': 0, 'jaccard': -1, 'filled': 1.766}","{'item': ['36', '38', '48', '39'], 'real_support': 1080, 'approximated_support': 1531, 'level': 3, 'filled': {'36': 2.314, '38': 11.683, '48': 28.585, '39': 33.184}}",,,,
10,"{'items': ['310'], 'found': '310', 'support': 2594, 'level': 0, 'jaccard': -1, 'filled': 0}","{'items': ['310'], 'found': '310', 'support': 2593, 'level': 0, 'jaccard': -1, 'filled': 2.049}","{'item': ['36', '48'], 'real_support': 1416, 'approximated_support': 1839, 'level': 1, 'filled': {'36': 2.314, '48': 28.585}}",,,,
11,"{'items': ['110'], 'found': '110', 'support': 2794, 'level': 0, 'jaccard': -1, 'filled': 0}","{'items': ['110'], 'found': '110', 'support': 2800, 'level': 0, 'jaccard': -1, 'filled': 2.21}","{'item': ['36', '48', '39'], 'real_support': 1116, 'approximated_support': 1589, 'level': 2, 'filled': {'36': 2.314, '48': 28.585, '39': 33.184}}",,,,
12,"{'items': ['36'], 'found': '36', 'support': 2936, 'level': 0, 'jaccard': -1, 'filled': 0}","{'items': ['36'], 'found': '36', 'support': 2933, 'level': 0, 'jaccard': -1, 'filled': 2.314}","{'item': ['237', '48', '39'], 'real_support': 1244, 'approximated_support': 1740, 'level': 2, 'filled': {'237': 2.384, '48': 28.585, '39': 33.184}}",,,,
13,"{'items': ['237'], 'found': '237', 'support': 3032, 'level': 0, 'jaccard': -1, 'filled': 0}","{'items': ['237'], 'found': '237', 'support': 3022, 'level': 0, 'jaccard': -1, 'filled': 2.384}","{'item': ['170', '38', '48', '39'], 'real_support': 1193, 'approximated_support': 1677, 'level': 3, 'filled': {'170': 2.441, '38': 11.683, '48': 28.585, '39': 33.184}}",,,,
14,"{'items': ['170'], 'found': '170', 'support': 3099, 'level': 0, 'jaccard': -1, 'filled': 0}","{'items': ['170'], 'found': '170', 'support': 3096, 'level': 0, 'jaccard': -1, 'filled': 2.441}","{'item': ['170', '48', '39'], 'real_support': 1206, 'approximated_support': 1699, 'level': 2, 'filled': {'170': 2.441, '48': 28.585, '39': 33.184}}",,,,
15,"{'items': ['225'], 'found': '225', 'support': 3257, 'level': 0, 'jaccard': -1, 'filled': 0}","{'items': ['225'], 'found': '225', 'support': 3260, 'level': 0, 'jaccard': -1, 'filled': 2.568}","{'item': ['225', '48', '39'], 'real_support': 1400, 'approximated_support': 1883, 'level': 2, 'filled': {'225': 2.568, '48': 28.585, '39': 33.184}}",,,,
16,"{'items': ['89'], 'found': '89', 'support': 3837, 'level': 0, 'jaccard': -1, 'filled': 0}","{'items': ['89'], 'found': '89', 'support': 3831, 'level': 0, 'jaccard': -1, 'filled': 3.012}","{'item': ['41', '32', '38'], 'real_support': 805, 'approximated_support': 1535, 'level': 2, 'filled': {'41': 11.238, '32': 11.403, '38': 11.683}}",,,,
17,"{'items': ['65'], 'found': '65', 'support': 4472, 'level': 0, 'jaccard': -1, 'filled': 0}","{'items': ['65'], 'found': '65', 'support': 4467, 'level': 0, 'jaccard': -1, 'filled': 3.503}","{'item': ['32', '38', '48', '39'], 'real_support': 1236, 'approximated_support': 2525, 'level': 3, 'filled': {'32': 11.403, '38': 11.683, '48': 28.585, '39': 33.184}}",,,,
18,"{'items': ['41'], 'found': '41', 'support': 14945, 'level': 0, 'jaccard': -1, 'filled': 0}","{'items': ['41'], 'found': '41', 'support': 14936, 'level': 0, 'jaccard': -1, 'filled': 11.238}",,,,,
19,"{'items': ['32'], 'found': '32', 'support': 15167, 'level': 0, 'jaccard': -1, 'filled': 0}","{'items': ['32'], 'found': '32', 'support': 15169, 'level': 0, 'jaccard': -1, 'filled': 11.403}",,,,,
20,"{'items': ['38'], 'found': '38', 'support': 15596, 'level': 0, 'jaccard': -1, 'filled': 0}","{'items': ['38'], 'found': '38', 'support': 15566, 'level': 0, 'jaccard': -1, 'filled': 11.683}",,,,,
21,"{'items': ['48'], 'found': '48', 'support': 42135, 'level': 0, 'jaccard': -1, 'filled': 0}","{'items': ['48'], 'found': '48', 'support': 42181, 'level': 0, 'jaccard': -1, 'filled': 28.585}",,,,,
22,"{'items': ['39'], 'found': '39', 'support': 50675, 'level': 0, 'jaccard': -1, 'filled': 0}","{'items': ['39'], 'found': '39', 'support': 50522, 'level': 0, 'jaccard': -1, 'filled': 33.184}",,,,,
23,"{'items': ['475', '39'], 'found': '39', 'support': 1500, 'level': 1, 'jaccard': -1, 'filled': 0}","{'items': ['101', '48'], 'found': '48', 'support': 1567, 'level': 1, 'jaccard': -1, 'filled': {'101': 1.766, '48': 28.585}}",,,,,
24,"{'items': ['170', '48'], 'found': '48', 'support': 1557, 'level': 1, 'jaccard': -1, 'filled': 0}","{'items': ['475', '48'], 'found': '48', 'support': 1619, 'level': 1, 'jaccard': -1, 'filled': {'475': 1.712, '48': 28.585}}",,,,,
25,"{'items': ['237', '48'], 'found': '48', 'support': 1682, 'level': 1, 'jaccard': -1, 'filled': 0}","{'items': ['271', '39'], 'found': '39', 'support': 1637, 'level': 1, 'jaccard': -1, 'filled': {'271': 1.658, '39': 33.184}}",,,,,
26,"{'items': ['310', '48'], 'found': '48', 'support': 1692, 'level': 1, 'jaccard': -1, 'filled': 0}","{'items': ['101', '39'], 'found': '39', 'support': 1674, 'level': 1, 'jaccard': -1, 'filled': {'101': 1.766, '39': 33.184}}",,,,,
27,"{'items': ['225', '48'], 'found': '48', 'support': 1736, 'level': 1, 'jaccard': -1, 'filled': 0}","{'items': ['475', '39'], 'found': '39', 'support': 1710, 'level': 1, 'jaccard': -1, 'filled': {'475': 1.712, '39': 33.184}}",,,,,
28,"{'items': ['110', '39'], 'found': '39', 'support': 1759, 'level': 1, 'jaccard': -1, 'filled': 0}","{'items': ['110', '48'], 'found': '48', 'support': 1789, 'level': 1, 'jaccard': -1, 'filled': {'110': 2.21, '48': 28.585}}",,,,,
29,"{'items': ['310', '39'], 'found': '39', 'support': 1852, 'level': 1, 'jaccard': -1, 'filled': 0}","{'items': ['36', '48'], 'found': '48', 'support': 1839, 'level': 1, 'jaccard': -1, 'filled': {'36': 2.314, '48': 28.585}}",,,,,
30,"{'items': ['237', '39'], 'found': '39', 'support': 1929, 'level': 1, 'jaccard': -1, 'filled': 0}","{'items': ['310', '48'], 'found': '48', 'support': 1956, 'level': 1, 'jaccard': -1, 'filled': {'310': 2.049, '48': 28.585}}",,,,,
31,"{'items': ['36', '39'], 'found': '39', 'support': 2037, 'level': 1, 'jaccard': -1, 'filled': 0}","{'items': ['170', '48'], 'found': '48', 'support': 1985, 'level': 1, 'jaccard': -1, 'filled': {'170': 2.441, '48': 28.585}}",,,,,
32,"{'items': ['170', '39'], 'found': '39', 'support': 2059, 'level': 1, 'jaccard': -1, 'filled': 0}","{'items': ['237', '48'], 'found': '48', 'support': 2070, 'level': 1, 'jaccard': -1, 'filled': {'237': 2.384, '48': 28.585}}",,,,,
33,"{'items': ['225', '39'], 'found': '39', 'support': 2351, 'level': 1, 'jaccard': -1, 'filled': 0}","{'items': ['110', '39'], 'found': '39', 'support': 2091, 'level': 1, 'jaccard': -1, 'filled': {'110': 2.21, '39': 33.184}}",,,,,
34,"{'items': ['65', '48'], 'found': '48', 'support': 2529, 'level': 1, 'jaccard': -1, 'filled': 0}","{'items': ['310', '39'], 'found': '39', 'support': 2099, 'level': 1, 'jaccard': -1, 'filled': {'310': 2.049, '39': 33.184}}",,,,,
35,"{'items': ['110', '38'], 'found': '38', 'support': 2725, 'level': 1, 'jaccard': -1, 'filled': 0}","{'items': ['225', '48'], 'found': '48', 'support': 2166, 'level': 1, 'jaccard': -1, 'filled': {'225': 2.568, '48': 28.585}}",,,,,
36,"{'items': ['89', '39'], 'found': '39', 'support': 2749, 'level': 1, 'jaccard': -1, 'filled': 0}","{'items': ['237', '39'], 'found': '39', 'support': 2280, 'level': 1, 'jaccard': -1, 'filled': {'237': 2.384, '39': 33.184}}",,,,,
37,"{'items': ['65', '39'], 'found': '39', 'support': 2787, 'level': 1, 'jaccard': -1, 'filled': 0}","{'items': ['36', '39'], 'found': '39', 'support': 2316, 'level': 1, 'jaccard': -1, 'filled': {'36': 2.314, '39': 33.184}}",,,,,
38,"{'items': ['36', '38'], 'found': '38', 'support': 2790, 'level': 1, 'jaccard': -1, 'filled': 0}","{'items': ['170', '39'], 'found': '39', 'support': 2400, 'level': 1, 'jaccard': -1, 'filled': {'170': 2.441, '39': 33.184}}",,,,,
39,"{'items': ['89', '48'], 'found': '48', 'support': 2798, 'level': 1, 'jaccard': -1, 'filled': 0}","{'items': ['225', '39'], 'found': '39', 'support': 2630, 'level': 1, 'jaccard': -1, 'filled': {'225': 2.568, '39': 33.184}}",,,,,
40,"{'items': ['32', '38'], 'found': '38', 'support': 2833, 'level': 1, 'jaccard': -1, 'filled': 0}","{'items': ['110', '38'], 'found': '38', 'support': 2740, 'level': 1, 'jaccard': -1, 'filled': {'110': 2.21, '38': 11.683}}",,,,,
41,"{'items': ['170', '38'], 'found': '38', 'support': 3031, 'level': 1, 'jaccard': -1, 'filled': 0}","{'items': ['36', '38'], 'found': '38', 'support': 2804, 'level': 1, 'jaccard': -1, 'filled': {'36': 2.314, '38': 11.683}}",,,,,
42,"{'items': ['41', '32'], 'found': '32', 'support': 3196, 'level': 1, 'jaccard': -1, 'filled': 0}","{'items': ['170', '38'], 'found': '38', 'support': 3036, 'level': 1, 'jaccard': -1, 'filled': {'170': 2.441, '38': 11.683}}",,,,,
43,"{'items': ['41', '38'], 'found': '38', 'support': 3897, 'level': 1, 'jaccard': -1, 'filled': 0}","{'items': ['65', '48'], 'found': '48', 'support': 3056, 'level': 1, 'jaccard': -1, 'filled': {'65': 3.503, '48': 28.585}}",,,,,
44,"{'items': ['38', '48'], 'found': '48', 'support': 7944, 'level': 1, 'jaccard': -1, 'filled': 0}","{'items': ['89', '39'], 'found': '39', 'support': 3073, 'level': 1, 'jaccard': -1, 'filled': {'89': 3.012, '39': 33.184}}",,,,,
45,"{'items': ['32', '48'], 'found': '48', 'support': 8034, 'level': 1, 'jaccard': -1, 'filled': 0}","{'items': ['89', '48'], 'found': '48', 'support': 3075, 'level': 1, 'jaccard': -1, 'filled': {'89': 3.012, '48': 28.585}}",,,,,
46,"{'items': ['32', '39'], 'found': '39', 'support': 8455, 'level': 1, 'jaccard': -1, 'filled': 0}","{'items': ['65', '39'], 'found': '39', 'support': 3314, 'level': 1, 'jaccard': -1, 'filled': {'65': 3.503, '39': 33.184}}",,,,,
47,"{'items': ['41', '48'], 'found': '48', 'support': 9018, 'level': 1, 'jaccard': -1, 'filled': 0}","{'items': ['32', '38'], 'found': '38', 'support': 4004, 'level': 1, 'jaccard': -1, 'filled': {'32': 11.403, '38': 11.683}}",,,,,
48,"{'items': ['38', '39'], 'found': '39', 'support': 10345, 'level': 1, 'jaccard': -1, 'filled': 0}","{'items': ['41', '32'], 'found': '32', 'support': 4220, 'level': 1, 'jaccard': -1, 'filled': {'41': 11.238, '32': 11.403}}",,,,,
49,"{'items': ['41', '39'], 'found': '39', 'support': 11414, 'level': 1, 'jaccard': -1, 'filled': 0}","{'items': ['41', '38'], 'found': '38', 'support': 4839, 'level': 1, 'jaccard': -1, 'filled': {'41': 11.238, '38': 11.683}}",,,,,
50,"{'items': ['48', '39'], 'found': '39', 'support': 29142, 'level': 1, 'jaccard': -1, 'filled': 0}","{'items': ['32', '48'], 'found': '48', 'support': 9711, 'level': 1, 'jaccard': -1, 'filled': {'32': 11.403, '48': 28.585}}",,,,,
51,"{'items': ['170', '38', '48'], 'found': '48', 'support': 1538, 'level': 2, 'jaccard': -1, 'filled': 0}","{'items': ['38', '48'], 'found': '48', 'support': 9753, 'level': 1, 'jaccard': -1, 'filled': {'38': 11.683, '48': 28.585}}",,,,,
52,"{'items': ['32', '38', '48'], 'found': '48', 'support': 1646, 'level': 2, 'jaccard': -1, 'filled': 0}","{'items': ['32', '39'], 'found': '39', 'support': 10359, 'level': 1, 'jaccard': -1, 'filled': {'32': 11.403, '39': 33.184}}",,,,,
53,"{'items': ['110', '38', '39'], 'found': '39', 'support': 1740, 'level': 2, 'jaccard': -1, 'filled': 0}","{'items': ['41', '48'], 'found': '48', 'support': 10407, 'level': 1, 'jaccard': -1, 'filled': {'41': 11.238, '48': 28.585}}",,,,,
54,"{'items': ['65', '48', '39'], 'found': '39', 'support': 1797, 'level': 2, 'jaccard': -1, 'filled': 0}","{'items': ['38', '39'], 'found': '39', 'support': 11745, 'level': 1, 'jaccard': -1, 'filled': {'38': 11.683, '39': 33.184}}",,,,,
55,"{'items': ['32', '38', '39'], 'found': '39', 'support': 1840, 'level': 2, 'jaccard': -1, 'filled': 0}","{'items': ['41', '39'], 'found': '39', 'support': 12377, 'level': 1, 'jaccard': -1, 'filled': {'41': 11.238, '39': 33.184}}",,,,,
56,"{'items': ['36', '38', '39'], 'found': '39', 'support': 1945, 'level': 2, 'jaccard': -1, 'filled': 0}","{'items': ['48', '39'], 'found': '39', 'support': 31141, 'level': 1, 'jaccard': -1, 'filled': {'48': 28.585, '39': 33.184}}",,,,,
57,"{'items': ['170', '38', '39'], 'found': '39', 'support': 2019, 'level': 2, 'jaccard': -1, 'filled': 0}","{'items': ['110', '48', '39'], 'found': '39', 'support': 1508, 'level': 2, 'jaccard': -1, 'filled': {'110': 2.21, '48': 28.585, '39': 33.184}}",,,,,
58,"{'items': ['41', '32', '48'], 'found': '48', 'support': 2063, 'level': 2, 'jaccard': -1, 'filled': 0}","{'items': ['41', '32', '38'], 'found': '38', 'support': 1535, 'level': 2, 'jaccard': -1, 'filled': {'41': 11.238, '32': 11.403, '38': 11.683}}",,,,,
59,"{'items': ['89', '48', '39'], 'found': '39', 'support': 2125, 'level': 2, 'jaccard': -1, 'filled': 0}","{'items': ['36', '48', '39'], 'found': '39', 'support': 1589, 'level': 2, 'jaccard': -1, 'filled': {'36': 2.314, '48': 28.585, '39': 33.184}}",,,,,
60,"{'items': ['41', '32', '39'], 'found': '39', 'support': 2359, 'level': 2, 'jaccard': -1, 'filled': 0}","{'items': ['310', '48', '39'], 'found': '39', 'support': 1696, 'level': 2, 'jaccard': -1, 'filled': {'310': 2.049, '48': 28.585, '39': 33.184}}",,,,,
61,"{'items': ['41', '38', '48'], 'found': '48', 'support': 2374, 'level': 2, 'jaccard': -1, 'filled': 0}","{'items': ['170', '48', '39'], 'found': '39', 'support': 1699, 'level': 2, 'jaccard': -1, 'filled': {'170': 2.441, '48': 28.585, '39': 33.184}}",,,,,
62,"{'items': ['41', '38', '39'], 'found': '39', 'support': 3051, 'level': 2, 'jaccard': -1, 'filled': 0}","{'items': ['237', '48', '39'], 'found': '39', 'support': 1740, 'level': 2, 'jaccard': -1, 'filled': {'237': 2.384, '48': 28.585, '39': 33.184}}",,,,,
63,"{'items': ['32', '48', '39'], 'found': '39', 'support': 5402, 'level': 2, 'jaccard': -1, 'filled': 0}","{'items': ['110', '38', '48'], 'found': '48', 'support': 1763, 'level': 2, 'jaccard': -1, 'filled': {'110': 2.21, '38': 11.683, '48': 28.585}}",,,,,
64,"{'items': ['38', '48', '39'], 'found': '39', 'support': 6102, 'level': 2, 'jaccard': -1, 'filled': 0}","{'items': ['36', '38', '48'], 'found': '48', 'support': 1771, 'level': 2, 'jaccard': -1, 'filled': {'36': 2.314, '38': 11.683, '48': 28.585}}",,,,,
65,"{'items': ['41', '48', '39'], 'found': '39', 'support': 7366, 'level': 2, 'jaccard': -1, 'filled': 0}","{'items': ['225', '48', '39'], 'found': '39', 'support': 1883, 'level': 2, 'jaccard': -1, 'filled': {'225': 2.568, '48': 28.585, '39': 33.184}}",,,,,
66,"{'items': ['41', '32', '48', '39'], 'found': '39', 'support': 1646, 'level': 3, 'jaccard': -1, 'filled': 0}","{'items': ['170', '38', '48'], 'found': '48', 'support': 1960, 'level': 2, 'jaccard': -1, 'filled': {'170': 2.441, '38': 11.683, '48': 28.585}}",,,,,
67,"{'items': ['41', '38', '48', '39'], 'found': '39', 'support': 1991, 'level': 3, 'jaccard': -1, 'filled': 0}","{'items': ['110', '38', '39'], 'found': '39', 'support': 2063, 'level': 2, 'jaccard': -1, 'filled': {'110': 2.21, '38': 11.683, '39': 33.184}}",,,,,
68,,"{'items': ['36', '38', '39'], 'found': '39', 'support': 2219, 'level': 2, 'jaccard': -1, 'filled': {'36': 2.314, '38': 11.683, '39': 33.184}}",,,,,
69,,"{'items': ['170', '38', '39'], 'found': '39', 'support': 2357, 'level': 2, 'jaccard': -1, 'filled': {'170': 2.441, '38': 11.683, '39': 33.184}}",,,,,
70,,"{'items': ['65', '48', '39'], 'found': '39', 'support': 2507, 'level': 2, 'jaccard': -1, 'filled': {'65': 3.503, '48': 28.585, '39': 33.184}}",,,,,
71,,"{'items': ['89', '48', '39'], 'found': '39', 'support': 2577, 'level': 2, 'jaccard': -1, 'filled': {'89': 3.012, '48': 28.585, '39': 33.184}}",,,,,
72,,"{'items': ['32', '38', '48'], 'found': '48', 'support': 2923, 'level': 2, 'jaccard': -1, 'filled': {'32': 11.403, '38': 11.683, '48': 28.585}}",,,,,
73,,"{'items': ['32', '38', '39'], 'found': '39', 'support': 3175, 'level': 2, 'jaccard': -1, 'filled': {'32': 11.403, '38': 11.683, '39': 33.184}}",,,,,
74,,"{'items': ['41', '32', '48'], 'found': '48', 'support': 3250, 'level': 2, 'jaccard': -1, 'filled': {'41': 11.238, '32': 11.403, '48': 28.585}}",,,,,
75,,"{'items': ['41', '32', '39'], 'found': '39', 'support': 3564, 'level': 2, 'jaccard': -1, 'filled': {'41': 11.238, '32': 11.403, '39': 33.184}}",,,,,
76,,"{'items': ['41', '38', '48'], 'found': '48', 'support': 3582, 'level': 2, 'jaccard': -1, 'filled': {'41': 11.238, '38': 11.683, '48': 28.585}}",,,,,
77,,"{'items': ['41', '38', '39'], 'found': '39', 'support': 4198, 'level': 2, 'jaccard': -1, 'filled': {'41': 11.238, '38': 11.683, '39': 33.184}}",,,,,
78,,"{'items': ['32', '48', '39'], 'found': '39', 'support': 7646, 'level': 2, 'jaccard': -1, 'filled': {'32': 11.403, '48': 28.585, '39': 33.184}}",,,,,
79,,"{'items': ['38', '48', '39'], 'found': '39', 'support': 8251, 'level': 2, 'jaccard': -1, 'filled': {'38': 11.683, '48': 28.585, '39': 33.184}}",,,,,
80,,"{'items': ['41', '48', '39'], 'found': '39', 'support': 9109, 'level': 2, 'jaccard': -1, 'filled': {'41': 11.238, '48': 28.585, '39': 33.184}}",,,,,
81,,"{'items': ['36', '38', '48', '39'], 'found': '39', 'support': 1531, 'level': 3, 'jaccard': -1, 'filled': {'36': 2.314, '38': 11.683, '48': 28.585, '39': 33.184}}",,,,,
82,,"{'items': ['170', '38', '48', '39'], 'found': '39', 'support': 1677, 'level': 3, 'jaccard': -1, 'filled': {'170': 2.441, '38': 11.683, '48': 28.585, '39': 33.184}}",,,,,
83,,"{'items': ['32', '38', '48', '39'], 'found': '39', 'support': 2525, 'level': 3, 'jaccard': -1, 'filled': {'32': 11.403, '38': 11.683, '48': 28.585, '39': 33.184}}",,,,,
84,,"{'items': ['41', '32', '48', '39'], 'found': '39', 'support': 2869, 'level': 3, 'jaccard': -1, 'filled': {'41': 11.238, '32': 11.403, '48': 28.585, '39': 33.184}}",,,,,
85,,"{'items': ['41', '38', '48', '39'], 'found': '39', 'support': 3250, 'level': 3, 'jaccard': -1, 'filled': {'41': 11.238, '38': 11.683, '48': 28.585, '39': 33.184}}",,,,,
