,exact,approx_bloom,exact_support,approx_support,level,error,filled,jaccard_real,jaccard_approx
0,"{'items': ['48'], 'found': '48', 'support': 42135, 'level': 0, 'jaccard': -1, 'filled': 0}","{'items': ['48'], 'found': '48', 'support': 42111, 'level': 0, 'jaccard': -1, 'filled': 6.501}",42135,42111,0,-24,6.501,-1,-1
1,"{'items': ['170'], 'found': '170', 'support': 3099, 'level': 0, 'jaccard': -1, 'filled': 0}","{'items': ['170'], 'found': '170', 'support': 3094, 'level': 0, 'jaccard': -1, 'filled': 0.493}",3099,3094,0,-5,0.493,-1,-1
2,"{'items': ['41'], 'found': '41', 'support': 14945, 'level': 0, 'jaccard': -1, 'filled': 0}","{'items': ['41'], 'found': '41', 'support': 14941, 'level': 0, 'jaccard': -1, 'filled': 2.357}",14945,14941,0,-4,2.357,-1,-1
3,"{'items': ['15832'], 'found': '15832', 'support': 1143, 'level': 0, 'jaccard': -1, 'filled': 0}","{'items': ['15832'], 'found': '15832', 'support': 1140, 'level': 0, 'jaccard': -1, 'filled': 0.182}",1143,1140,0,-3,0.182,-1,-1
4,"{'items': ['2238'], 'found': '2238', 'support': 1715, 'level': 0, 'jaccard': -1, 'filled': 0}","{'items': ['2238'], 'found': '2238', 'support': 1712, 'level': 0, 'jaccard': -1, 'filled': 0.273}",1715,1712,0,-3,0.273,-1,-1
5,"{'items': ['101'], 'found': '101', 'support': 2237, 'level': 0, 'jaccard': -1, 'filled': 0}","{'items': ['101'], 'found': '101', 'support': 2234, 'level': 0, 'jaccard': -1, 'filled': 0.356}",2237,2234,0,-3,0.356,-1,-1
6,"{'items': ['49'], 'found': '49', 'support': 1120, 'level': 0, 'jaccard': -1, 'filled': 0}","{'items': ['49'], 'found': '49', 'support': 1118, 'level': 0, 'jaccard': -1, 'filled': 0.178}",1120,1118,0,-2,0.178,-1,-1
7,"{'items': ['255'], 'found': '255', 'support': 1474, 'level': 0, 'jaccard': -1, 'filled': 0}","{'items': ['255'], 'found': '255', 'support': 1472, 'level': 0, 'jaccard': -1, 'filled': 0.235}",1474,1472,0,-2,0.235,-1,-1
8,"{'items': ['533'], 'found': '533', 'support': 1487, 'level': 0, 'jaccard': -1, 'filled': 0}","{'items': ['533'], 'found': '533', 'support': 1485, 'level': 0, 'jaccard': -1, 'filled': 0.237}",1487,1485,0,-2,0.237,-1,-1
9,"{'items': ['147'], 'found': '147', 'support': 1779, 'level': 0, 'jaccard': -1, 'filled': 0}","{'items': ['147'], 'found': '147', 'support': 1777, 'level': 0, 'jaccard': -1, 'filled': 0.283}",1779,1777,0,-2,0.283,-1,-1
10,"{'items': ['89'], 'found': '89', 'support': 3837, 'level': 0, 'jaccard': -1, 'filled': 0}","{'items': ['89'], 'found': '89', 'support': 3835, 'level': 0, 'jaccard': -1, 'filled': 0.61}",3837,3835,0,-2,0.61,-1,-1
11,"{'items': ['32'], 'found': '32', 'support': 15167, 'level': 0, 'jaccard': -1, 'filled': 0}","{'items': ['32'], 'found': '32', 'support': 15165, 'level': 0, 'jaccard': -1, 'filled': 2.392}",15167,15165,0,-2,2.392,-1,-1
12,"{'items': ['13041'], 'found': '13041', 'support': 1051, 'level': 0, 'jaccard': -1, 'filled': 0}","{'items': ['13041'], 'found': '13041', 'support': 1050, 'level': 0, 'jaccard': -1, 'filled': 0.168}",1051,1050,0,-1,0.168,-1,-1
13,"{'items': ['37'], 'found': '37', 'support': 1074, 'level': 0, 'jaccard': -1, 'filled': 0}","{'items': ['37'], 'found': '37', 'support': 1073, 'level': 0, 'jaccard': -1, 'filled': 0.171}",1074,1073,0,-1,0.171,-1,-1
14,"{'items': ['1004'], 'found': '1004', 'support': 1102, 'level': 0, 'jaccard': -1, 'filled': 0}","{'items': ['1004'], 'found': '1004', 'support': 1101, 'level': 0, 'jaccard': -1, 'filled': 0.176}",1102,1101,0,-1,0.176,-1,-1
15,"{'items': ['677'], 'found': '677', 'support': 1110, 'level': 0, 'jaccard': -1, 'filled': 0}","{'items': ['677'], 'found': '677', 'support': 1109, 'level': 0, 'jaccard': -1, 'filled': 0.177}",1110,1109,0,-1,0.177,-1,-1
16,"{'items': ['589'], 'found': '589', 'support': 1119, 'level': 0, 'jaccard': -1, 'filled': 0}","{'items': ['589'], 'found': '589', 'support': 1118, 'level': 0, 'jaccard': -1, 'filled': 0.178}",1119,1118,0,-1,0.178,-1,-1
17,"{'items': ['201'], 'found': '201', 'support': 1133, 'level': 0, 'jaccard': -1, 'filled': 0}","{'items': ['201'], 'found': '201', 'support': 1132, 'level': 0, 'jaccard': -1, 'filled': 0.181}",1133,1132,0,-1,0.181,-1,-1
18,"{'items': ['249'], 'found': '249', 'support': 1160, 'level': 0, 'jaccard': -1, 'filled': 0}","{'items': ['249'], 'found': '249', 'support': 1159, 'level': 0, 'jaccard': -1, 'filled': 0.185}",1160,1159,0,-1,0.185,-1,-1
19,"{'items': ['740'], 'found': '740', 'support': 1181, 'level': 0, 'jaccard': -1, 'filled': 0}","{'items': ['740'], 'found': '740', 'support': 1180, 'level': 0, 'jaccard': -1, 'filled': 0.188}",1181,1180,0,-1,0.188,-1,-1
20,"{'items': ['286'], 'found': '286', 'support': 1183, 'level': 0, 'jaccard': -1, 'filled': 0}","{'items': ['286'], 'found': '286', 'support': 1182, 'level': 0, 'jaccard': -1, 'filled': 0.189}",1183,1182,0,-1,0.189,-1,-1
21,"{'items': ['301'], 'found': '301', 'support': 1204, 'level': 0, 'jaccard': -1, 'filled': 0}","{'items': ['301'], 'found': '301', 'support': 1203, 'level': 0, 'jaccard': -1, 'filled': 0.192}",1204,1203,0,-1,0.192,-1,-1
22,"{'items': ['338'], 'found': '338', 'support': 1274, 'level': 0, 'jaccard': -1, 'filled': 0}","{'items': ['338'], 'found': '338', 'support': 1273, 'level': 0, 'jaccard': -1, 'filled': 0.203}",1274,1273,0,-1,0.203,-1,-1
23,"{'items': ['16010'], 'found': '16010', 'support': 1316, 'level': 0, 'jaccard': -1, 'filled': 0}","{'items': ['16010'], 'found': '16010', 'support': 1315, 'level': 0, 'jaccard': -1, 'filled': 0.21}",1316,1315,0,-1,0.21,-1,-1
24,"{'items': ['12925'], 'found': '12925', 'support': 1467, 'level': 0, 'jaccard': -1, 'filled': 0}","{'items': ['12925'], 'found': '12925', 'support': 1466, 'level': 0, 'jaccard': -1, 'filled': 0.234}",1467,1466,0,-1,0.234,-1,-1
25,"{'items': ['79'], 'found': '79', 'support': 1600, 'level': 0, 'jaccard': -1, 'filled': 0}","{'items': ['79'], 'found': '79', 'support': 1599, 'level': 0, 'jaccard': -1, 'filled': 0.255}",1600,1599,0,-1,0.255,-1,-1
26,"{'items': ['1327'], 'found': '1327', 'support': 1786, 'level': 0, 'jaccard': -1, 'filled': 0}","{'items': ['1327'], 'found': '1327', 'support': 1785, 'level': 0, 'jaccard': -1, 'filled': 0.285}",1786,1785,0,-1,0.285,-1,-1
27,"{'items': ['36'], 'found': '36', 'support': 2936, 'level': 0, 'jaccard': -1, 'filled': 0}","{'items': ['36'], 'found': '36', 'support': 2935, 'level': 0, 'jaccard': -1, 'filled': 0.467}",2936,2935,0,-1,0.467,-1,-1
28,"{'items': ['19'], 'found': '19', 'support': 1005, 'level': 0, 'jaccard': -1, 'filled': 0}","{'items': ['19'], 'found': '19', 'support': 1005, 'level': 0, 'jaccard': -1, 'filled': 0.16}",1005,1005,0,0,0.16,-1,-1
29,"{'items': ['161'], 'found': '161', 'support': 1010, 'level': 0, 'jaccard': -1, 'filled': 0}","{'items': ['161'], 'found': '161', 'support': 1010, 'level': 0, 'jaccard': -1, 'filled': 0.161}",1010,1010,0,0,0.161,-1,-1
30,"{'items': ['117'], 'found': '117', 'support': 1026, 'level': 0, 'jaccard': -1, 'filled': 0}","{'items': ['117'], 'found': '117', 'support': 1026, 'level': 0, 'jaccard': -1, 'filled': 0.164}",1026,1026,0,0,0.164,-1,-1
31,"{'items': ['78'], 'found': '78', 'support': 1060, 'level': 0, 'jaccard': -1, 'filled': 0}","{'items': ['78'], 'found': '78', 'support': 1060, 'level': 0, 'jaccard': -1, 'filled': 0.169}",1060,1060,0,0,0.169,-1,-1
32,"{'items': ['1393'], 'found': '1393', 'support': 1161, 'level': 0, 'jaccard': -1, 'filled': 0}","{'items': ['1393'], 'found': '1393', 'support': 1161, 'level': 0, 'jaccard': -1, 'filled': 0.185}",1161,1161,0,0,0.185,-1,-1
33,"{'items': ['604'], 'found': '604', 'support': 1209, 'level': 0, 'jaccard': -1, 'filled': 0}","{'items': ['604'], 'found': '604', 'support': 1209, 'level': 0, 'jaccard': -1, 'filled': 0.193}",1209,1209,0,0,0.193,-1,-1
34,"{'items': ['824'], 'found': '824', 'support': 1210, 'level': 0, 'jaccard': -1, 'filled': 0}","{'items': ['824'], 'found': '824', 'support': 1210, 'level': 0, 'jaccard': -1, 'filled': 0.193}",1210,1210,0,0,0.193,-1,-1
35,"{'items': ['592'], 'found': '592', 'support': 1227, 'level': 0, 'jaccard': -1, 'filled': 0}","{'items': ['592'], 'found': '592', 'support': 1227, 'level': 0, 'jaccard': -1, 'filled': 0.196}",1227,1227,0,0,0.196,-1,-1
36,"{'items': ['14098'], 'found': '14098', 'support': 1291, 'level': 0, 'jaccard': -1, 'filled': 0}","{'items': ['14098'], 'found': '14098', 'support': 1291, 'level': 0, 'jaccard': -1, 'filled': 0.206}",1291,1291,0,0,0.206,-1,-1
37,"{'items': ['123'], 'found': '123', 'support': 1302, 'level': 0, 'jaccard': -1, 'filled': 0}","{'items': ['123'], 'found': '123', 'support': 1302, 'level': 0, 'jaccard': -1, 'filled': 0.208}",1302,1302,0,0,0.208,-1,-1
38,"{'items': ['9'], 'found': '9', 'support': 1372, 'level': 0, 'jaccard': -1, 'filled': 0}","{'items': ['9'], 'found': '9', 'support': 1372, 'level': 0, 'jaccard': -1, 'filled': 0.219}",1372,1372,0,0,0.219,-1,-1
39,"{'items': ['185'], 'found': '185', 'support': 1376, 'level': 0, 'jaccard': -1, 'filled': 0}","{'items': ['185'], 'found': '185', 'support': 1376, 'level': 0, 'jaccard': -1, 'filled': 0.219}",1376,1376,0,0,0.219,-1,-1
40,"{'items': ['1146'], 'found': '1146', 'support': 1426, 'level': 0, 'jaccard': -1, 'filled': 0}","{'items': ['1146'], 'found': '1146', 'support': 1426, 'level': 0, 'jaccard': -1, 'filled': 0.227}",1426,1426,0,0,0.227,-1,-1
41,"{'items': ['270'], 'found': '270', 'support': 1734, 'level': 0, 'jaccard': -1, 'filled': 0}","{'items': ['270'], 'found': '270', 'support': 1734, 'level': 0, 'jaccard': -1, 'filled': 0.276}",1734,1734,0,0,0.276,-1,-1
42,"{'items': ['438'], 'found': '438', 'support': 1863, 'level': 0, 'jaccard': -1, 'filled': 0}","{'items': ['438'], 'found': '438', 'support': 1863, 'level': 0, 'jaccard': -1, 'filled': 0.297}",1863,1863,0,0,0.297,-1,-1
43,"{'items': ['271'], 'found': '271', 'support': 2094, 'level': 0, 'jaccard': -1, 'filled': 0}","{'items': ['271'], 'found': '271', 'support': 2094, 'level': 0, 'jaccard': -1, 'filled': 0.334}",2094,2094,0,0,0.334,-1,-1
44,"{'items': ['475'], 'found': '475', 'support': 2167, 'level': 0, 'jaccard': -1, 'filled': 0}","{'items': ['475'], 'found': '475', 'support': 2167, 'level': 0, 'jaccard': -1, 'filled': 0.345}",2167,2167,0,0,0.345,-1,-1
45,"{'items': ['310'], 'found': '310', 'support': 2594, 'level': 0, 'jaccard': -1, 'filled': 0}","{'items': ['310'], 'found': '310', 'support': 2594, 'level': 0, 'jaccard': -1, 'filled': 0.413}",2594,2594,0,0,0.413,-1,-1
46,"{'items': ['237'], 'found': '237', 'support': 3032, 'level': 0, 'jaccard': -1, 'filled': 0}","{'items': ['237'], 'found': '237', 'support': 3032, 'level': 0, 'jaccard': -1, 'filled': 0.483}",3032,3032,0,0,0.483,-1,-1
47,"{'items': ['225'], 'found': '225', 'support': 3257, 'level': 0, 'jaccard': -1, 'filled': 0}","{'items': ['225'], 'found': '225', 'support': 3257, 'level': 0, 'jaccard': -1, 'filled': 0.519}",3257,3257,0,0,0.519,-1,-1
48,"{'items': ['548'], 'found': '548', 'support': 1137, 'level': 0, 'jaccard': -1, 'filled': 0}","{'items': ['548'], 'found': '548', 'support': 1138, 'level': 0, 'jaccard': -1, 'filled': 0.181}",1137,1138,0,1,0.181,-1,-1
49,"{'items': ['16217'], 'found': '16217', 'support': 1166, 'level': 0, 'jaccard': -1, 'filled': 0}","{'items': ['16217'], 'found': '16217', 'support': 1167, 'level': 0, 'jaccard': -1, 'filled': 0.186}",1166,1167,0,1,0.186,-1,-1
50,"{'items': ['60'], 'found': '60', 'support': 1489, 'level': 0, 'jaccard': -1, 'filled': 0}","{'items': ['60'], 'found': '60', 'support': 1490, 'level': 0, 'jaccard': -1, 'filled': 0.238}",1489,1490,0,1,0.238,-1,-1
51,"{'items': ['413'], 'found': '413', 'support': 1880, 'level': 0, 'jaccard': -1, 'filled': 0}","{'items': ['413'], 'found': '413', 'support': 1881, 'level': 0, 'jaccard': -1, 'filled': 0.3}",1880,1881,0,1,0.3,-1,-1
52,"{'items': ['65'], 'found': '65', 'support': 4472, 'level': 0, 'jaccard': -1, 'filled': 0}","{'items': ['65'], 'found': '65', 'support': 4473, 'level': 0, 'jaccard': -1, 'filled': 0.712}",4472,4473,0,1,0.712,-1,-1
53,"{'items': ['110'], 'found': '110', 'support': 2794, 'level': 0, 'jaccard': -1, 'filled': 0}","{'items': ['110'], 'found': '110', 'support': 2797, 'level': 0, 'jaccard': -1, 'filled': 0.446}",2794,2797,0,3,0.446,-1,-1
54,"{'items': ['38'], 'found': '38', 'support': 15596, 'level': 0, 'jaccard': -1, 'filled': 0}","{'items': ['38'], 'found': '38', 'support': 15602, 'level': 0, 'jaccard': -1, 'filled': 2.46}",15596,15602,0,6,2.46,-1,-1
55,"{'items': ['39'], 'found': '39', 'support': 50675, 'level': 0, 'jaccard': -1, 'filled': 0}","{'items': ['39'], 'found': '39', 'support': 50681, 'level': 0, 'jaccard': -1, 'filled': 7.771}",50675,50681,0,6,7.771,-1,-1
56,"{'items': ['170', '38'], 'found': '38', 'support': 3031, 'level': 1, 'jaccard': -1, 'filled': 0}","{'items': ['170', '38'], 'found': '38', 'support': 3029, 'level': 1, 'jaccard': -1, 'filled': {'170': 0.493, '38': 2.46}}",3031,3029,1,-2,"{'170': 0.493, '38': 2.46}",-1,-1
57,"{'items': ['37', '38'], 'found': '38', 'support': 1046, 'level': 1, 'jaccard': -1, 'filled': 0}","{'items': ['37', '38'], 'found': '38', 'support': 1045, 'level': 1, 'jaccard': -1, 'filled': {'37': 0.171, '38': 2.46}}",1046,1045,1,-1,"{'37': 0.171, '38': 2.46}",-1,-1
58,"{'items': ['286', '38'], 'found': '38', 'support': 1116, 'level': 1, 'jaccard': -1, 'filled': 0}","{'items': ['286', '38'], 'found': '38', 'support': 1115, 'level': 1, 'jaccard': -1, 'filled': {'286': 0.189, '38': 2.46}}",1116,1115,1,-1,"{'286': 0.189, '38': 2.46}",-1,-1
59,"{'items': ['36', '38'], 'found': '38', 'support': 2790, 'level': 1, 'jaccard': -1, 'filled': 0}","{'items': ['36', '38'], 'found': '38', 'support': 2793, 'level': 1, 'jaccard': -1, 'filled': {'36': 0.467, '38': 2.46}}",2790,2793,1,3,"{'36': 0.467, '38': 2.46}",-1,-1
60,"{'items': ['110', '38'], 'found': '38', 'support': 2725, 'level': 1, 'jaccard': -1, 'filled': 0}","{'items': ['110', '38'], 'found': '38', 'support': 2729, 'level': 1, 'jaccard': -1, 'filled': {'110': 0.446, '38': 2.46}}",2725,2729,1,4,"{'110': 0.446, '38': 2.46}",-1,-1
61,"{'items': ['255', '48'], 'found': '48', 'support': 1057, 'level': 1, 'jaccard': -1, 'filled': 0}","{'items': ['255', '48'], 'found': '48', 'support': 1083, 'level': 1, 'jaccard': -1, 'filled': {'255': 0.235, '48': 6.501}}",1057,1083,1,26,"{'255': 0.235, '48': 6.501}",-1,-1
62,"{'items': ['255', '39'], 'found': '39', 'support': 1057, 'level': 1, 'jaccard': -1, 'filled': 0}","{'items': ['255', '39'], 'found': '39', 'support': 1087, 'level': 1, 'jaccard': -1, 'filled': {'255': 0.235, '39': 7.771}}",1057,1087,1,30,"{'255': 0.235, '39': 7.771}",-1,-1
63,"{'items': ['2238', '39'], 'found': '39', 'support': 1287, 'level': 1, 'jaccard': -1, 'filled': 0}","{'items': ['2238', '39'], 'found': '39', 'support': 1317, 'level': 1, 'jaccard': -1, 'filled': {'2238': 0.273, '39': 7.771}}",1287,1317,1,30,"{'2238': 0.273, '39': 7.771}",-1,-1
64,"{'items': ['438', '39'], 'found': '39', 'support': 1260, 'level': 1, 'jaccard': -1, 'filled': 0}","{'items': ['39', '438'], 'found': '438', 'support': 1300, 'level': 1, 'jaccard': -1, 'filled': {'39': 7.771, '438': 0.297}}",1260,1300,1,40,"{'39': 7.771, '438': 0.297}",-1,-1
65,"{'items': ['270', '39'], 'found': '39', 'support': 1194, 'level': 1, 'jaccard': -1, 'filled': 0}","{'items': ['270', '39'], 'found': '39', 'support': 1235, 'level': 1, 'jaccard': -1, 'filled': {'270': 0.276, '39': 7.771}}",1194,1235,1,41,"{'270': 0.276, '39': 7.771}",-1,-1
66,"{'items': ['271', '39'], 'found': '39', 'support': 1434, 'level': 1, 'jaccard': -1, 'filled': 0}","{'items': ['271', '39'], 'found': '39', 'support': 1476, 'level': 1, 'jaccard': -1, 'filled': {'271': 0.334, '39': 7.771}}",1434,1476,1,42,"{'271': 0.334, '39': 7.771}",-1,-1
67,"{'items': ['475', '48'], 'found': '48', 'support': 1428, 'level': 1, 'jaccard': -1, 'filled': 0}","{'items': ['475', '48'], 'found': '48', 'support': 1471, 'level': 1, 'jaccard': -1, 'filled': {'475': 0.345, '48': 6.501}}",1428,1471,1,43,"{'475': 0.345, '48': 6.501}",-1,-1
68,"{'items': ['438', '48'], 'found': '48', 'support': 1025, 'level': 1, 'jaccard': -1, 'filled': 0}","{'items': ['438', '48'], 'found': '48', 'support': 1069, 'level': 1, 'jaccard': -1, 'filled': {'438': 0.297, '48': 6.501}}",1025,1069,1,44,"{'438': 0.297, '48': 6.501}",-1,-1
69,"{'items': ['1327', '39'], 'found': '39', 'support': 1156, 'level': 1, 'jaccard': -1, 'filled': 0}","{'items': ['1327', '39'], 'found': '39', 'support': 1201, 'level': 1, 'jaccard': -1, 'filled': {'1327': 0.285, '39': 7.771}}",1156,1201,1,45,"{'1327': 0.285, '39': 7.771}",-1,-1
70,"{'items': ['147', '48'], 'found': '48', 'support': 1036, 'level': 1, 'jaccard': -1, 'filled': 0}","{'items': ['147', '48'], 'found': '48', 'support': 1082, 'level': 1, 'jaccard': -1, 'filled': {'147': 0.283, '48': 6.501}}",1036,1082,1,46,"{'147': 0.283, '48': 6.501}",-1,-1
71,"{'items': ['79', '39'], 'found': '39', 'support': 1111, 'level': 1, 'jaccard': -1, 'filled': 0}","{'items': ['39', '79'], 'found': '79', 'support': 1157, 'level': 1, 'jaccard': -1, 'filled': {'39': 7.771, '79': 0.255}}",1111,1157,1,46,"{'39': 7.771, '79': 0.255}",-1,-1
72,"{'items': ['413', '48'], 'found': '48', 'support': 1135, 'level': 1, 'jaccard': -1, 'filled': 0}","{'items': ['413', '48'], 'found': '48', 'support': 1183, 'level': 1, 'jaccard': -1, 'filled': {'413': 0.3, '48': 6.501}}",1135,1183,1,48,"{'413': 0.3, '48': 6.501}",-1,-1
73,"{'items': ['147', '39'], 'found': '39', 'support': 1137, 'level': 1, 'jaccard': -1, 'filled': 0}","{'items': ['147', '39'], 'found': '39', 'support': 1188, 'level': 1, 'jaccard': -1, 'filled': {'147': 0.283, '39': 7.771}}",1137,1188,1,51,"{'147': 0.283, '39': 7.771}",-1,-1
74,"{'items': ['475', '39'], 'found': '39', 'support': 1500, 'level': 1, 'jaccard': -1, 'filled': 0}","{'items': ['39', '475'], 'found': '475', 'support': 1554, 'level': 1, 'jaccard': -1, 'filled': {'39': 7.771, '475': 0.345}}",1500,1554,1,54,"{'39': 7.771, '475': 0.345}",-1,-1
75,"{'items': ['310', '39'], 'found': '39', 'support': 1852, 'level': 1, 'jaccard': -1, 'filled': 0}","{'items': ['310', '39'], 'found': '39', 'support': 1907, 'level': 1, 'jaccard': -1, 'filled': {'310': 0.413, '39': 7.771}}",1852,1907,1,55,"{'310': 0.413, '39': 7.771}",-1,-1
76,"{'items': ['89', '48'], 'found': '48', 'support': 2798, 'level': 1, 'jaccard': -1, 'filled': 0}","{'items': ['48', '89'], 'found': '89', 'support': 2858, 'level': 1, 'jaccard': -1, 'filled': {'48': 6.501, '89': 0.61}}",2798,2858,1,60,"{'48': 6.501, '89': 0.61}",-1,-1
77,"{'items': ['271', '48'], 'found': '48', 'support': 1090, 'level': 1, 'jaccard': -1, 'filled': 0}","{'items': ['271', '48'], 'found': '48', 'support': 1152, 'level': 1, 'jaccard': -1, 'filled': {'271': 0.334, '48': 6.501}}",1090,1152,1,62,"{'271': 0.334, '48': 6.501}",-1,-1
78,"{'items': ['101', '48'], 'found': '48', 'support': 1311, 'level': 1, 'jaccard': -1, 'filled': 0}","{'items': ['101', '48'], 'found': '48', 'support': 1374, 'level': 1, 'jaccard': -1, 'filled': {'101': 0.356, '48': 6.501}}",1311,1374,1,63,"{'101': 0.356, '48': 6.501}",-1,-1
79,"{'items': ['225', '39'], 'found': '39', 'support': 2351, 'level': 1, 'jaccard': -1, 'filled': 0}","{'items': ['225', '39'], 'found': '39', 'support': 2415, 'level': 1, 'jaccard': -1, 'filled': {'225': 0.519, '39': 7.771}}",2351,2415,1,64,"{'225': 0.519, '39': 7.771}",-1,-1
80,"{'items': ['310', '48'], 'found': '48', 'support': 1692, 'level': 1, 'jaccard': -1, 'filled': 0}","{'items': ['310', '48'], 'found': '48', 'support': 1758, 'level': 1, 'jaccard': -1, 'filled': {'310': 0.413, '48': 6.501}}",1692,1758,1,66,"{'310': 0.413, '48': 6.501}",-1,-1
81,"{'items': ['413', '39'], 'found': '39', 'support': 1130, 'level': 1, 'jaccard': -1, 'filled': 0}","{'items': ['39', '413'], 'found': '413', 'support': 1198, 'level': 1, 'jaccard': -1, 'filled': {'39': 7.771, '413': 0.3}}",1130,1198,1,68,"{'39': 7.771, '413': 0.3}",-1,-1
82,"{'items': ['101', '39'], 'found': '39', 'support': 1400, 'level': 1, 'jaccard': -1, 'filled': 0}","{'items': ['101', '39'], 'found': '39', 'support': 1469, 'level': 1, 'jaccard': -1, 'filled': {'101': 0.356, '39': 7.771}}",1400,1469,1,69,"{'101': 0.356, '39': 7.771}",-1,-1
83,"{'items': ['110', '39'], 'found': '39', 'support': 1759, 'level': 1, 'jaccard': -1, 'filled': 0}","{'items': ['110', '39'], 'found': '39', 'support': 1831, 'level': 1, 'jaccard': -1, 'filled': {'110': 0.446, '39': 7.771}}",1759,1831,1,72,"{'110': 0.446, '39': 7.771}",-1,-1
84,"{'items': ['36', '39'], 'found': '39', 'support': 2037, 'level': 1, 'jaccard': -1, 'filled': 0}","{'items': ['36', '39'], 'found': '39', 'support': 2109, 'level': 1, 'jaccard': -1, 'filled': {'36': 0.467, '39': 7.771}}",2037,2109,1,72,"{'36': 0.467, '39': 7.771}",-1,-1
85,"{'items': ['237', '39'], 'found': '39', 'support': 1929, 'level': 1, 'jaccard': -1, 'filled': 0}","{'items': ['237', '39'], 'found': '39', 'support': 2004, 'level': 1, 'jaccard': -1, 'filled': {'237': 0.483, '39': 7.771}}",1929,2004,1,75,"{'237': 0.483, '39': 7.771}",-1,-1
86,"{'items': ['170', '39'], 'found': '39', 'support': 2059, 'level': 1, 'jaccard': -1, 'filled': 0}","{'items': ['170', '39'], 'found': '39', 'support': 2139, 'level': 1, 'jaccard': -1, 'filled': {'170': 0.493, '39': 7.771}}",2059,2139,1,80,"{'170': 0.493, '39': 7.771}",-1,-1
87,"{'items': ['110', '48'], 'found': '48', 'support': 1380, 'level': 1, 'jaccard': -1, 'filled': 0}","{'items': ['110', '48'], 'found': '48', 'support': 1461, 'level': 1, 'jaccard': -1, 'filled': {'110': 0.446, '48': 6.501}}",1380,1461,1,81,"{'110': 0.446, '48': 6.501}",-1,-1
88,"{'items': ['89', '39'], 'found': '39', 'support': 2749, 'level': 1, 'jaccard': -1, 'filled': 0}","{'items': ['39', '89'], 'found': '89', 'support': 2832, 'level': 1, 'jaccard': -1, 'filled': {'39': 7.771, '89': 0.61}}",2749,2832,1,83,"{'39': 7.771, '89': 0.61}",-1,-1
89,"{'items': ['237', '48'], 'found': '48', 'support': 1682, 'level': 1, 'jaccard': -1, 'filled': 0}","{'items': ['237', '48'], 'found': '48', 'support': 1769, 'level': 1, 'jaccard': -1, 'filled': {'237': 0.483, '48': 6.501}}",1682,1769,1,87,"{'237': 0.483, '48': 6.501}",-1,-1
90,"{'items': ['225', '48'], 'found': '48', 'support': 1736, 'level': 1, 'jaccard': -1, 'filled': 0}","{'items': ['225', '48'], 'found': '48', 'support': 1832, 'level': 1, 'jaccard': -1, 'filled': {'225': 0.519, '48': 6.501}}",1736,1832,1,96,"{'225': 0.519, '48': 6.501}",-1,-1
91,"{'items': ['170', '48'], 'found': '48', 'support': 1557, 'level': 1, 'jaccard': -1, 'filled': 0}","{'items': ['170', '48'], 'found': '48', 'support': 1655, 'level': 1, 'jaccard': -1, 'filled': {'170': 0.493, '48': 6.501}}",1557,1655,1,98,"{'170': 0.493, '48': 6.501}",-1,-1
92,"{'items': ['36', '48'], 'found': '48', 'support': 1416, 'level': 1, 'jaccard': -1, 'filled': 0}","{'items': ['36', '48'], 'found': '48', 'support': 1515, 'level': 1, 'jaccard': -1, 'filled': {'36': 0.467, '48': 6.501}}",1416,1515,1,99,"{'36': 0.467, '48': 6.501}",-1,-1
93,"{'items': ['65', '39'], 'found': '39', 'support': 2787, 'level': 1, 'jaccard': -1, 'filled': 0}","{'items': ['39', '65'], 'found': '65', 'support': 2905, 'level': 1, 'jaccard': -1, 'filled': {'39': 7.771, '65': 0.712}}",2787,2905,1,118,"{'39': 7.771, '65': 0.712}",-1,-1
94,"{'items': ['65', '48'], 'found': '48', 'support': 2529, 'level': 1, 'jaccard': -1, 'filled': 0}","{'items': ['48', '65'], 'found': '65', 'support': 2649, 'level': 1, 'jaccard': -1, 'filled': {'48': 6.501, '65': 0.712}}",2529,2649,1,120,"{'48': 6.501, '65': 0.712}",-1,-1
95,"{'items': ['41', '38'], 'found': '38', 'support': 3897, 'level': 1, 'jaccard': -1, 'filled': 0}","{'items': ['38', '41'], 'found': '41', 'support': 4101, 'level': 1, 'jaccard': -1, 'filled': {'38': 2.46, '41': 2.357}}",3897,4101,1,204,"{'38': 2.46, '41': 2.357}",-1,-1
96,"{'items': ['41', '32'], 'found': '32', 'support': 3196, 'level': 1, 'jaccard': -1, 'filled': 0}","{'items': ['32', '41'], 'found': '41', 'support': 3411, 'level': 1, 'jaccard': -1, 'filled': {'32': 2.392, '41': 2.357}}",3196,3411,1,215,"{'32': 2.392, '41': 2.357}",-1,-1
97,"{'items': ['41', '39'], 'found': '39', 'support': 11414, 'level': 1, 'jaccard': -1, 'filled': 0}","{'items': ['39', '41'], 'found': '41', 'support': 11632, 'level': 1, 'jaccard': -1, 'filled': {'39': 7.771, '41': 2.357}}",11414,11632,1,218,"{'39': 7.771, '41': 2.357}",-1,-1
98,"{'items': ['32', '38'], 'found': '38', 'support': 2833, 'level': 1, 'jaccard': -1, 'filled': 0}","{'items': ['32', '38'], 'found': '38', 'support': 3087, 'level': 1, 'jaccard': -1, 'filled': {'32': 2.392, '38': 2.46}}",2833,3087,1,254,"{'32': 2.392, '38': 2.46}",-1,-1
99,"{'items': ['41', '48'], 'found': '48', 'support': 9018, 'level': 1, 'jaccard': -1, 'filled': 0}","{'items': ['41', '48'], 'found': '48', 'support': 9338, 'level': 1, 'jaccard': -1, 'filled': {'41': 2.357, '48': 6.501}}",9018,9338,1,320,"{'41': 2.357, '48': 6.501}",-1,-1
100,"{'items': ['38', '39'], 'found': '39', 'support': 10345, 'level': 1, 'jaccard': -1, 'filled': 0}","{'items': ['38', '39'], 'found': '39', 'support': 10690, 'level': 1, 'jaccard': -1, 'filled': {'38': 2.46, '39': 7.771}}",10345,10690,1,345,"{'38': 2.46, '39': 7.771}",-1,-1
101,"{'items': ['32', '48'], 'found': '48', 'support': 8034, 'level': 1, 'jaccard': -1, 'filled': 0}","{'items': ['32', '48'], 'found': '48', 'support': 8412, 'level': 1, 'jaccard': -1, 'filled': {'32': 2.392, '48': 6.501}}",8034,8412,1,378,"{'32': 2.392, '48': 6.501}",-1,-1
102,"{'items': ['38', '48'], 'found': '48', 'support': 7944, 'level': 1, 'jaccard': -1, 'filled': 0}","{'items': ['38', '48'], 'found': '48', 'support': 8348, 'level': 1, 'jaccard': -1, 'filled': {'38': 2.46, '48': 6.501}}",7944,8348,1,404,"{'38': 2.46, '48': 6.501}",-1,-1
103,"{'items': ['48', '39'], 'found': '39', 'support': 29142, 'level': 1, 'jaccard': -1, 'filled': 0}","{'items': ['39', '48'], 'found': '48', 'support': 29570, 'level': 1, 'jaccard': -1, 'filled': {'39': 7.771, '48': 6.501}}",29142,29570,1,428,"{'39': 7.771, '48': 6.501}",-1,-1
104,"{'items': ['32', '39'], 'found': '39', 'support': 8455, 'level': 1, 'jaccard': -1, 'filled': 0}","{'items': ['32', '39'], 'found': '39', 'support': 8893, 'level': 1, 'jaccard': -1, 'filled': {'32': 2.392, '39': 7.771}}",8455,8893,1,438,"{'32': 2.392, '39': 7.771}",-1,-1
105,"{'items': ['110', '38', '39'], 'found': '39', 'support': 1740, 'level': 2, 'jaccard': -1, 'filled': 0}","{'items': ['110', '38', '39'], 'found': '39', 'support': 1810, 'level': 2, 'jaccard': -1, 'filled': {'110': 0.446, '38': 2.46, '39': 7.771}}",1740,1810,2,70,"{'110': 0.446, '38': 2.46, '39': 7.771}",-1,-1
106,"{'items': ['475', '48', '39'], 'found': '39', 'support': 1092, 'level': 2, 'jaccard': -1, 'filled': 0}","{'items': ['39', '475', '48'], 'found': '48', 'support': 1163, 'level': 2, 'jaccard': -1, 'filled': {'39': 7.771, '475': 0.345, '48': 6.501}}",1092,1163,2,71,"{'39': 7.771, '475': 0.345, '48': 6.501}",-1,-1
107,"{'items': ['36', '38', '39'], 'found': '39', 'support': 1945, 'level': 2, 'jaccard': -1, 'filled': 0}","{'items': ['36', '38', '39'], 'found': '39', 'support': 2016, 'level': 2, 'jaccard': -1, 'filled': {'36': 0.467, '38': 2.46, '39': 7.771}}",1945,2016,2,71,"{'36': 0.467, '38': 2.46, '39': 7.771}",-1,-1
108,"{'items': ['110', '38', '48'], 'found': '48', 'support': 1361, 'level': 2, 'jaccard': -1, 'filled': 0}","{'items': ['110', '38', '48'], 'found': '48', 'support': 1439, 'level': 2, 'jaccard': -1, 'filled': {'110': 0.446, '38': 2.46, '48': 6.501}}",1361,1439,2,78,"{'110': 0.446, '38': 2.46, '48': 6.501}",-1,-1
109,"{'items': ['310', '48', '39'], 'found': '39', 'support': 1347, 'level': 2, 'jaccard': -1, 'filled': 0}","{'items': ['310', '39', '48'], 'found': '48', 'support': 1427, 'level': 2, 'jaccard': -1, 'filled': {'310': 0.413, '39': 7.771, '48': 6.501}}",1347,1427,2,80,"{'310': 0.413, '39': 7.771, '48': 6.501}",-1,-1
110,"{'items': ['170', '38', '39'], 'found': '39', 'support': 2019, 'level': 2, 'jaccard': -1, 'filled': 0}","{'items': ['170', '38', '39'], 'found': '39', 'support': 2100, 'level': 2, 'jaccard': -1, 'filled': {'170': 0.493, '38': 2.46, '39': 7.771}}",2019,2100,2,81,"{'170': 0.493, '38': 2.46, '39': 7.771}",-1,-1
111,"{'items': ['110', '48', '39'], 'found': '39', 'support': 1037, 'level': 2, 'jaccard': -1, 'filled': 0}","{'items': ['110', '39', '48'], 'found': '48', 'support': 1131, 'level': 2, 'jaccard': -1, 'filled': {'110': 0.446, '39': 7.771, '48': 6.501}}",1037,1131,2,94,"{'110': 0.446, '39': 7.771, '48': 6.501}",-1,-1
112,"{'items': ['170', '38', '48'], 'found': '48', 'support': 1538, 'level': 2, 'jaccard': -1, 'filled': 0}","{'items': ['170', '38', '48'], 'found': '48', 'support': 1634, 'level': 2, 'jaccard': -1, 'filled': {'170': 0.493, '38': 2.46, '48': 6.501}}",1538,1634,2,96,"{'170': 0.493, '38': 2.46, '48': 6.501}",-1,-1
113,"{'items': ['36', '38', '48'], 'found': '48', 'support': 1360, 'level': 2, 'jaccard': -1, 'filled': 0}","{'items': ['36', '38', '48'], 'found': '48', 'support': 1457, 'level': 2, 'jaccard': -1, 'filled': {'36': 0.467, '38': 2.46, '48': 6.501}}",1360,1457,2,97,"{'36': 0.467, '38': 2.46, '48': 6.501}",-1,-1
114,"{'items': ['237', '48', '39'], 'found': '39', 'support': 1244, 'level': 2, 'jaccard': -1, 'filled': 0}","{'items': ['237', '39', '48'], 'found': '48', 'support': 1348, 'level': 2, 'jaccard': -1, 'filled': {'237': 0.483, '39': 7.771, '48': 6.501}}",1244,1348,2,104,"{'237': 0.483, '39': 7.771, '48': 6.501}",-1,-1
115,"{'items': ['89', '48', '39'], 'found': '39', 'support': 2125, 'level': 2, 'jaccard': -1, 'filled': 0}","{'items': ['39', '48', '89'], 'found': '89', 'support': 2231, 'level': 2, 'jaccard': -1, 'filled': {'39': 7.771, '48': 6.501, '89': 0.61}}",2125,2231,2,106,"{'39': 7.771, '48': 6.501, '89': 0.61}",-1,-1
116,"{'items': ['225', '48', '39'], 'found': '39', 'support': 1400, 'level': 2, 'jaccard': -1, 'filled': 0}","{'items': ['225', '39', '48'], 'found': '48', 'support': 1509, 'level': 2, 'jaccard': -1, 'filled': {'225': 0.519, '39': 7.771, '48': 6.501}}",1400,1509,2,109,"{'225': 0.519, '39': 7.771, '48': 6.501}",-1,-1
117,"{'items': ['36', '48', '39'], 'found': '39', 'support': 1116, 'level': 2, 'jaccard': -1, 'filled': 0}","{'items': ['36', '39', '48'], 'found': '48', 'support': 1229, 'level': 2, 'jaccard': -1, 'filled': {'36': 0.467, '39': 7.771, '48': 6.501}}",1116,1229,2,113,"{'36': 0.467, '39': 7.771, '48': 6.501}",-1,-1
118,"{'items': ['170', '48', '39'], 'found': '39', 'support': 1206, 'level': 2, 'jaccard': -1, 'filled': 0}","{'items': ['170', '39', '48'], 'found': '48', 'support': 1320, 'level': 2, 'jaccard': -1, 'filled': {'170': 0.493, '39': 7.771, '48': 6.501}}",1206,1320,2,114,"{'170': 0.493, '39': 7.771, '48': 6.501}",-1,-1
119,"{'items': ['65', '48', '39'], 'found': '39', 'support': 1797, 'level': 2, 'jaccard': -1, 'filled': 0}","{'items': ['39', '48', '65'], 'found': '65', 'support': 1947, 'level': 2, 'jaccard': -1, 'filled': {'39': 7.771, '48': 6.501, '65': 0.712}}",1797,1947,2,150,"{'39': 7.771, '48': 6.501, '65': 0.712}",-1,-1
120,"{'items': ['41', '32', '48'], 'found': '48', 'support': 2063, 'level': 2, 'jaccard': -1, 'filled': 0}","{'items': ['32', '41', '48'], 'found': '48', 'support': 2309, 'level': 2, 'jaccard': -1, 'filled': {'32': 2.392, '41': 2.357, '48': 6.501}}",2063,2309,2,246,"{'32': 2.392, '41': 2.357, '48': 6.501}",-1,-1
121,"{'items': ['41', '32', '39'], 'found': '39', 'support': 2359, 'level': 2, 'jaccard': -1, 'filled': 0}","{'items': ['32', '39', '41'], 'found': '41', 'support': 2609, 'level': 2, 'jaccard': -1, 'filled': {'32': 2.392, '39': 7.771, '41': 2.357}}",2359,2609,2,250,"{'32': 2.392, '39': 7.771, '41': 2.357}",-1,-1
122,"{'items': ['41', '38', '39'], 'found': '39', 'support': 3051, 'level': 2, 'jaccard': -1, 'filled': 0}","{'items': ['38', '39', '41'], 'found': '41', 'support': 3307, 'level': 2, 'jaccard': -1, 'filled': {'38': 2.46, '39': 7.771, '41': 2.357}}",3051,3307,2,256,"{'38': 2.46, '39': 7.771, '41': 2.357}",-1,-1
123,"{'items': ['41', '38', '48'], 'found': '48', 'support': 2374, 'level': 2, 'jaccard': -1, 'filled': 0}","{'items': ['38', '41', '48'], 'found': '48', 'support': 2639, 'level': 2, 'jaccard': -1, 'filled': {'38': 2.46, '41': 2.357, '48': 6.501}}",2374,2639,2,265,"{'38': 2.46, '41': 2.357, '48': 6.501}",-1,-1
124,"{'items': ['32', '38', '48'], 'found': '48', 'support': 1646, 'level': 2, 'jaccard': -1, 'filled': 0}","{'items': ['32', '38', '48'], 'found': '48', 'support': 1918, 'level': 2, 'jaccard': -1, 'filled': {'32': 2.392, '38': 2.46, '48': 6.501}}",1646,1918,2,272,"{'32': 2.392, '38': 2.46, '48': 6.501}",-1,-1
125,"{'items': ['32', '38', '39'], 'found': '39', 'support': 1840, 'level': 2, 'jaccard': -1, 'filled': 0}","{'items': ['32', '38', '39'], 'found': '39', 'support': 2142, 'level': 2, 'jaccard': -1, 'filled': {'32': 2.392, '38': 2.46, '39': 7.771}}",1840,2142,2,302,"{'32': 2.392, '38': 2.46, '39': 7.771}",-1,-1
126,"{'items': ['41', '48', '39'], 'found': '39', 'support': 7366, 'level': 2, 'jaccard': -1, 'filled': 0}","{'items': ['39', '41', '48'], 'found': '48', 'support': 7767, 'level': 2, 'jaccard': -1, 'filled': {'39': 7.771, '41': 2.357, '48': 6.501}}",7366,7767,2,401,"{'39': 7.771, '41': 2.357, '48': 6.501}",-1,-1
127,"{'items': ['38', '48', '39'], 'found': '39', 'support': 6102, 'level': 2, 'jaccard': -1, 'filled': 0}","{'items': ['38', '39', '48'], 'found': '48', 'support': 6583, 'level': 2, 'jaccard': -1, 'filled': {'38': 2.46, '39': 7.771, '48': 6.501}}",6102,6583,2,481,"{'38': 2.46, '39': 7.771, '48': 6.501}",-1,-1
128,"{'items': ['32', '48', '39'], 'found': '39', 'support': 5402, 'level': 2, 'jaccard': -1, 'filled': 0}","{'items': ['32', '39', '48'], 'found': '48', 'support': 5910, 'level': 2, 'jaccard': -1, 'filled': {'32': 2.392, '39': 7.771, '48': 6.501}}",5402,5910,2,508,"{'32': 2.392, '39': 7.771, '48': 6.501}",-1,-1
129,"{'items': ['110', '38', '48', '39'], 'found': '39', 'support': 1031, 'level': 3, 'jaccard': -1, 'filled': 0}","{'items': ['110', '38', '39', '48'], 'found': '48', 'support': 1122, 'level': 3, 'jaccard': -1, 'filled': {'110': 0.446, '38': 2.46, '39': 7.771, '48': 6.501}}",1031,1122,3,91,"{'110': 0.446, '38': 2.46, '39': 7.771, '48': 6.501}",-1,-1
130,"{'items': ['36', '38', '48', '39'], 'found': '39', 'support': 1080, 'level': 3, 'jaccard': -1, 'filled': 0}","{'items': ['36', '38', '39', '48'], 'found': '48', 'support': 1190, 'level': 3, 'jaccard': -1, 'filled': {'36': 0.467, '38': 2.46, '39': 7.771, '48': 6.501}}",1080,1190,3,110,"{'36': 0.467, '38': 2.46, '39': 7.771, '48': 6.501}",-1,-1
131,"{'items': ['170', '38', '48', '39'], 'found': '39', 'support': 1193, 'level': 3, 'jaccard': -1, 'filled': 0}","{'items': ['170', '38', '39', '48'], 'found': '48', 'support': 1305, 'level': 3, 'jaccard': -1, 'filled': {'170': 0.493, '38': 2.46, '39': 7.771, '48': 6.501}}",1193,1305,3,112,"{'170': 0.493, '38': 2.46, '39': 7.771, '48': 6.501}",-1,-1
132,"{'items': ['41', '32', '48', '39'], 'found': '39', 'support': 1646, 'level': 3, 'jaccard': -1, 'filled': 0}","{'items': ['32', '39', '41', '48'], 'found': '48', 'support': 1899, 'level': 3, 'jaccard': -1, 'filled': {'32': 2.392, '39': 7.771, '41': 2.357, '48': 6.501}}",1646,1899,3,253,"{'32': 2.392, '39': 7.771, '41': 2.357, '48': 6.501}",-1,-1
133,"{'items': ['41', '38', '48', '39'], 'found': '39', 'support': 1991, 'level': 3, 'jaccard': -1, 'filled': 0}","{'items': ['38', '39', '41', '48'], 'found': '48', 'support': 2267, 'level': 3, 'jaccard': -1, 'filled': {'38': 2.46, '39': 7.771, '41': 2.357, '48': 6.501}}",1991,2267,3,276,"{'38': 2.46, '39': 7.771, '41': 2.357, '48': 6.501}",-1,-1
134,"{'items': ['32', '38', '48', '39'], 'found': '39', 'support': 1236, 'level': 3, 'jaccard': -1, 'filled': 0}","{'items': ['32', '38', '39', '48'], 'found': '48', 'support': 1514, 'level': 3, 'jaccard': -1, 'filled': {'32': 2.392, '38': 2.46, '39': 7.771, '48': 6.501}}",1236,1514,3,278,"{'32': 2.392, '38': 2.46, '39': 7.771, '48': 6.501}",-1,-1
