\relax 
\providecommand\hyper@newdestlabel[2]{}
\providecommand\HyperFirstAtBeginDocument{\AtBeginDocument}
\HyperFirstAtBeginDocument{\ifx\hyper@anchor\@undefined
\global\let\oldcontentsline\contentsline
\gdef\contentsline#1#2#3#4{\oldcontentsline{#1}{#2}{#3}}
\global\let\oldnewlabel\newlabel
\gdef\newlabel#1#2{\newlabelxx{#1}#2}
\gdef\newlabelxx#1#2#3#4#5#6{\oldnewlabel{#1}{{#2}{#3}}}
\AtEndDocument{\ifx\hyper@anchor\@undefined
\let\contentsline\oldcontentsline
\let\newlabel\oldnewlabel
\fi}
\fi}
\global\let\hyper@last\relax 
\gdef\HyperFirstAtBeginDocument#1{#1}
\providecommand\HyField@AuxAddToFields[1]{}
\providecommand\HyField@AuxAddToCoFields[2]{}
\gdef \tocmax@section{25.43044pt}
\gdef \tocmax@subsection{15.12502pt}
\gdef \tocmax@subsubsection{12.2778pt}
\gdef \tocmax@paragraph{5.0pt}
\gdef \tocmax@appendix{5.0pt}
\gdef \tocmax@pagenum{10.00003pt}
\newlabel{FirstPage}{{}{1}{}{section*.1}{}}
\@writefile{toc}{\contentsline {title}{Approximating support using probabilistic data structures}{1}{section*.2}}
\@writefile{toc}{\contentsline {abstract}{Abstract}{1}{section*.1}}
\@writefile{toc}{\tocdepth@munge}
\@writefile{toc}{\contentsline {section}{\numberline {}Contents}{1}{section*.3}}
\@writefile{toc}{\tocdepth@restore}
\@writefile{toc}{\contentsline {section}{\numberline {}List of Figures}{1}{section*.4}}
\@writefile{toc}{\contentsline {section}{\numberline {}List of Tables}{1}{section*.5}}
\newlabel{sec:intro}{{I}{3}{}{section*.6}{}}
\@writefile{toc}{\contentsline {section}{\numberline {I}Introduction}{3}{section*.6}}
\@writefile{toc}{\contentsline {subsection}{\numberline {A}Organization of the paper}{3}{section*.7}}
\@writefile{toc}{\contentsline {subsection}{\numberline {B}Aims and objectives}{3}{section*.8}}
\@writefile{toc}{\contentsline {section}{\numberline {II}Prelude}{3}{section*.9}}
\newlabel{sec:prelude}{{II}{3}{}{section*.9}{}}
\newlabel{sec:preliminaries}{{II\tmspace  +\thinmuskip {.1667em}A}{3}{}{section*.10}{}}
\@writefile{toc}{\contentsline {subsection}{\numberline {A}Preliminaries}{3}{section*.10}}
\newlabel{sec:problem}{{II\tmspace  +\thinmuskip {.1667em}B}{3}{}{section*.11}{}}
\@writefile{toc}{\contentsline {subsection}{\numberline {B}Problem statement}{3}{section*.11}}
\newlabel{eq:correctness}{{1}{3}{}{equation.2.1}{}}
\citation{datasets}
\citation{eclat}
\citation{apriori}
\newlabel{sec:datastructures}{{III}{4}{}{section*.12}{}}
\@writefile{toc}{\contentsline {section}{\numberline {III}Algorithm \& Data structures}{4}{section*.12}}
\@writefile{toc}{\contentsline {subsection}{\numberline {A}Datasets}{4}{section*.13}}
\newlabel{sec:datasets_used}{{III\tmspace  +\thinmuskip {.1667em}A}{4}{}{section*.13}{}}
\@writefile{lot}{\contentsline {table}{\numberline {I}{\ignorespaces Statistics for each dataset.}}{4}{table.1}}
\newlabel{table:dataset_statistics}{{I}{4}{Statistics for each dataset}{table.1}{}}
\@writefile{toc}{\contentsline {subsection}{\numberline {B}Eclat Algorithm}{4}{section*.14}}
\newlabel{def:monotonicity}{{1}{4}{}{armandodefinition.1}{}}
\citation{bloom_filter}
\citation{pybloom_lib}
\@writefile{lof}{\contentsline {figure}{\numberline {1}{\ignorespaces Exploring the lattice.}}{5}{figure.1}}
\newlabel{fig:eclat}{{1}{5}{Exploring the lattice}{figure.1}{}}
\@writefile{toc}{\contentsline {subsection}{\numberline {C}Eclat variation}{5}{section*.15}}
\newlabel{sec:eclat_variation}{{III\tmspace  +\thinmuskip {.1667em}C}{5}{}{section*.15}{}}
\@writefile{toc}{\contentsline {subsection}{\numberline {D}Query for support}{5}{section*.16}}
\newlabel{sec:query_for_support}{{III\tmspace  +\thinmuskip {.1667em}D}{5}{}{section*.16}{}}
\@writefile{toc}{\contentsline {subsection}{\numberline {E}Bloom filters}{5}{section*.17}}
\newlabel{sec:bloom_filters}{{III\tmspace  +\thinmuskip {.1667em}E}{5}{}{section*.17}{}}
\@writefile{lof}{\contentsline {figure}{\numberline {2}{\ignorespaces Bloom Filter representation.}}{5}{figure.2}}
\newlabel{fig:bloom_filter}{{2}{5}{Bloom Filter representation}{figure.2}{}}
\newlabel{def:capacity}{{1}{5}{}{lemma.1}{}}
\citation{bloom_filter_approximation}
\citation{hyperloglog}
\@writefile{toc}{\contentsline {subsubsection}{\numberline {1}Approximating size using Bloom Filters}{6}{section*.18}}
\newlabel{sec:approx_num_items_BF}{{III\tmspace  +\thinmuskip {.1667em}E\tmspace  +\thinmuskip {.1667em}1}{6}{}{section*.18}{}}
\newlabel{eq:approx_bloom}{{2}{6}{}{equation.3.2}{}}
\@writefile{toc}{\contentsline {subsubsection}{\numberline {2}Problems in bloom filter}{6}{section*.19}}
\newlabel{sec:estimation_calculation}{{III\tmspace  +\thinmuskip {.1667em}E\tmspace  +\thinmuskip {.1667em}2}{6}{}{section*.19}{}}
\newlabel{def:filled_ratio}{{2}{6}{}{armandodefinition.2}{}}
\@writefile{lof}{\contentsline {figure}{\numberline {3}{\ignorespaces Plotting X over the estimation formula.}}{6}{figure.3}}
\newlabel{fig:variable_X}{{3}{6}{Plotting X over the estimation formula}{figure.3}{}}
\@writefile{lof}{\contentsline {figure}{\numberline {4}{\ignorespaces Gradient of the estimation formula.}}{6}{figure.4}}
\newlabel{fig:variable_X_gradient}{{4}{6}{Gradient of the estimation formula}{figure.4}{}}
\@writefile{toc}{\contentsline {subsection}{\numberline {F}HyperLogLog}{6}{section*.20}}
\@writefile{toc}{\contentsline {section}{\numberline {IV}Statistics}{7}{section*.21}}
\newlabel{sec:statistics}{{IV}{7}{}{section*.21}{}}
\newlabel{def:jaccard_index}{{3}{7}{}{armandodefinition.3}{}}
\@writefile{toc}{\contentsline {subsubsection}{\numberline {1}Aggregated statistics}{7}{section*.22}}
\newlabel{sec:aggr_stats}{{IV\tmspace  +\thinmuskip {.1667em}\tmspace  +\thinmuskip {.1667em}1}{7}{}{section*.22}{}}
\@writefile{toc}{\contentsline {subsubsection}{\numberline {2}Missing from the approximator}{7}{section*.23}}
\@writefile{toc}{\contentsline {subsubsection}{\numberline {3}Extra on the approximator}{7}{section*.24}}
\newlabel{sec:extra_approx}{{IV\tmspace  +\thinmuskip {.1667em}\tmspace  +\thinmuskip {.1667em}3}{7}{}{section*.24}{}}
\@writefile{toc}{\contentsline {subsubsection}{\numberline {4}Best fit line on error}{7}{section*.25}}
\newlabel{def:best_fit_line}{{4}{7}{}{armandodefinition.4}{}}
\@writefile{lof}{\contentsline {figure}{\numberline {5}{\ignorespaces Extra items found. \textit  {connect.dat} (minsupport: 65k)}}{8}{figure.5}}
\newlabel{fig:extra_on_bloom}{{5}{8}{Extra items found. \textit {connect.dat} (minsupport: 65k)}{figure.5}{}}
\@writefile{toc}{\contentsline {subsubsection}{\numberline {5}Error difference}{8}{section*.26}}
\newlabel{sec:error_dif}{{IV\tmspace  +\thinmuskip {.1667em}\tmspace  +\thinmuskip {.1667em}5}{8}{}{section*.26}{}}
\@writefile{toc}{\contentsline {subsubsection}{\numberline {6}Hash functions}{8}{section*.27}}
\newlabel{sec:custom_hash_function}{{IV\tmspace  +\thinmuskip {.1667em}\tmspace  +\thinmuskip {.1667em}6}{8}{}{section*.27}{}}
\@writefile{lof}{\contentsline {figure}{\numberline {6}{\ignorespaces Error difference plot. \textit  {connect.dat} (minsupport: 65k)}}{8}{figure.6}}
\newlabel{fig:experiment}{{6}{8}{Error difference plot. \textit {connect.dat} (minsupport: 65k)}{figure.6}{}}
\@writefile{lof}{\contentsline {figure}{\numberline {7}{\ignorespaces Bitarray intersection}}{8}{figure.7}}
\newlabel{fig:bit_intersection}{{7}{8}{Bitarray intersection}{figure.7}{}}
\@writefile{toc}{\contentsline {subsubsection}{\numberline {7}Parent child error difference}{8}{section*.28}}
\@writefile{toc}{\contentsline {section}{\numberline {V}Experiments}{9}{section*.29}}
\newlabel{sec:experiments}{{V}{9}{}{section*.29}{}}
\@writefile{toc}{\contentsline {subsection}{\numberline {A}Configuration of experiments}{9}{section*.30}}
\@writefile{toc}{\contentsline {subsection}{\numberline {B}Runs}{9}{section*.31}}
\@writefile{toc}{\contentsline {subsection}{\numberline {C}Good runs}{10}{section*.32}}
\@writefile{toc}{\contentsline {subsubsection}{\numberline {1}Accidents dataset}{10}{section*.33}}
\@writefile{lof}{\contentsline {figure}{\numberline {8}{\ignorespaces Experiment for \textit  {accidents.dat}. Capacity: 400k, error rate: 0.3, minsup: 300k and default library hash function.}}{10}{figure.8}}
\newlabel{fig:accidents_experiment}{{8}{10}{Experiment for \textit {accidents.dat}. Capacity: 400k, error rate: 0.3, minsup: 300k and default library hash function}{figure.8}{}}
\@writefile{lof}{\contentsline {figure}{\numberline {9}{\ignorespaces Extra elements on \textit  {accidents.dat}. Capacity: 400k, error rate: 0.3, minsup: 250k and default library hash function.}}{11}{figure.9}}
\newlabel{fig:accidents_experiment_2_extra}{{9}{11}{Extra elements on \textit {accidents.dat}. Capacity: 400k, error rate: 0.3, minsup: 250k and default library hash function}{figure.9}{}}
\@writefile{lot}{\contentsline {table}{\numberline {II}{\ignorespaces Results from 10 experiments decreasing 5k the support each time. \textit  {accidents.dat} (Capacity=400k, error rate=0.3, minsup start=300k)}}{11}{table.2}}
\newlabel{table:accidents_experiments}{{II}{11}{Results from 10 experiments decreasing 5k the support each time. \textit {accidents.dat} (Capacity=400k, error rate=0.3, minsup start=300k)}{table.2}{}}
\@writefile{toc}{\contentsline {subsubsection}{\numberline {2}Census Income dataset}{12}{section*.34}}
\@writefile{lot}{\contentsline {table}{\numberline {III}{\ignorespaces Results from 10 experiments decreasing by 500 the support each time. \textit  {pumsb.dat} (Capacity=100k, error rate=0.3, minsup start=45500)}}{12}{table.3}}
\newlabel{table:pumsb_experiments}{{III}{12}{Results from 10 experiments decreasing by 500 the support each time. \textit {pumsb.dat} (Capacity=100k, error rate=0.3, minsup start=45500)}{table.3}{}}
\@writefile{lof}{\contentsline {figure}{\numberline {10}{\ignorespaces Experiment for \textit  {pumsb.dat}. Capacity: 455k, error rate: 0.3, minsup: 45k and default library hash function.}}{12}{figure.10}}
\newlabel{fig:pumsb_experiment}{{10}{12}{Experiment for \textit {pumsb.dat}. Capacity: 455k, error rate: 0.3, minsup: 45k and default library hash function}{figure.10}{}}
\@writefile{toc}{\contentsline {subsection}{\numberline {D}False positive runs}{13}{section*.35}}
\@writefile{toc}{\contentsline {subsubsection}{\numberline {1}Mushroom dataset}{13}{section*.36}}
\@writefile{lof}{\contentsline {figure}{\numberline {11}{\ignorespaces Extra elements on \textit  {mushroom.dat}. Capacity: 30k, error rate: 0.3, minsup: 3k and default library hash function.}}{13}{figure.11}}
\newlabel{fig:experiment_mushroom_extra}{{11}{13}{Extra elements on \textit {mushroom.dat}. Capacity: 30k, error rate: 0.3, minsup: 3k and default library hash function}{figure.11}{}}
\@writefile{lot}{\contentsline {table}{\numberline {IV}{\ignorespaces Results from 10 experiments decreasing by 150 the support each time. \textit  {mushroom.dat} (Capacity=10k, error rate=0.3, minsup start=3450)}}{13}{table.4}}
\newlabel{table:mushroom_experiments}{{IV}{13}{Results from 10 experiments decreasing by 150 the support each time. \textit {mushroom.dat} (Capacity=10k, error rate=0.3, minsup start=3450)}{table.4}{}}
\citation{chess}
\@writefile{toc}{\contentsline {subsection}{\numberline {E}Unstable runs}{14}{section*.37}}
\@writefile{toc}{\contentsline {subsubsection}{\numberline {1}Chess dataset}{14}{section*.38}}
\newlabel{sec:chess_unstable_run}{{V\tmspace  +\thinmuskip {.1667em}E\tmspace  +\thinmuskip {.1667em}1}{14}{}{section*.38}{}}
\@writefile{lof}{\contentsline {figure}{\numberline {12}{\ignorespaces Experiment for \textit  {chess.dat}. Capacity: 6190, error rate: 0.3, minsup: 3000 and default library hash function.}}{14}{figure.12}}
\newlabel{fig:chess_hash_default}{{12}{14}{Experiment for \textit {chess.dat}. Capacity: 6190, error rate: 0.3, minsup: 3000 and default library hash function}{figure.12}{}}
\@writefile{lof}{\contentsline {figure}{\numberline {13}{\ignorespaces Experiment for \textit  {chess.dat}. Capacity:6190, error rate: 0.3, minsup: 3000 and \textbf  {sha3\_256 hash} function.}}{15}{figure.13}}
\newlabel{fig:chess_hash_sha3_256}{{13}{15}{Experiment for \textit {chess.dat}. Capacity:6190, error rate: 0.3, minsup: 3000 and \textbf {sha3\_256 hash} function}{figure.13}{}}
\@writefile{lot}{\contentsline {table}{\numberline {V}{\ignorespaces Comparing hash function choice in chess.dat. (Capacity=6190, error rate=0.3, minsup=variable)}}{16}{table.5}}
\newlabel{table:chess_comparing_unstable}{{V}{16}{Comparing hash function choice in chess.dat. (Capacity=6190, error rate=0.3, minsup=variable)}{table.5}{}}
\@writefile{toc}{\contentsline {subsection}{\numberline {F}Timing}{16}{section*.39}}
\@writefile{lof}{\contentsline {figure}{\numberline {14}{\ignorespaces Comparing timing in 10 datasets.}}{16}{figure.14}}
\newlabel{fig:timing}{{14}{16}{Comparing timing in 10 datasets}{figure.14}{}}
\@writefile{lot}{\contentsline {table}{\numberline {VI}{\ignorespaces Results of 10 datasets.}}{17}{table.6}}
\newlabel{table:timing_compare}{{VI}{17}{Results of 10 datasets}{table.6}{}}
\@writefile{toc}{\contentsline {subsection}{\numberline {G}Initialization time}{17}{section*.40}}
\newlabel{sec:initialization_time}{{V\tmspace  +\thinmuskip {.1667em}G}{17}{}{section*.40}{}}
\@writefile{lot}{\contentsline {table}{\numberline {VII}{\ignorespaces Initialization time for each dataset.}}{17}{table.7}}
\newlabel{table:init_time}{{VII}{17}{Initialization time for each dataset}{table.7}{}}
\@writefile{toc}{\contentsline {section}{\numberline {VI}Conclusions}{17}{section*.41}}
\newlabel{sec:results}{{VI}{17}{}{section*.41}{}}
\bibdata{mainNotes,reference.bib}
\newlabel{sec:implementation}{{VII}{18}{}{section*.42}{}}
\@writefile{toc}{\contentsline {section}{\numberline {VII} Implementation details}{18}{section*.42}}
\@writefile{toc}{\contentsline {subsection}{\numberline {A}Main invocation}{18}{section*.43}}
\@writefile{toc}{\contentsline {subsection}{\numberline {B}Statistics files}{18}{section*.44}}
\bibcite{apriori}{{1}{}{{}}{{}}}
\bibcite{pybloom_lib}{{2}{}{{}}{{}}}
\bibcite{bloom_filter}{{3}{}{{}}{{}}}
\bibcite{hyperloglog}{{4}{}{{}}{{}}}
\bibcite{datasets}{{5}{}{{}}{{}}}
\bibcite{bloom_filter_approximation}{{6}{}{{}}{{}}}
\bibcite{chess}{{7}{}{{}}{{}}}
\bibcite{eclat}{{8}{}{{}}{{}}}
\bibstyle{plain}
\providecommand\NAT@force@numbers{}\NAT@force@numbers
\newlabel{LastBibItem}{{8}{19}{}{Item.15}{}}
\newlabel{LastPage}{{}{19}{}{}{}}
