,exact,bloomfilter,extra_on_bloom,missing_on_bloom,hll,extra_on_hll,missing_on_hll
0,"{'items': ['48'], 'found': '48', 'support': 3013, 'level': 0, 'jaccard': -1, 'filled': 0}","{'items': ['48'], 'found': '48', 'support': 3024, 'level': 0, 'jaccard': -1, 'filled': 12.188}","{'item': ['48', '40'], 'real_support': 2987, 'approximated_support': 3000, 'level': 1, 'filled': {'48': 12.188, '40': 12.771}}",,,,
1,"{'items': ['56'], 'found': '56', 'support': 3021, 'level': 0, 'jaccard': -1, 'filled': 0}","{'items': ['66'], 'found': '66', 'support': 3026, 'level': 0, 'jaccard': -1, 'filled': 12.195}","{'item': ['48', '29'], 'real_support': 2998, 'approximated_support': 3008, 'level': 1, 'filled': {'48': 12.188, '29': 12.801}}",,,,
2,"{'items': ['66'], 'found': '66', 'support': 3021, 'level': 0, 'jaccard': -1, 'filled': 0}","{'items': ['56'], 'found': '56', 'support': 3028, 'level': 0, 'jaccard': -1, 'filled': 12.203}","{'item': ['48', '29', '58'], 'real_support': 2997, 'approximated_support': 3007, 'level': 2, 'filled': {'48': 12.188, '29': 12.801, '58': 12.857}}",,,,
3,"{'items': ['34'], 'found': '34', 'support': 3040, 'level': 0, 'jaccard': -1, 'filled': 0}","{'items': ['34'], 'found': '34', 'support': 3045, 'level': 0, 'jaccard': -1, 'filled': 12.27}","{'item': ['66', '60', '40'], 'real_support': 2997, 'approximated_support': 3003, 'level': 2, 'filled': {'66': 12.195, '60': 12.687, '40': 12.771}}",,,,
4,"{'items': ['62'], 'found': '62', 'support': 3060, 'level': 0, 'jaccard': -1, 'filled': 0}","{'items': ['62'], 'found': '62', 'support': 3069, 'level': 0, 'jaccard': -1, 'filled': 12.358}","{'item': ['66', '60', '40', '58'], 'real_support': 2996, 'approximated_support': 3002, 'level': 3, 'filled': {'66': 12.195, '60': 12.687, '40': 12.771, '58': 12.857}}",,,,
5,"{'items': ['7'], 'found': '7', 'support': 3076, 'level': 0, 'jaccard': -1, 'filled': 0}","{'items': ['7'], 'found': '7', 'support': 3089, 'level': 0, 'jaccard': -1, 'filled': 12.433}","{'item': ['66', '40'], 'real_support': 2997, 'approximated_support': 3003, 'level': 1, 'filled': {'66': 12.195, '40': 12.771}}",,,,
6,"{'items': ['36'], 'found': '36', 'support': 3099, 'level': 0, 'jaccard': -1, 'filled': 0}","{'items': ['36'], 'found': '36', 'support': 3105, 'level': 0, 'jaccard': -1, 'filled': 12.496}","{'item': ['66', '40', '58'], 'real_support': 2996, 'approximated_support': 3002, 'level': 2, 'filled': {'66': 12.195, '40': 12.771, '58': 12.857}}",,,,
7,"{'items': ['60'], 'found': '60', 'support': 3149, 'level': 0, 'jaccard': -1, 'filled': 0}","{'items': ['60'], 'found': '60', 'support': 3156, 'level': 0, 'jaccard': -1, 'filled': 12.687}","{'item': ['56', '40'], 'real_support': 2996, 'approximated_support': 3005, 'level': 1, 'filled': {'56': 12.203, '40': 12.771}}",,,,
8,"{'items': ['40'], 'found': '40', 'support': 3170, 'level': 0, 'jaccard': -1, 'filled': 0}","{'items': ['40'], 'found': '40', 'support': 3179, 'level': 0, 'jaccard': -1, 'filled': 12.771}","{'item': ['56', '40', '58'], 'real_support': 2995, 'approximated_support': 3004, 'level': 2, 'filled': {'56': 12.203, '40': 12.771, '58': 12.857}}",,,,
9,"{'items': ['29'], 'found': '29', 'support': 3181, 'level': 0, 'jaccard': -1, 'filled': 0}","{'items': ['29'], 'found': '29', 'support': 3187, 'level': 0, 'jaccard': -1, 'filled': 12.801}","{'item': ['34', '60'], 'real_support': 2995, 'approximated_support': 3001, 'level': 1, 'filled': {'34': 12.27, '60': 12.687}}",,,,
10,"{'items': ['52'], 'found': '52', 'support': 3185, 'level': 0, 'jaccard': -1, 'filled': 0}","{'items': ['52'], 'found': '52', 'support': 3191, 'level': 0, 'jaccard': -1, 'filled': 12.816}","{'item': ['34', '60', '58'], 'real_support': 2994, 'approximated_support': 3000, 'level': 2, 'filled': {'34': 12.27, '60': 12.687, '58': 12.857}}",,,,
11,"{'items': ['58'], 'found': '58', 'support': 3195, 'level': 0, 'jaccard': -1, 'filled': 0}","{'items': ['58'], 'found': '58', 'support': 3202, 'level': 0, 'jaccard': -1, 'filled': 12.857}","{'item': ['62', '60', '40'], 'real_support': 2999, 'approximated_support': 3008, 'level': 2, 'filled': {'62': 12.358, '60': 12.687, '40': 12.771}}",,,,
12,"{'items': ['48', '52'], 'found': '52', 'support': 3002, 'level': 1, 'jaccard': -1, 'filled': 0}","{'items': ['48', '40'], 'found': '40', 'support': 3000, 'level': 1, 'jaccard': -1, 'filled': {'48': 12.188, '40': 12.771}}","{'item': ['62', '60', '40', '58'], 'real_support': 2999, 'approximated_support': 3008, 'level': 3, 'filled': {'62': 12.358, '60': 12.687, '40': 12.771, '58': 12.857}}",,,,
13,"{'items': ['56', '29'], 'found': '29', 'support': 3006, 'level': 1, 'jaccard': -1, 'filled': 0}","{'items': ['34', '60'], 'found': '60', 'support': 3001, 'level': 1, 'jaccard': -1, 'filled': {'34': 12.27, '60': 12.687}}","{'item': ['7', '60', '40', '29'], 'real_support': 2999, 'approximated_support': 3013, 'level': 3, 'filled': {'7': 12.433, '60': 12.687, '40': 12.771, '29': 12.801}}",,,,
14,"{'items': ['66', '52'], 'found': '52', 'support': 3010, 'level': 1, 'jaccard': -1, 'filled': 0}","{'items': ['66', '40'], 'found': '40', 'support': 3003, 'level': 1, 'jaccard': -1, 'filled': {'66': 12.195, '40': 12.771}}","{'item': ['7', '60', '40', '29', '52'], 'real_support': 2988, 'approximated_support': 3001, 'level': 4, 'filled': {'7': 12.433, '60': 12.687, '40': 12.771, '29': 12.801, '52': 12.816}}",,,,
15,"{'items': ['48', '58'], 'found': '58', 'support': 3012, 'level': 1, 'jaccard': -1, 'filled': 0}","{'items': ['56', '40'], 'found': '40', 'support': 3005, 'level': 1, 'jaccard': -1, 'filled': {'56': 12.203, '40': 12.771}}","{'item': ['7', '60', '40', '29', '52', '58'], 'real_support': 2987, 'approximated_support': 3000, 'level': 5, 'filled': {'7': 12.433, '60': 12.687, '40': 12.771, '29': 12.801, '52': 12.816, '58': 12.857}}",,,,
16,"{'items': ['66', '29'], 'found': '29', 'support': 3013, 'level': 1, 'jaccard': -1, 'filled': 0}","{'items': ['48', '29'], 'found': '29', 'support': 3008, 'level': 1, 'jaccard': -1, 'filled': {'48': 12.188, '29': 12.801}}","{'item': ['7', '60', '40', '29', '58'], 'real_support': 2998, 'approximated_support': 3012, 'level': 4, 'filled': {'7': 12.433, '60': 12.687, '40': 12.771, '29': 12.801, '58': 12.857}}",,,,
17,"{'items': ['62', '60'], 'found': '60', 'support': 3014, 'level': 1, 'jaccard': -1, 'filled': 0}","{'items': ['48', '52'], 'found': '52', 'support': 3012, 'level': 1, 'jaccard': -1, 'filled': {'48': 12.188, '52': 12.816}}","{'item': ['7', '60', '40', '52'], 'real_support': 2995, 'approximated_support': 3009, 'level': 3, 'filled': {'7': 12.433, '60': 12.687, '40': 12.771, '52': 12.816}}",,,,
18,"{'items': ['56', '52'], 'found': '52', 'support': 3016, 'level': 1, 'jaccard': -1, 'filled': 0}","{'items': ['56', '29'], 'found': '29', 'support': 3012, 'level': 1, 'jaccard': -1, 'filled': {'56': 12.203, '29': 12.801}}","{'item': ['7', '60', '40', '52', '58'], 'real_support': 2994, 'approximated_support': 3008, 'level': 4, 'filled': {'7': 12.433, '60': 12.687, '40': 12.771, '52': 12.816, '58': 12.857}}",,,,
19,"{'items': ['34', '40'], 'found': '40', 'support': 3017, 'level': 1, 'jaccard': -1, 'filled': 0}","{'items': ['66', '52'], 'found': '52', 'support': 3014, 'level': 1, 'jaccard': -1, 'filled': {'66': 12.195, '52': 12.816}}",,,,,
20,"{'items': ['56', '58'], 'found': '58', 'support': 3020, 'level': 1, 'jaccard': -1, 'filled': 0}","{'items': ['66', '29'], 'found': '29', 'support': 3017, 'level': 1, 'jaccard': -1, 'filled': {'66': 12.195, '29': 12.801}}",,,,,
21,"{'items': ['66', '58'], 'found': '58', 'support': 3020, 'level': 1, 'jaccard': -1, 'filled': 0}","{'items': ['56', '52'], 'found': '52', 'support': 3022, 'level': 1, 'jaccard': -1, 'filled': {'56': 12.203, '52': 12.816}}",,,,,
22,"{'items': ['66', '60'], 'found': '60', 'support': 3021, 'level': 1, 'jaccard': -1, 'filled': 0}","{'items': ['48', '58'], 'found': '58', 'support': 3023, 'level': 1, 'jaccard': -1, 'filled': {'48': 12.188, '58': 12.857}}",,,,,
23,"{'items': ['34', '52'], 'found': '52', 'support': 3031, 'level': 1, 'jaccard': -1, 'filled': 0}","{'items': ['62', '60'], 'found': '60', 'support': 3023, 'level': 1, 'jaccard': -1, 'filled': {'62': 12.358, '60': 12.687}}",,,,,
24,"{'items': ['7', '60'], 'found': '60', 'support': 3031, 'level': 1, 'jaccard': -1, 'filled': 0}","{'items': ['66', '58'], 'found': '58', 'support': 3024, 'level': 1, 'jaccard': -1, 'filled': {'66': 12.195, '58': 12.857}}",,,,,
25,"{'items': ['34', '29'], 'found': '29', 'support': 3036, 'level': 1, 'jaccard': -1, 'filled': 0}","{'items': ['34', '40'], 'found': '40', 'support': 3025, 'level': 1, 'jaccard': -1, 'filled': {'34': 12.27, '40': 12.771}}",,,,,
26,"{'items': ['34', '58'], 'found': '58', 'support': 3039, 'level': 1, 'jaccard': -1, 'filled': 0}","{'items': ['66', '60'], 'found': '60', 'support': 3026, 'level': 1, 'jaccard': -1, 'filled': {'66': 12.195, '60': 12.687}}",,,,,
27,"{'items': ['62', '40'], 'found': '40', 'support': 3045, 'level': 1, 'jaccard': -1, 'filled': 0}","{'items': ['56', '58'], 'found': '58', 'support': 3027, 'level': 1, 'jaccard': -1, 'filled': {'56': 12.203, '58': 12.857}}",,,,,
28,"{'items': ['62', '29'], 'found': '29', 'support': 3045, 'level': 1, 'jaccard': -1, 'filled': 0}","{'items': ['34', '52'], 'found': '52', 'support': 3035, 'level': 1, 'jaccard': -1, 'filled': {'34': 12.27, '52': 12.816}}",,,,,
29,"{'items': ['62', '52'], 'found': '52', 'support': 3049, 'level': 1, 'jaccard': -1, 'filled': 0}","{'items': ['34', '29'], 'found': '29', 'support': 3041, 'level': 1, 'jaccard': -1, 'filled': {'34': 12.27, '29': 12.801}}",,,,,
30,"{'items': ['7', '40'], 'found': '40', 'support': 3050, 'level': 1, 'jaccard': -1, 'filled': 0}","{'items': ['34', '58'], 'found': '58', 'support': 3044, 'level': 1, 'jaccard': -1, 'filled': {'34': 12.27, '58': 12.857}}",,,,,
31,"{'items': ['36', '60'], 'found': '60', 'support': 3052, 'level': 1, 'jaccard': -1, 'filled': 0}","{'items': ['7', '60'], 'found': '60', 'support': 3044, 'level': 1, 'jaccard': -1, 'filled': {'7': 12.433, '60': 12.687}}",,,,,
32,"{'items': ['62', '58'], 'found': '58', 'support': 3060, 'level': 1, 'jaccard': -1, 'filled': 0}","{'items': ['62', '29'], 'found': '29', 'support': 3053, 'level': 1, 'jaccard': -1, 'filled': {'62': 12.358, '29': 12.801}}",,,,,
33,"{'items': ['7', '52'], 'found': '52', 'support': 3065, 'level': 1, 'jaccard': -1, 'filled': 0}","{'items': ['62', '40'], 'found': '40', 'support': 3054, 'level': 1, 'jaccard': -1, 'filled': {'62': 12.358, '40': 12.771}}",,,,,
34,"{'items': ['7', '29'], 'found': '29', 'support': 3069, 'level': 1, 'jaccard': -1, 'filled': 0}","{'items': ['62', '52'], 'found': '52', 'support': 3057, 'level': 1, 'jaccard': -1, 'filled': {'62': 12.358, '52': 12.816}}",,,,,
35,"{'items': ['36', '40'], 'found': '40', 'support': 3073, 'level': 1, 'jaccard': -1, 'filled': 0}","{'items': ['36', '60'], 'found': '60', 'support': 3059, 'level': 1, 'jaccard': -1, 'filled': {'36': 12.496, '60': 12.687}}",,,,,
36,"{'items': ['7', '58'], 'found': '58', 'support': 3075, 'level': 1, 'jaccard': -1, 'filled': 0}","{'items': ['7', '40'], 'found': '40', 'support': 3065, 'level': 1, 'jaccard': -1, 'filled': {'7': 12.433, '40': 12.771}}",,,,,
37,"{'items': ['36', '29'], 'found': '29', 'support': 3084, 'level': 1, 'jaccard': -1, 'filled': 0}","{'items': ['62', '58'], 'found': '58', 'support': 3069, 'level': 1, 'jaccard': -1, 'filled': {'62': 12.358, '58': 12.857}}",,,,,
38,"{'items': ['36', '52'], 'found': '52', 'support': 3088, 'level': 1, 'jaccard': -1, 'filled': 0}","{'items': ['7', '52'], 'found': '52', 'support': 3077, 'level': 1, 'jaccard': -1, 'filled': {'7': 12.433, '52': 12.816}}",,,,,
39,"{'items': ['36', '58'], 'found': '58', 'support': 3098, 'level': 1, 'jaccard': -1, 'filled': 0}","{'items': ['7', '29'], 'found': '29', 'support': 3081, 'level': 1, 'jaccard': -1, 'filled': {'7': 12.433, '29': 12.801}}",,,,,
40,"{'items': ['60', '40'], 'found': '40', 'support': 3124, 'level': 1, 'jaccard': -1, 'filled': 0}","{'items': ['36', '40'], 'found': '40', 'support': 3081, 'level': 1, 'jaccard': -1, 'filled': {'36': 12.496, '40': 12.771}}",,,,,
41,"{'items': ['60', '29'], 'found': '29', 'support': 3136, 'level': 1, 'jaccard': -1, 'filled': 0}","{'items': ['7', '58'], 'found': '58', 'support': 3088, 'level': 1, 'jaccard': -1, 'filled': {'7': 12.433, '58': 12.857}}",,,,,
42,"{'items': ['60', '52'], 'found': '52', 'support': 3138, 'level': 1, 'jaccard': -1, 'filled': 0}","{'items': ['36', '29'], 'found': '29', 'support': 3089, 'level': 1, 'jaccard': -1, 'filled': {'36': 12.496, '29': 12.801}}",,,,,
43,"{'items': ['60', '58'], 'found': '58', 'support': 3148, 'level': 1, 'jaccard': -1, 'filled': 0}","{'items': ['36', '52'], 'found': '52', 'support': 3093, 'level': 1, 'jaccard': -1, 'filled': {'36': 12.496, '52': 12.816}}",,,,,
44,"{'items': ['40', '29'], 'found': '29', 'support': 3155, 'level': 1, 'jaccard': -1, 'filled': 0}","{'items': ['36', '58'], 'found': '58', 'support': 3104, 'level': 1, 'jaccard': -1, 'filled': {'36': 12.496, '58': 12.857}}",,,,,
45,"{'items': ['40', '52'], 'found': '52', 'support': 3159, 'level': 1, 'jaccard': -1, 'filled': 0}","{'items': ['60', '40'], 'found': '40', 'support': 3133, 'level': 1, 'jaccard': -1, 'filled': {'60': 12.687, '40': 12.771}}",,,,,
46,"{'items': ['40', '58'], 'found': '58', 'support': 3169, 'level': 1, 'jaccard': -1, 'filled': 0}","{'items': ['60', '29'], 'found': '29', 'support': 3142, 'level': 1, 'jaccard': -1, 'filled': {'60': 12.687, '29': 12.801}}",,,,,
47,"{'items': ['29', '52'], 'found': '52', 'support': 3170, 'level': 1, 'jaccard': -1, 'filled': 0}","{'items': ['60', '52'], 'found': '52', 'support': 3144, 'level': 1, 'jaccard': -1, 'filled': {'60': 12.687, '52': 12.816}}",,,,,
48,"{'items': ['29', '58'], 'found': '58', 'support': 3180, 'level': 1, 'jaccard': -1, 'filled': 0}","{'items': ['60', '58'], 'found': '58', 'support': 3155, 'level': 1, 'jaccard': -1, 'filled': {'60': 12.687, '58': 12.857}}",,,,,
49,"{'items': ['52', '58'], 'found': '58', 'support': 3184, 'level': 1, 'jaccard': -1, 'filled': 0}","{'items': ['40', '29'], 'found': '29', 'support': 3163, 'level': 1, 'jaccard': -1, 'filled': {'40': 12.771, '29': 12.801}}",,,,,
50,"{'items': ['48', '52', '58'], 'found': '58', 'support': 3001, 'level': 2, 'jaccard': -1, 'filled': 0}","{'items': ['40', '52'], 'found': '52', 'support': 3167, 'level': 1, 'jaccard': -1, 'filled': {'40': 12.771, '52': 12.816}}",,,,,
51,"{'items': ['56', '29', '52'], 'found': '52', 'support': 3001, 'level': 2, 'jaccard': -1, 'filled': 0}","{'items': ['29', '52'], 'found': '52', 'support': 3175, 'level': 1, 'jaccard': -1, 'filled': {'29': 12.801, '52': 12.816}}",,,,,
52,"{'items': ['62', '60', '29'], 'found': '29', 'support': 3001, 'level': 2, 'jaccard': -1, 'filled': 0}","{'items': ['40', '58'], 'found': '58', 'support': 3177, 'level': 1, 'jaccard': -1, 'filled': {'40': 12.771, '58': 12.857}}",,,,,
53,"{'items': ['66', '29', '52'], 'found': '52', 'support': 3002, 'level': 2, 'jaccard': -1, 'filled': 0}","{'items': ['29', '58'], 'found': '58', 'support': 3185, 'level': 1, 'jaccard': -1, 'filled': {'29': 12.801, '58': 12.857}}",,,,,
54,"{'items': ['62', '60', '52'], 'found': '52', 'support': 3003, 'level': 2, 'jaccard': -1, 'filled': 0}","{'items': ['52', '58'], 'found': '58', 'support': 3190, 'level': 1, 'jaccard': -1, 'filled': {'52': 12.816, '58': 12.857}}",,,,,
55,"{'items': ['56', '29', '58'], 'found': '58', 'support': 3005, 'level': 2, 'jaccard': -1, 'filled': 0}","{'items': ['34', '60', '58'], 'found': '58', 'support': 3000, 'level': 2, 'jaccard': -1, 'filled': {'34': 12.27, '60': 12.687, '58': 12.857}}",,,,,
56,"{'items': ['7', '60', '40'], 'found': '40', 'support': 3006, 'level': 2, 'jaccard': -1, 'filled': 0}","{'items': ['66', '40', '58'], 'found': '58', 'support': 3002, 'level': 2, 'jaccard': -1, 'filled': {'66': 12.195, '40': 12.771, '58': 12.857}}",,,,,
57,"{'items': ['34', '40', '52'], 'found': '52', 'support': 3008, 'level': 2, 'jaccard': -1, 'filled': 0}","{'items': ['66', '60', '40'], 'found': '40', 'support': 3003, 'level': 2, 'jaccard': -1, 'filled': {'66': 12.195, '60': 12.687, '40': 12.771}}",,,,,
58,"{'items': ['66', '52', '58'], 'found': '58', 'support': 3009, 'level': 2, 'jaccard': -1, 'filled': 0}","{'items': ['56', '40', '58'], 'found': '58', 'support': 3004, 'level': 2, 'jaccard': -1, 'filled': {'56': 12.203, '40': 12.771, '58': 12.857}}",,,,,
59,"{'items': ['66', '60', '52'], 'found': '52', 'support': 3010, 'level': 2, 'jaccard': -1, 'filled': 0}","{'items': ['66', '29', '52'], 'found': '52', 'support': 3005, 'level': 2, 'jaccard': -1, 'filled': {'66': 12.195, '29': 12.801, '52': 12.816}}",,,,,
60,"{'items': ['66', '29', '58'], 'found': '58', 'support': 3012, 'level': 2, 'jaccard': -1, 'filled': 0}","{'items': ['56', '29', '52'], 'found': '52', 'support': 3006, 'level': 2, 'jaccard': -1, 'filled': {'56': 12.203, '29': 12.801, '52': 12.816}}",,,,,
61,"{'items': ['66', '60', '29'], 'found': '29', 'support': 3013, 'level': 2, 'jaccard': -1, 'filled': 0}","{'items': ['48', '29', '58'], 'found': '58', 'support': 3007, 'level': 2, 'jaccard': -1, 'filled': {'48': 12.188, '29': 12.801, '58': 12.857}}",,,,,
62,"{'items': ['34', '40', '29'], 'found': '29', 'support': 3013, 'level': 2, 'jaccard': -1, 'filled': 0}","{'items': ['62', '60', '40'], 'found': '40', 'support': 3008, 'level': 2, 'jaccard': -1, 'filled': {'62': 12.358, '60': 12.687, '40': 12.771}}",,,,,
63,"{'items': ['62', '60', '58'], 'found': '58', 'support': 3014, 'level': 2, 'jaccard': -1, 'filled': 0}","{'items': ['62', '60', '29'], 'found': '29', 'support': 3009, 'level': 2, 'jaccard': -1, 'filled': {'62': 12.358, '60': 12.687, '29': 12.801}}",,,,,
64,"{'items': ['56', '52', '58'], 'found': '58', 'support': 3015, 'level': 2, 'jaccard': -1, 'filled': 0}","{'items': ['48', '52', '58'], 'found': '58', 'support': 3011, 'level': 2, 'jaccard': -1, 'filled': {'48': 12.188, '52': 12.816, '58': 12.857}}",,,,,
65,"{'items': ['34', '40', '58'], 'found': '58', 'support': 3016, 'level': 2, 'jaccard': -1, 'filled': 0}","{'items': ['56', '29', '58'], 'found': '58', 'support': 3011, 'level': 2, 'jaccard': -1, 'filled': {'56': 12.203, '29': 12.801, '58': 12.857}}",,,,,
66,"{'items': ['66', '60', '58'], 'found': '58', 'support': 3020, 'level': 2, 'jaccard': -1, 'filled': 0}","{'items': ['62', '60', '52'], 'found': '52', 'support': 3011, 'level': 2, 'jaccard': -1, 'filled': {'62': 12.358, '60': 12.687, '52': 12.816}}",,,,,
67,"{'items': ['7', '60', '52'], 'found': '52', 'support': 3020, 'level': 2, 'jaccard': -1, 'filled': 0}","{'items': ['66', '52', '58'], 'found': '58', 'support': 3012, 'level': 2, 'jaccard': -1, 'filled': {'66': 12.195, '52': 12.816, '58': 12.857}}",,,,,
68,"{'items': ['7', '60', '29'], 'found': '29', 'support': 3024, 'level': 2, 'jaccard': -1, 'filled': 0}","{'items': ['66', '60', '52'], 'found': '52', 'support': 3014, 'level': 2, 'jaccard': -1, 'filled': {'66': 12.195, '60': 12.687, '52': 12.816}}",,,,,
69,"{'items': ['34', '29', '52'], 'found': '52', 'support': 3027, 'level': 2, 'jaccard': -1, 'filled': 0}","{'items': ['34', '40', '52'], 'found': '52', 'support': 3015, 'level': 2, 'jaccard': -1, 'filled': {'34': 12.27, '40': 12.771, '52': 12.816}}",,,,,
70,"{'items': ['36', '60', '40'], 'found': '40', 'support': 3027, 'level': 2, 'jaccard': -1, 'filled': 0}","{'items': ['66', '29', '58'], 'found': '58', 'support': 3016, 'level': 2, 'jaccard': -1, 'filled': {'66': 12.195, '29': 12.801, '58': 12.857}}",,,,,
71,"{'items': ['34', '52', '58'], 'found': '58', 'support': 3030, 'level': 2, 'jaccard': -1, 'filled': 0}","{'items': ['66', '60', '29'], 'found': '29', 'support': 3017, 'level': 2, 'jaccard': -1, 'filled': {'66': 12.195, '60': 12.687, '29': 12.801}}",,,,,
72,"{'items': ['62', '40', '29'], 'found': '29', 'support': 3030, 'level': 2, 'jaccard': -1, 'filled': 0}","{'items': ['56', '52', '58'], 'found': '58', 'support': 3021, 'level': 2, 'jaccard': -1, 'filled': {'56': 12.203, '52': 12.816, '58': 12.857}}",,,,,
73,"{'items': ['7', '60', '58'], 'found': '58', 'support': 3030, 'level': 2, 'jaccard': -1, 'filled': 0}","{'items': ['34', '40', '29'], 'found': '29', 'support': 3021, 'level': 2, 'jaccard': -1, 'filled': {'34': 12.27, '40': 12.771, '29': 12.801}}",,,,,
74,"{'items': ['62', '40', '52'], 'found': '52', 'support': 3034, 'level': 2, 'jaccard': -1, 'filled': 0}","{'items': ['7', '60', '40'], 'found': '40', 'support': 3021, 'level': 2, 'jaccard': -1, 'filled': {'7': 12.433, '60': 12.687, '40': 12.771}}",,,,,
75,"{'items': ['62', '29', '52'], 'found': '52', 'support': 3034, 'level': 2, 'jaccard': -1, 'filled': 0}","{'items': ['62', '60', '58'], 'found': '58', 'support': 3023, 'level': 2, 'jaccard': -1, 'filled': {'62': 12.358, '60': 12.687, '58': 12.857}}",,,,,
76,"{'items': ['34', '29', '58'], 'found': '58', 'support': 3035, 'level': 2, 'jaccard': -1, 'filled': 0}","{'items': ['66', '60', '58'], 'found': '58', 'support': 3024, 'level': 2, 'jaccard': -1, 'filled': {'66': 12.195, '60': 12.687, '58': 12.857}}",,,,,
77,"{'items': ['7', '40', '52'], 'found': '52', 'support': 3039, 'level': 2, 'jaccard': -1, 'filled': 0}","{'items': ['34', '40', '58'], 'found': '58', 'support': 3024, 'level': 2, 'jaccard': -1, 'filled': {'34': 12.27, '40': 12.771, '58': 12.857}}",,,,,
78,"{'items': ['36', '60', '29'], 'found': '29', 'support': 3039, 'level': 2, 'jaccard': -1, 'filled': 0}","{'items': ['34', '29', '52'], 'found': '52', 'support': 3031, 'level': 2, 'jaccard': -1, 'filled': {'34': 12.27, '29': 12.801, '52': 12.816}}",,,,,
79,"{'items': ['36', '60', '52'], 'found': '52', 'support': 3041, 'level': 2, 'jaccard': -1, 'filled': 0}","{'items': ['7', '60', '52'], 'found': '52', 'support': 3032, 'level': 2, 'jaccard': -1, 'filled': {'7': 12.433, '60': 12.687, '52': 12.816}}",,,,,
80,"{'items': ['7', '40', '29'], 'found': '29', 'support': 3043, 'level': 2, 'jaccard': -1, 'filled': 0}","{'items': ['34', '52', '58'], 'found': '58', 'support': 3034, 'level': 2, 'jaccard': -1, 'filled': {'34': 12.27, '52': 12.816, '58': 12.857}}",,,,,
81,"{'items': ['62', '40', '58'], 'found': '58', 'support': 3045, 'level': 2, 'jaccard': -1, 'filled': 0}","{'items': ['7', '60', '29'], 'found': '29', 'support': 3036, 'level': 2, 'jaccard': -1, 'filled': {'7': 12.433, '60': 12.687, '29': 12.801}}",,,,,
82,"{'items': ['62', '29', '58'], 'found': '58', 'support': 3045, 'level': 2, 'jaccard': -1, 'filled': 0}","{'items': ['36', '60', '40'], 'found': '40', 'support': 3036, 'level': 2, 'jaccard': -1, 'filled': {'36': 12.496, '60': 12.687, '40': 12.771}}",,,,,
83,"{'items': ['62', '52', '58'], 'found': '58', 'support': 3049, 'level': 2, 'jaccard': -1, 'filled': 0}","{'items': ['62', '40', '29'], 'found': '29', 'support': 3038, 'level': 2, 'jaccard': -1, 'filled': {'62': 12.358, '40': 12.771, '29': 12.801}}",,,,,
84,"{'items': ['7', '40', '58'], 'found': '58', 'support': 3049, 'level': 2, 'jaccard': -1, 'filled': 0}","{'items': ['34', '29', '58'], 'found': '58', 'support': 3040, 'level': 2, 'jaccard': -1, 'filled': {'34': 12.27, '29': 12.801, '58': 12.857}}",,,,,
85,"{'items': ['36', '60', '58'], 'found': '58', 'support': 3051, 'level': 2, 'jaccard': -1, 'filled': 0}","{'items': ['62', '29', '52'], 'found': '52', 'support': 3041, 'level': 2, 'jaccard': -1, 'filled': {'62': 12.358, '29': 12.801, '52': 12.816}}",,,,,
86,"{'items': ['7', '29', '52'], 'found': '52', 'support': 3058, 'level': 2, 'jaccard': -1, 'filled': 0}","{'items': ['62', '40', '52'], 'found': '52', 'support': 3042, 'level': 2, 'jaccard': -1, 'filled': {'62': 12.358, '40': 12.771, '52': 12.816}}",,,,,
87,"{'items': ['36', '40', '29'], 'found': '29', 'support': 3058, 'level': 2, 'jaccard': -1, 'filled': 0}","{'items': ['7', '60', '58'], 'found': '58', 'support': 3043, 'level': 2, 'jaccard': -1, 'filled': {'7': 12.433, '60': 12.687, '58': 12.857}}",,,,,
88,"{'items': ['36', '40', '52'], 'found': '52', 'support': 3062, 'level': 2, 'jaccard': -1, 'filled': 0}","{'items': ['36', '60', '29'], 'found': '29', 'support': 3045, 'level': 2, 'jaccard': -1, 'filled': {'36': 12.496, '60': 12.687, '29': 12.801}}",,,,,
89,"{'items': ['7', '52', '58'], 'found': '58', 'support': 3064, 'level': 2, 'jaccard': -1, 'filled': 0}","{'items': ['36', '60', '52'], 'found': '52', 'support': 3047, 'level': 2, 'jaccard': -1, 'filled': {'36': 12.496, '60': 12.687, '52': 12.816}}",,,,,
90,"{'items': ['7', '29', '58'], 'found': '58', 'support': 3068, 'level': 2, 'jaccard': -1, 'filled': 0}","{'items': ['62', '29', '58'], 'found': '58', 'support': 3053, 'level': 2, 'jaccard': -1, 'filled': {'62': 12.358, '29': 12.801, '58': 12.857}}",,,,,
91,"{'items': ['36', '40', '58'], 'found': '58', 'support': 3072, 'level': 2, 'jaccard': -1, 'filled': 0}","{'items': ['7', '40', '52'], 'found': '52', 'support': 3053, 'level': 2, 'jaccard': -1, 'filled': {'7': 12.433, '40': 12.771, '52': 12.816}}",,,,,
92,"{'items': ['36', '29', '52'], 'found': '52', 'support': 3073, 'level': 2, 'jaccard': -1, 'filled': 0}","{'items': ['62', '40', '58'], 'found': '58', 'support': 3054, 'level': 2, 'jaccard': -1, 'filled': {'62': 12.358, '40': 12.771, '58': 12.857}}",,,,,
93,"{'items': ['36', '29', '58'], 'found': '58', 'support': 3083, 'level': 2, 'jaccard': -1, 'filled': 0}","{'items': ['62', '52', '58'], 'found': '58', 'support': 3057, 'level': 2, 'jaccard': -1, 'filled': {'62': 12.358, '52': 12.816, '58': 12.857}}",,,,,
94,"{'items': ['36', '52', '58'], 'found': '58', 'support': 3087, 'level': 2, 'jaccard': -1, 'filled': 0}","{'items': ['7', '40', '29'], 'found': '29', 'support': 3057, 'level': 2, 'jaccard': -1, 'filled': {'7': 12.433, '40': 12.771, '29': 12.801}}",,,,,
95,"{'items': ['60', '40', '29'], 'found': '29', 'support': 3111, 'level': 2, 'jaccard': -1, 'filled': 0}","{'items': ['36', '60', '58'], 'found': '58', 'support': 3058, 'level': 2, 'jaccard': -1, 'filled': {'36': 12.496, '60': 12.687, '58': 12.857}}",,,,,
96,"{'items': ['60', '40', '52'], 'found': '52', 'support': 3113, 'level': 2, 'jaccard': -1, 'filled': 0}","{'items': ['7', '40', '58'], 'found': '58', 'support': 3064, 'level': 2, 'jaccard': -1, 'filled': {'7': 12.433, '40': 12.771, '58': 12.857}}",,,,,
97,"{'items': ['60', '40', '58'], 'found': '58', 'support': 3123, 'level': 2, 'jaccard': -1, 'filled': 0}","{'items': ['36', '40', '29'], 'found': '29', 'support': 3065, 'level': 2, 'jaccard': -1, 'filled': {'36': 12.496, '40': 12.771, '29': 12.801}}",,,,,
98,"{'items': ['60', '29', '52'], 'found': '52', 'support': 3125, 'level': 2, 'jaccard': -1, 'filled': 0}","{'items': ['7', '29', '52'], 'found': '52', 'support': 3069, 'level': 2, 'jaccard': -1, 'filled': {'7': 12.433, '29': 12.801, '52': 12.816}}",,,,,
99,"{'items': ['60', '29', '58'], 'found': '58', 'support': 3135, 'level': 2, 'jaccard': -1, 'filled': 0}","{'items': ['36', '40', '52'], 'found': '52', 'support': 3069, 'level': 2, 'jaccard': -1, 'filled': {'36': 12.496, '40': 12.771, '52': 12.816}}",,,,,
100,"{'items': ['60', '52', '58'], 'found': '58', 'support': 3137, 'level': 2, 'jaccard': -1, 'filled': 0}","{'items': ['7', '52', '58'], 'found': '58', 'support': 3076, 'level': 2, 'jaccard': -1, 'filled': {'7': 12.433, '52': 12.816, '58': 12.857}}",,,,,
101,"{'items': ['40', '29', '52'], 'found': '52', 'support': 3144, 'level': 2, 'jaccard': -1, 'filled': 0}","{'items': ['36', '29', '52'], 'found': '52', 'support': 3077, 'level': 2, 'jaccard': -1, 'filled': {'36': 12.496, '29': 12.801, '52': 12.816}}",,,,,
102,"{'items': ['40', '29', '58'], 'found': '58', 'support': 3154, 'level': 2, 'jaccard': -1, 'filled': 0}","{'items': ['7', '29', '58'], 'found': '58', 'support': 3080, 'level': 2, 'jaccard': -1, 'filled': {'7': 12.433, '29': 12.801, '58': 12.857}}",,,,,
103,"{'items': ['40', '52', '58'], 'found': '58', 'support': 3158, 'level': 2, 'jaccard': -1, 'filled': 0}","{'items': ['36', '40', '58'], 'found': '58', 'support': 3080, 'level': 2, 'jaccard': -1, 'filled': {'36': 12.496, '40': 12.771, '58': 12.857}}",,,,,
104,"{'items': ['29', '52', '58'], 'found': '58', 'support': 3169, 'level': 2, 'jaccard': -1, 'filled': 0}","{'items': ['36', '29', '58'], 'found': '58', 'support': 3088, 'level': 2, 'jaccard': -1, 'filled': {'36': 12.496, '29': 12.801, '58': 12.857}}",,,,,
105,"{'items': ['56', '29', '52', '58'], 'found': '58', 'support': 3000, 'level': 3, 'jaccard': -1, 'filled': 0}","{'items': ['36', '52', '58'], 'found': '58', 'support': 3092, 'level': 2, 'jaccard': -1, 'filled': {'36': 12.496, '52': 12.816, '58': 12.857}}",,,,,
106,"{'items': ['66', '29', '52', '58'], 'found': '58', 'support': 3001, 'level': 3, 'jaccard': -1, 'filled': 0}","{'items': ['60', '40', '29'], 'found': '29', 'support': 3119, 'level': 2, 'jaccard': -1, 'filled': {'60': 12.687, '40': 12.771, '29': 12.801}}",,,,,
107,"{'items': ['62', '60', '29', '58'], 'found': '58', 'support': 3001, 'level': 3, 'jaccard': -1, 'filled': 0}","{'items': ['60', '40', '52'], 'found': '52', 'support': 3121, 'level': 2, 'jaccard': -1, 'filled': {'60': 12.687, '40': 12.771, '52': 12.816}}",,,,,
108,"{'items': ['66', '60', '29', '52'], 'found': '52', 'support': 3002, 'level': 3, 'jaccard': -1, 'filled': 0}","{'items': ['60', '29', '52'], 'found': '52', 'support': 3130, 'level': 2, 'jaccard': -1, 'filled': {'60': 12.687, '29': 12.801, '52': 12.816}}",,,,,
109,"{'items': ['62', '60', '52', '58'], 'found': '58', 'support': 3003, 'level': 3, 'jaccard': -1, 'filled': 0}","{'items': ['60', '40', '58'], 'found': '58', 'support': 3132, 'level': 2, 'jaccard': -1, 'filled': {'60': 12.687, '40': 12.771, '58': 12.857}}",,,,,
110,"{'items': ['34', '40', '29', '52'], 'found': '52', 'support': 3004, 'level': 3, 'jaccard': -1, 'filled': 0}","{'items': ['60', '29', '58'], 'found': '58', 'support': 3141, 'level': 2, 'jaccard': -1, 'filled': {'60': 12.687, '29': 12.801, '58': 12.857}}",,,,,
111,"{'items': ['7', '60', '40', '58'], 'found': '58', 'support': 3005, 'level': 3, 'jaccard': -1, 'filled': 0}","{'items': ['60', '52', '58'], 'found': '58', 'support': 3143, 'level': 2, 'jaccard': -1, 'filled': {'60': 12.687, '52': 12.816, '58': 12.857}}",,,,,
112,"{'items': ['34', '40', '52', '58'], 'found': '58', 'support': 3007, 'level': 3, 'jaccard': -1, 'filled': 0}","{'items': ['40', '29', '52'], 'found': '52', 'support': 3151, 'level': 2, 'jaccard': -1, 'filled': {'40': 12.771, '29': 12.801, '52': 12.816}}",,,,,
113,"{'items': ['66', '60', '52', '58'], 'found': '58', 'support': 3009, 'level': 3, 'jaccard': -1, 'filled': 0}","{'items': ['40', '29', '58'], 'found': '58', 'support': 3161, 'level': 2, 'jaccard': -1, 'filled': {'40': 12.771, '29': 12.801, '58': 12.857}}",,,,,
114,"{'items': ['66', '60', '29', '58'], 'found': '58', 'support': 3012, 'level': 3, 'jaccard': -1, 'filled': 0}","{'items': ['40', '52', '58'], 'found': '58', 'support': 3165, 'level': 2, 'jaccard': -1, 'filled': {'40': 12.771, '52': 12.816, '58': 12.857}}",,,,,
115,"{'items': ['34', '40', '29', '58'], 'found': '58', 'support': 3012, 'level': 3, 'jaccard': -1, 'filled': 0}","{'items': ['29', '52', '58'], 'found': '58', 'support': 3173, 'level': 2, 'jaccard': -1, 'filled': {'29': 12.801, '52': 12.816, '58': 12.857}}",,,,,
116,"{'items': ['7', '60', '29', '52'], 'found': '52', 'support': 3013, 'level': 3, 'jaccard': -1, 'filled': 0}","{'items': ['66', '60', '40', '58'], 'found': '58', 'support': 3002, 'level': 3, 'jaccard': -1, 'filled': {'66': 12.195, '60': 12.687, '40': 12.771, '58': 12.857}}",,,,,
117,"{'items': ['36', '60', '40', '29'], 'found': '29', 'support': 3014, 'level': 3, 'jaccard': -1, 'filled': 0}","{'items': ['66', '29', '52', '58'], 'found': '58', 'support': 3004, 'level': 3, 'jaccard': -1, 'filled': {'66': 12.195, '29': 12.801, '52': 12.816, '58': 12.857}}",,,,,
118,"{'items': ['36', '60', '40', '52'], 'found': '52', 'support': 3016, 'level': 3, 'jaccard': -1, 'filled': 0}","{'items': ['66', '60', '29', '52'], 'found': '52', 'support': 3005, 'level': 3, 'jaccard': -1, 'filled': {'66': 12.195, '60': 12.687, '29': 12.801, '52': 12.816}}",,,,,
119,"{'items': ['62', '40', '29', '52'], 'found': '52', 'support': 3019, 'level': 3, 'jaccard': -1, 'filled': 0}","{'items': ['56', '29', '52', '58'], 'found': '58', 'support': 3005, 'level': 3, 'jaccard': -1, 'filled': {'56': 12.203, '29': 12.801, '52': 12.816, '58': 12.857}}",,,,,
120,"{'items': ['7', '60', '52', '58'], 'found': '58', 'support': 3019, 'level': 3, 'jaccard': -1, 'filled': 0}","{'items': ['62', '60', '40', '58'], 'found': '58', 'support': 3008, 'level': 3, 'jaccard': -1, 'filled': {'62': 12.358, '60': 12.687, '40': 12.771, '58': 12.857}}",,,,,
121,"{'items': ['7', '60', '29', '58'], 'found': '58', 'support': 3023, 'level': 3, 'jaccard': -1, 'filled': 0}","{'items': ['62', '60', '29', '58'], 'found': '58', 'support': 3009, 'level': 3, 'jaccard': -1, 'filled': {'62': 12.358, '60': 12.687, '29': 12.801, '58': 12.857}}",,,,,
122,"{'items': ['34', '29', '52', '58'], 'found': '58', 'support': 3026, 'level': 3, 'jaccard': -1, 'filled': 0}","{'items': ['7', '60', '40', '52'], 'found': '52', 'support': 3009, 'level': 3, 'jaccard': -1, 'filled': {'7': 12.433, '60': 12.687, '40': 12.771, '52': 12.816}}",,,,,
123,"{'items': ['36', '60', '40', '58'], 'found': '58', 'support': 3026, 'level': 3, 'jaccard': -1, 'filled': 0}","{'items': ['34', '40', '29', '52'], 'found': '52', 'support': 3011, 'level': 3, 'jaccard': -1, 'filled': {'34': 12.27, '40': 12.771, '29': 12.801, '52': 12.816}}",,,,,
124,"{'items': ['36', '60', '29', '52'], 'found': '52', 'support': 3028, 'level': 3, 'jaccard': -1, 'filled': 0}","{'items': ['62', '60', '52', '58'], 'found': '58', 'support': 3011, 'level': 3, 'jaccard': -1, 'filled': {'62': 12.358, '60': 12.687, '52': 12.816, '58': 12.857}}",,,,,
125,"{'items': ['62', '40', '29', '58'], 'found': '58', 'support': 3030, 'level': 3, 'jaccard': -1, 'filled': 0}","{'items': ['66', '60', '52', '58'], 'found': '58', 'support': 3012, 'level': 3, 'jaccard': -1, 'filled': {'66': 12.195, '60': 12.687, '52': 12.816, '58': 12.857}}",,,,,
126,"{'items': ['7', '40', '29', '52'], 'found': '52', 'support': 3032, 'level': 3, 'jaccard': -1, 'filled': 0}","{'items': ['7', '60', '40', '29'], 'found': '29', 'support': 3013, 'level': 3, 'jaccard': -1, 'filled': {'7': 12.433, '60': 12.687, '40': 12.771, '29': 12.801}}",,,,,
127,"{'items': ['62', '40', '52', '58'], 'found': '58', 'support': 3034, 'level': 3, 'jaccard': -1, 'filled': 0}","{'items': ['34', '40', '52', '58'], 'found': '58', 'support': 3014, 'level': 3, 'jaccard': -1, 'filled': {'34': 12.27, '40': 12.771, '52': 12.816, '58': 12.857}}",,,,,
128,"{'items': ['62', '29', '52', '58'], 'found': '58', 'support': 3034, 'level': 3, 'jaccard': -1, 'filled': 0}","{'items': ['66', '60', '29', '58'], 'found': '58', 'support': 3016, 'level': 3, 'jaccard': -1, 'filled': {'66': 12.195, '60': 12.687, '29': 12.801, '58': 12.857}}",,,,,
129,"{'items': ['7', '40', '52', '58'], 'found': '58', 'support': 3038, 'level': 3, 'jaccard': -1, 'filled': 0}","{'items': ['34', '40', '29', '58'], 'found': '58', 'support': 3020, 'level': 3, 'jaccard': -1, 'filled': {'34': 12.27, '40': 12.771, '29': 12.801, '58': 12.857}}",,,,,
130,"{'items': ['36', '60', '29', '58'], 'found': '58', 'support': 3038, 'level': 3, 'jaccard': -1, 'filled': 0}","{'items': ['7', '60', '40', '58'], 'found': '58', 'support': 3020, 'level': 3, 'jaccard': -1, 'filled': {'7': 12.433, '60': 12.687, '40': 12.771, '58': 12.857}}",,,,,
131,"{'items': ['36', '60', '52', '58'], 'found': '58', 'support': 3040, 'level': 3, 'jaccard': -1, 'filled': 0}","{'items': ['36', '60', '40', '29'], 'found': '29', 'support': 3022, 'level': 3, 'jaccard': -1, 'filled': {'36': 12.496, '60': 12.687, '40': 12.771, '29': 12.801}}",,,,,
132,"{'items': ['7', '40', '29', '58'], 'found': '58', 'support': 3042, 'level': 3, 'jaccard': -1, 'filled': 0}","{'items': ['7', '60', '29', '52'], 'found': '52', 'support': 3024, 'level': 3, 'jaccard': -1, 'filled': {'7': 12.433, '60': 12.687, '29': 12.801, '52': 12.816}}",,,,,
133,"{'items': ['36', '40', '29', '52'], 'found': '52', 'support': 3047, 'level': 3, 'jaccard': -1, 'filled': 0}","{'items': ['36', '60', '40', '52'], 'found': '52', 'support': 3024, 'level': 3, 'jaccard': -1, 'filled': {'36': 12.496, '60': 12.687, '40': 12.771, '52': 12.816}}",,,,,
134,"{'items': ['7', '29', '52', '58'], 'found': '58', 'support': 3057, 'level': 3, 'jaccard': -1, 'filled': 0}","{'items': ['62', '40', '29', '52'], 'found': '52', 'support': 3026, 'level': 3, 'jaccard': -1, 'filled': {'62': 12.358, '40': 12.771, '29': 12.801, '52': 12.816}}",,,,,
135,"{'items': ['36', '40', '29', '58'], 'found': '58', 'support': 3057, 'level': 3, 'jaccard': -1, 'filled': 0}","{'items': ['34', '29', '52', '58'], 'found': '58', 'support': 3030, 'level': 3, 'jaccard': -1, 'filled': {'34': 12.27, '29': 12.801, '52': 12.816, '58': 12.857}}",,,,,
136,"{'items': ['36', '40', '52', '58'], 'found': '58', 'support': 3061, 'level': 3, 'jaccard': -1, 'filled': 0}","{'items': ['7', '60', '52', '58'], 'found': '58', 'support': 3031, 'level': 3, 'jaccard': -1, 'filled': {'7': 12.433, '60': 12.687, '52': 12.816, '58': 12.857}}",,,,,
137,"{'items': ['36', '29', '52', '58'], 'found': '58', 'support': 3072, 'level': 3, 'jaccard': -1, 'filled': 0}","{'items': ['36', '60', '29', '52'], 'found': '52', 'support': 3033, 'level': 3, 'jaccard': -1, 'filled': {'36': 12.496, '60': 12.687, '29': 12.801, '52': 12.816}}",,,,,
138,"{'items': ['60', '40', '29', '52'], 'found': '52', 'support': 3100, 'level': 3, 'jaccard': -1, 'filled': 0}","{'items': ['7', '60', '29', '58'], 'found': '58', 'support': 3035, 'level': 3, 'jaccard': -1, 'filled': {'7': 12.433, '60': 12.687, '29': 12.801, '58': 12.857}}",,,,,
139,"{'items': ['60', '40', '29', '58'], 'found': '58', 'support': 3110, 'level': 3, 'jaccard': -1, 'filled': 0}","{'items': ['36', '60', '40', '58'], 'found': '58', 'support': 3035, 'level': 3, 'jaccard': -1, 'filled': {'36': 12.496, '60': 12.687, '40': 12.771, '58': 12.857}}",,,,,
140,"{'items': ['60', '40', '52', '58'], 'found': '58', 'support': 3112, 'level': 3, 'jaccard': -1, 'filled': 0}","{'items': ['62', '40', '29', '58'], 'found': '58', 'support': 3038, 'level': 3, 'jaccard': -1, 'filled': {'62': 12.358, '40': 12.771, '29': 12.801, '58': 12.857}}",,,,,
141,"{'items': ['60', '29', '52', '58'], 'found': '58', 'support': 3124, 'level': 3, 'jaccard': -1, 'filled': 0}","{'items': ['62', '29', '52', '58'], 'found': '58', 'support': 3041, 'level': 3, 'jaccard': -1, 'filled': {'62': 12.358, '29': 12.801, '52': 12.816, '58': 12.857}}",,,,,
142,"{'items': ['40', '29', '52', '58'], 'found': '58', 'support': 3143, 'level': 3, 'jaccard': -1, 'filled': 0}","{'items': ['62', '40', '52', '58'], 'found': '58', 'support': 3042, 'level': 3, 'jaccard': -1, 'filled': {'62': 12.358, '40': 12.771, '52': 12.816, '58': 12.857}}",,,,,
143,"{'items': ['66', '60', '29', '52', '58'], 'found': '58', 'support': 3001, 'level': 4, 'jaccard': -1, 'filled': 0}","{'items': ['36', '60', '29', '58'], 'found': '58', 'support': 3044, 'level': 3, 'jaccard': -1, 'filled': {'36': 12.496, '60': 12.687, '29': 12.801, '58': 12.857}}",,,,,
144,"{'items': ['34', '40', '29', '52', '58'], 'found': '58', 'support': 3003, 'level': 4, 'jaccard': -1, 'filled': 0}","{'items': ['7', '40', '29', '52'], 'found': '52', 'support': 3045, 'level': 3, 'jaccard': -1, 'filled': {'7': 12.433, '40': 12.771, '29': 12.801, '52': 12.816}}",,,,,
145,"{'items': ['36', '60', '40', '29', '52'], 'found': '52', 'support': 3003, 'level': 4, 'jaccard': -1, 'filled': 0}","{'items': ['36', '60', '52', '58'], 'found': '58', 'support': 3046, 'level': 3, 'jaccard': -1, 'filled': {'36': 12.496, '60': 12.687, '52': 12.816, '58': 12.857}}",,,,,
146,"{'items': ['7', '60', '29', '52', '58'], 'found': '58', 'support': 3012, 'level': 4, 'jaccard': -1, 'filled': 0}","{'items': ['7', '40', '52', '58'], 'found': '58', 'support': 3052, 'level': 3, 'jaccard': -1, 'filled': {'7': 12.433, '40': 12.771, '52': 12.816, '58': 12.857}}",,,,,
147,"{'items': ['36', '60', '40', '29', '58'], 'found': '58', 'support': 3013, 'level': 4, 'jaccard': -1, 'filled': 0}","{'items': ['36', '40', '29', '52'], 'found': '52', 'support': 3053, 'level': 3, 'jaccard': -1, 'filled': {'36': 12.496, '40': 12.771, '29': 12.801, '52': 12.816}}",,,,,
148,"{'items': ['36', '60', '40', '52', '58'], 'found': '58', 'support': 3015, 'level': 4, 'jaccard': -1, 'filled': 0}","{'items': ['7', '40', '29', '58'], 'found': '58', 'support': 3056, 'level': 3, 'jaccard': -1, 'filled': {'7': 12.433, '40': 12.771, '29': 12.801, '58': 12.857}}",,,,,
149,"{'items': ['62', '40', '29', '52', '58'], 'found': '58', 'support': 3019, 'level': 4, 'jaccard': -1, 'filled': 0}","{'items': ['36', '40', '29', '58'], 'found': '58', 'support': 3064, 'level': 3, 'jaccard': -1, 'filled': {'36': 12.496, '40': 12.771, '29': 12.801, '58': 12.857}}",,,,,
150,"{'items': ['36', '60', '29', '52', '58'], 'found': '58', 'support': 3027, 'level': 4, 'jaccard': -1, 'filled': 0}","{'items': ['7', '29', '52', '58'], 'found': '58', 'support': 3068, 'level': 3, 'jaccard': -1, 'filled': {'7': 12.433, '29': 12.801, '52': 12.816, '58': 12.857}}",,,,,
151,"{'items': ['7', '40', '29', '52', '58'], 'found': '58', 'support': 3031, 'level': 4, 'jaccard': -1, 'filled': 0}","{'items': ['36', '40', '52', '58'], 'found': '58', 'support': 3068, 'level': 3, 'jaccard': -1, 'filled': {'36': 12.496, '40': 12.771, '52': 12.816, '58': 12.857}}",,,,,
152,"{'items': ['36', '40', '29', '52', '58'], 'found': '58', 'support': 3046, 'level': 4, 'jaccard': -1, 'filled': 0}","{'items': ['36', '29', '52', '58'], 'found': '58', 'support': 3076, 'level': 3, 'jaccard': -1, 'filled': {'36': 12.496, '29': 12.801, '52': 12.816, '58': 12.857}}",,,,,
153,"{'items': ['60', '40', '29', '52', '58'], 'found': '58', 'support': 3099, 'level': 4, 'jaccard': -1, 'filled': 0}","{'items': ['60', '40', '29', '52'], 'found': '52', 'support': 3107, 'level': 3, 'jaccard': -1, 'filled': {'60': 12.687, '40': 12.771, '29': 12.801, '52': 12.816}}",,,,,
154,"{'items': ['36', '60', '40', '29', '52', '58'], 'found': '58', 'support': 3002, 'level': 5, 'jaccard': -1, 'filled': 0}","{'items': ['60', '40', '29', '58'], 'found': '58', 'support': 3117, 'level': 3, 'jaccard': -1, 'filled': {'60': 12.687, '40': 12.771, '29': 12.801, '58': 12.857}}",,,,,
155,,"{'items': ['60', '40', '52', '58'], 'found': '58', 'support': 3120, 'level': 3, 'jaccard': -1, 'filled': {'60': 12.687, '40': 12.771, '52': 12.816, '58': 12.857}}",,,,,
156,,"{'items': ['60', '29', '52', '58'], 'found': '58', 'support': 3129, 'level': 3, 'jaccard': -1, 'filled': {'60': 12.687, '29': 12.801, '52': 12.816, '58': 12.857}}",,,,,
157,,"{'items': ['40', '29', '52', '58'], 'found': '58', 'support': 3149, 'level': 3, 'jaccard': -1, 'filled': {'40': 12.771, '29': 12.801, '52': 12.816, '58': 12.857}}",,,,,
158,,"{'items': ['7', '60', '40', '29', '52'], 'found': '52', 'support': 3001, 'level': 4, 'jaccard': -1, 'filled': {'7': 12.433, '60': 12.687, '40': 12.771, '29': 12.801, '52': 12.816}}",,,,,
159,,"{'items': ['66', '60', '29', '52', '58'], 'found': '58', 'support': 3004, 'level': 4, 'jaccard': -1, 'filled': {'66': 12.195, '60': 12.687, '29': 12.801, '52': 12.816, '58': 12.857}}",,,,,
160,,"{'items': ['7', '60', '40', '52', '58'], 'found': '58', 'support': 3008, 'level': 4, 'jaccard': -1, 'filled': {'7': 12.433, '60': 12.687, '40': 12.771, '52': 12.816, '58': 12.857}}",,,,,
161,,"{'items': ['34', '40', '29', '52', '58'], 'found': '58', 'support': 3010, 'level': 4, 'jaccard': -1, 'filled': {'34': 12.27, '40': 12.771, '29': 12.801, '52': 12.816, '58': 12.857}}",,,,,
162,,"{'items': ['36', '60', '40', '29', '52'], 'found': '52', 'support': 3010, 'level': 4, 'jaccard': -1, 'filled': {'36': 12.496, '60': 12.687, '40': 12.771, '29': 12.801, '52': 12.816}}",,,,,
163,,"{'items': ['7', '60', '40', '29', '58'], 'found': '58', 'support': 3012, 'level': 4, 'jaccard': -1, 'filled': {'7': 12.433, '60': 12.687, '40': 12.771, '29': 12.801, '58': 12.857}}",,,,,
164,,"{'items': ['36', '60', '40', '29', '58'], 'found': '58', 'support': 3020, 'level': 4, 'jaccard': -1, 'filled': {'36': 12.496, '60': 12.687, '40': 12.771, '29': 12.801, '58': 12.857}}",,,,,
165,,"{'items': ['7', '60', '29', '52', '58'], 'found': '58', 'support': 3023, 'level': 4, 'jaccard': -1, 'filled': {'7': 12.433, '60': 12.687, '29': 12.801, '52': 12.816, '58': 12.857}}",,,,,
166,,"{'items': ['36', '60', '40', '52', '58'], 'found': '58', 'support': 3023, 'level': 4, 'jaccard': -1, 'filled': {'36': 12.496, '60': 12.687, '40': 12.771, '52': 12.816, '58': 12.857}}",,,,,
167,,"{'items': ['62', '40', '29', '52', '58'], 'found': '58', 'support': 3026, 'level': 4, 'jaccard': -1, 'filled': {'62': 12.358, '40': 12.771, '29': 12.801, '52': 12.816, '58': 12.857}}",,,,,
168,,"{'items': ['36', '60', '29', '52', '58'], 'found': '58', 'support': 3032, 'level': 4, 'jaccard': -1, 'filled': {'36': 12.496, '60': 12.687, '29': 12.801, '52': 12.816, '58': 12.857}}",,,,,
169,,"{'items': ['7', '40', '29', '52', '58'], 'found': '58', 'support': 3044, 'level': 4, 'jaccard': -1, 'filled': {'7': 12.433, '40': 12.771, '29': 12.801, '52': 12.816, '58': 12.857}}",,,,,
170,,"{'items': ['36', '40', '29', '52', '58'], 'found': '58', 'support': 3052, 'level': 4, 'jaccard': -1, 'filled': {'36': 12.496, '40': 12.771, '29': 12.801, '52': 12.816, '58': 12.857}}",,,,,
171,,"{'items': ['60', '40', '29', '52', '58'], 'found': '58', 'support': 3105, 'level': 4, 'jaccard': -1, 'filled': {'60': 12.687, '40': 12.771, '29': 12.801, '52': 12.816, '58': 12.857}}",,,,,
172,,"{'items': ['7', '60', '40', '29', '52', '58'], 'found': '58', 'support': 3000, 'level': 5, 'jaccard': -1, 'filled': {'7': 12.433, '60': 12.687, '40': 12.771, '29': 12.801, '52': 12.816, '58': 12.857}}",,,,,
173,,"{'items': ['36', '60', '40', '29', '52', '58'], 'found': '58', 'support': 3008, 'level': 5, 'jaccard': -1, 'filled': {'36': 12.496, '60': 12.687, '40': 12.771, '29': 12.801, '52': 12.816, '58': 12.857}}",,,,,
