,exact,bloomfilter,extra_on_bloom,missing_on_bloom,hll,extra_on_hll,missing_on_hll
0,"{'items': ['1'], 'found': '1', 'support': 197522, 'level': 0, 'jaccard': -1, 'filled': 0}","{'items': ['1'], 'found': '1', 'support': 197454, 'level': 0, 'jaccard': -1, 'filled': 23.099}","{'item': ['1', '11'], 'real_support': 91882, 'approximated_support': 122396, 'level': 1, 'filled': {'1': 23.099, '11': 38.397}}",,,,
1,"{'items': ['11'], 'found': '11', 'support': 364065, 'level': 0, 'jaccard': -1, 'filled': 0}","{'items': ['11'], 'found': '11', 'support': 364207, 'level': 0, 'jaccard': -1, 'filled': 38.397}","{'item': ['1', '11', '6'], 'real_support': 86092, 'approximated_support': 118097, 'level': 2, 'filled': {'1': 23.099, '11': 38.397, '6': 55.082}}",,,,
2,"{'items': ['3'], 'found': '3', 'support': 450031, 'level': 0, 'jaccard': -1, 'filled': 0}","{'items': ['3'], 'found': '3', 'support': 450088, 'level': 0, 'jaccard': -1, 'filled': 45.048}","{'item': ['1', '3'], 'real_support': 84660, 'approximated_support': 126132, 'level': 1, 'filled': {'1': 23.099, '3': 45.048}}",,,,
3,"{'items': ['6'], 'found': '6', 'support': 601374, 'level': 0, 'jaccard': -1, 'filled': 0}","{'items': ['6'], 'found': '6', 'support': 601670, 'level': 0, 'jaccard': -1, 'filled': 55.082}","{'item': ['1', '3', '6'], 'real_support': 57802, 'approximated_support': 108640, 'level': 2, 'filled': {'1': 23.099, '3': 45.048, '6': 55.082}}",,,,
4,"{'items': ['1', '6'], 'found': '6', 'support': 132113, 'level': 1, 'jaccard': -1, 'filled': 0}","{'items': ['1', '11'], 'found': '11', 'support': 122396, 'level': 1, 'jaccard': -1, 'filled': {'1': 23.099, '11': 38.397}}",,,,,
5,"{'items': ['11', '3'], 'found': '3', 'support': 161286, 'level': 1, 'jaccard': -1, 'filled': 0}","{'items': ['1', '3'], 'found': '3', 'support': 126132, 'level': 1, 'jaccard': -1, 'filled': {'1': 23.099, '3': 45.048}}",,,,,
6,"{'items': ['3', '6'], 'found': '6', 'support': 265180, 'level': 1, 'jaccard': -1, 'filled': 0}","{'items': ['1', '6'], 'found': '6', 'support': 161825, 'level': 1, 'jaccard': -1, 'filled': {'1': 23.099, '6': 55.082}}",,,,,
7,"{'items': ['11', '6'], 'found': '6', 'support': 324013, 'level': 1, 'jaccard': -1, 'filled': 0}","{'items': ['11', '3'], 'found': '3', 'support': 219967, 'level': 1, 'jaccard': -1, 'filled': {'11': 38.397, '3': 45.048}}",,,,,
8,"{'items': ['11', '3', '6'], 'found': '6', 'support': 143682, 'level': 2, 'jaccard': -1, 'filled': 0}","{'items': ['3', '6'], 'found': '6', 'support': 326492, 'level': 1, 'jaccard': -1, 'filled': {'3': 45.048, '6': 55.082}}",,,,,
9,,"{'items': ['11', '6'], 'found': '6', 'support': 336286, 'level': 1, 'jaccard': -1, 'filled': {'11': 38.397, '6': 55.082}}",,,,,
10,,"{'items': ['1', '3', '6'], 'found': '6', 'support': 108640, 'level': 2, 'jaccard': -1, 'filled': {'1': 23.099, '3': 45.048, '6': 55.082}}",,,,,
11,,"{'items': ['1', '11', '6'], 'found': '6', 'support': 118097, 'level': 2, 'jaccard': -1, 'filled': {'1': 23.099, '11': 38.397, '6': 55.082}}",,,,,
12,,"{'items': ['11', '3', '6'], 'found': '6', 'support': 207059, 'level': 2, 'jaccard': -1, 'filled': {'11': 38.397, '3': 45.048, '6': 55.082}}",,,,,
