,items,real_support,approx_support,error,level,fill
0,"['28', '39']",3288,3341,53,1,"{'28': 24.645, '39': 35.93}"
1,"['1', '24']",3292,3345,53,1,"{'1': 26.724, '24': 31.472}"
2,"['53', '63']",3216,3366,150,1,"{'53': 30.634, '63': 32.53}"
3,"['76', '59']",3280,3453,173,1,"{'76': 29.649, '59': 33.739}"
4,"['53', '59']",3216,3397,181,1,"{'53': 30.634, '59': 33.739}"
5,"['67', '36']",3160,3448,288,1,"{'67': 30.024, '36': 41.373}"
6,"['76', '36']",3128,3420,292,1,"{'76': 29.649, '36': 41.373}"
7,"['28', '39', '85']",3288,3341,53,2,"{'28': 24.645, '39': 35.93, '85': 47.366}"
8,"['1', '24', '85']",3292,3345,53,2,"{'1': 26.724, '24': 31.472, '85': 47.366}"
9,"['1', '24', '86']",3284,3340,56,2,"{'1': 26.724, '24': 31.472, '86': 46.588}"
10,"['1', '24', '34']",3274,3337,63,2,"{'1': 26.724, '24': 31.472, '34': 46.572}"
11,"['1', '24', '90']",3256,3327,71,2,"{'1': 26.724, '24': 31.472, '90': 44.673}"
12,"['28', '2', '34']",3216,3306,90,2,"{'28': 24.645, '2': 28.532, '34': 46.572}"
13,"['28', '2', '86']",3216,3306,90,2,"{'28': 24.645, '2': 28.532, '86': 46.588}"
14,"['52', '34', '86']",3298,3396,98,2,"{'52': 24.569, '34': 46.572, '86': 46.588}"
15,"['93', '63', '90']",3224,3329,105,2,"{'93': 27.087, '63': 32.53, '90': 44.673}"
16,"['93', '63', '34']",3280,3396,116,2,"{'93': 27.087, '63': 32.53, '34': 46.572}"
17,"['93', '63', '86']",3280,3396,116,2,"{'93': 27.087, '63': 32.53, '86': 46.588}"
18,"['2', '59', '90']",3272,3412,140,2,"{'2': 28.532, '59': 33.739, '90': 44.673}"
19,"['2', '63', '34']",3208,3356,148,2,"{'2': 28.532, '63': 32.53, '34': 46.572}"
20,"['2', '63', '86']",3208,3356,148,2,"{'2': 28.532, '63': 32.53, '86': 46.588}"
21,"['93', '36', '34']",3288,3437,149,2,"{'93': 27.087, '36': 41.373, '34': 46.572}"
22,"['93', '36', '86']",3288,3437,149,2,"{'93': 27.087, '36': 41.373, '86': 46.588}"
23,"['53', '63', '90']",3216,3366,150,2,"{'53': 30.634, '63': 32.53, '90': 44.673}"
24,"['53', '63', '34']",3216,3366,150,2,"{'53': 30.634, '63': 32.53, '34': 46.572}"
25,"['53', '63', '86']",3216,3366,150,2,"{'53': 30.634, '63': 32.53, '86': 46.588}"
26,"['53', '63', '85']",3216,3366,150,2,"{'53': 30.634, '63': 32.53, '85': 47.366}"
27,"['76', '59', '34']",3280,3453,173,2,"{'76': 29.649, '59': 33.739, '34': 46.572}"
28,"['76', '59', '86']",3280,3453,173,2,"{'76': 29.649, '59': 33.739, '86': 46.588}"
29,"['76', '59', '85']",3280,3453,173,2,"{'76': 29.649, '59': 33.739, '85': 47.366}"
30,"['53', '59', '90']",3216,3397,181,2,"{'53': 30.634, '59': 33.739, '90': 44.673}"
31,"['53', '59', '34']",3216,3397,181,2,"{'53': 30.634, '59': 33.739, '34': 46.572}"
32,"['53', '59', '86']",3216,3397,181,2,"{'53': 30.634, '59': 33.739, '86': 46.588}"
33,"['53', '59', '85']",3216,3397,181,2,"{'53': 30.634, '59': 33.739, '85': 47.366}"
34,"['63', '39', '34']",3208,3495,287,2,"{'63': 32.53, '39': 35.93, '34': 46.572}"
35,"['63', '39', '86']",3208,3495,287,2,"{'63': 32.53, '39': 35.93, '86': 46.588}"
36,"['67', '36', '34']",3160,3448,288,2,"{'67': 30.024, '36': 41.373, '34': 46.572}"
37,"['67', '36', '86']",3160,3448,288,2,"{'67': 30.024, '36': 41.373, '86': 46.588}"
38,"['67', '36', '85']",3160,3448,288,2,"{'67': 30.024, '36': 41.373, '85': 47.366}"
39,"['76', '36', '34']",3128,3420,292,2,"{'76': 29.649, '36': 41.373, '34': 46.572}"
40,"['76', '36', '86']",3128,3420,292,2,"{'76': 29.649, '36': 41.373, '86': 46.588}"
41,"['76', '36', '85']",3128,3420,292,2,"{'76': 29.649, '36': 41.373, '85': 47.366}"
42,"['59', '39', '36']",3064,3390,326,2,"{'59': 33.739, '39': 35.93, '36': 41.373}"
43,"['59', '39', '90']",3152,3480,328,2,"{'59': 33.739, '39': 35.93, '90': 44.673}"
44,"['63', '39', '90']",2960,3300,340,2,"{'63': 32.53, '39': 35.93, '90': 44.673}"
45,"['1', '24', '86', '85']",3284,3340,56,3,"{'1': 26.724, '24': 31.472, '86': 46.588, '85': 47.366}"
46,"['1', '24', '34', '85']",3274,3337,63,3,"{'1': 26.724, '24': 31.472, '34': 46.572, '85': 47.366}"
47,"['1', '24', '34', '86']",3266,3332,66,3,"{'1': 26.724, '24': 31.472, '34': 46.572, '86': 46.588}"
48,"['1', '24', '90', '34']",3256,3327,71,3,"{'1': 26.724, '24': 31.472, '90': 44.673, '34': 46.572}"
49,"['1', '24', '90', '85']",3256,3327,71,3,"{'1': 26.724, '24': 31.472, '90': 44.673, '85': 47.366}"
50,"['1', '24', '90', '86']",3248,3321,73,3,"{'1': 26.724, '24': 31.472, '90': 44.673, '86': 46.588}"
51,"['28', '2', '34', '86']",3216,3306,90,3,"{'28': 24.645, '2': 28.532, '34': 46.572, '86': 46.588}"
52,"['28', '2', '34', '85']",3216,3306,90,3,"{'28': 24.645, '2': 28.532, '34': 46.572, '85': 47.366}"
53,"['28', '2', '86', '85']",3216,3306,90,3,"{'28': 24.645, '2': 28.532, '86': 46.588, '85': 47.366}"
54,"['52', '34', '86', '85']",3298,3396,98,3,"{'52': 24.569, '34': 46.572, '86': 46.588, '85': 47.366}"
55,"['93', '63', '90', '85']",3224,3329,105,3,"{'93': 27.087, '63': 32.53, '90': 44.673, '85': 47.366}"
56,"['93', '59', '36', '90']",3216,3324,108,3,"{'93': 27.087, '59': 33.739, '36': 41.373, '90': 44.673}"
57,"['93', '63', '34', '86']",3280,3396,116,3,"{'93': 27.087, '63': 32.53, '34': 46.572, '86': 46.588}"
58,"['93', '63', '34', '85']",3280,3396,116,3,"{'93': 27.087, '63': 32.53, '34': 46.572, '85': 47.366}"
59,"['93', '63', '86', '85']",3280,3396,116,3,"{'93': 27.087, '63': 32.53, '86': 46.588, '85': 47.366}"
60,"['2', '59', '90', '85']",3272,3412,140,3,"{'2': 28.532, '59': 33.739, '90': 44.673, '85': 47.366}"
61,"['2', '63', '34', '86']",3208,3356,148,3,"{'2': 28.532, '63': 32.53, '34': 46.572, '86': 46.588}"
62,"['2', '63', '34', '85']",3208,3356,148,3,"{'2': 28.532, '63': 32.53, '34': 46.572, '85': 47.366}"
63,"['2', '63', '86', '85']",3208,3356,148,3,"{'2': 28.532, '63': 32.53, '86': 46.588, '85': 47.366}"
64,"['93', '36', '34', '86']",3288,3437,149,3,"{'93': 27.087, '36': 41.373, '34': 46.572, '86': 46.588}"
65,"['93', '36', '34', '85']",3288,3437,149,3,"{'93': 27.087, '36': 41.373, '34': 46.572, '85': 47.366}"
66,"['93', '36', '86', '85']",3288,3437,149,3,"{'93': 27.087, '36': 41.373, '86': 46.588, '85': 47.366}"
67,"['2', '59', '39', '34']",3184,3334,150,3,"{'2': 28.532, '59': 33.739, '39': 35.93, '34': 46.572}"
68,"['2', '59', '39', '86']",3184,3334,150,3,"{'2': 28.532, '59': 33.739, '39': 35.93, '86': 46.588}"
69,"['53', '63', '90', '34']",3216,3366,150,3,"{'53': 30.634, '63': 32.53, '90': 44.673, '34': 46.572}"
70,"['53', '63', '90', '86']",3216,3366,150,3,"{'53': 30.634, '63': 32.53, '90': 44.673, '86': 46.588}"
71,"['53', '63', '90', '85']",3216,3366,150,3,"{'53': 30.634, '63': 32.53, '90': 44.673, '85': 47.366}"
72,"['53', '63', '34', '86']",3216,3366,150,3,"{'53': 30.634, '63': 32.53, '34': 46.572, '86': 46.588}"
73,"['53', '63', '34', '85']",3216,3366,150,3,"{'53': 30.634, '63': 32.53, '34': 46.572, '85': 47.366}"
74,"['53', '63', '86', '85']",3216,3366,150,3,"{'53': 30.634, '63': 32.53, '86': 46.588, '85': 47.366}"
75,"['93', '59', '90', '34']",3224,3378,154,3,"{'93': 27.087, '59': 33.739, '90': 44.673, '34': 46.572}"
76,"['93', '59', '90', '86']",3224,3378,154,3,"{'93': 27.087, '59': 33.739, '90': 44.673, '86': 46.588}"
77,"['76', '59', '34', '86']",3280,3453,173,3,"{'76': 29.649, '59': 33.739, '34': 46.572, '86': 46.588}"
78,"['76', '59', '34', '85']",3280,3453,173,3,"{'76': 29.649, '59': 33.739, '34': 46.572, '85': 47.366}"
79,"['76', '59', '86', '85']",3280,3453,173,3,"{'76': 29.649, '59': 33.739, '86': 46.588, '85': 47.366}"
80,"['93', '36', '90', '34']",3168,3343,175,3,"{'93': 27.087, '36': 41.373, '90': 44.673, '34': 46.572}"
81,"['93', '36', '90', '86']",3168,3343,175,3,"{'93': 27.087, '36': 41.373, '90': 44.673, '86': 46.588}"
82,"['53', '59', '90', '34']",3216,3397,181,3,"{'53': 30.634, '59': 33.739, '90': 44.673, '34': 46.572}"
83,"['53', '59', '90', '86']",3216,3397,181,3,"{'53': 30.634, '59': 33.739, '90': 44.673, '86': 46.588}"
84,"['53', '59', '90', '85']",3216,3397,181,3,"{'53': 30.634, '59': 33.739, '90': 44.673, '85': 47.366}"
85,"['53', '59', '34', '86']",3216,3397,181,3,"{'53': 30.634, '59': 33.739, '34': 46.572, '86': 46.588}"
86,"['53', '59', '34', '85']",3216,3397,181,3,"{'53': 30.634, '59': 33.739, '34': 46.572, '85': 47.366}"
87,"['53', '59', '86', '85']",3216,3397,181,3,"{'53': 30.634, '59': 33.739, '86': 46.588, '85': 47.366}"
88,"['2', '39', '90', '34']",3200,3440,240,3,"{'2': 28.532, '39': 35.93, '90': 44.673, '34': 46.572}"
89,"['2', '39', '90', '86']",3200,3440,240,3,"{'2': 28.532, '39': 35.93, '90': 44.673, '86': 46.588}"
90,"['63', '39', '34', '86']",3208,3495,287,3,"{'63': 32.53, '39': 35.93, '34': 46.572, '86': 46.588}"
91,"['63', '39', '34', '85']",3208,3495,287,3,"{'63': 32.53, '39': 35.93, '34': 46.572, '85': 47.366}"
92,"['63', '39', '86', '85']",3208,3495,287,3,"{'63': 32.53, '39': 35.93, '86': 46.588, '85': 47.366}"
93,"['67', '36', '34', '86']",3160,3448,288,3,"{'67': 30.024, '36': 41.373, '34': 46.572, '86': 46.588}"
94,"['67', '36', '34', '85']",3160,3448,288,3,"{'67': 30.024, '36': 41.373, '34': 46.572, '85': 47.366}"
95,"['67', '36', '86', '85']",3160,3448,288,3,"{'67': 30.024, '36': 41.373, '86': 46.588, '85': 47.366}"
96,"['76', '36', '34', '86']",3128,3420,292,3,"{'76': 29.649, '36': 41.373, '34': 46.572, '86': 46.588}"
97,"['76', '36', '34', '85']",3128,3420,292,3,"{'76': 29.649, '36': 41.373, '34': 46.572, '85': 47.366}"
98,"['76', '36', '86', '85']",3128,3420,292,3,"{'76': 29.649, '36': 41.373, '86': 46.588, '85': 47.366}"
99,"['24', '36', '90', '34']",3296,3602,306,3,"{'24': 31.472, '36': 41.373, '90': 44.673, '34': 46.572}"
100,"['24', '36', '90', '86']",3296,3602,306,3,"{'24': 31.472, '36': 41.373, '90': 44.673, '86': 46.588}"
101,"['59', '39', '36', '85']",3064,3390,326,3,"{'59': 33.739, '39': 35.93, '36': 41.373, '85': 47.366}"
102,"['59', '39', '90', '85']",3152,3480,328,3,"{'59': 33.739, '39': 35.93, '90': 44.673, '85': 47.366}"
103,"['63', '39', '90', '85']",2960,3300,340,3,"{'63': 32.53, '39': 35.93, '90': 44.673, '85': 47.366}"
104,"['59', '39', '90', '34']",2960,3357,397,3,"{'59': 33.739, '39': 35.93, '90': 44.673, '34': 46.572}"
105,"['59', '39', '90', '86']",2960,3357,397,3,"{'59': 33.739, '39': 35.93, '90': 44.673, '86': 46.588}"
106,"['1', '24', '34', '86', '85']",3266,3332,66,4,"{'1': 26.724, '24': 31.472, '34': 46.572, '86': 46.588, '85': 47.366}"
107,"['1', '24', '90', '34', '85']",3256,3327,71,4,"{'1': 26.724, '24': 31.472, '90': 44.673, '34': 46.572, '85': 47.366}"
108,"['1', '24', '90', '34', '86']",3248,3321,73,4,"{'1': 26.724, '24': 31.472, '90': 44.673, '34': 46.572, '86': 46.588}"
109,"['1', '24', '90', '86', '85']",3248,3321,73,4,"{'1': 26.724, '24': 31.472, '90': 44.673, '86': 46.588, '85': 47.366}"
110,"['28', '2', '34', '86', '85']",3216,3306,90,4,"{'28': 24.645, '2': 28.532, '34': 46.572, '86': 46.588, '85': 47.366}"
111,"['93', '59', '36', '90', '85']",3216,3324,108,4,"{'93': 27.087, '59': 33.739, '36': 41.373, '90': 44.673, '85': 47.366}"
112,"['93', '63', '34', '86', '85']",3280,3396,116,4,"{'93': 27.087, '63': 32.53, '34': 46.572, '86': 46.588, '85': 47.366}"
113,"['2', '63', '34', '86', '85']",3208,3356,148,4,"{'2': 28.532, '63': 32.53, '34': 46.572, '86': 46.588, '85': 47.366}"
114,"['93', '36', '34', '86', '85']",3288,3437,149,4,"{'93': 27.087, '36': 41.373, '34': 46.572, '86': 46.588, '85': 47.366}"
115,"['2', '59', '39', '34', '86']",3184,3334,150,4,"{'2': 28.532, '59': 33.739, '39': 35.93, '34': 46.572, '86': 46.588}"
116,"['2', '59', '39', '34', '85']",3184,3334,150,4,"{'2': 28.532, '59': 33.739, '39': 35.93, '34': 46.572, '85': 47.366}"
117,"['2', '59', '39', '86', '85']",3184,3334,150,4,"{'2': 28.532, '59': 33.739, '39': 35.93, '86': 46.588, '85': 47.366}"
118,"['53', '63', '90', '34', '86']",3216,3366,150,4,"{'53': 30.634, '63': 32.53, '90': 44.673, '34': 46.572, '86': 46.588}"
119,"['53', '63', '90', '34', '85']",3216,3366,150,4,"{'53': 30.634, '63': 32.53, '90': 44.673, '34': 46.572, '85': 47.366}"
120,"['53', '63', '90', '86', '85']",3216,3366,150,4,"{'53': 30.634, '63': 32.53, '90': 44.673, '86': 46.588, '85': 47.366}"
121,"['53', '63', '34', '86', '85']",3216,3366,150,4,"{'53': 30.634, '63': 32.53, '34': 46.572, '86': 46.588, '85': 47.366}"
122,"['93', '59', '90', '34', '86']",3224,3378,154,4,"{'93': 27.087, '59': 33.739, '90': 44.673, '34': 46.572, '86': 46.588}"
123,"['93', '59', '90', '34', '85']",3224,3378,154,4,"{'93': 27.087, '59': 33.739, '90': 44.673, '34': 46.572, '85': 47.366}"
124,"['93', '59', '90', '86', '85']",3224,3378,154,4,"{'93': 27.087, '59': 33.739, '90': 44.673, '86': 46.588, '85': 47.366}"
125,"['76', '59', '34', '86', '85']",3280,3453,173,4,"{'76': 29.649, '59': 33.739, '34': 46.572, '86': 46.588, '85': 47.366}"
126,"['93', '36', '90', '34', '86']",3168,3343,175,4,"{'93': 27.087, '36': 41.373, '90': 44.673, '34': 46.572, '86': 46.588}"
127,"['93', '36', '90', '34', '85']",3168,3343,175,4,"{'93': 27.087, '36': 41.373, '90': 44.673, '34': 46.572, '85': 47.366}"
128,"['93', '36', '90', '86', '85']",3168,3343,175,4,"{'93': 27.087, '36': 41.373, '90': 44.673, '86': 46.588, '85': 47.366}"
129,"['53', '59', '90', '34', '86']",3216,3397,181,4,"{'53': 30.634, '59': 33.739, '90': 44.673, '34': 46.572, '86': 46.588}"
130,"['53', '59', '90', '34', '85']",3216,3397,181,4,"{'53': 30.634, '59': 33.739, '90': 44.673, '34': 46.572, '85': 47.366}"
131,"['53', '59', '90', '86', '85']",3216,3397,181,4,"{'53': 30.634, '59': 33.739, '90': 44.673, '86': 46.588, '85': 47.366}"
132,"['53', '59', '34', '86', '85']",3216,3397,181,4,"{'53': 30.634, '59': 33.739, '34': 46.572, '86': 46.588, '85': 47.366}"
133,"['2', '39', '90', '34', '86']",3200,3440,240,4,"{'2': 28.532, '39': 35.93, '90': 44.673, '34': 46.572, '86': 46.588}"
134,"['2', '39', '90', '34', '85']",3200,3440,240,4,"{'2': 28.532, '39': 35.93, '90': 44.673, '34': 46.572, '85': 47.366}"
135,"['2', '39', '90', '86', '85']",3200,3440,240,4,"{'2': 28.532, '39': 35.93, '90': 44.673, '86': 46.588, '85': 47.366}"
136,"['63', '59', '36', '90', '34']",3192,3472,280,4,"{'63': 32.53, '59': 33.739, '36': 41.373, '90': 44.673, '34': 46.572}"
137,"['63', '59', '36', '90', '86']",3192,3472,280,4,"{'63': 32.53, '59': 33.739, '36': 41.373, '90': 44.673, '86': 46.588}"
138,"['63', '39', '34', '86', '85']",3208,3495,287,4,"{'63': 32.53, '39': 35.93, '34': 46.572, '86': 46.588, '85': 47.366}"
139,"['67', '36', '34', '86', '85']",3160,3448,288,4,"{'67': 30.024, '36': 41.373, '34': 46.572, '86': 46.588, '85': 47.366}"
140,"['76', '36', '34', '86', '85']",3128,3420,292,4,"{'76': 29.649, '36': 41.373, '34': 46.572, '86': 46.588, '85': 47.366}"
141,"['24', '36', '90', '34', '86']",3296,3602,306,4,"{'24': 31.472, '36': 41.373, '90': 44.673, '34': 46.572, '86': 46.588}"
142,"['24', '36', '90', '34', '85']",3296,3602,306,4,"{'24': 31.472, '36': 41.373, '90': 44.673, '34': 46.572, '85': 47.366}"
143,"['24', '36', '90', '86', '85']",3296,3602,306,4,"{'24': 31.472, '36': 41.373, '90': 44.673, '86': 46.588, '85': 47.366}"
144,"['59', '39', '90', '34', '86']",2960,3357,397,4,"{'59': 33.739, '39': 35.93, '90': 44.673, '34': 46.572, '86': 46.588}"
145,"['59', '39', '90', '34', '85']",2960,3357,397,4,"{'59': 33.739, '39': 35.93, '90': 44.673, '34': 46.572, '85': 47.366}"
146,"['59', '39', '90', '86', '85']",2960,3357,397,4,"{'59': 33.739, '39': 35.93, '90': 44.673, '86': 46.588, '85': 47.366}"
147,"['1', '24', '90', '34', '86', '85']",3248,3321,73,5,"{'1': 26.724, '24': 31.472, '90': 44.673, '34': 46.572, '86': 46.588, '85': 47.366}"
148,"['2', '59', '39', '34', '86', '85']",3184,3334,150,5,"{'2': 28.532, '59': 33.739, '39': 35.93, '34': 46.572, '86': 46.588, '85': 47.366}"
149,"['53', '63', '90', '34', '86', '85']",3216,3366,150,5,"{'53': 30.634, '63': 32.53, '90': 44.673, '34': 46.572, '86': 46.588, '85': 47.366}"
150,"['93', '59', '90', '34', '86', '85']",3224,3378,154,5,"{'93': 27.087, '59': 33.739, '90': 44.673, '34': 46.572, '86': 46.588, '85': 47.366}"
151,"['93', '36', '90', '34', '86', '85']",3168,3343,175,5,"{'93': 27.087, '36': 41.373, '90': 44.673, '34': 46.572, '86': 46.588, '85': 47.366}"
152,"['53', '59', '90', '34', '86', '85']",3216,3397,181,5,"{'53': 30.634, '59': 33.739, '90': 44.673, '34': 46.572, '86': 46.588, '85': 47.366}"
153,"['2', '39', '90', '34', '86', '85']",3200,3440,240,5,"{'2': 28.532, '39': 35.93, '90': 44.673, '34': 46.572, '86': 46.588, '85': 47.366}"
154,"['63', '59', '36', '90', '34', '86']",3192,3472,280,5,"{'63': 32.53, '59': 33.739, '36': 41.373, '90': 44.673, '34': 46.572, '86': 46.588}"
155,"['63', '59', '36', '90', '34', '85']",3192,3472,280,5,"{'63': 32.53, '59': 33.739, '36': 41.373, '90': 44.673, '34': 46.572, '85': 47.366}"
156,"['63', '59', '36', '90', '86', '85']",3192,3472,280,5,"{'63': 32.53, '59': 33.739, '36': 41.373, '90': 44.673, '86': 46.588, '85': 47.366}"
157,"['24', '36', '90', '34', '86', '85']",3296,3602,306,5,"{'24': 31.472, '36': 41.373, '90': 44.673, '34': 46.572, '86': 46.588, '85': 47.366}"
158,"['59', '39', '90', '34', '86', '85']",2960,3357,397,5,"{'59': 33.739, '39': 35.93, '90': 44.673, '34': 46.572, '86': 46.588, '85': 47.366}"
159,"['63', '59', '36', '90', '34', '86', '85']",3192,3472,280,6,"{'63': 32.53, '59': 33.739, '36': 41.373, '90': 44.673, '34': 46.572, '86': 46.588, '85': 47.366}"
