,items,real_support,approx_support,error,level,fill
0,"['3', '48']",2672,2685,13,1,"{'3': 30.679, '48': 32.194}"
1,"['25', '56', '40']",2672,2680,8,2,"{'25': 30.834, '56': 32.259, '40': 33.522}"
2,"['9', '48', '60']",2672,2680,8,2,"{'9': 30.937, '48': 32.194, '60': 33.374}"
3,"['3', '66', '40']",2679,2688,9,2,"{'3': 30.679, '66': 32.246, '40': 33.522}"
4,"['9', '5', '29']",2679,2688,9,2,"{'9': 30.937, '5': 31.885, '29': 33.638}"
5,"['25', '7', '36']",2677,2687,10,2,"{'25': 30.834, '7': 32.717, '36': 32.929}"
6,"['25', '56', '60']",2669,2680,11,2,"{'25': 30.834, '56': 32.259, '60': 33.374}"
7,"['3', '7', '36']",2672,2684,12,2,"{'3': 30.679, '7': 32.717, '36': 32.929}"
8,"['25', '62', '36']",2672,2684,12,2,"{'25': 30.834, '62': 32.601, '36': 32.929}"
9,"['9', '5', '52']",2675,2687,12,2,"{'9': 30.937, '5': 31.885, '52': 33.69}"
10,"['3', '48', '29']",2672,2685,13,2,"{'3': 30.679, '48': 32.194, '29': 33.638}"
11,"['3', '48', '58']",2672,2685,13,2,"{'3': 30.679, '48': 32.194, '58': 33.742}"
12,"['3', '34', '60']",2672,2685,13,2,"{'3': 30.679, '34': 32.433, '60': 33.374}"
13,"['3', '56', '40']",2679,2694,15,2,"{'3': 30.679, '56': 32.259, '40': 33.522}"
14,"['5', '48', '62']",2676,2694,18,2,"{'5': 31.885, '48': 32.194, '62': 32.601}"
15,"['3', '56', '60']",2670,2689,19,2,"{'3': 30.679, '56': 32.259, '60': 33.374}"
16,"['5', '48', '7']",2676,2695,19,2,"{'5': 31.885, '48': 32.194, '7': 32.717}"
17,"['5', '66', '56']",2664,2684,20,2,"{'5': 31.885, '66': 32.246, '56': 32.259}"
18,"['3', '66', '60', '40']",2679,2688,9,3,"{'3': 30.679, '66': 32.246, '60': 33.374, '40': 33.522}"
19,"['3', '66', '40', '29']",2679,2688,9,3,"{'3': 30.679, '66': 32.246, '40': 33.522, '29': 33.638}"
20,"['3', '66', '40', '58']",2679,2688,9,3,"{'3': 30.679, '66': 32.246, '40': 33.522, '58': 33.742}"
21,"['25', '7', '36', '58']",2676,2685,9,3,"{'25': 30.834, '7': 32.717, '36': 32.929, '58': 33.742}"
22,"['9', '5', '29', '58']",2678,2687,9,3,"{'9': 30.937, '5': 31.885, '29': 33.638, '58': 33.742}"
23,"['25', '7', '36', '29']",2671,2681,10,3,"{'25': 30.834, '7': 32.717, '36': 32.929, '29': 33.638}"
24,"['48', '66', '56', '36']",2672,2682,10,3,"{'48': 32.194, '66': 32.246, '56': 32.259, '36': 32.929}"
25,"['3', '34', '40', '52']",2676,2687,11,3,"{'3': 30.679, '34': 32.433, '40': 33.522, '52': 33.69}"
26,"['9', '5', '52', '58']",2674,2685,11,3,"{'9': 30.937, '5': 31.885, '52': 33.69, '58': 33.742}"
27,"['9', '48', '29', '52']",2675,2686,11,3,"{'9': 30.937, '48': 32.194, '29': 33.638, '52': 33.69}"
28,"['48', '66', '56', '40']",2675,2686,11,3,"{'48': 32.194, '66': 32.246, '56': 32.259, '40': 33.522}"
29,"['3', '66', '40', '52']",2670,2682,12,3,"{'3': 30.679, '66': 32.246, '40': 33.522, '52': 33.69}"
30,"['3', '7', '36', '29']",2672,2684,12,3,"{'3': 30.679, '7': 32.717, '36': 32.929, '29': 33.638}"
31,"['3', '7', '36', '58']",2672,2684,12,3,"{'3': 30.679, '7': 32.717, '36': 32.929, '58': 33.742}"
32,"['25', '62', '36', '58']",2672,2684,12,3,"{'25': 30.834, '62': 32.601, '36': 32.929, '58': 33.742}"
33,"['9', '5', '29', '52']",2671,2683,12,3,"{'9': 30.937, '5': 31.885, '29': 33.638, '52': 33.69}"
34,"['3', '48', '29', '58']",2672,2685,13,3,"{'3': 30.679, '48': 32.194, '29': 33.638, '58': 33.742}"
35,"['3', '34', '60', '29']",2672,2685,13,3,"{'3': 30.679, '34': 32.433, '60': 33.374, '29': 33.638}"
36,"['3', '34', '60', '58']",2672,2685,13,3,"{'3': 30.679, '34': 32.433, '60': 33.374, '58': 33.742}"
37,"['3', '62', '60', '40']",2676,2689,13,3,"{'3': 30.679, '62': 32.601, '60': 33.374, '40': 33.522}"
38,"['25', '7', '36', '52']",2667,2680,13,3,"{'25': 30.834, '7': 32.717, '36': 32.929, '52': 33.69}"
39,"['25', '34', '60', '52']",2676,2690,14,3,"{'25': 30.834, '34': 32.433, '60': 33.374, '52': 33.69}"
40,"['48', '56', '34', '36']",2675,2689,14,3,"{'48': 32.194, '56': 32.259, '34': 32.433, '36': 32.929}"
41,"['3', '56', '40', '29']",2679,2694,15,3,"{'3': 30.679, '56': 32.259, '40': 33.522, '29': 33.638}"
42,"['3', '56', '40', '52']",2675,2690,15,3,"{'3': 30.679, '56': 32.259, '40': 33.522, '52': 33.69}"
43,"['3', '56', '40', '58']",2679,2694,15,3,"{'3': 30.679, '56': 32.259, '40': 33.522, '58': 33.742}"
44,"['3', '34', '60', '52']",2665,2680,15,3,"{'3': 30.679, '34': 32.433, '60': 33.374, '52': 33.69}"
45,"['48', '56', '34', '40']",2678,2693,15,3,"{'48': 32.194, '56': 32.259, '34': 32.433, '40': 33.522}"
46,"['5', '48', '66', '40']",2664,2680,16,3,"{'5': 31.885, '48': 32.194, '66': 32.246, '40': 33.522}"
47,"['48', '56', '34', '60']",2676,2692,16,3,"{'48': 32.194, '56': 32.259, '34': 32.433, '60': 33.374}"
48,"['66', '34', '62', '36']",2669,2685,16,3,"{'66': 32.246, '34': 32.433, '62': 32.601, '36': 32.929}"
49,"['5', '34', '62', '7']",2672,2689,17,3,"{'5': 31.885, '34': 32.433, '62': 32.601, '7': 32.717}"
50,"['5', '48', '62', '40']",2663,2681,18,3,"{'5': 31.885, '48': 32.194, '62': 32.601, '40': 33.522}"
51,"['5', '48', '62', '29']",2669,2687,18,3,"{'5': 31.885, '48': 32.194, '62': 32.601, '29': 33.638}"
52,"['5', '48', '62', '58']",2676,2694,18,3,"{'5': 31.885, '48': 32.194, '62': 32.601, '58': 33.742}"
53,"['3', '56', '60', '29']",2670,2689,19,3,"{'3': 30.679, '56': 32.259, '60': 33.374, '29': 33.638}"
54,"['3', '56', '60', '58']",2670,2689,19,3,"{'3': 30.679, '56': 32.259, '60': 33.374, '58': 33.742}"
55,"['5', '48', '7', '29']",2673,2692,19,3,"{'5': 31.885, '48': 32.194, '7': 32.717, '29': 33.638}"
56,"['5', '48', '7', '58']",2675,2694,19,3,"{'5': 31.885, '48': 32.194, '7': 32.717, '58': 33.742}"
57,"['3', '56', '60', '52']",2666,2686,20,3,"{'3': 30.679, '56': 32.259, '60': 33.374, '52': 33.69}"
58,"['5', '66', '56', '60']",2664,2684,20,3,"{'5': 31.885, '66': 32.246, '56': 32.259, '60': 33.374}"
59,"['5', '66', '56', '29']",2660,2680,20,3,"{'5': 31.885, '66': 32.246, '56': 32.259, '29': 33.638}"
60,"['5', '66', '56', '58']",2663,2683,20,3,"{'5': 31.885, '66': 32.246, '56': 32.259, '58': 33.742}"
61,"['5', '56', '62', '60']",2676,2696,20,3,"{'5': 31.885, '56': 32.259, '62': 32.601, '60': 33.374}"
62,"['5', '48', '66', '52']",2673,2694,21,3,"{'5': 31.885, '48': 32.194, '66': 32.246, '52': 33.69}"
63,"['5', '66', '56', '52']",2659,2680,21,3,"{'5': 31.885, '66': 32.246, '56': 32.259, '52': 33.69}"
64,"['5', '48', '62', '52']",2665,2687,22,3,"{'5': 31.885, '48': 32.194, '62': 32.601, '52': 33.69}"
65,"['5', '48', '7', '52']",2665,2688,23,3,"{'5': 31.885, '48': 32.194, '7': 32.717, '52': 33.69}"
66,"['5', '56', '36', '60']",2659,2684,25,3,"{'5': 31.885, '56': 32.259, '36': 32.929, '60': 33.374}"
67,"['5', '56', '7', '60']",2664,2690,26,3,"{'5': 31.885, '56': 32.259, '7': 32.717, '60': 33.374}"
68,"['3', '66', '60', '40', '29']",2679,2688,9,4,"{'3': 30.679, '66': 32.246, '60': 33.374, '40': 33.522, '29': 33.638}"
69,"['3', '66', '60', '40', '58']",2679,2688,9,4,"{'3': 30.679, '66': 32.246, '60': 33.374, '40': 33.522, '58': 33.742}"
70,"['3', '66', '40', '29', '58']",2679,2688,9,4,"{'3': 30.679, '66': 32.246, '40': 33.522, '29': 33.638, '58': 33.742}"
71,"['25', '34', '60', '29', '58']",2679,2689,10,4,"{'25': 30.834, '34': 32.433, '60': 33.374, '29': 33.638, '58': 33.742}"
72,"['9', '48', '29', '52', '58']",2674,2684,10,4,"{'9': 30.937, '48': 32.194, '29': 33.638, '52': 33.69, '58': 33.742}"
73,"['48', '66', '56', '36', '60']",2672,2682,10,4,"{'48': 32.194, '66': 32.246, '56': 32.259, '36': 32.929, '60': 33.374}"
74,"['48', '66', '56', '36', '58']",2671,2681,10,4,"{'48': 32.194, '66': 32.246, '56': 32.259, '36': 32.929, '58': 33.742}"
75,"['48', '66', '56', '40', '58']",2674,2684,10,4,"{'48': 32.194, '66': 32.246, '56': 32.259, '40': 33.522, '58': 33.742}"
76,"['3', '34', '40', '29', '52']",2676,2687,11,4,"{'3': 30.679, '34': 32.433, '40': 33.522, '29': 33.638, '52': 33.69}"
77,"['3', '34', '40', '52', '58']",2676,2687,11,4,"{'3': 30.679, '34': 32.433, '40': 33.522, '52': 33.69, '58': 33.742}"
78,"['25', '66', '40', '29', '52']",2673,2684,11,4,"{'25': 30.834, '66': 32.246, '40': 33.522, '29': 33.638, '52': 33.69}"
79,"['25', '34', '40', '29', '52']",2677,2688,11,4,"{'25': 30.834, '34': 32.433, '40': 33.522, '29': 33.638, '52': 33.69}"
80,"['48', '66', '56', '60', '40']",2675,2686,11,4,"{'48': 32.194, '66': 32.246, '56': 32.259, '60': 33.374, '40': 33.522}"
81,"['66', '62', '7', '36', '29']",2676,2687,11,4,"{'66': 32.246, '62': 32.601, '7': 32.717, '36': 32.929, '29': 33.638}"
82,"['3', '66', '60', '40', '52']",2670,2682,12,4,"{'3': 30.679, '66': 32.246, '60': 33.374, '40': 33.522, '52': 33.69}"
83,"['3', '66', '40', '29', '52']",2670,2682,12,4,"{'3': 30.679, '66': 32.246, '40': 33.522, '29': 33.638, '52': 33.69}"
84,"['3', '66', '40', '52', '58']",2670,2682,12,4,"{'3': 30.679, '66': 32.246, '40': 33.522, '52': 33.69, '58': 33.742}"
85,"['3', '7', '36', '29', '58']",2672,2684,12,4,"{'3': 30.679, '7': 32.717, '36': 32.929, '29': 33.638, '58': 33.742}"
86,"['9', '5', '29', '52', '58']",2670,2682,12,4,"{'9': 30.937, '5': 31.885, '29': 33.638, '52': 33.69, '58': 33.742}"
87,"['48', '66', '56', '40', '52']",2670,2682,12,4,"{'48': 32.194, '66': 32.246, '56': 32.259, '40': 33.522, '52': 33.69}"
88,"['3', '34', '60', '29', '58']",2672,2685,13,4,"{'3': 30.679, '34': 32.433, '60': 33.374, '29': 33.638, '58': 33.742}"
89,"['3', '62', '60', '40', '29']",2676,2689,13,4,"{'3': 30.679, '62': 32.601, '60': 33.374, '40': 33.522, '29': 33.638}"
90,"['3', '62', '60', '40', '58']",2676,2689,13,4,"{'3': 30.679, '62': 32.601, '60': 33.374, '40': 33.522, '58': 33.742}"
91,"['48', '56', '34', '36', '29']",2671,2684,13,4,"{'48': 32.194, '56': 32.259, '34': 32.433, '36': 32.929, '29': 33.638}"
92,"['48', '56', '34', '36', '58']",2674,2687,13,4,"{'48': 32.194, '56': 32.259, '34': 32.433, '36': 32.929, '58': 33.742}"
93,"['25', '34', '60', '29', '52']",2672,2686,14,4,"{'25': 30.834, '34': 32.433, '60': 33.374, '29': 33.638, '52': 33.69}"
94,"['25', '34', '60', '52', '58']",2675,2689,14,4,"{'25': 30.834, '34': 32.433, '60': 33.374, '52': 33.69, '58': 33.742}"
95,"['48', '56', '34', '36', '52']",2670,2684,14,4,"{'48': 32.194, '56': 32.259, '34': 32.433, '36': 32.929, '52': 33.69}"
96,"['66', '34', '7', '36', '29']",2678,2692,14,4,"{'66': 32.246, '34': 32.433, '7': 32.717, '36': 32.929, '29': 33.638}"
97,"['66', '34', '7', '36', '58']",2679,2693,14,4,"{'66': 32.246, '34': 32.433, '7': 32.717, '36': 32.929, '58': 33.742}"
98,"['3', '56', '40', '29', '52']",2675,2690,15,4,"{'3': 30.679, '56': 32.259, '40': 33.522, '29': 33.638, '52': 33.69}"
99,"['3', '56', '40', '29', '58']",2679,2694,15,4,"{'3': 30.679, '56': 32.259, '40': 33.522, '29': 33.638, '58': 33.742}"
100,"['3', '56', '40', '52', '58']",2675,2690,15,4,"{'3': 30.679, '56': 32.259, '40': 33.522, '52': 33.69, '58': 33.742}"
101,"['3', '34', '60', '29', '52']",2665,2680,15,4,"{'3': 30.679, '34': 32.433, '60': 33.374, '29': 33.638, '52': 33.69}"
102,"['3', '34', '60', '52', '58']",2665,2680,15,4,"{'3': 30.679, '34': 32.433, '60': 33.374, '52': 33.69, '58': 33.742}"
103,"['3', '62', '60', '40', '52']",2667,2682,15,4,"{'3': 30.679, '62': 32.601, '60': 33.374, '40': 33.522, '52': 33.69}"
104,"['48', '56', '34', '60', '29']",2672,2687,15,4,"{'48': 32.194, '56': 32.259, '34': 32.433, '60': 33.374, '29': 33.638}"
105,"['48', '56', '34', '60', '58']",2675,2690,15,4,"{'48': 32.194, '56': 32.259, '34': 32.433, '60': 33.374, '58': 33.742}"
106,"['48', '56', '34', '40', '29']",2674,2689,15,4,"{'48': 32.194, '56': 32.259, '34': 32.433, '40': 33.522, '29': 33.638}"
107,"['48', '56', '34', '40', '58']",2677,2692,15,4,"{'48': 32.194, '56': 32.259, '34': 32.433, '40': 33.522, '58': 33.742}"
108,"['66', '62', '7', '36', '52']",2669,2684,15,4,"{'66': 32.246, '62': 32.601, '7': 32.717, '36': 32.929, '52': 33.69}"
109,"['3', '36', '60', '40', '52']",2678,2694,16,4,"{'3': 30.679, '36': 32.929, '60': 33.374, '40': 33.522, '52': 33.69}"
110,"['5', '48', '66', '60', '40']",2664,2680,16,4,"{'5': 31.885, '48': 32.194, '66': 32.246, '60': 33.374, '40': 33.522}"
111,"['5', '48', '66', '29', '58']",2679,2695,16,4,"{'5': 31.885, '48': 32.194, '66': 32.246, '29': 33.638, '58': 33.742}"
112,"['5', '34', '62', '7', '29']",2670,2686,16,4,"{'5': 31.885, '34': 32.433, '62': 32.601, '7': 32.717, '29': 33.638}"
113,"['48', '56', '34', '60', '52']",2671,2687,16,4,"{'48': 32.194, '56': 32.259, '34': 32.433, '60': 33.374, '52': 33.69}"
114,"['48', '56', '34', '40', '52']",2673,2689,16,4,"{'48': 32.194, '56': 32.259, '34': 32.433, '40': 33.522, '52': 33.69}"
115,"['66', '34', '62', '36', '60']",2669,2685,16,4,"{'66': 32.246, '34': 32.433, '62': 32.601, '36': 32.929, '60': 33.374}"
116,"['66', '34', '62', '36', '29']",2665,2681,16,4,"{'66': 32.246, '34': 32.433, '62': 32.601, '36': 32.929, '29': 33.638}"
117,"['66', '34', '62', '36', '58']",2669,2685,16,4,"{'66': 32.246, '34': 32.433, '62': 32.601, '36': 32.929, '58': 33.742}"
118,"['56', '34', '7', '36', '40']",2670,2686,16,4,"{'56': 32.259, '34': 32.433, '7': 32.717, '36': 32.929, '40': 33.522}"
119,"['5', '34', '62', '7', '58']",2672,2689,17,4,"{'5': 31.885, '34': 32.433, '62': 32.601, '7': 32.717, '58': 33.742}"
120,"['5', '34', '62', '36', '29']",2677,2694,17,4,"{'5': 31.885, '34': 32.433, '62': 32.601, '36': 32.929, '29': 33.638}"
121,"['5', '48', '34', '36', '29']",2676,2694,18,4,"{'5': 31.885, '48': 32.194, '34': 32.433, '36': 32.929, '29': 33.638}"
122,"['5', '48', '34', '36', '58']",2679,2697,18,4,"{'5': 31.885, '48': 32.194, '34': 32.433, '36': 32.929, '58': 33.742}"
123,"['5', '48', '62', '40', '58']",2663,2681,18,4,"{'5': 31.885, '48': 32.194, '62': 32.601, '40': 33.522, '58': 33.742}"
124,"['5', '48', '62', '29', '58']",2669,2687,18,4,"{'5': 31.885, '48': 32.194, '62': 32.601, '29': 33.638, '58': 33.742}"
125,"['5', '48', '7', '29', '58']",2672,2690,18,4,"{'5': 31.885, '48': 32.194, '7': 32.717, '29': 33.638, '58': 33.742}"
126,"['5', '34', '62', '36', '40']",2670,2688,18,4,"{'5': 31.885, '34': 32.433, '62': 32.601, '36': 32.929, '40': 33.522}"
127,"['66', '34', '7', '36', '52']",2671,2689,18,4,"{'66': 32.246, '34': 32.433, '7': 32.717, '36': 32.929, '52': 33.69}"
128,"['3', '56', '60', '29', '58']",2670,2689,19,4,"{'3': 30.679, '56': 32.259, '60': 33.374, '29': 33.638, '58': 33.742}"
129,"['5', '48', '34', '36', '40']",2661,2680,19,4,"{'5': 31.885, '48': 32.194, '34': 32.433, '36': 32.929, '40': 33.522}"
130,"['3', '56', '60', '29', '52']",2666,2686,20,4,"{'3': 30.679, '56': 32.259, '60': 33.374, '29': 33.638, '52': 33.69}"
131,"['3', '56', '60', '52', '58']",2666,2686,20,4,"{'3': 30.679, '56': 32.259, '60': 33.374, '52': 33.69, '58': 33.742}"
132,"['5', '48', '66', '29', '52']",2669,2689,20,4,"{'5': 31.885, '48': 32.194, '66': 32.246, '29': 33.638, '52': 33.69}"
133,"['5', '48', '66', '52', '58']",2672,2692,20,4,"{'5': 31.885, '48': 32.194, '66': 32.246, '52': 33.69, '58': 33.742}"
134,"['5', '48', '34', '60', '29']",2677,2697,20,4,"{'5': 31.885, '48': 32.194, '34': 32.433, '60': 33.374, '29': 33.638}"
135,"['5', '66', '56', '60', '29']",2660,2680,20,4,"{'5': 31.885, '66': 32.246, '56': 32.259, '60': 33.374, '29': 33.638}"
136,"['5', '66', '56', '60', '58']",2663,2683,20,4,"{'5': 31.885, '66': 32.246, '56': 32.259, '60': 33.374, '58': 33.742}"
137,"['5', '56', '62', '60', '40']",2664,2684,20,4,"{'5': 31.885, '56': 32.259, '62': 32.601, '60': 33.374, '40': 33.522}"
138,"['5', '56', '62', '60', '29']",2671,2691,20,4,"{'5': 31.885, '56': 32.259, '62': 32.601, '60': 33.374, '29': 33.638}"
139,"['5', '56', '62', '60', '58']",2676,2696,20,4,"{'5': 31.885, '56': 32.259, '62': 32.601, '60': 33.374, '58': 33.742}"
140,"['5', '56', '36', '40', '29']",2679,2699,20,4,"{'5': 31.885, '56': 32.259, '36': 32.929, '40': 33.522, '29': 33.638}"
141,"['5', '34', '62', '7', '52']",2663,2683,20,4,"{'5': 31.885, '34': 32.433, '62': 32.601, '7': 32.717, '52': 33.69}"
142,"['5', '34', '7', '36', '40']",2667,2687,20,4,"{'5': 31.885, '34': 32.433, '7': 32.717, '36': 32.929, '40': 33.522}"
143,"['5', '48', '66', '60', '52']",2673,2694,21,4,"{'5': 31.885, '48': 32.194, '66': 32.246, '60': 33.374, '52': 33.69}"
144,"['5', '48', '34', '60', '40']",2663,2684,21,4,"{'5': 31.885, '48': 32.194, '34': 32.433, '60': 33.374, '40': 33.522}"
145,"['5', '66', '56', '60', '52']",2659,2680,21,4,"{'5': 31.885, '66': 32.246, '56': 32.259, '60': 33.374, '52': 33.69}"
146,"['5', '56', '62', '60', '52']",2671,2692,21,4,"{'5': 31.885, '56': 32.259, '62': 32.601, '60': 33.374, '52': 33.69}"
147,"['5', '34', '62', '36', '52']",2672,2693,21,4,"{'5': 31.885, '34': 32.433, '62': 32.601, '36': 32.929, '52': 33.69}"
148,"['5', '48', '34', '36', '52']",2671,2693,22,4,"{'5': 31.885, '48': 32.194, '34': 32.433, '36': 32.929, '52': 33.69}"
149,"['5', '48', '62', '29', '52']",2658,2680,22,4,"{'5': 31.885, '48': 32.194, '62': 32.601, '29': 33.638, '52': 33.69}"
150,"['5', '48', '62', '52', '58']",2665,2687,22,4,"{'5': 31.885, '48': 32.194, '62': 32.601, '52': 33.69, '58': 33.742}"
151,"['5', '48', '7', '29', '52']",2662,2684,22,4,"{'5': 31.885, '48': 32.194, '7': 32.717, '29': 33.638, '52': 33.69}"
152,"['5', '34', '7', '36', '52']",2677,2699,22,4,"{'5': 31.885, '34': 32.433, '7': 32.717, '36': 32.929, '52': 33.69}"
153,"['5', '48', '34', '40', '52']",2678,2701,23,4,"{'5': 31.885, '48': 32.194, '34': 32.433, '40': 33.522, '52': 33.69}"
154,"['5', '48', '7', '52', '58']",2664,2687,23,4,"{'5': 31.885, '48': 32.194, '7': 32.717, '52': 33.69, '58': 33.742}"
155,"['5', '56', '34', '60', '40']",2673,2696,23,4,"{'5': 31.885, '56': 32.259, '34': 32.433, '60': 33.374, '40': 33.522}"
156,"['5', '48', '34', '60', '52']",2672,2696,24,4,"{'5': 31.885, '48': 32.194, '34': 32.433, '60': 33.374, '52': 33.69}"
157,"['5', '56', '36', '60', '58']",2658,2683,25,4,"{'5': 31.885, '56': 32.259, '36': 32.929, '60': 33.374, '58': 33.742}"
158,"['5', '56', '7', '60', '29']",2661,2687,26,4,"{'5': 31.885, '56': 32.259, '7': 32.717, '60': 33.374, '29': 33.638}"
159,"['5', '56', '7', '60', '58']",2663,2689,26,4,"{'5': 31.885, '56': 32.259, '7': 32.717, '60': 33.374, '58': 33.742}"
160,"['5', '56', '36', '60', '52']",2654,2680,26,4,"{'5': 31.885, '56': 32.259, '36': 32.929, '60': 33.374, '52': 33.69}"
161,"['5', '56', '7', '60', '52']",2659,2686,27,4,"{'5': 31.885, '56': 32.259, '7': 32.717, '60': 33.374, '52': 33.69}"
162,"['3', '66', '60', '40', '29', '58']",2679,2688,9,5,"{'3': 30.679, '66': 32.246, '60': 33.374, '40': 33.522, '29': 33.638, '58': 33.742}"
163,"['48', '66', '56', '36', '60', '58']",2671,2681,10,5,"{'48': 32.194, '66': 32.246, '56': 32.259, '36': 32.929, '60': 33.374, '58': 33.742}"
164,"['48', '66', '56', '60', '40', '58']",2674,2684,10,5,"{'48': 32.194, '66': 32.246, '56': 32.259, '60': 33.374, '40': 33.522, '58': 33.742}"
165,"['3', '34', '40', '29', '52', '58']",2676,2687,11,5,"{'3': 30.679, '34': 32.433, '40': 33.522, '29': 33.638, '52': 33.69, '58': 33.742}"
166,"['25', '66', '60', '40', '29', '52']",2673,2684,11,5,"{'25': 30.834, '66': 32.246, '60': 33.374, '40': 33.522, '29': 33.638, '52': 33.69}"
167,"['25', '66', '40', '29', '52', '58']",2672,2683,11,5,"{'25': 30.834, '66': 32.246, '40': 33.522, '29': 33.638, '52': 33.69, '58': 33.742}"
168,"['25', '34', '40', '29', '52', '58']",2676,2687,11,5,"{'25': 30.834, '34': 32.433, '40': 33.522, '29': 33.638, '52': 33.69, '58': 33.742}"
169,"['25', '7', '60', '40', '52', '58']",2679,2690,11,5,"{'25': 30.834, '7': 32.717, '60': 33.374, '40': 33.522, '52': 33.69, '58': 33.742}"
170,"['48', '66', '56', '40', '52', '58']",2669,2680,11,5,"{'48': 32.194, '66': 32.246, '56': 32.259, '40': 33.522, '52': 33.69, '58': 33.742}"
171,"['48', '34', '7', '36', '60', '40']",2674,2685,11,5,"{'48': 32.194, '34': 32.433, '7': 32.717, '36': 32.929, '60': 33.374, '40': 33.522}"
172,"['66', '62', '7', '36', '60', '29']",2676,2687,11,5,"{'66': 32.246, '62': 32.601, '7': 32.717, '36': 32.929, '60': 33.374, '29': 33.638}"
173,"['66', '62', '7', '36', '29', '58']",2676,2687,11,5,"{'66': 32.246, '62': 32.601, '7': 32.717, '36': 32.929, '29': 33.638, '58': 33.742}"
174,"['3', '66', '60', '40', '29', '52']",2670,2682,12,5,"{'3': 30.679, '66': 32.246, '60': 33.374, '40': 33.522, '29': 33.638, '52': 33.69}"
175,"['3', '66', '60', '40', '52', '58']",2670,2682,12,5,"{'3': 30.679, '66': 32.246, '60': 33.374, '40': 33.522, '52': 33.69, '58': 33.742}"
176,"['3', '66', '40', '29', '52', '58']",2670,2682,12,5,"{'3': 30.679, '66': 32.246, '40': 33.522, '29': 33.638, '52': 33.69, '58': 33.742}"
177,"['25', '7', '60', '40', '29', '52']",2674,2686,12,5,"{'25': 30.834, '7': 32.717, '60': 33.374, '40': 33.522, '29': 33.638, '52': 33.69}"
178,"['48', '66', '56', '60', '40', '52']",2670,2682,12,5,"{'48': 32.194, '66': 32.246, '56': 32.259, '60': 33.374, '40': 33.522, '52': 33.69}"
179,"['48', '56', '62', '36', '60', '40']",2674,2686,12,5,"{'48': 32.194, '56': 32.259, '62': 32.601, '36': 32.929, '60': 33.374, '40': 33.522}"
180,"['3', '62', '60', '40', '29', '58']",2676,2689,13,5,"{'3': 30.679, '62': 32.601, '60': 33.374, '40': 33.522, '29': 33.638, '58': 33.742}"
181,"['25', '48', '36', '60', '40', '29']",2675,2688,13,5,"{'25': 30.834, '48': 32.194, '36': 32.929, '60': 33.374, '40': 33.522, '29': 33.638}"
182,"['25', '34', '60', '29', '52', '58']",2671,2684,13,5,"{'25': 30.834, '34': 32.433, '60': 33.374, '29': 33.638, '52': 33.69, '58': 33.742}"
183,"['48', '56', '34', '36', '29', '58']",2670,2683,13,5,"{'48': 32.194, '56': 32.259, '34': 32.433, '36': 32.929, '29': 33.638, '58': 33.742}"
184,"['48', '56', '7', '36', '40', '29']",2678,2691,13,5,"{'48': 32.194, '56': 32.259, '7': 32.717, '36': 32.929, '40': 33.522, '29': 33.638}"
185,"['66', '34', '7', '36', '29', '58']",2677,2690,13,5,"{'66': 32.246, '34': 32.433, '7': 32.717, '36': 32.929, '29': 33.638, '58': 33.742}"
186,"['48', '56', '34', '36', '29', '52']",2666,2680,14,5,"{'48': 32.194, '56': 32.259, '34': 32.433, '36': 32.929, '29': 33.638, '52': 33.69}"
187,"['48', '56', '34', '36', '52', '58']",2669,2683,14,5,"{'48': 32.194, '56': 32.259, '34': 32.433, '36': 32.929, '52': 33.69, '58': 33.742}"
188,"['48', '56', '34', '40', '29', '58']",2673,2687,14,5,"{'48': 32.194, '56': 32.259, '34': 32.433, '40': 33.522, '29': 33.638, '58': 33.742}"
189,"['48', '56', '62', '36', '60', '29']",2675,2689,14,5,"{'48': 32.194, '56': 32.259, '62': 32.601, '36': 32.929, '60': 33.374, '29': 33.638}"
190,"['48', '56', '7', '36', '60', '29']",2678,2692,14,5,"{'48': 32.194, '56': 32.259, '7': 32.717, '36': 32.929, '60': 33.374, '29': 33.638}"
191,"['48', '34', '62', '36', '60', '40']",2668,2682,14,5,"{'48': 32.194, '34': 32.433, '62': 32.601, '36': 32.929, '60': 33.374, '40': 33.522}"
192,"['48', '34', '62', '36', '60', '29']",2676,2690,14,5,"{'48': 32.194, '34': 32.433, '62': 32.601, '36': 32.929, '60': 33.374, '29': 33.638}"
193,"['66', '34', '7', '36', '60', '29']",2678,2692,14,5,"{'66': 32.246, '34': 32.433, '7': 32.717, '36': 32.929, '60': 33.374, '29': 33.638}"
194,"['66', '34', '7', '36', '60', '58']",2679,2693,14,5,"{'66': 32.246, '34': 32.433, '7': 32.717, '36': 32.929, '60': 33.374, '58': 33.742}"
195,"['56', '34', '62', '36', '40', '29']",2678,2692,14,5,"{'56': 32.259, '34': 32.433, '62': 32.601, '36': 32.929, '40': 33.522, '29': 33.638}"
196,"['3', '56', '40', '29', '52', '58']",2675,2690,15,5,"{'3': 30.679, '56': 32.259, '40': 33.522, '29': 33.638, '52': 33.69, '58': 33.742}"
197,"['3', '34', '60', '29', '52', '58']",2665,2680,15,5,"{'3': 30.679, '34': 32.433, '60': 33.374, '29': 33.638, '52': 33.69, '58': 33.742}"
198,"['3', '62', '60', '40', '29', '52']",2667,2682,15,5,"{'3': 30.679, '62': 32.601, '60': 33.374, '40': 33.522, '29': 33.638, '52': 33.69}"
199,"['3', '62', '60', '40', '52', '58']",2667,2682,15,5,"{'3': 30.679, '62': 32.601, '60': 33.374, '40': 33.522, '52': 33.69, '58': 33.742}"
200,"['25', '48', '36', '60', '40', '52']",2677,2692,15,5,"{'25': 30.834, '48': 32.194, '36': 32.929, '60': 33.374, '40': 33.522, '52': 33.69}"
201,"['25', '62', '60', '40', '29', '52']",2674,2689,15,5,"{'25': 30.834, '62': 32.601, '60': 33.374, '40': 33.522, '29': 33.638, '52': 33.69}"
202,"['48', '56', '34', '60', '29', '58']",2671,2686,15,5,"{'48': 32.194, '56': 32.259, '34': 32.433, '60': 33.374, '29': 33.638, '58': 33.742}"
203,"['48', '56', '34', '40', '29', '52']",2669,2684,15,5,"{'48': 32.194, '56': 32.259, '34': 32.433, '40': 33.522, '29': 33.638, '52': 33.69}"
204,"['48', '56', '34', '40', '52', '58']",2672,2687,15,5,"{'48': 32.194, '56': 32.259, '34': 32.433, '40': 33.522, '52': 33.69, '58': 33.742}"
205,"['66', '62', '7', '36', '60', '52']",2669,2684,15,5,"{'66': 32.246, '62': 32.601, '7': 32.717, '36': 32.929, '60': 33.374, '52': 33.69}"
206,"['66', '62', '7', '36', '29', '52']",2665,2680,15,5,"{'66': 32.246, '62': 32.601, '7': 32.717, '36': 32.929, '29': 33.638, '52': 33.69}"
207,"['66', '62', '7', '36', '52', '58']",2669,2684,15,5,"{'66': 32.246, '62': 32.601, '7': 32.717, '36': 32.929, '52': 33.69, '58': 33.742}"
208,"['56', '34', '62', '36', '40', '52']",2677,2692,15,5,"{'56': 32.259, '34': 32.433, '62': 32.601, '36': 32.929, '40': 33.522, '52': 33.69}"
209,"['56', '34', '7', '36', '40', '29']",2668,2683,15,5,"{'56': 32.259, '34': 32.433, '7': 32.717, '36': 32.929, '40': 33.522, '29': 33.638}"
210,"['56', '34', '7', '36', '40', '58']",2669,2684,15,5,"{'56': 32.259, '34': 32.433, '7': 32.717, '36': 32.929, '40': 33.522, '58': 33.742}"
211,"['3', '36', '60', '40', '29', '52']",2678,2694,16,5,"{'3': 30.679, '36': 32.929, '60': 33.374, '40': 33.522, '29': 33.638, '52': 33.69}"
212,"['3', '36', '60', '40', '52', '58']",2678,2694,16,5,"{'3': 30.679, '36': 32.929, '60': 33.374, '40': 33.522, '52': 33.69, '58': 33.742}"
213,"['5', '48', '66', '60', '29', '58']",2679,2695,16,5,"{'5': 31.885, '48': 32.194, '66': 32.246, '60': 33.374, '29': 33.638, '58': 33.742}"
214,"['5', '34', '62', '7', '29', '58']",2670,2686,16,5,"{'5': 31.885, '34': 32.433, '62': 32.601, '7': 32.717, '29': 33.638, '58': 33.742}"
215,"['48', '56', '34', '60', '29', '52']",2667,2683,16,5,"{'48': 32.194, '56': 32.259, '34': 32.433, '60': 33.374, '29': 33.638, '52': 33.69}"
216,"['48', '56', '34', '60', '52', '58']",2670,2686,16,5,"{'48': 32.194, '56': 32.259, '34': 32.433, '60': 33.374, '52': 33.69, '58': 33.742}"
217,"['66', '34', '62', '36', '60', '29']",2665,2681,16,5,"{'66': 32.246, '34': 32.433, '62': 32.601, '36': 32.929, '60': 33.374, '29': 33.638}"
218,"['66', '34', '62', '36', '60', '58']",2669,2685,16,5,"{'66': 32.246, '34': 32.433, '62': 32.601, '36': 32.929, '60': 33.374, '58': 33.742}"
219,"['66', '34', '62', '36', '29', '58']",2665,2681,16,5,"{'66': 32.246, '34': 32.433, '62': 32.601, '36': 32.929, '29': 33.638, '58': 33.742}"
220,"['5', '34', '62', '36', '29', '58']",2677,2694,17,5,"{'5': 31.885, '34': 32.433, '62': 32.601, '36': 32.929, '29': 33.638, '58': 33.742}"
221,"['66', '34', '7', '36', '29', '52']",2669,2686,17,5,"{'66': 32.246, '34': 32.433, '7': 32.717, '36': 32.929, '29': 33.638, '52': 33.69}"
222,"['66', '34', '7', '36', '52', '58']",2670,2687,17,5,"{'66': 32.246, '34': 32.433, '7': 32.717, '36': 32.929, '52': 33.69, '58': 33.742}"
223,"['56', '34', '7', '36', '40', '52']",2665,2682,17,5,"{'56': 32.259, '34': 32.433, '7': 32.717, '36': 32.929, '40': 33.522, '52': 33.69}"
224,"['5', '48', '34', '36', '29', '58']",2675,2693,18,5,"{'5': 31.885, '48': 32.194, '34': 32.433, '36': 32.929, '29': 33.638, '58': 33.742}"
225,"['5', '34', '62', '36', '40', '29']",2666,2684,18,5,"{'5': 31.885, '34': 32.433, '62': 32.601, '36': 32.929, '40': 33.522, '29': 33.638}"
226,"['5', '34', '62', '36', '40', '58']",2670,2688,18,5,"{'5': 31.885, '34': 32.433, '62': 32.601, '36': 32.929, '40': 33.522, '58': 33.742}"
227,"['48', '34', '62', '36', '60', '52']",2671,2689,18,5,"{'48': 32.194, '34': 32.433, '62': 32.601, '36': 32.929, '60': 33.374, '52': 33.69}"
228,"['66', '34', '7', '36', '60', '52']",2671,2689,18,5,"{'66': 32.246, '34': 32.433, '7': 32.717, '36': 32.929, '60': 33.374, '52': 33.69}"
229,"['56', '62', '7', '36', '60', '40']",2666,2684,18,5,"{'56': 32.259, '62': 32.601, '7': 32.717, '36': 32.929, '60': 33.374, '40': 33.522}"
230,"['5', '34', '62', '7', '29', '52']",2661,2680,19,5,"{'5': 31.885, '34': 32.433, '62': 32.601, '7': 32.717, '29': 33.638, '52': 33.69}"
231,"['5', '34', '7', '36', '40', '29']",2665,2684,19,5,"{'5': 31.885, '34': 32.433, '7': 32.717, '36': 32.929, '40': 33.522, '29': 33.638}"
232,"['5', '34', '7', '36', '40', '58']",2666,2685,19,5,"{'5': 31.885, '34': 32.433, '7': 32.717, '36': 32.929, '40': 33.522, '58': 33.742}"
233,"['56', '62', '7', '36', '60', '29']",2673,2692,19,5,"{'56': 32.259, '62': 32.601, '7': 32.717, '36': 32.929, '60': 33.374, '29': 33.638}"
234,"['56', '62', '7', '36', '60', '52']",2675,2694,19,5,"{'56': 32.259, '62': 32.601, '7': 32.717, '36': 32.929, '60': 33.374, '52': 33.69}"
235,"['3', '56', '60', '29', '52', '58']",2666,2686,20,5,"{'3': 30.679, '56': 32.259, '60': 33.374, '29': 33.638, '52': 33.69, '58': 33.742}"
236,"['5', '48', '66', '60', '29', '52']",2669,2689,20,5,"{'5': 31.885, '48': 32.194, '66': 32.246, '60': 33.374, '29': 33.638, '52': 33.69}"
237,"['5', '48', '66', '60', '52', '58']",2672,2692,20,5,"{'5': 31.885, '48': 32.194, '66': 32.246, '60': 33.374, '52': 33.69, '58': 33.742}"
238,"['5', '48', '66', '29', '52', '58']",2668,2688,20,5,"{'5': 31.885, '48': 32.194, '66': 32.246, '29': 33.638, '52': 33.69, '58': 33.742}"
239,"['5', '48', '34', '60', '40', '58']",2662,2682,20,5,"{'5': 31.885, '48': 32.194, '34': 32.433, '60': 33.374, '40': 33.522, '58': 33.742}"
240,"['5', '48', '34', '60', '29', '58']",2676,2696,20,5,"{'5': 31.885, '48': 32.194, '34': 32.433, '60': 33.374, '29': 33.638, '58': 33.742}"
241,"['5', '56', '62', '60', '40', '58']",2664,2684,20,5,"{'5': 31.885, '56': 32.259, '62': 32.601, '60': 33.374, '40': 33.522, '58': 33.742}"
242,"['5', '56', '62', '60', '29', '58']",2671,2691,20,5,"{'5': 31.885, '56': 32.259, '62': 32.601, '60': 33.374, '29': 33.638, '58': 33.742}"
243,"['5', '56', '36', '40', '29', '58']",2678,2698,20,5,"{'5': 31.885, '56': 32.259, '36': 32.929, '40': 33.522, '29': 33.638, '58': 33.742}"
244,"['5', '34', '62', '7', '52', '58']",2663,2683,20,5,"{'5': 31.885, '34': 32.433, '62': 32.601, '7': 32.717, '52': 33.69, '58': 33.742}"
245,"['5', '56', '62', '60', '29', '52']",2666,2687,21,5,"{'5': 31.885, '56': 32.259, '62': 32.601, '60': 33.374, '29': 33.638, '52': 33.69}"
246,"['5', '56', '62', '60', '52', '58']",2671,2692,21,5,"{'5': 31.885, '56': 32.259, '62': 32.601, '60': 33.374, '52': 33.69, '58': 33.742}"
247,"['5', '56', '36', '40', '29', '52']",2674,2695,21,5,"{'5': 31.885, '56': 32.259, '36': 32.929, '40': 33.522, '29': 33.638, '52': 33.69}"
248,"['5', '34', '62', '36', '40', '52']",2661,2682,21,5,"{'5': 31.885, '34': 32.433, '62': 32.601, '36': 32.929, '40': 33.522, '52': 33.69}"
249,"['5', '34', '62', '36', '29', '52']",2668,2689,21,5,"{'5': 31.885, '34': 32.433, '62': 32.601, '36': 32.929, '29': 33.638, '52': 33.69}"
250,"['5', '34', '62', '36', '52', '58']",2672,2693,21,5,"{'5': 31.885, '34': 32.433, '62': 32.601, '36': 32.929, '52': 33.69, '58': 33.742}"
251,"['5', '34', '7', '36', '29', '52']",2675,2696,21,5,"{'5': 31.885, '34': 32.433, '7': 32.717, '36': 32.929, '29': 33.638, '52': 33.69}"
252,"['5', '62', '7', '60', '40', '52']",2679,2700,21,5,"{'5': 31.885, '62': 32.601, '7': 32.717, '60': 33.374, '40': 33.522, '52': 33.69}"
253,"['5', '48', '34', '36', '29', '52']",2667,2689,22,5,"{'5': 31.885, '48': 32.194, '34': 32.433, '36': 32.929, '29': 33.638, '52': 33.69}"
254,"['5', '48', '34', '36', '52', '58']",2670,2692,22,5,"{'5': 31.885, '48': 32.194, '34': 32.433, '36': 32.929, '52': 33.69, '58': 33.742}"
255,"['5', '48', '34', '40', '29', '52']",2674,2696,22,5,"{'5': 31.885, '48': 32.194, '34': 32.433, '40': 33.522, '29': 33.638, '52': 33.69}"
256,"['5', '48', '34', '40', '52', '58']",2677,2699,22,5,"{'5': 31.885, '48': 32.194, '34': 32.433, '40': 33.522, '52': 33.69, '58': 33.742}"
257,"['5', '48', '62', '29', '52', '58']",2658,2680,22,5,"{'5': 31.885, '48': 32.194, '62': 32.601, '29': 33.638, '52': 33.69, '58': 33.742}"
258,"['5', '48', '7', '29', '52', '58']",2661,2683,22,5,"{'5': 31.885, '48': 32.194, '7': 32.717, '29': 33.638, '52': 33.69, '58': 33.742}"
259,"['5', '56', '34', '60', '40', '58']",2672,2694,22,5,"{'5': 31.885, '56': 32.259, '34': 32.433, '60': 33.374, '40': 33.522, '58': 33.742}"
260,"['5', '34', '7', '36', '52', '58']",2676,2698,22,5,"{'5': 31.885, '34': 32.433, '7': 32.717, '36': 32.929, '52': 33.69, '58': 33.742}"
261,"['5', '48', '34', '60', '52', '58']",2671,2694,23,5,"{'5': 31.885, '48': 32.194, '34': 32.433, '60': 33.374, '52': 33.69, '58': 33.742}"
262,"['5', '56', '34', '60', '40', '29']",2669,2692,23,5,"{'5': 31.885, '56': 32.259, '34': 32.433, '60': 33.374, '40': 33.522, '29': 33.638}"
263,"['5', '34', '7', '36', '40', '52']",2658,2681,23,5,"{'5': 31.885, '34': 32.433, '7': 32.717, '36': 32.929, '40': 33.522, '52': 33.69}"
264,"['5', '48', '34', '60', '29', '52']",2668,2692,24,5,"{'5': 31.885, '48': 32.194, '34': 32.433, '60': 33.374, '29': 33.638, '52': 33.69}"
265,"['5', '56', '34', '60', '40', '52']",2668,2692,24,5,"{'5': 31.885, '56': 32.259, '34': 32.433, '60': 33.374, '40': 33.522, '52': 33.69}"
266,"['5', '56', '7', '60', '29', '58']",2660,2685,25,5,"{'5': 31.885, '56': 32.259, '7': 32.717, '60': 33.374, '29': 33.638, '58': 33.742}"
267,"['5', '56', '7', '60', '29', '52']",2656,2682,26,5,"{'5': 31.885, '56': 32.259, '7': 32.717, '60': 33.374, '29': 33.638, '52': 33.69}"
268,"['5', '56', '7', '60', '52', '58']",2658,2684,26,5,"{'5': 31.885, '56': 32.259, '7': 32.717, '60': 33.374, '52': 33.69, '58': 33.742}"
269,"['48', '34', '7', '36', '60', '40', '29']",2672,2682,10,6,"{'48': 32.194, '34': 32.433, '7': 32.717, '36': 32.929, '60': 33.374, '40': 33.522, '29': 33.638}"
270,"['25', '66', '60', '40', '29', '52', '58']",2672,2683,11,6,"{'25': 30.834, '66': 32.246, '60': 33.374, '40': 33.522, '29': 33.638, '52': 33.69, '58': 33.742}"
271,"['25', '7', '60', '40', '29', '52', '58']",2673,2684,11,6,"{'25': 30.834, '7': 32.717, '60': 33.374, '40': 33.522, '29': 33.638, '52': 33.69, '58': 33.742}"
272,"['9', '56', '60', '40', '29', '52', '58']",2679,2690,11,6,"{'9': 30.937, '56': 32.259, '60': 33.374, '40': 33.522, '29': 33.638, '52': 33.69, '58': 33.742}"
273,"['48', '66', '56', '60', '40', '52', '58']",2669,2680,11,6,"{'48': 32.194, '66': 32.246, '56': 32.259, '60': 33.374, '40': 33.522, '52': 33.69, '58': 33.742}"
274,"['48', '34', '7', '36', '60', '40', '58']",2673,2684,11,6,"{'48': 32.194, '34': 32.433, '7': 32.717, '36': 32.929, '60': 33.374, '40': 33.522, '58': 33.742}"
275,"['66', '62', '7', '36', '60', '29', '58']",2676,2687,11,6,"{'66': 32.246, '62': 32.601, '7': 32.717, '36': 32.929, '60': 33.374, '29': 33.638, '58': 33.742}"
276,"['3', '66', '60', '40', '29', '52', '58']",2670,2682,12,6,"{'3': 30.679, '66': 32.246, '60': 33.374, '40': 33.522, '29': 33.638, '52': 33.69, '58': 33.742}"
277,"['48', '56', '62', '36', '60', '40', '58']",2674,2686,12,6,"{'48': 32.194, '56': 32.259, '62': 32.601, '36': 32.929, '60': 33.374, '40': 33.522, '58': 33.742}"
278,"['48', '56', '7', '36', '40', '29', '58']",2677,2689,12,6,"{'48': 32.194, '56': 32.259, '7': 32.717, '36': 32.929, '40': 33.522, '29': 33.638, '58': 33.742}"
279,"['25', '48', '36', '60', '40', '29', '58']",2674,2687,13,6,"{'25': 30.834, '48': 32.194, '36': 32.929, '60': 33.374, '40': 33.522, '29': 33.638, '58': 33.742}"
280,"['48', '56', '62', '36', '60', '40', '52']",2669,2682,13,6,"{'48': 32.194, '56': 32.259, '62': 32.601, '36': 32.929, '60': 33.374, '40': 33.522, '52': 33.69}"
281,"['48', '56', '7', '36', '60', '29', '58']",2677,2690,13,6,"{'48': 32.194, '56': 32.259, '7': 32.717, '36': 32.929, '60': 33.374, '29': 33.638, '58': 33.742}"
282,"['48', '56', '7', '36', '60', '52', '58']",2679,2692,13,6,"{'48': 32.194, '56': 32.259, '7': 32.717, '36': 32.929, '60': 33.374, '52': 33.69, '58': 33.742}"
283,"['48', '56', '7', '36', '40', '52', '58']",2679,2692,13,6,"{'48': 32.194, '56': 32.259, '7': 32.717, '36': 32.929, '40': 33.522, '52': 33.69, '58': 33.742}"
284,"['66', '34', '7', '36', '60', '29', '58']",2677,2690,13,6,"{'66': 32.246, '34': 32.433, '7': 32.717, '36': 32.929, '60': 33.374, '29': 33.638, '58': 33.742}"
285,"['25', '48', '36', '60', '40', '52', '58']",2676,2690,14,6,"{'25': 30.834, '48': 32.194, '36': 32.929, '60': 33.374, '40': 33.522, '52': 33.69, '58': 33.742}"
286,"['48', '56', '62', '36', '60', '29', '58']",2675,2689,14,6,"{'48': 32.194, '56': 32.259, '62': 32.601, '36': 32.929, '60': 33.374, '29': 33.638, '58': 33.742}"
287,"['48', '56', '7', '36', '60', '29', '52']",2673,2687,14,6,"{'48': 32.194, '56': 32.259, '7': 32.717, '36': 32.929, '60': 33.374, '29': 33.638, '52': 33.69}"
288,"['48', '56', '7', '36', '40', '29', '52']",2673,2687,14,6,"{'48': 32.194, '56': 32.259, '7': 32.717, '36': 32.929, '40': 33.522, '29': 33.638, '52': 33.69}"
289,"['48', '56', '7', '60', '40', '29', '58']",2679,2693,14,6,"{'48': 32.194, '56': 32.259, '7': 32.717, '60': 33.374, '40': 33.522, '29': 33.638, '58': 33.742}"
290,"['48', '34', '62', '36', '60', '40', '58']",2668,2682,14,6,"{'48': 32.194, '34': 32.433, '62': 32.601, '36': 32.929, '60': 33.374, '40': 33.522, '58': 33.742}"
291,"['48', '34', '62', '36', '60', '29', '58']",2676,2690,14,6,"{'48': 32.194, '34': 32.433, '62': 32.601, '36': 32.929, '60': 33.374, '29': 33.638, '58': 33.742}"
292,"['56', '34', '62', '7', '40', '29', '52']",2678,2692,14,6,"{'56': 32.259, '34': 32.433, '62': 32.601, '7': 32.717, '40': 33.522, '29': 33.638, '52': 33.69}"
293,"['56', '34', '62', '36', '40', '29', '52']",2673,2687,14,6,"{'56': 32.259, '34': 32.433, '62': 32.601, '36': 32.929, '40': 33.522, '29': 33.638, '52': 33.69}"
294,"['56', '34', '62', '36', '40', '29', '58']",2678,2692,14,6,"{'56': 32.259, '34': 32.433, '62': 32.601, '36': 32.929, '40': 33.522, '29': 33.638, '58': 33.742}"
295,"['3', '62', '60', '40', '29', '52', '58']",2667,2682,15,6,"{'3': 30.679, '62': 32.601, '60': 33.374, '40': 33.522, '29': 33.638, '52': 33.69, '58': 33.742}"
296,"['25', '62', '60', '40', '29', '52', '58']",2674,2689,15,6,"{'25': 30.834, '62': 32.601, '60': 33.374, '40': 33.522, '29': 33.638, '52': 33.69, '58': 33.742}"
297,"['48', '66', '34', '36', '40', '29', '52']",2678,2693,15,6,"{'48': 32.194, '66': 32.246, '34': 32.433, '36': 32.929, '40': 33.522, '29': 33.638, '52': 33.69}"
298,"['48', '56', '34', '40', '29', '52', '58']",2668,2683,15,6,"{'48': 32.194, '56': 32.259, '34': 32.433, '40': 33.522, '29': 33.638, '52': 33.69, '58': 33.742}"
299,"['48', '56', '62', '36', '60', '29', '52']",2670,2685,15,6,"{'48': 32.194, '56': 32.259, '62': 32.601, '36': 32.929, '60': 33.374, '29': 33.638, '52': 33.69}"
300,"['48', '56', '7', '60', '40', '29', '52']",2675,2690,15,6,"{'48': 32.194, '56': 32.259, '7': 32.717, '60': 33.374, '40': 33.522, '29': 33.638, '52': 33.69}"
301,"['66', '62', '7', '36', '60', '29', '52']",2665,2680,15,6,"{'66': 32.246, '62': 32.601, '7': 32.717, '36': 32.929, '60': 33.374, '29': 33.638, '52': 33.69}"
302,"['66', '62', '7', '36', '60', '52', '58']",2669,2684,15,6,"{'66': 32.246, '62': 32.601, '7': 32.717, '36': 32.929, '60': 33.374, '52': 33.69, '58': 33.742}"
303,"['66', '62', '7', '36', '29', '52', '58']",2665,2680,15,6,"{'66': 32.246, '62': 32.601, '7': 32.717, '36': 32.929, '29': 33.638, '52': 33.69, '58': 33.742}"
304,"['56', '34', '62', '36', '40', '52', '58']",2677,2692,15,6,"{'56': 32.259, '34': 32.433, '62': 32.601, '36': 32.929, '40': 33.522, '52': 33.69, '58': 33.742}"
305,"['56', '34', '7', '36', '40', '29', '58']",2667,2682,15,6,"{'56': 32.259, '34': 32.433, '7': 32.717, '36': 32.929, '40': 33.522, '29': 33.638, '58': 33.742}"
306,"['3', '36', '60', '40', '29', '52', '58']",2678,2694,16,6,"{'3': 30.679, '36': 32.929, '60': 33.374, '40': 33.522, '29': 33.638, '52': 33.69, '58': 33.742}"
307,"['48', '56', '34', '60', '29', '52', '58']",2666,2682,16,6,"{'48': 32.194, '56': 32.259, '34': 32.433, '60': 33.374, '29': 33.638, '52': 33.69, '58': 33.742}"
308,"['48', '34', '62', '36', '40', '29', '52']",2679,2695,16,6,"{'48': 32.194, '34': 32.433, '62': 32.601, '36': 32.929, '40': 33.522, '29': 33.638, '52': 33.69}"
309,"['66', '34', '62', '36', '60', '29', '58']",2665,2681,16,6,"{'66': 32.246, '34': 32.433, '62': 32.601, '36': 32.929, '60': 33.374, '29': 33.638, '58': 33.742}"
310,"['66', '34', '7', '36', '29', '52', '58']",2668,2684,16,6,"{'66': 32.246, '34': 32.433, '7': 32.717, '36': 32.929, '29': 33.638, '52': 33.69, '58': 33.742}"
311,"['56', '34', '7', '36', '40', '52', '58']",2664,2680,16,6,"{'56': 32.259, '34': 32.433, '7': 32.717, '36': 32.929, '40': 33.522, '52': 33.69, '58': 33.742}"
312,"['25', '48', '36', '60', '40', '29', '52']",2665,2682,17,6,"{'25': 30.834, '48': 32.194, '36': 32.929, '60': 33.374, '40': 33.522, '29': 33.638, '52': 33.69}"
313,"['48', '34', '62', '36', '60', '29', '52']",2667,2684,17,6,"{'48': 32.194, '34': 32.433, '62': 32.601, '36': 32.929, '60': 33.374, '29': 33.638, '52': 33.69}"
314,"['66', '34', '7', '36', '60', '29', '52']",2669,2686,17,6,"{'66': 32.246, '34': 32.433, '7': 32.717, '36': 32.929, '60': 33.374, '29': 33.638, '52': 33.69}"
315,"['66', '34', '7', '36', '60', '52', '58']",2670,2687,17,6,"{'66': 32.246, '34': 32.433, '7': 32.717, '36': 32.929, '60': 33.374, '52': 33.69, '58': 33.742}"
316,"['5', '34', '62', '36', '40', '29', '58']",2666,2684,18,6,"{'5': 31.885, '34': 32.433, '62': 32.601, '36': 32.929, '40': 33.522, '29': 33.638, '58': 33.742}"
317,"['5', '34', '7', '36', '40', '29', '58']",2664,2682,18,6,"{'5': 31.885, '34': 32.433, '7': 32.717, '36': 32.929, '40': 33.522, '29': 33.638, '58': 33.742}"
318,"['48', '34', '62', '36', '60', '52', '58']",2671,2689,18,6,"{'48': 32.194, '34': 32.433, '62': 32.601, '36': 32.929, '60': 33.374, '52': 33.69, '58': 33.742}"
319,"['56', '62', '7', '36', '60', '40', '58']",2666,2684,18,6,"{'56': 32.259, '62': 32.601, '7': 32.717, '36': 32.929, '60': 33.374, '40': 33.522, '58': 33.742}"
320,"['5', '34', '62', '7', '29', '52', '58']",2661,2680,19,6,"{'5': 31.885, '34': 32.433, '62': 32.601, '7': 32.717, '29': 33.638, '52': 33.69, '58': 33.742}"
321,"['56', '62', '7', '36', '60', '29', '52']",2668,2687,19,6,"{'56': 32.259, '62': 32.601, '7': 32.717, '36': 32.929, '60': 33.374, '29': 33.638, '52': 33.69}"
322,"['56', '62', '7', '36', '60', '29', '58']",2673,2692,19,6,"{'56': 32.259, '62': 32.601, '7': 32.717, '36': 32.929, '60': 33.374, '29': 33.638, '58': 33.742}"
323,"['56', '62', '7', '36', '60', '52', '58']",2675,2694,19,6,"{'56': 32.259, '62': 32.601, '7': 32.717, '36': 32.929, '60': 33.374, '52': 33.69, '58': 33.742}"
324,"['5', '48', '66', '60', '29', '52', '58']",2668,2688,20,6,"{'5': 31.885, '48': 32.194, '66': 32.246, '60': 33.374, '29': 33.638, '52': 33.69, '58': 33.742}"
325,"['5', '62', '7', '60', '40', '29', '52']",2676,2696,20,6,"{'5': 31.885, '62': 32.601, '7': 32.717, '60': 33.374, '40': 33.522, '29': 33.638, '52': 33.69}"
326,"['5', '48', '34', '36', '29', '52', '58']",2666,2687,21,6,"{'5': 31.885, '48': 32.194, '34': 32.433, '36': 32.929, '29': 33.638, '52': 33.69, '58': 33.742}"
327,"['5', '56', '62', '60', '29', '52', '58']",2666,2687,21,6,"{'5': 31.885, '56': 32.259, '62': 32.601, '60': 33.374, '29': 33.638, '52': 33.69, '58': 33.742}"
328,"['5', '56', '36', '40', '29', '52', '58']",2673,2694,21,6,"{'5': 31.885, '56': 32.259, '36': 32.929, '40': 33.522, '29': 33.638, '52': 33.69, '58': 33.742}"
329,"['5', '34', '62', '36', '40', '52', '58']",2661,2682,21,6,"{'5': 31.885, '34': 32.433, '62': 32.601, '36': 32.929, '40': 33.522, '52': 33.69, '58': 33.742}"
330,"['5', '34', '62', '36', '29', '52', '58']",2668,2689,21,6,"{'5': 31.885, '34': 32.433, '62': 32.601, '36': 32.929, '29': 33.638, '52': 33.69, '58': 33.742}"
331,"['5', '34', '7', '36', '29', '52', '58']",2674,2695,21,6,"{'5': 31.885, '34': 32.433, '7': 32.717, '36': 32.929, '29': 33.638, '52': 33.69, '58': 33.742}"
332,"['5', '62', '7', '60', '40', '52', '58']",2679,2700,21,6,"{'5': 31.885, '62': 32.601, '7': 32.717, '60': 33.374, '40': 33.522, '52': 33.69, '58': 33.742}"
333,"['5', '48', '34', '40', '29', '52', '58']",2673,2695,22,6,"{'5': 31.885, '48': 32.194, '34': 32.433, '40': 33.522, '29': 33.638, '52': 33.69, '58': 33.742}"
334,"['5', '56', '34', '60', '40', '29', '58']",2668,2690,22,6,"{'5': 31.885, '56': 32.259, '34': 32.433, '60': 33.374, '40': 33.522, '29': 33.638, '58': 33.742}"
335,"['5', '48', '34', '60', '29', '52', '58']",2667,2690,23,6,"{'5': 31.885, '48': 32.194, '34': 32.433, '60': 33.374, '29': 33.638, '52': 33.69, '58': 33.742}"
336,"['5', '56', '34', '60', '40', '29', '52']",2664,2687,23,6,"{'5': 31.885, '56': 32.259, '34': 32.433, '60': 33.374, '40': 33.522, '29': 33.638, '52': 33.69}"
337,"['5', '56', '34', '60', '40', '52', '58']",2667,2690,23,6,"{'5': 31.885, '56': 32.259, '34': 32.433, '60': 33.374, '40': 33.522, '52': 33.69, '58': 33.742}"
338,"['5', '56', '7', '60', '29', '52', '58']",2655,2681,26,6,"{'5': 31.885, '56': 32.259, '7': 32.717, '60': 33.374, '29': 33.638, '52': 33.69, '58': 33.742}"
339,"['48', '34', '7', '36', '60', '40', '29', '58']",2671,2681,10,7,"{'48': 32.194, '34': 32.433, '7': 32.717, '36': 32.929, '60': 33.374, '40': 33.522, '29': 33.638, '58': 33.742}"
340,"['48', '56', '62', '36', '60', '40', '52', '58']",2669,2682,13,7,"{'48': 32.194, '56': 32.259, '62': 32.601, '36': 32.929, '60': 33.374, '40': 33.522, '52': 33.69, '58': 33.742}"
341,"['48', '56', '7', '36', '40', '29', '52', '58']",2672,2685,13,7,"{'48': 32.194, '56': 32.259, '7': 32.717, '36': 32.929, '40': 33.522, '29': 33.638, '52': 33.69, '58': 33.742}"
342,"['48', '56', '7', '36', '60', '29', '52', '58']",2672,2686,14,7,"{'48': 32.194, '56': 32.259, '7': 32.717, '36': 32.929, '60': 33.374, '29': 33.638, '52': 33.69, '58': 33.742}"
343,"['48', '62', '7', '36', '60', '40', '29', '52']",2674,2688,14,7,"{'48': 32.194, '62': 32.601, '7': 32.717, '36': 32.929, '60': 33.374, '40': 33.522, '29': 33.638, '52': 33.69}"
344,"['56', '34', '62', '7', '40', '29', '52', '58']",2678,2692,14,7,"{'56': 32.259, '34': 32.433, '62': 32.601, '7': 32.717, '40': 33.522, '29': 33.638, '52': 33.69, '58': 33.742}"
345,"['56', '34', '62', '36', '40', '29', '52', '58']",2673,2687,14,7,"{'56': 32.259, '34': 32.433, '62': 32.601, '36': 32.929, '40': 33.522, '29': 33.638, '52': 33.69, '58': 33.742}"
346,"['48', '66', '34', '36', '60', '40', '29', '52']",2678,2693,15,7,"{'48': 32.194, '66': 32.246, '34': 32.433, '36': 32.929, '60': 33.374, '40': 33.522, '29': 33.638, '52': 33.69}"
347,"['48', '66', '34', '36', '40', '29', '52', '58']",2677,2692,15,7,"{'48': 32.194, '66': 32.246, '34': 32.433, '36': 32.929, '40': 33.522, '29': 33.638, '52': 33.69, '58': 33.742}"
348,"['48', '56', '62', '36', '60', '29', '52', '58']",2670,2685,15,7,"{'48': 32.194, '56': 32.259, '62': 32.601, '36': 32.929, '60': 33.374, '29': 33.638, '52': 33.69, '58': 33.742}"
349,"['48', '56', '7', '60', '40', '29', '52', '58']",2674,2689,15,7,"{'48': 32.194, '56': 32.259, '7': 32.717, '60': 33.374, '40': 33.522, '29': 33.638, '52': 33.69, '58': 33.742}"
350,"['66', '62', '7', '36', '60', '29', '52', '58']",2665,2680,15,7,"{'66': 32.246, '62': 32.601, '7': 32.717, '36': 32.929, '60': 33.374, '29': 33.638, '52': 33.69, '58': 33.742}"
351,"['25', '48', '36', '60', '40', '29', '52', '58']",2664,2680,16,7,"{'25': 30.834, '48': 32.194, '36': 32.929, '60': 33.374, '40': 33.522, '29': 33.638, '52': 33.69, '58': 33.742}"
352,"['48', '34', '62', '36', '40', '29', '52', '58']",2679,2695,16,7,"{'48': 32.194, '34': 32.433, '62': 32.601, '36': 32.929, '40': 33.522, '29': 33.638, '52': 33.69, '58': 33.742}"
353,"['66', '34', '7', '36', '60', '29', '52', '58']",2668,2684,16,7,"{'66': 32.246, '34': 32.433, '7': 32.717, '36': 32.929, '60': 33.374, '29': 33.638, '52': 33.69, '58': 33.742}"
354,"['48', '34', '62', '36', '60', '29', '52', '58']",2667,2684,17,7,"{'48': 32.194, '34': 32.433, '62': 32.601, '36': 32.929, '60': 33.374, '29': 33.638, '52': 33.69, '58': 33.742}"
355,"['56', '62', '7', '36', '60', '29', '52', '58']",2668,2687,19,7,"{'56': 32.259, '62': 32.601, '7': 32.717, '36': 32.929, '60': 33.374, '29': 33.638, '52': 33.69, '58': 33.742}"
356,"['5', '62', '7', '60', '40', '29', '52', '58']",2676,2696,20,7,"{'5': 31.885, '62': 32.601, '7': 32.717, '60': 33.374, '40': 33.522, '29': 33.638, '52': 33.69, '58': 33.742}"
357,"['5', '56', '34', '60', '40', '29', '52', '58']",2663,2686,23,7,"{'5': 31.885, '56': 32.259, '34': 32.433, '60': 33.374, '40': 33.522, '29': 33.638, '52': 33.69, '58': 33.742}"
358,"['48', '62', '7', '36', '60', '40', '29', '52', '58']",2674,2688,14,8,"{'48': 32.194, '62': 32.601, '7': 32.717, '36': 32.929, '60': 33.374, '40': 33.522, '29': 33.638, '52': 33.69, '58': 33.742}"
359,"['48', '66', '34', '36', '60', '40', '29', '52', '58']",2677,2692,15,8,"{'48': 32.194, '66': 32.246, '34': 32.433, '36': 32.929, '60': 33.374, '40': 33.522, '29': 33.638, '52': 33.69, '58': 33.742}"
