,items,real_support,approx_support,error,level,fill
0,"['1', '11']",91882,122396,30514,1,"{'1': 23.099, '11': 38.397}"
1,"['1', '3']",84660,126132,41472,1,"{'1': 23.099, '3': 45.048}"
2,"['1', '11', '6']",86092,118097,32005,2,"{'1': 23.099, '11': 38.397, '6': 55.082}"
3,"['1', '3', '6']",57802,108640,50838,2,"{'1': 23.099, '3': 45.048, '6': 55.082}"
