,exact,bloomfilter,extra_on_bloom
0,"{'items': ['79'], 'found': '79', 'support': 1600, 'level': 0, 'jaccard': 0, 'filled': 0}","{'items': ['79'], 'found': '79', 'support': 1600, 'level': 0, 'jaccard': 0, 'filled': 0.988}","{'item': ['271', '39'], 'real_support': 1434, 'approximated_support': 1586, 'level': 1, 'filled': {'271': 1.293, '39': 30.743}}"
1,"{'items': ['2238'], 'found': '2238', 'support': 1715, 'level': 0, 'jaccard': 0, 'filled': 0}","{'items': ['2238'], 'found': '2238', 'support': 1712, 'level': 0, 'jaccard': 0, 'filled': 1.059}","{'item': ['475', '48'], 'real_support': 1428, 'approximated_support': 1554, 'level': 1, 'filled': {'475': 1.338, '48': 25.678}}"
2,"{'items': ['270'], 'found': '270', 'support': 1734, 'level': 0, 'jaccard': 0, 'filled': 0}","{'items': ['270'], 'found': '270', 'support': 1734, 'level': 0, 'jaccard': 0, 'filled': 1.07}","{'item': ['101', '39'], 'real_support': 1400, 'approximated_support': 1586, 'level': 1, 'filled': {'101': 1.381, '39': 30.743}}"
3,"{'items': ['147'], 'found': '147', 'support': 1779, 'level': 0, 'jaccard': 0, 'filled': 0}","{'items': ['147'], 'found': '147', 'support': 1778, 'level': 0, 'jaccard': 0, 'filled': 1.098}","{'item': ['310', '48', '39'], 'real_support': 1347, 'approximated_support': 1571, 'level': 2, 'filled': {'310': 1.601, '48': 25.678, '39': 30.743}}"
4,"{'items': ['1327'], 'found': '1327', 'support': 1786, 'level': 0, 'jaccard': 0, 'filled': 0}","{'items': ['1327'], 'found': '1327', 'support': 1784, 'level': 0, 'jaccard': 0, 'filled': 1.102}","{'item': ['110', '38', '48'], 'real_support': 1361, 'approximated_support': 1586, 'level': 2, 'filled': {'110': 1.725, '38': 9.609, '48': 25.678}}"
5,"{'items': ['438'], 'found': '438', 'support': 1863, 'level': 0, 'jaccard': 0, 'filled': 0}","{'items': ['438'], 'found': '438', 'support': 1867, 'level': 0, 'jaccard': 0, 'filled': 1.15}","{'item': ['110', '48'], 'real_support': 1380, 'approximated_support': 1611, 'level': 1, 'filled': {'110': 1.725, '48': 25.678}}"
6,"{'items': ['413'], 'found': '413', 'support': 1880, 'level': 0, 'jaccard': 0, 'filled': 0}","{'items': ['413'], 'found': '413', 'support': 1877, 'level': 0, 'jaccard': 0, 'filled': 1.16}","{'item': ['36', '38', '48'], 'real_support': 1360, 'approximated_support': 1634, 'level': 2, 'filled': {'36': 1.812, '38': 9.609, '48': 25.678}}"
7,"{'items': ['271'], 'found': '271', 'support': 2094, 'level': 0, 'jaccard': 0, 'filled': 0}","{'items': ['271'], 'found': '271', 'support': 2093, 'level': 0, 'jaccard': 0, 'filled': 1.293}","{'item': ['36', '48'], 'real_support': 1416, 'approximated_support': 1696, 'level': 1, 'filled': {'36': 1.812, '48': 25.678}}"
8,"{'items': ['475'], 'found': '475', 'support': 2167, 'level': 0, 'jaccard': 0, 'filled': 0}","{'items': ['475'], 'found': '475', 'support': 2170, 'level': 0, 'jaccard': 0, 'filled': 1.338}","{'item': ['237', '48', '39'], 'real_support': 1244, 'approximated_support': 1554, 'level': 2, 'filled': {'237': 1.872, '48': 25.678, '39': 30.743}}"
9,"{'items': ['101'], 'found': '101', 'support': 2237, 'level': 0, 'jaccard': 0, 'filled': 0}","{'items': ['101'], 'found': '101', 'support': 2237, 'level': 0, 'jaccard': 0, 'filled': 1.381}","{'item': ['170', '38', '48', '39'], 'real_support': 1193, 'approximated_support': 1518, 'level': 3, 'filled': {'170': 1.913, '38': 9.609, '48': 25.678, '39': 30.743}}"
10,"{'items': ['310'], 'found': '310', 'support': 2594, 'level': 0, 'jaccard': 0, 'filled': 0}","{'items': ['310'], 'found': '310', 'support': 2597, 'level': 0, 'jaccard': 0, 'filled': 1.601}","{'item': ['170', '48', '39'], 'real_support': 1206, 'approximated_support': 1537, 'level': 2, 'filled': {'170': 1.913, '48': 25.678, '39': 30.743}}"
11,"{'items': ['110'], 'found': '110', 'support': 2794, 'level': 0, 'jaccard': 0, 'filled': 0}","{'items': ['110'], 'found': '110', 'support': 2797, 'level': 0, 'jaccard': 0, 'filled': 1.725}","{'item': ['225', '48', '39'], 'real_support': 1400, 'approximated_support': 1728, 'level': 2, 'filled': {'225': 2.01, '48': 25.678, '39': 30.743}}"
12,"{'items': ['36'], 'found': '36', 'support': 2936, 'level': 0, 'jaccard': 0, 'filled': 0}","{'items': ['36'], 'found': '36', 'support': 2935, 'level': 0, 'jaccard': 0, 'filled': 1.812}","{'item': ['32', '38', '48', '39'], 'real_support': 1236, 'approximated_support': 2034, 'level': 3, 'filled': {'32': 9.348, '38': 9.609, '48': 25.678, '39': 30.743}}"
13,"{'items': ['237'], 'found': '237', 'support': 3032, 'level': 0, 'jaccard': 0, 'filled': 0}","{'items': ['237'], 'found': '237', 'support': 3034, 'level': 0, 'jaccard': 0, 'filled': 1.872}",
14,"{'items': ['170'], 'found': '170', 'support': 3099, 'level': 0, 'jaccard': 0, 'filled': 0}","{'items': ['170'], 'found': '170', 'support': 3093, 'level': 0, 'jaccard': 0, 'filled': 1.913}",
15,"{'items': ['225'], 'found': '225', 'support': 3257, 'level': 0, 'jaccard': 0, 'filled': 0}","{'items': ['225'], 'found': '225', 'support': 3258, 'level': 0, 'jaccard': 0, 'filled': 2.01}",
16,"{'items': ['89'], 'found': '89', 'support': 3837, 'level': 0, 'jaccard': 0, 'filled': 0}","{'items': ['89'], 'found': '89', 'support': 3838, 'level': 0, 'jaccard': 0, 'filled': 2.368}",
17,"{'items': ['65'], 'found': '65', 'support': 4472, 'level': 0, 'jaccard': 0, 'filled': 0}","{'items': ['65'], 'found': '65', 'support': 4468, 'level': 0, 'jaccard': 0, 'filled': 2.76}",
18,"{'items': ['41'], 'found': '41', 'support': 14945, 'level': 0, 'jaccard': 0, 'filled': 0}","{'items': ['41'], 'found': '41', 'support': 14968, 'level': 0, 'jaccard': 0, 'filled': 9.213}",
19,"{'items': ['32'], 'found': '32', 'support': 15167, 'level': 0, 'jaccard': 0, 'filled': 0}","{'items': ['32'], 'found': '32', 'support': 15196, 'level': 0, 'jaccard': 0, 'filled': 9.348}",
20,"{'items': ['38'], 'found': '38', 'support': 15596, 'level': 0, 'jaccard': 0, 'filled': 0}","{'items': ['38'], 'found': '38', 'support': 15624, 'level': 0, 'jaccard': 0, 'filled': 9.609}",
21,"{'items': ['48'], 'found': '48', 'support': 42135, 'level': 0, 'jaccard': 0, 'filled': 0}","{'items': ['48'], 'found': '48', 'support': 42183, 'level': 0, 'jaccard': 0, 'filled': 25.678}",
22,"{'items': ['39'], 'found': '39', 'support': 50675, 'level': 0, 'jaccard': 0, 'filled': 0}","{'items': ['39'], 'found': '39', 'support': 50713, 'level': 0, 'jaccard': 0, 'filled': 30.743}",
23,"{'items': ['475', '39'], 'found': '39', 'support': 1500, 'level': 1, 'jaccard': 0, 'filled': 0}","{'items': ['475', '48'], 'found': '48', 'support': 1554, 'level': 1, 'jaccard': 0, 'filled': {'475': 1.338, '48': 25.678}}",
24,"{'items': ['170', '48'], 'found': '48', 'support': 1557, 'level': 1, 'jaccard': 0, 'filled': 0}","{'items': ['271', '39'], 'found': '39', 'support': 1586, 'level': 1, 'jaccard': 0, 'filled': {'271': 1.293, '39': 30.743}}",
25,"{'items': ['237', '48'], 'found': '48', 'support': 1682, 'level': 1, 'jaccard': 0, 'filled': 0}","{'items': ['101', '39'], 'found': '39', 'support': 1586, 'level': 1, 'jaccard': 0, 'filled': {'101': 1.381, '39': 30.743}}",
26,"{'items': ['310', '48'], 'found': '48', 'support': 1692, 'level': 1, 'jaccard': 0, 'filled': 0}","{'items': ['110', '48'], 'found': '48', 'support': 1611, 'level': 1, 'jaccard': 0, 'filled': {'110': 1.725, '48': 25.678}}",
27,"{'items': ['225', '48'], 'found': '48', 'support': 1736, 'level': 1, 'jaccard': 0, 'filled': 0}","{'items': ['475', '39'], 'found': '39', 'support': 1650, 'level': 1, 'jaccard': 0, 'filled': {'475': 1.338, '39': 30.743}}",
28,"{'items': ['110', '39'], 'found': '39', 'support': 1759, 'level': 1, 'jaccard': 0, 'filled': 0}","{'items': ['36', '48'], 'found': '48', 'support': 1696, 'level': 1, 'jaccard': 0, 'filled': {'36': 1.812, '48': 25.678}}",
29,"{'items': ['310', '39'], 'found': '39', 'support': 1852, 'level': 1, 'jaccard': 0, 'filled': 0}","{'items': ['170', '48'], 'found': '48', 'support': 1838, 'level': 1, 'jaccard': 0, 'filled': {'170': 1.913, '48': 25.678}}",
30,"{'items': ['237', '39'], 'found': '39', 'support': 1929, 'level': 1, 'jaccard': 0, 'filled': 0}","{'items': ['310', '48'], 'found': '48', 'support': 1863, 'level': 1, 'jaccard': 0, 'filled': {'310': 1.601, '48': 25.678}}",
31,"{'items': ['36', '39'], 'found': '39', 'support': 2037, 'level': 1, 'jaccard': 0, 'filled': 0}","{'items': ['237', '48'], 'found': '48', 'support': 1932, 'level': 1, 'jaccard': 0, 'filled': {'237': 1.872, '48': 25.678}}",
32,"{'items': ['170', '39'], 'found': '39', 'support': 2059, 'level': 1, 'jaccard': 0, 'filled': 0}","{'items': ['110', '39'], 'found': '39', 'support': 1973, 'level': 1, 'jaccard': 0, 'filled': {'110': 1.725, '39': 30.743}}",
33,"{'items': ['225', '39'], 'found': '39', 'support': 2351, 'level': 1, 'jaccard': 0, 'filled': 0}","{'items': ['310', '39'], 'found': '39', 'support': 2009, 'level': 1, 'jaccard': 0, 'filled': {'310': 1.601, '39': 30.743}}",
34,"{'items': ['65', '48'], 'found': '48', 'support': 2529, 'level': 1, 'jaccard': 0, 'filled': 0}","{'items': ['225', '48'], 'found': '48', 'support': 2017, 'level': 1, 'jaccard': 0, 'filled': {'225': 2.01, '48': 25.678}}",
35,"{'items': ['110', '38'], 'found': '38', 'support': 2725, 'level': 1, 'jaccard': 0, 'filled': 0}","{'items': ['237', '39'], 'found': '39', 'support': 2168, 'level': 1, 'jaccard': 0, 'filled': {'237': 1.872, '39': 30.743}}",
36,"{'items': ['89', '39'], 'found': '39', 'support': 2749, 'level': 1, 'jaccard': 0, 'filled': 0}","{'items': ['36', '39'], 'found': '39', 'support': 2214, 'level': 1, 'jaccard': 0, 'filled': {'36': 1.812, '39': 30.743}}",
37,"{'items': ['65', '39'], 'found': '39', 'support': 2787, 'level': 1, 'jaccard': 0, 'filled': 0}","{'items': ['170', '39'], 'found': '39', 'support': 2290, 'level': 1, 'jaccard': 0, 'filled': {'170': 1.913, '39': 30.743}}",
38,"{'items': ['36', '38'], 'found': '38', 'support': 2790, 'level': 1, 'jaccard': 0, 'filled': 0}","{'items': ['225', '39'], 'found': '39', 'support': 2545, 'level': 1, 'jaccard': 0, 'filled': {'225': 2.01, '39': 30.743}}",
39,"{'items': ['89', '48'], 'found': '48', 'support': 2798, 'level': 1, 'jaccard': 0, 'filled': 0}","{'items': ['110', '38'], 'found': '38', 'support': 2731, 'level': 1, 'jaccard': 0, 'filled': {'110': 1.725, '38': 9.609}}",
40,"{'items': ['32', '38'], 'found': '38', 'support': 2833, 'level': 1, 'jaccard': 0, 'filled': 0}","{'items': ['36', '38'], 'found': '38', 'support': 2800, 'level': 1, 'jaccard': 0, 'filled': {'36': 1.812, '38': 9.609}}",
41,"{'items': ['170', '38'], 'found': '38', 'support': 3031, 'level': 1, 'jaccard': 0, 'filled': 0}","{'items': ['65', '48'], 'found': '48', 'support': 2881, 'level': 1, 'jaccard': 0, 'filled': {'65': 2.76, '48': 25.678}}",
42,"{'items': ['41', '32'], 'found': '32', 'support': 3196, 'level': 1, 'jaccard': 0, 'filled': 0}","{'items': ['89', '39'], 'found': '39', 'support': 2992, 'level': 1, 'jaccard': 0, 'filled': {'89': 2.368, '39': 30.743}}",
43,"{'items': ['41', '38'], 'found': '38', 'support': 3897, 'level': 1, 'jaccard': 0, 'filled': 0}","{'items': ['89', '48'], 'found': '48', 'support': 3005, 'level': 1, 'jaccard': 0, 'filled': {'89': 2.368, '48': 25.678}}",
44,"{'items': ['38', '48'], 'found': '48', 'support': 7944, 'level': 1, 'jaccard': 0, 'filled': 0}","{'items': ['170', '38'], 'found': '38', 'support': 3030, 'level': 1, 'jaccard': 0, 'filled': {'170': 1.913, '38': 9.609}}",
45,"{'items': ['32', '48'], 'found': '48', 'support': 8034, 'level': 1, 'jaccard': 0, 'filled': 0}","{'items': ['65', '39'], 'found': '39', 'support': 3108, 'level': 1, 'jaccard': 0, 'filled': {'65': 2.76, '39': 30.743}}",
46,"{'items': ['32', '39'], 'found': '39', 'support': 8455, 'level': 1, 'jaccard': 0, 'filled': 0}","{'items': ['32', '38'], 'found': '38', 'support': 3569, 'level': 1, 'jaccard': 0, 'filled': {'32': 9.348, '38': 9.609}}",
47,"{'items': ['41', '48'], 'found': '48', 'support': 9018, 'level': 1, 'jaccard': 0, 'filled': 0}","{'items': ['41', '32'], 'found': '32', 'support': 3849, 'level': 1, 'jaccard': 0, 'filled': {'41': 9.213, '32': 9.348}}",
48,"{'items': ['38', '39'], 'found': '39', 'support': 10345, 'level': 1, 'jaccard': 0, 'filled': 0}","{'items': ['41', '38'], 'found': '38', 'support': 4471, 'level': 1, 'jaccard': 0, 'filled': {'41': 9.213, '38': 9.609}}",
49,"{'items': ['41', '39'], 'found': '39', 'support': 11414, 'level': 1, 'jaccard': 0, 'filled': 0}","{'items': ['38', '48'], 'found': '48', 'support': 9122, 'level': 1, 'jaccard': 0, 'filled': {'38': 9.609, '48': 25.678}}",
50,"{'items': ['48', '39'], 'found': '39', 'support': 29142, 'level': 1, 'jaccard': 0, 'filled': 0}","{'items': ['32', '48'], 'found': '48', 'support': 9144, 'level': 1, 'jaccard': 0, 'filled': {'32': 9.348, '48': 25.678}}",
51,"{'items': ['170', '38', '48'], 'found': '48', 'support': 1538, 'level': 2, 'jaccard': 0, 'filled': 0}","{'items': ['32', '39'], 'found': '39', 'support': 9713, 'level': 1, 'jaccard': 0, 'filled': {'32': 9.348, '39': 30.743}}",
52,"{'items': ['32', '38', '48'], 'found': '48', 'support': 1646, 'level': 2, 'jaccard': 0, 'filled': 0}","{'items': ['41', '48'], 'found': '48', 'support': 9919, 'level': 1, 'jaccard': 0, 'filled': {'41': 9.213, '48': 25.678}}",
53,"{'items': ['110', '38', '39'], 'found': '39', 'support': 1740, 'level': 2, 'jaccard': 0, 'filled': 0}","{'items': ['38', '39'], 'found': '39', 'support': 11298, 'level': 1, 'jaccard': 0, 'filled': {'38': 9.609, '39': 30.743}}",
54,"{'items': ['65', '48', '39'], 'found': '39', 'support': 1797, 'level': 2, 'jaccard': 0, 'filled': 0}","{'items': ['41', '39'], 'found': '39', 'support': 12054, 'level': 1, 'jaccard': 0, 'filled': {'41': 9.213, '39': 30.743}}",
55,"{'items': ['32', '38', '39'], 'found': '39', 'support': 1840, 'level': 2, 'jaccard': 0, 'filled': 0}","{'items': ['48', '39'], 'found': '39', 'support': 30443, 'level': 1, 'jaccard': 0, 'filled': {'48': 25.678, '39': 30.743}}",
56,"{'items': ['36', '38', '39'], 'found': '39', 'support': 1945, 'level': 2, 'jaccard': 0, 'filled': 0}","{'items': ['170', '48', '39'], 'found': '39', 'support': 1537, 'level': 2, 'jaccard': 0, 'filled': {'170': 1.913, '48': 25.678, '39': 30.743}}",
57,"{'items': ['170', '38', '39'], 'found': '39', 'support': 2019, 'level': 2, 'jaccard': 0, 'filled': 0}","{'items': ['237', '48', '39'], 'found': '39', 'support': 1554, 'level': 2, 'jaccard': 0, 'filled': {'237': 1.872, '48': 25.678, '39': 30.743}}",
58,"{'items': ['41', '32', '48'], 'found': '48', 'support': 2063, 'level': 2, 'jaccard': 0, 'filled': 0}","{'items': ['310', '48', '39'], 'found': '39', 'support': 1571, 'level': 2, 'jaccard': 0, 'filled': {'310': 1.601, '48': 25.678, '39': 30.743}}",
59,"{'items': ['89', '48', '39'], 'found': '39', 'support': 2125, 'level': 2, 'jaccard': 0, 'filled': 0}","{'items': ['110', '38', '48'], 'found': '48', 'support': 1586, 'level': 2, 'jaccard': 0, 'filled': {'110': 1.725, '38': 9.609, '48': 25.678}}",
60,"{'items': ['41', '32', '39'], 'found': '39', 'support': 2359, 'level': 2, 'jaccard': 0, 'filled': 0}","{'items': ['36', '38', '48'], 'found': '48', 'support': 1634, 'level': 2, 'jaccard': 0, 'filled': {'36': 1.812, '38': 9.609, '48': 25.678}}",
61,"{'items': ['41', '38', '48'], 'found': '48', 'support': 2374, 'level': 2, 'jaccard': 0, 'filled': 0}","{'items': ['225', '48', '39'], 'found': '39', 'support': 1728, 'level': 2, 'jaccard': 0, 'filled': {'225': 2.01, '48': 25.678, '39': 30.743}}",
62,"{'items': ['41', '38', '39'], 'found': '39', 'support': 3051, 'level': 2, 'jaccard': 0, 'filled': 0}","{'items': ['170', '38', '48'], 'found': '48', 'support': 1813, 'level': 2, 'jaccard': 0, 'filled': {'170': 1.913, '38': 9.609, '48': 25.678}}",
63,"{'items': ['32', '48', '39'], 'found': '39', 'support': 5402, 'level': 2, 'jaccard': 0, 'filled': 0}","{'items': ['110', '38', '39'], 'found': '39', 'support': 1946, 'level': 2, 'jaccard': 0, 'filled': {'110': 1.725, '38': 9.609, '39': 30.743}}",
64,"{'items': ['38', '48', '39'], 'found': '39', 'support': 6102, 'level': 2, 'jaccard': 0, 'filled': 0}","{'items': ['36', '38', '39'], 'found': '39', 'support': 2120, 'level': 2, 'jaccard': 0, 'filled': {'36': 1.812, '38': 9.609, '39': 30.743}}",
65,"{'items': ['41', '48', '39'], 'found': '39', 'support': 7366, 'level': 2, 'jaccard': 0, 'filled': 0}","{'items': ['170', '38', '39'], 'found': '39', 'support': 2249, 'level': 2, 'jaccard': 0, 'filled': {'170': 1.913, '38': 9.609, '39': 30.743}}",
66,"{'items': ['41', '32', '48', '39'], 'found': '39', 'support': 1646, 'level': 3, 'jaccard': 0, 'filled': 0}","{'items': ['65', '48', '39'], 'found': '39', 'support': 2250, 'level': 2, 'jaccard': 0, 'filled': {'65': 2.76, '48': 25.678, '39': 30.743}}",
67,"{'items': ['41', '38', '48', '39'], 'found': '39', 'support': 1991, 'level': 3, 'jaccard': 0, 'filled': 0}","{'items': ['32', '38', '48'], 'found': '48', 'support': 2440, 'level': 2, 'jaccard': 0, 'filled': {'32': 9.348, '38': 9.609, '48': 25.678}}",
68,,"{'items': ['89', '48', '39'], 'found': '39', 'support': 2458, 'level': 2, 'jaccard': 0, 'filled': {'89': 2.368, '48': 25.678, '39': 30.743}}",
69,,"{'items': ['32', '38', '39'], 'found': '39', 'support': 2696, 'level': 2, 'jaccard': 0, 'filled': {'32': 9.348, '38': 9.609, '39': 30.743}}",
70,,"{'items': ['41', '32', '48'], 'found': '48', 'support': 2807, 'level': 2, 'jaccard': 0, 'filled': {'41': 9.213, '32': 9.348, '48': 25.678}}",
71,,"{'items': ['41', '38', '48'], 'found': '48', 'support': 3103, 'level': 2, 'jaccard': 0, 'filled': {'41': 9.213, '38': 9.609, '48': 25.678}}",
72,,"{'items': ['41', '32', '39'], 'found': '39', 'support': 3138, 'level': 2, 'jaccard': 0, 'filled': {'41': 9.213, '32': 9.348, '39': 30.743}}",
73,,"{'items': ['41', '38', '39'], 'found': '39', 'support': 3755, 'level': 2, 'jaccard': 0, 'filled': {'41': 9.213, '38': 9.609, '39': 30.743}}",
74,,"{'items': ['32', '48', '39'], 'found': '39', 'support': 6838, 'level': 2, 'jaccard': 0, 'filled': {'32': 9.348, '48': 25.678, '39': 30.743}}",
75,,"{'items': ['38', '48', '39'], 'found': '39', 'support': 7491, 'level': 2, 'jaccard': 0, 'filled': {'38': 9.609, '48': 25.678, '39': 30.743}}",
76,,"{'items': ['41', '48', '39'], 'found': '39', 'support': 8478, 'level': 2, 'jaccard': 0, 'filled': {'41': 9.213, '48': 25.678, '39': 30.743}}",
77,,"{'items': ['170', '38', '48', '39'], 'found': '39', 'support': 1518, 'level': 3, 'jaccard': 0, 'filled': {'170': 1.913, '38': 9.609, '48': 25.678, '39': 30.743}}",
78,,"{'items': ['32', '38', '48', '39'], 'found': '39', 'support': 2034, 'level': 3, 'jaccard': 0, 'filled': {'32': 9.348, '38': 9.609, '48': 25.678, '39': 30.743}}",
79,,"{'items': ['41', '32', '48', '39'], 'found': '39', 'support': 2420, 'level': 3, 'jaccard': 0, 'filled': {'41': 9.213, '32': 9.348, '48': 25.678, '39': 30.743}}",
80,,"{'items': ['41', '38', '48', '39'], 'found': '39', 'support': 2746, 'level': 3, 'jaccard': 0, 'filled': {'41': 9.213, '38': 9.609, '48': 25.678, '39': 30.743}}",
