,exact,approx_bloom,exact_support,approx_support,level,error,filled,jaccard_real,jaccard_approx
0,"{'items': ['66'], 'found': '66', 'support': 3021, 'level': 0, 'jaccard': -1, 'filled': 0}","{'items': ['66'], 'found': '66', 'support': 3026, 'level': 0, 'jaccard': -1, 'filled': 12.195}",3021,3026,0,5,12.195,-1,-1
1,"{'items': ['34'], 'found': '34', 'support': 3040, 'level': 0, 'jaccard': -1, 'filled': 0}","{'items': ['34'], 'found': '34', 'support': 3045, 'level': 0, 'jaccard': -1, 'filled': 12.27}",3040,3045,0,5,12.27,-1,-1
2,"{'items': ['36'], 'found': '36', 'support': 3099, 'level': 0, 'jaccard': -1, 'filled': 0}","{'items': ['36'], 'found': '36', 'support': 3105, 'level': 0, 'jaccard': -1, 'filled': 12.496}",3099,3105,0,6,12.496,-1,-1
3,"{'items': ['29'], 'found': '29', 'support': 3181, 'level': 0, 'jaccard': -1, 'filled': 0}","{'items': ['29'], 'found': '29', 'support': 3187, 'level': 0, 'jaccard': -1, 'filled': 12.801}",3181,3187,0,6,12.801,-1,-1
4,"{'items': ['52'], 'found': '52', 'support': 3185, 'level': 0, 'jaccard': -1, 'filled': 0}","{'items': ['52'], 'found': '52', 'support': 3191, 'level': 0, 'jaccard': -1, 'filled': 12.816}",3185,3191,0,6,12.816,-1,-1
5,"{'items': ['56'], 'found': '56', 'support': 3021, 'level': 0, 'jaccard': -1, 'filled': 0}","{'items': ['56'], 'found': '56', 'support': 3028, 'level': 0, 'jaccard': -1, 'filled': 12.203}",3021,3028,0,7,12.203,-1,-1
6,"{'items': ['60'], 'found': '60', 'support': 3149, 'level': 0, 'jaccard': -1, 'filled': 0}","{'items': ['60'], 'found': '60', 'support': 3156, 'level': 0, 'jaccard': -1, 'filled': 12.687}",3149,3156,0,7,12.687,-1,-1
7,"{'items': ['58'], 'found': '58', 'support': 3195, 'level': 0, 'jaccard': -1, 'filled': 0}","{'items': ['58'], 'found': '58', 'support': 3202, 'level': 0, 'jaccard': -1, 'filled': 12.857}",3195,3202,0,7,12.857,-1,-1
8,"{'items': ['62'], 'found': '62', 'support': 3060, 'level': 0, 'jaccard': -1, 'filled': 0}","{'items': ['62'], 'found': '62', 'support': 3069, 'level': 0, 'jaccard': -1, 'filled': 12.358}",3060,3069,0,9,12.358,-1,-1
9,"{'items': ['40'], 'found': '40', 'support': 3170, 'level': 0, 'jaccard': -1, 'filled': 0}","{'items': ['40'], 'found': '40', 'support': 3179, 'level': 0, 'jaccard': -1, 'filled': 12.771}",3170,3179,0,9,12.771,-1,-1
10,"{'items': ['48'], 'found': '48', 'support': 3013, 'level': 0, 'jaccard': -1, 'filled': 0}","{'items': ['48'], 'found': '48', 'support': 3024, 'level': 0, 'jaccard': -1, 'filled': 12.188}",3013,3024,0,11,12.188,-1,-1
11,"{'items': ['7'], 'found': '7', 'support': 3076, 'level': 0, 'jaccard': -1, 'filled': 0}","{'items': ['7'], 'found': '7', 'support': 3089, 'level': 0, 'jaccard': -1, 'filled': 12.433}",3076,3089,0,13,12.433,-1,-1
12,"{'items': ['66', '52'], 'found': '52', 'support': 3010, 'level': 1, 'jaccard': -1, 'filled': 0}","{'items': ['66', '52'], 'found': '52', 'support': 3014, 'level': 1, 'jaccard': -1, 'filled': {'66': 12.195, '52': 12.816}}",3010,3014,1,4,"{'66': 12.195, '52': 12.816}",-1,-1
13,"{'items': ['66', '29'], 'found': '29', 'support': 3013, 'level': 1, 'jaccard': -1, 'filled': 0}","{'items': ['66', '29'], 'found': '29', 'support': 3017, 'level': 1, 'jaccard': -1, 'filled': {'66': 12.195, '29': 12.801}}",3013,3017,1,4,"{'66': 12.195, '29': 12.801}",-1,-1
14,"{'items': ['66', '58'], 'found': '58', 'support': 3020, 'level': 1, 'jaccard': -1, 'filled': 0}","{'items': ['66', '58'], 'found': '58', 'support': 3024, 'level': 1, 'jaccard': -1, 'filled': {'66': 12.195, '58': 12.857}}",3020,3024,1,4,"{'66': 12.195, '58': 12.857}",-1,-1
15,"{'items': ['34', '52'], 'found': '52', 'support': 3031, 'level': 1, 'jaccard': -1, 'filled': 0}","{'items': ['34', '52'], 'found': '52', 'support': 3035, 'level': 1, 'jaccard': -1, 'filled': {'34': 12.27, '52': 12.816}}",3031,3035,1,4,"{'34': 12.27, '52': 12.816}",-1,-1
16,"{'items': ['66', '60'], 'found': '60', 'support': 3021, 'level': 1, 'jaccard': -1, 'filled': 0}","{'items': ['66', '60'], 'found': '60', 'support': 3026, 'level': 1, 'jaccard': -1, 'filled': {'66': 12.195, '60': 12.687}}",3021,3026,1,5,"{'66': 12.195, '60': 12.687}",-1,-1
17,"{'items': ['34', '29'], 'found': '29', 'support': 3036, 'level': 1, 'jaccard': -1, 'filled': 0}","{'items': ['34', '29'], 'found': '29', 'support': 3041, 'level': 1, 'jaccard': -1, 'filled': {'34': 12.27, '29': 12.801}}",3036,3041,1,5,"{'34': 12.27, '29': 12.801}",-1,-1
18,"{'items': ['34', '58'], 'found': '58', 'support': 3039, 'level': 1, 'jaccard': -1, 'filled': 0}","{'items': ['34', '58'], 'found': '58', 'support': 3044, 'level': 1, 'jaccard': -1, 'filled': {'34': 12.27, '58': 12.857}}",3039,3044,1,5,"{'34': 12.27, '58': 12.857}",-1,-1
19,"{'items': ['36', '29'], 'found': '29', 'support': 3084, 'level': 1, 'jaccard': -1, 'filled': 0}","{'items': ['36', '29'], 'found': '29', 'support': 3089, 'level': 1, 'jaccard': -1, 'filled': {'36': 12.496, '29': 12.801}}",3084,3089,1,5,"{'36': 12.496, '29': 12.801}",-1,-1
20,"{'items': ['36', '52'], 'found': '52', 'support': 3088, 'level': 1, 'jaccard': -1, 'filled': 0}","{'items': ['36', '52'], 'found': '52', 'support': 3093, 'level': 1, 'jaccard': -1, 'filled': {'36': 12.496, '52': 12.816}}",3088,3093,1,5,"{'36': 12.496, '52': 12.816}",-1,-1
21,"{'items': ['29', '52'], 'found': '52', 'support': 3170, 'level': 1, 'jaccard': -1, 'filled': 0}","{'items': ['29', '52'], 'found': '52', 'support': 3175, 'level': 1, 'jaccard': -1, 'filled': {'29': 12.801, '52': 12.816}}",3170,3175,1,5,"{'29': 12.801, '52': 12.816}",-1,-1
22,"{'items': ['29', '58'], 'found': '58', 'support': 3180, 'level': 1, 'jaccard': -1, 'filled': 0}","{'items': ['29', '58'], 'found': '58', 'support': 3185, 'level': 1, 'jaccard': -1, 'filled': {'29': 12.801, '58': 12.857}}",3180,3185,1,5,"{'29': 12.801, '58': 12.857}",-1,-1
23,"{'items': ['56', '29'], 'found': '29', 'support': 3006, 'level': 1, 'jaccard': -1, 'filled': 0}","{'items': ['56', '29'], 'found': '29', 'support': 3012, 'level': 1, 'jaccard': -1, 'filled': {'56': 12.203, '29': 12.801}}",3006,3012,1,6,"{'56': 12.203, '29': 12.801}",-1,-1
24,"{'items': ['56', '52'], 'found': '52', 'support': 3016, 'level': 1, 'jaccard': -1, 'filled': 0}","{'items': ['56', '52'], 'found': '52', 'support': 3022, 'level': 1, 'jaccard': -1, 'filled': {'56': 12.203, '52': 12.816}}",3016,3022,1,6,"{'56': 12.203, '52': 12.816}",-1,-1
25,"{'items': ['36', '58'], 'found': '58', 'support': 3098, 'level': 1, 'jaccard': -1, 'filled': 0}","{'items': ['36', '58'], 'found': '58', 'support': 3104, 'level': 1, 'jaccard': -1, 'filled': {'36': 12.496, '58': 12.857}}",3098,3104,1,6,"{'36': 12.496, '58': 12.857}",-1,-1
26,"{'items': ['60', '29'], 'found': '29', 'support': 3136, 'level': 1, 'jaccard': -1, 'filled': 0}","{'items': ['60', '29'], 'found': '29', 'support': 3142, 'level': 1, 'jaccard': -1, 'filled': {'60': 12.687, '29': 12.801}}",3136,3142,1,6,"{'60': 12.687, '29': 12.801}",-1,-1
27,"{'items': ['60', '52'], 'found': '52', 'support': 3138, 'level': 1, 'jaccard': -1, 'filled': 0}","{'items': ['60', '52'], 'found': '52', 'support': 3144, 'level': 1, 'jaccard': -1, 'filled': {'60': 12.687, '52': 12.816}}",3138,3144,1,6,"{'60': 12.687, '52': 12.816}",-1,-1
28,"{'items': ['52', '58'], 'found': '58', 'support': 3184, 'level': 1, 'jaccard': -1, 'filled': 0}","{'items': ['52', '58'], 'found': '58', 'support': 3190, 'level': 1, 'jaccard': -1, 'filled': {'52': 12.816, '58': 12.857}}",3184,3190,1,6,"{'52': 12.816, '58': 12.857}",-1,-1
29,"{'items': ['56', '58'], 'found': '58', 'support': 3020, 'level': 1, 'jaccard': -1, 'filled': 0}","{'items': ['56', '58'], 'found': '58', 'support': 3027, 'level': 1, 'jaccard': -1, 'filled': {'56': 12.203, '58': 12.857}}",3020,3027,1,7,"{'56': 12.203, '58': 12.857}",-1,-1
30,"{'items': ['36', '60'], 'found': '60', 'support': 3052, 'level': 1, 'jaccard': -1, 'filled': 0}","{'items': ['36', '60'], 'found': '60', 'support': 3059, 'level': 1, 'jaccard': -1, 'filled': {'36': 12.496, '60': 12.687}}",3052,3059,1,7,"{'36': 12.496, '60': 12.687}",-1,-1
31,"{'items': ['60', '58'], 'found': '58', 'support': 3148, 'level': 1, 'jaccard': -1, 'filled': 0}","{'items': ['60', '58'], 'found': '58', 'support': 3155, 'level': 1, 'jaccard': -1, 'filled': {'60': 12.687, '58': 12.857}}",3148,3155,1,7,"{'60': 12.687, '58': 12.857}",-1,-1
32,"{'items': ['34', '40'], 'found': '40', 'support': 3017, 'level': 1, 'jaccard': -1, 'filled': 0}","{'items': ['34', '40'], 'found': '40', 'support': 3025, 'level': 1, 'jaccard': -1, 'filled': {'34': 12.27, '40': 12.771}}",3017,3025,1,8,"{'34': 12.27, '40': 12.771}",-1,-1
33,"{'items': ['62', '29'], 'found': '29', 'support': 3045, 'level': 1, 'jaccard': -1, 'filled': 0}","{'items': ['62', '29'], 'found': '29', 'support': 3053, 'level': 1, 'jaccard': -1, 'filled': {'62': 12.358, '29': 12.801}}",3045,3053,1,8,"{'62': 12.358, '29': 12.801}",-1,-1
34,"{'items': ['62', '52'], 'found': '52', 'support': 3049, 'level': 1, 'jaccard': -1, 'filled': 0}","{'items': ['62', '52'], 'found': '52', 'support': 3057, 'level': 1, 'jaccard': -1, 'filled': {'62': 12.358, '52': 12.816}}",3049,3057,1,8,"{'62': 12.358, '52': 12.816}",-1,-1
35,"{'items': ['36', '40'], 'found': '40', 'support': 3073, 'level': 1, 'jaccard': -1, 'filled': 0}","{'items': ['36', '40'], 'found': '40', 'support': 3081, 'level': 1, 'jaccard': -1, 'filled': {'36': 12.496, '40': 12.771}}",3073,3081,1,8,"{'36': 12.496, '40': 12.771}",-1,-1
36,"{'items': ['40', '29'], 'found': '29', 'support': 3155, 'level': 1, 'jaccard': -1, 'filled': 0}","{'items': ['40', '29'], 'found': '29', 'support': 3163, 'level': 1, 'jaccard': -1, 'filled': {'40': 12.771, '29': 12.801}}",3155,3163,1,8,"{'40': 12.771, '29': 12.801}",-1,-1
37,"{'items': ['40', '52'], 'found': '52', 'support': 3159, 'level': 1, 'jaccard': -1, 'filled': 0}","{'items': ['40', '52'], 'found': '52', 'support': 3167, 'level': 1, 'jaccard': -1, 'filled': {'40': 12.771, '52': 12.816}}",3159,3167,1,8,"{'40': 12.771, '52': 12.816}",-1,-1
38,"{'items': ['40', '58'], 'found': '58', 'support': 3169, 'level': 1, 'jaccard': -1, 'filled': 0}","{'items': ['40', '58'], 'found': '58', 'support': 3177, 'level': 1, 'jaccard': -1, 'filled': {'40': 12.771, '58': 12.857}}",3169,3177,1,8,"{'40': 12.771, '58': 12.857}",-1,-1
39,"{'items': ['62', '60'], 'found': '60', 'support': 3014, 'level': 1, 'jaccard': -1, 'filled': 0}","{'items': ['62', '60'], 'found': '60', 'support': 3023, 'level': 1, 'jaccard': -1, 'filled': {'62': 12.358, '60': 12.687}}",3014,3023,1,9,"{'62': 12.358, '60': 12.687}",-1,-1
40,"{'items': ['62', '40'], 'found': '40', 'support': 3045, 'level': 1, 'jaccard': -1, 'filled': 0}","{'items': ['62', '40'], 'found': '40', 'support': 3054, 'level': 1, 'jaccard': -1, 'filled': {'62': 12.358, '40': 12.771}}",3045,3054,1,9,"{'62': 12.358, '40': 12.771}",-1,-1
41,"{'items': ['62', '58'], 'found': '58', 'support': 3060, 'level': 1, 'jaccard': -1, 'filled': 0}","{'items': ['62', '58'], 'found': '58', 'support': 3069, 'level': 1, 'jaccard': -1, 'filled': {'62': 12.358, '58': 12.857}}",3060,3069,1,9,"{'62': 12.358, '58': 12.857}",-1,-1
42,"{'items': ['60', '40'], 'found': '40', 'support': 3124, 'level': 1, 'jaccard': -1, 'filled': 0}","{'items': ['60', '40'], 'found': '40', 'support': 3133, 'level': 1, 'jaccard': -1, 'filled': {'60': 12.687, '40': 12.771}}",3124,3133,1,9,"{'60': 12.687, '40': 12.771}",-1,-1
43,"{'items': ['48', '52'], 'found': '52', 'support': 3002, 'level': 1, 'jaccard': -1, 'filled': 0}","{'items': ['48', '52'], 'found': '52', 'support': 3012, 'level': 1, 'jaccard': -1, 'filled': {'48': 12.188, '52': 12.816}}",3002,3012,1,10,"{'48': 12.188, '52': 12.816}",-1,-1
44,"{'items': ['48', '58'], 'found': '58', 'support': 3012, 'level': 1, 'jaccard': -1, 'filled': 0}","{'items': ['48', '58'], 'found': '58', 'support': 3023, 'level': 1, 'jaccard': -1, 'filled': {'48': 12.188, '58': 12.857}}",3012,3023,1,11,"{'48': 12.188, '58': 12.857}",-1,-1
45,"{'items': ['7', '52'], 'found': '52', 'support': 3065, 'level': 1, 'jaccard': -1, 'filled': 0}","{'items': ['7', '52'], 'found': '52', 'support': 3077, 'level': 1, 'jaccard': -1, 'filled': {'7': 12.433, '52': 12.816}}",3065,3077,1,12,"{'7': 12.433, '52': 12.816}",-1,-1
46,"{'items': ['7', '29'], 'found': '29', 'support': 3069, 'level': 1, 'jaccard': -1, 'filled': 0}","{'items': ['7', '29'], 'found': '29', 'support': 3081, 'level': 1, 'jaccard': -1, 'filled': {'7': 12.433, '29': 12.801}}",3069,3081,1,12,"{'7': 12.433, '29': 12.801}",-1,-1
47,"{'items': ['7', '60'], 'found': '60', 'support': 3031, 'level': 1, 'jaccard': -1, 'filled': 0}","{'items': ['7', '60'], 'found': '60', 'support': 3044, 'level': 1, 'jaccard': -1, 'filled': {'7': 12.433, '60': 12.687}}",3031,3044,1,13,"{'7': 12.433, '60': 12.687}",-1,-1
48,"{'items': ['7', '58'], 'found': '58', 'support': 3075, 'level': 1, 'jaccard': -1, 'filled': 0}","{'items': ['7', '58'], 'found': '58', 'support': 3088, 'level': 1, 'jaccard': -1, 'filled': {'7': 12.433, '58': 12.857}}",3075,3088,1,13,"{'7': 12.433, '58': 12.857}",-1,-1
49,"{'items': ['7', '40'], 'found': '40', 'support': 3050, 'level': 1, 'jaccard': -1, 'filled': 0}","{'items': ['7', '40'], 'found': '40', 'support': 3065, 'level': 1, 'jaccard': -1, 'filled': {'7': 12.433, '40': 12.771}}",3050,3065,1,15,"{'7': 12.433, '40': 12.771}",-1,-1
50,"{'items': ['66', '29', '52'], 'found': '52', 'support': 3002, 'level': 2, 'jaccard': -1, 'filled': 0}","{'items': ['66', '29', '52'], 'found': '52', 'support': 3005, 'level': 2, 'jaccard': -1, 'filled': {'66': 12.195, '29': 12.801, '52': 12.816}}",3002,3005,2,3,"{'66': 12.195, '29': 12.801, '52': 12.816}",-1,-1
51,"{'items': ['66', '52', '58'], 'found': '58', 'support': 3009, 'level': 2, 'jaccard': -1, 'filled': 0}","{'items': ['66', '52', '58'], 'found': '58', 'support': 3012, 'level': 2, 'jaccard': -1, 'filled': {'66': 12.195, '52': 12.816, '58': 12.857}}",3009,3012,2,3,"{'66': 12.195, '52': 12.816, '58': 12.857}",-1,-1
52,"{'items': ['66', '60', '52'], 'found': '52', 'support': 3010, 'level': 2, 'jaccard': -1, 'filled': 0}","{'items': ['66', '60', '52'], 'found': '52', 'support': 3014, 'level': 2, 'jaccard': -1, 'filled': {'66': 12.195, '60': 12.687, '52': 12.816}}",3010,3014,2,4,"{'66': 12.195, '60': 12.687, '52': 12.816}",-1,-1
53,"{'items': ['66', '29', '58'], 'found': '58', 'support': 3012, 'level': 2, 'jaccard': -1, 'filled': 0}","{'items': ['66', '29', '58'], 'found': '58', 'support': 3016, 'level': 2, 'jaccard': -1, 'filled': {'66': 12.195, '29': 12.801, '58': 12.857}}",3012,3016,2,4,"{'66': 12.195, '29': 12.801, '58': 12.857}",-1,-1
54,"{'items': ['66', '60', '29'], 'found': '29', 'support': 3013, 'level': 2, 'jaccard': -1, 'filled': 0}","{'items': ['66', '60', '29'], 'found': '29', 'support': 3017, 'level': 2, 'jaccard': -1, 'filled': {'66': 12.195, '60': 12.687, '29': 12.801}}",3013,3017,2,4,"{'66': 12.195, '60': 12.687, '29': 12.801}",-1,-1
55,"{'items': ['66', '60', '58'], 'found': '58', 'support': 3020, 'level': 2, 'jaccard': -1, 'filled': 0}","{'items': ['66', '60', '58'], 'found': '58', 'support': 3024, 'level': 2, 'jaccard': -1, 'filled': {'66': 12.195, '60': 12.687, '58': 12.857}}",3020,3024,2,4,"{'66': 12.195, '60': 12.687, '58': 12.857}",-1,-1
56,"{'items': ['34', '29', '52'], 'found': '52', 'support': 3027, 'level': 2, 'jaccard': -1, 'filled': 0}","{'items': ['34', '29', '52'], 'found': '52', 'support': 3031, 'level': 2, 'jaccard': -1, 'filled': {'34': 12.27, '29': 12.801, '52': 12.816}}",3027,3031,2,4,"{'34': 12.27, '29': 12.801, '52': 12.816}",-1,-1
57,"{'items': ['34', '52', '58'], 'found': '58', 'support': 3030, 'level': 2, 'jaccard': -1, 'filled': 0}","{'items': ['34', '52', '58'], 'found': '58', 'support': 3034, 'level': 2, 'jaccard': -1, 'filled': {'34': 12.27, '52': 12.816, '58': 12.857}}",3030,3034,2,4,"{'34': 12.27, '52': 12.816, '58': 12.857}",-1,-1
58,"{'items': ['36', '29', '52'], 'found': '52', 'support': 3073, 'level': 2, 'jaccard': -1, 'filled': 0}","{'items': ['36', '29', '52'], 'found': '52', 'support': 3077, 'level': 2, 'jaccard': -1, 'filled': {'36': 12.496, '29': 12.801, '52': 12.816}}",3073,3077,2,4,"{'36': 12.496, '29': 12.801, '52': 12.816}",-1,-1
59,"{'items': ['29', '52', '58'], 'found': '58', 'support': 3169, 'level': 2, 'jaccard': -1, 'filled': 0}","{'items': ['29', '52', '58'], 'found': '58', 'support': 3173, 'level': 2, 'jaccard': -1, 'filled': {'29': 12.801, '52': 12.816, '58': 12.857}}",3169,3173,2,4,"{'29': 12.801, '52': 12.816, '58': 12.857}",-1,-1
60,"{'items': ['56', '29', '52'], 'found': '52', 'support': 3001, 'level': 2, 'jaccard': -1, 'filled': 0}","{'items': ['56', '29', '52'], 'found': '52', 'support': 3006, 'level': 2, 'jaccard': -1, 'filled': {'56': 12.203, '29': 12.801, '52': 12.816}}",3001,3006,2,5,"{'56': 12.203, '29': 12.801, '52': 12.816}",-1,-1
61,"{'items': ['34', '29', '58'], 'found': '58', 'support': 3035, 'level': 2, 'jaccard': -1, 'filled': 0}","{'items': ['34', '29', '58'], 'found': '58', 'support': 3040, 'level': 2, 'jaccard': -1, 'filled': {'34': 12.27, '29': 12.801, '58': 12.857}}",3035,3040,2,5,"{'34': 12.27, '29': 12.801, '58': 12.857}",-1,-1
62,"{'items': ['36', '29', '58'], 'found': '58', 'support': 3083, 'level': 2, 'jaccard': -1, 'filled': 0}","{'items': ['36', '29', '58'], 'found': '58', 'support': 3088, 'level': 2, 'jaccard': -1, 'filled': {'36': 12.496, '29': 12.801, '58': 12.857}}",3083,3088,2,5,"{'36': 12.496, '29': 12.801, '58': 12.857}",-1,-1
63,"{'items': ['36', '52', '58'], 'found': '58', 'support': 3087, 'level': 2, 'jaccard': -1, 'filled': 0}","{'items': ['36', '52', '58'], 'found': '58', 'support': 3092, 'level': 2, 'jaccard': -1, 'filled': {'36': 12.496, '52': 12.816, '58': 12.857}}",3087,3092,2,5,"{'36': 12.496, '52': 12.816, '58': 12.857}",-1,-1
64,"{'items': ['60', '29', '52'], 'found': '52', 'support': 3125, 'level': 2, 'jaccard': -1, 'filled': 0}","{'items': ['60', '29', '52'], 'found': '52', 'support': 3130, 'level': 2, 'jaccard': -1, 'filled': {'60': 12.687, '29': 12.801, '52': 12.816}}",3125,3130,2,5,"{'60': 12.687, '29': 12.801, '52': 12.816}",-1,-1
65,"{'items': ['56', '29', '58'], 'found': '58', 'support': 3005, 'level': 2, 'jaccard': -1, 'filled': 0}","{'items': ['56', '29', '58'], 'found': '58', 'support': 3011, 'level': 2, 'jaccard': -1, 'filled': {'56': 12.203, '29': 12.801, '58': 12.857}}",3005,3011,2,6,"{'56': 12.203, '29': 12.801, '58': 12.857}",-1,-1
66,"{'items': ['56', '52', '58'], 'found': '58', 'support': 3015, 'level': 2, 'jaccard': -1, 'filled': 0}","{'items': ['56', '52', '58'], 'found': '58', 'support': 3021, 'level': 2, 'jaccard': -1, 'filled': {'56': 12.203, '52': 12.816, '58': 12.857}}",3015,3021,2,6,"{'56': 12.203, '52': 12.816, '58': 12.857}",-1,-1
67,"{'items': ['36', '60', '29'], 'found': '29', 'support': 3039, 'level': 2, 'jaccard': -1, 'filled': 0}","{'items': ['36', '60', '29'], 'found': '29', 'support': 3045, 'level': 2, 'jaccard': -1, 'filled': {'36': 12.496, '60': 12.687, '29': 12.801}}",3039,3045,2,6,"{'36': 12.496, '60': 12.687, '29': 12.801}",-1,-1
68,"{'items': ['36', '60', '52'], 'found': '52', 'support': 3041, 'level': 2, 'jaccard': -1, 'filled': 0}","{'items': ['36', '60', '52'], 'found': '52', 'support': 3047, 'level': 2, 'jaccard': -1, 'filled': {'36': 12.496, '60': 12.687, '52': 12.816}}",3041,3047,2,6,"{'36': 12.496, '60': 12.687, '52': 12.816}",-1,-1
69,"{'items': ['60', '29', '58'], 'found': '58', 'support': 3135, 'level': 2, 'jaccard': -1, 'filled': 0}","{'items': ['60', '29', '58'], 'found': '58', 'support': 3141, 'level': 2, 'jaccard': -1, 'filled': {'60': 12.687, '29': 12.801, '58': 12.857}}",3135,3141,2,6,"{'60': 12.687, '29': 12.801, '58': 12.857}",-1,-1
70,"{'items': ['60', '52', '58'], 'found': '58', 'support': 3137, 'level': 2, 'jaccard': -1, 'filled': 0}","{'items': ['60', '52', '58'], 'found': '58', 'support': 3143, 'level': 2, 'jaccard': -1, 'filled': {'60': 12.687, '52': 12.816, '58': 12.857}}",3137,3143,2,6,"{'60': 12.687, '52': 12.816, '58': 12.857}",-1,-1
71,"{'items': ['34', '40', '52'], 'found': '52', 'support': 3008, 'level': 2, 'jaccard': -1, 'filled': 0}","{'items': ['34', '40', '52'], 'found': '52', 'support': 3015, 'level': 2, 'jaccard': -1, 'filled': {'34': 12.27, '40': 12.771, '52': 12.816}}",3008,3015,2,7,"{'34': 12.27, '40': 12.771, '52': 12.816}",-1,-1
72,"{'items': ['62', '29', '52'], 'found': '52', 'support': 3034, 'level': 2, 'jaccard': -1, 'filled': 0}","{'items': ['62', '29', '52'], 'found': '52', 'support': 3041, 'level': 2, 'jaccard': -1, 'filled': {'62': 12.358, '29': 12.801, '52': 12.816}}",3034,3041,2,7,"{'62': 12.358, '29': 12.801, '52': 12.816}",-1,-1
73,"{'items': ['36', '60', '58'], 'found': '58', 'support': 3051, 'level': 2, 'jaccard': -1, 'filled': 0}","{'items': ['36', '60', '58'], 'found': '58', 'support': 3058, 'level': 2, 'jaccard': -1, 'filled': {'36': 12.496, '60': 12.687, '58': 12.857}}",3051,3058,2,7,"{'36': 12.496, '60': 12.687, '58': 12.857}",-1,-1
74,"{'items': ['36', '40', '29'], 'found': '29', 'support': 3058, 'level': 2, 'jaccard': -1, 'filled': 0}","{'items': ['36', '40', '29'], 'found': '29', 'support': 3065, 'level': 2, 'jaccard': -1, 'filled': {'36': 12.496, '40': 12.771, '29': 12.801}}",3058,3065,2,7,"{'36': 12.496, '40': 12.771, '29': 12.801}",-1,-1
75,"{'items': ['36', '40', '52'], 'found': '52', 'support': 3062, 'level': 2, 'jaccard': -1, 'filled': 0}","{'items': ['36', '40', '52'], 'found': '52', 'support': 3069, 'level': 2, 'jaccard': -1, 'filled': {'36': 12.496, '40': 12.771, '52': 12.816}}",3062,3069,2,7,"{'36': 12.496, '40': 12.771, '52': 12.816}",-1,-1
76,"{'items': ['40', '29', '52'], 'found': '52', 'support': 3144, 'level': 2, 'jaccard': -1, 'filled': 0}","{'items': ['40', '29', '52'], 'found': '52', 'support': 3151, 'level': 2, 'jaccard': -1, 'filled': {'40': 12.771, '29': 12.801, '52': 12.816}}",3144,3151,2,7,"{'40': 12.771, '29': 12.801, '52': 12.816}",-1,-1
77,"{'items': ['40', '29', '58'], 'found': '58', 'support': 3154, 'level': 2, 'jaccard': -1, 'filled': 0}","{'items': ['40', '29', '58'], 'found': '58', 'support': 3161, 'level': 2, 'jaccard': -1, 'filled': {'40': 12.771, '29': 12.801, '58': 12.857}}",3154,3161,2,7,"{'40': 12.771, '29': 12.801, '58': 12.857}",-1,-1
78,"{'items': ['40', '52', '58'], 'found': '58', 'support': 3158, 'level': 2, 'jaccard': -1, 'filled': 0}","{'items': ['40', '52', '58'], 'found': '58', 'support': 3165, 'level': 2, 'jaccard': -1, 'filled': {'40': 12.771, '52': 12.816, '58': 12.857}}",3158,3165,2,7,"{'40': 12.771, '52': 12.816, '58': 12.857}",-1,-1
79,"{'items': ['62', '60', '29'], 'found': '29', 'support': 3001, 'level': 2, 'jaccard': -1, 'filled': 0}","{'items': ['62', '60', '29'], 'found': '29', 'support': 3009, 'level': 2, 'jaccard': -1, 'filled': {'62': 12.358, '60': 12.687, '29': 12.801}}",3001,3009,2,8,"{'62': 12.358, '60': 12.687, '29': 12.801}",-1,-1
80,"{'items': ['62', '60', '52'], 'found': '52', 'support': 3003, 'level': 2, 'jaccard': -1, 'filled': 0}","{'items': ['62', '60', '52'], 'found': '52', 'support': 3011, 'level': 2, 'jaccard': -1, 'filled': {'62': 12.358, '60': 12.687, '52': 12.816}}",3003,3011,2,8,"{'62': 12.358, '60': 12.687, '52': 12.816}",-1,-1
81,"{'items': ['34', '40', '29'], 'found': '29', 'support': 3013, 'level': 2, 'jaccard': -1, 'filled': 0}","{'items': ['34', '40', '29'], 'found': '29', 'support': 3021, 'level': 2, 'jaccard': -1, 'filled': {'34': 12.27, '40': 12.771, '29': 12.801}}",3013,3021,2,8,"{'34': 12.27, '40': 12.771, '29': 12.801}",-1,-1
82,"{'items': ['34', '40', '58'], 'found': '58', 'support': 3016, 'level': 2, 'jaccard': -1, 'filled': 0}","{'items': ['34', '40', '58'], 'found': '58', 'support': 3024, 'level': 2, 'jaccard': -1, 'filled': {'34': 12.27, '40': 12.771, '58': 12.857}}",3016,3024,2,8,"{'34': 12.27, '40': 12.771, '58': 12.857}",-1,-1
83,"{'items': ['62', '40', '29'], 'found': '29', 'support': 3030, 'level': 2, 'jaccard': -1, 'filled': 0}","{'items': ['62', '40', '29'], 'found': '29', 'support': 3038, 'level': 2, 'jaccard': -1, 'filled': {'62': 12.358, '40': 12.771, '29': 12.801}}",3030,3038,2,8,"{'62': 12.358, '40': 12.771, '29': 12.801}",-1,-1
84,"{'items': ['62', '40', '52'], 'found': '52', 'support': 3034, 'level': 2, 'jaccard': -1, 'filled': 0}","{'items': ['62', '40', '52'], 'found': '52', 'support': 3042, 'level': 2, 'jaccard': -1, 'filled': {'62': 12.358, '40': 12.771, '52': 12.816}}",3034,3042,2,8,"{'62': 12.358, '40': 12.771, '52': 12.816}",-1,-1
85,"{'items': ['62', '29', '58'], 'found': '58', 'support': 3045, 'level': 2, 'jaccard': -1, 'filled': 0}","{'items': ['62', '29', '58'], 'found': '58', 'support': 3053, 'level': 2, 'jaccard': -1, 'filled': {'62': 12.358, '29': 12.801, '58': 12.857}}",3045,3053,2,8,"{'62': 12.358, '29': 12.801, '58': 12.857}",-1,-1
86,"{'items': ['62', '52', '58'], 'found': '58', 'support': 3049, 'level': 2, 'jaccard': -1, 'filled': 0}","{'items': ['62', '52', '58'], 'found': '58', 'support': 3057, 'level': 2, 'jaccard': -1, 'filled': {'62': 12.358, '52': 12.816, '58': 12.857}}",3049,3057,2,8,"{'62': 12.358, '52': 12.816, '58': 12.857}",-1,-1
87,"{'items': ['36', '40', '58'], 'found': '58', 'support': 3072, 'level': 2, 'jaccard': -1, 'filled': 0}","{'items': ['36', '40', '58'], 'found': '58', 'support': 3080, 'level': 2, 'jaccard': -1, 'filled': {'36': 12.496, '40': 12.771, '58': 12.857}}",3072,3080,2,8,"{'36': 12.496, '40': 12.771, '58': 12.857}",-1,-1
88,"{'items': ['60', '40', '29'], 'found': '29', 'support': 3111, 'level': 2, 'jaccard': -1, 'filled': 0}","{'items': ['60', '40', '29'], 'found': '29', 'support': 3119, 'level': 2, 'jaccard': -1, 'filled': {'60': 12.687, '40': 12.771, '29': 12.801}}",3111,3119,2,8,"{'60': 12.687, '40': 12.771, '29': 12.801}",-1,-1
89,"{'items': ['60', '40', '52'], 'found': '52', 'support': 3113, 'level': 2, 'jaccard': -1, 'filled': 0}","{'items': ['60', '40', '52'], 'found': '52', 'support': 3121, 'level': 2, 'jaccard': -1, 'filled': {'60': 12.687, '40': 12.771, '52': 12.816}}",3113,3121,2,8,"{'60': 12.687, '40': 12.771, '52': 12.816}",-1,-1
90,"{'items': ['62', '60', '58'], 'found': '58', 'support': 3014, 'level': 2, 'jaccard': -1, 'filled': 0}","{'items': ['62', '60', '58'], 'found': '58', 'support': 3023, 'level': 2, 'jaccard': -1, 'filled': {'62': 12.358, '60': 12.687, '58': 12.857}}",3014,3023,2,9,"{'62': 12.358, '60': 12.687, '58': 12.857}",-1,-1
91,"{'items': ['36', '60', '40'], 'found': '40', 'support': 3027, 'level': 2, 'jaccard': -1, 'filled': 0}","{'items': ['36', '60', '40'], 'found': '40', 'support': 3036, 'level': 2, 'jaccard': -1, 'filled': {'36': 12.496, '60': 12.687, '40': 12.771}}",3027,3036,2,9,"{'36': 12.496, '60': 12.687, '40': 12.771}",-1,-1
92,"{'items': ['62', '40', '58'], 'found': '58', 'support': 3045, 'level': 2, 'jaccard': -1, 'filled': 0}","{'items': ['62', '40', '58'], 'found': '58', 'support': 3054, 'level': 2, 'jaccard': -1, 'filled': {'62': 12.358, '40': 12.771, '58': 12.857}}",3045,3054,2,9,"{'62': 12.358, '40': 12.771, '58': 12.857}",-1,-1
93,"{'items': ['60', '40', '58'], 'found': '58', 'support': 3123, 'level': 2, 'jaccard': -1, 'filled': 0}","{'items': ['60', '40', '58'], 'found': '58', 'support': 3132, 'level': 2, 'jaccard': -1, 'filled': {'60': 12.687, '40': 12.771, '58': 12.857}}",3123,3132,2,9,"{'60': 12.687, '40': 12.771, '58': 12.857}",-1,-1
94,"{'items': ['48', '52', '58'], 'found': '58', 'support': 3001, 'level': 2, 'jaccard': -1, 'filled': 0}","{'items': ['48', '52', '58'], 'found': '58', 'support': 3011, 'level': 2, 'jaccard': -1, 'filled': {'48': 12.188, '52': 12.816, '58': 12.857}}",3001,3011,2,10,"{'48': 12.188, '52': 12.816, '58': 12.857}",-1,-1
95,"{'items': ['7', '29', '52'], 'found': '52', 'support': 3058, 'level': 2, 'jaccard': -1, 'filled': 0}","{'items': ['7', '29', '52'], 'found': '52', 'support': 3069, 'level': 2, 'jaccard': -1, 'filled': {'7': 12.433, '29': 12.801, '52': 12.816}}",3058,3069,2,11,"{'7': 12.433, '29': 12.801, '52': 12.816}",-1,-1
96,"{'items': ['7', '60', '52'], 'found': '52', 'support': 3020, 'level': 2, 'jaccard': -1, 'filled': 0}","{'items': ['7', '60', '52'], 'found': '52', 'support': 3032, 'level': 2, 'jaccard': -1, 'filled': {'7': 12.433, '60': 12.687, '52': 12.816}}",3020,3032,2,12,"{'7': 12.433, '60': 12.687, '52': 12.816}",-1,-1
97,"{'items': ['7', '60', '29'], 'found': '29', 'support': 3024, 'level': 2, 'jaccard': -1, 'filled': 0}","{'items': ['7', '60', '29'], 'found': '29', 'support': 3036, 'level': 2, 'jaccard': -1, 'filled': {'7': 12.433, '60': 12.687, '29': 12.801}}",3024,3036,2,12,"{'7': 12.433, '60': 12.687, '29': 12.801}",-1,-1
98,"{'items': ['7', '52', '58'], 'found': '58', 'support': 3064, 'level': 2, 'jaccard': -1, 'filled': 0}","{'items': ['7', '52', '58'], 'found': '58', 'support': 3076, 'level': 2, 'jaccard': -1, 'filled': {'7': 12.433, '52': 12.816, '58': 12.857}}",3064,3076,2,12,"{'7': 12.433, '52': 12.816, '58': 12.857}",-1,-1
99,"{'items': ['7', '29', '58'], 'found': '58', 'support': 3068, 'level': 2, 'jaccard': -1, 'filled': 0}","{'items': ['7', '29', '58'], 'found': '58', 'support': 3080, 'level': 2, 'jaccard': -1, 'filled': {'7': 12.433, '29': 12.801, '58': 12.857}}",3068,3080,2,12,"{'7': 12.433, '29': 12.801, '58': 12.857}",-1,-1
100,"{'items': ['7', '60', '58'], 'found': '58', 'support': 3030, 'level': 2, 'jaccard': -1, 'filled': 0}","{'items': ['7', '60', '58'], 'found': '58', 'support': 3043, 'level': 2, 'jaccard': -1, 'filled': {'7': 12.433, '60': 12.687, '58': 12.857}}",3030,3043,2,13,"{'7': 12.433, '60': 12.687, '58': 12.857}",-1,-1
101,"{'items': ['7', '40', '52'], 'found': '52', 'support': 3039, 'level': 2, 'jaccard': -1, 'filled': 0}","{'items': ['7', '40', '52'], 'found': '52', 'support': 3053, 'level': 2, 'jaccard': -1, 'filled': {'7': 12.433, '40': 12.771, '52': 12.816}}",3039,3053,2,14,"{'7': 12.433, '40': 12.771, '52': 12.816}",-1,-1
102,"{'items': ['7', '40', '29'], 'found': '29', 'support': 3043, 'level': 2, 'jaccard': -1, 'filled': 0}","{'items': ['7', '40', '29'], 'found': '29', 'support': 3057, 'level': 2, 'jaccard': -1, 'filled': {'7': 12.433, '40': 12.771, '29': 12.801}}",3043,3057,2,14,"{'7': 12.433, '40': 12.771, '29': 12.801}",-1,-1
103,"{'items': ['7', '60', '40'], 'found': '40', 'support': 3006, 'level': 2, 'jaccard': -1, 'filled': 0}","{'items': ['7', '60', '40'], 'found': '40', 'support': 3021, 'level': 2, 'jaccard': -1, 'filled': {'7': 12.433, '60': 12.687, '40': 12.771}}",3006,3021,2,15,"{'7': 12.433, '60': 12.687, '40': 12.771}",-1,-1
104,"{'items': ['7', '40', '58'], 'found': '58', 'support': 3049, 'level': 2, 'jaccard': -1, 'filled': 0}","{'items': ['7', '40', '58'], 'found': '58', 'support': 3064, 'level': 2, 'jaccard': -1, 'filled': {'7': 12.433, '40': 12.771, '58': 12.857}}",3049,3064,2,15,"{'7': 12.433, '40': 12.771, '58': 12.857}",-1,-1
105,"{'items': ['66', '29', '52', '58'], 'found': '58', 'support': 3001, 'level': 3, 'jaccard': -1, 'filled': 0}","{'items': ['66', '29', '52', '58'], 'found': '58', 'support': 3004, 'level': 3, 'jaccard': -1, 'filled': {'66': 12.195, '29': 12.801, '52': 12.816, '58': 12.857}}",3001,3004,3,3,"{'66': 12.195, '29': 12.801, '52': 12.816, '58': 12.857}",-1,-1
106,"{'items': ['66', '60', '29', '52'], 'found': '52', 'support': 3002, 'level': 3, 'jaccard': -1, 'filled': 0}","{'items': ['66', '60', '29', '52'], 'found': '52', 'support': 3005, 'level': 3, 'jaccard': -1, 'filled': {'66': 12.195, '60': 12.687, '29': 12.801, '52': 12.816}}",3002,3005,3,3,"{'66': 12.195, '60': 12.687, '29': 12.801, '52': 12.816}",-1,-1
107,"{'items': ['66', '60', '52', '58'], 'found': '58', 'support': 3009, 'level': 3, 'jaccard': -1, 'filled': 0}","{'items': ['66', '60', '52', '58'], 'found': '58', 'support': 3012, 'level': 3, 'jaccard': -1, 'filled': {'66': 12.195, '60': 12.687, '52': 12.816, '58': 12.857}}",3009,3012,3,3,"{'66': 12.195, '60': 12.687, '52': 12.816, '58': 12.857}",-1,-1
108,"{'items': ['66', '60', '29', '58'], 'found': '58', 'support': 3012, 'level': 3, 'jaccard': -1, 'filled': 0}","{'items': ['66', '60', '29', '58'], 'found': '58', 'support': 3016, 'level': 3, 'jaccard': -1, 'filled': {'66': 12.195, '60': 12.687, '29': 12.801, '58': 12.857}}",3012,3016,3,4,"{'66': 12.195, '60': 12.687, '29': 12.801, '58': 12.857}",-1,-1
109,"{'items': ['34', '29', '52', '58'], 'found': '58', 'support': 3026, 'level': 3, 'jaccard': -1, 'filled': 0}","{'items': ['34', '29', '52', '58'], 'found': '58', 'support': 3030, 'level': 3, 'jaccard': -1, 'filled': {'34': 12.27, '29': 12.801, '52': 12.816, '58': 12.857}}",3026,3030,3,4,"{'34': 12.27, '29': 12.801, '52': 12.816, '58': 12.857}",-1,-1
110,"{'items': ['36', '29', '52', '58'], 'found': '58', 'support': 3072, 'level': 3, 'jaccard': -1, 'filled': 0}","{'items': ['36', '29', '52', '58'], 'found': '58', 'support': 3076, 'level': 3, 'jaccard': -1, 'filled': {'36': 12.496, '29': 12.801, '52': 12.816, '58': 12.857}}",3072,3076,3,4,"{'36': 12.496, '29': 12.801, '52': 12.816, '58': 12.857}",-1,-1
111,"{'items': ['56', '29', '52', '58'], 'found': '58', 'support': 3000, 'level': 3, 'jaccard': -1, 'filled': 0}","{'items': ['56', '29', '52', '58'], 'found': '58', 'support': 3005, 'level': 3, 'jaccard': -1, 'filled': {'56': 12.203, '29': 12.801, '52': 12.816, '58': 12.857}}",3000,3005,3,5,"{'56': 12.203, '29': 12.801, '52': 12.816, '58': 12.857}",-1,-1
112,"{'items': ['36', '60', '29', '52'], 'found': '52', 'support': 3028, 'level': 3, 'jaccard': -1, 'filled': 0}","{'items': ['36', '60', '29', '52'], 'found': '52', 'support': 3033, 'level': 3, 'jaccard': -1, 'filled': {'36': 12.496, '60': 12.687, '29': 12.801, '52': 12.816}}",3028,3033,3,5,"{'36': 12.496, '60': 12.687, '29': 12.801, '52': 12.816}",-1,-1
113,"{'items': ['60', '29', '52', '58'], 'found': '58', 'support': 3124, 'level': 3, 'jaccard': -1, 'filled': 0}","{'items': ['60', '29', '52', '58'], 'found': '58', 'support': 3129, 'level': 3, 'jaccard': -1, 'filled': {'60': 12.687, '29': 12.801, '52': 12.816, '58': 12.857}}",3124,3129,3,5,"{'60': 12.687, '29': 12.801, '52': 12.816, '58': 12.857}",-1,-1
114,"{'items': ['36', '60', '29', '58'], 'found': '58', 'support': 3038, 'level': 3, 'jaccard': -1, 'filled': 0}","{'items': ['36', '60', '29', '58'], 'found': '58', 'support': 3044, 'level': 3, 'jaccard': -1, 'filled': {'36': 12.496, '60': 12.687, '29': 12.801, '58': 12.857}}",3038,3044,3,6,"{'36': 12.496, '60': 12.687, '29': 12.801, '58': 12.857}",-1,-1
115,"{'items': ['36', '60', '52', '58'], 'found': '58', 'support': 3040, 'level': 3, 'jaccard': -1, 'filled': 0}","{'items': ['36', '60', '52', '58'], 'found': '58', 'support': 3046, 'level': 3, 'jaccard': -1, 'filled': {'36': 12.496, '60': 12.687, '52': 12.816, '58': 12.857}}",3040,3046,3,6,"{'36': 12.496, '60': 12.687, '52': 12.816, '58': 12.857}",-1,-1
116,"{'items': ['36', '40', '29', '52'], 'found': '52', 'support': 3047, 'level': 3, 'jaccard': -1, 'filled': 0}","{'items': ['36', '40', '29', '52'], 'found': '52', 'support': 3053, 'level': 3, 'jaccard': -1, 'filled': {'36': 12.496, '40': 12.771, '29': 12.801, '52': 12.816}}",3047,3053,3,6,"{'36': 12.496, '40': 12.771, '29': 12.801, '52': 12.816}",-1,-1
117,"{'items': ['40', '29', '52', '58'], 'found': '58', 'support': 3143, 'level': 3, 'jaccard': -1, 'filled': 0}","{'items': ['40', '29', '52', '58'], 'found': '58', 'support': 3149, 'level': 3, 'jaccard': -1, 'filled': {'40': 12.771, '29': 12.801, '52': 12.816, '58': 12.857}}",3143,3149,3,6,"{'40': 12.771, '29': 12.801, '52': 12.816, '58': 12.857}",-1,-1
118,"{'items': ['34', '40', '29', '52'], 'found': '52', 'support': 3004, 'level': 3, 'jaccard': -1, 'filled': 0}","{'items': ['34', '40', '29', '52'], 'found': '52', 'support': 3011, 'level': 3, 'jaccard': -1, 'filled': {'34': 12.27, '40': 12.771, '29': 12.801, '52': 12.816}}",3004,3011,3,7,"{'34': 12.27, '40': 12.771, '29': 12.801, '52': 12.816}",-1,-1
119,"{'items': ['34', '40', '52', '58'], 'found': '58', 'support': 3007, 'level': 3, 'jaccard': -1, 'filled': 0}","{'items': ['34', '40', '52', '58'], 'found': '58', 'support': 3014, 'level': 3, 'jaccard': -1, 'filled': {'34': 12.27, '40': 12.771, '52': 12.816, '58': 12.857}}",3007,3014,3,7,"{'34': 12.27, '40': 12.771, '52': 12.816, '58': 12.857}",-1,-1
120,"{'items': ['62', '40', '29', '52'], 'found': '52', 'support': 3019, 'level': 3, 'jaccard': -1, 'filled': 0}","{'items': ['62', '40', '29', '52'], 'found': '52', 'support': 3026, 'level': 3, 'jaccard': -1, 'filled': {'62': 12.358, '40': 12.771, '29': 12.801, '52': 12.816}}",3019,3026,3,7,"{'62': 12.358, '40': 12.771, '29': 12.801, '52': 12.816}",-1,-1
121,"{'items': ['62', '29', '52', '58'], 'found': '58', 'support': 3034, 'level': 3, 'jaccard': -1, 'filled': 0}","{'items': ['62', '29', '52', '58'], 'found': '58', 'support': 3041, 'level': 3, 'jaccard': -1, 'filled': {'62': 12.358, '29': 12.801, '52': 12.816, '58': 12.857}}",3034,3041,3,7,"{'62': 12.358, '29': 12.801, '52': 12.816, '58': 12.857}",-1,-1
122,"{'items': ['36', '40', '29', '58'], 'found': '58', 'support': 3057, 'level': 3, 'jaccard': -1, 'filled': 0}","{'items': ['36', '40', '29', '58'], 'found': '58', 'support': 3064, 'level': 3, 'jaccard': -1, 'filled': {'36': 12.496, '40': 12.771, '29': 12.801, '58': 12.857}}",3057,3064,3,7,"{'36': 12.496, '40': 12.771, '29': 12.801, '58': 12.857}",-1,-1
123,"{'items': ['36', '40', '52', '58'], 'found': '58', 'support': 3061, 'level': 3, 'jaccard': -1, 'filled': 0}","{'items': ['36', '40', '52', '58'], 'found': '58', 'support': 3068, 'level': 3, 'jaccard': -1, 'filled': {'36': 12.496, '40': 12.771, '52': 12.816, '58': 12.857}}",3061,3068,3,7,"{'36': 12.496, '40': 12.771, '52': 12.816, '58': 12.857}",-1,-1
124,"{'items': ['60', '40', '29', '52'], 'found': '52', 'support': 3100, 'level': 3, 'jaccard': -1, 'filled': 0}","{'items': ['60', '40', '29', '52'], 'found': '52', 'support': 3107, 'level': 3, 'jaccard': -1, 'filled': {'60': 12.687, '40': 12.771, '29': 12.801, '52': 12.816}}",3100,3107,3,7,"{'60': 12.687, '40': 12.771, '29': 12.801, '52': 12.816}",-1,-1
125,"{'items': ['60', '40', '29', '58'], 'found': '58', 'support': 3110, 'level': 3, 'jaccard': -1, 'filled': 0}","{'items': ['60', '40', '29', '58'], 'found': '58', 'support': 3117, 'level': 3, 'jaccard': -1, 'filled': {'60': 12.687, '40': 12.771, '29': 12.801, '58': 12.857}}",3110,3117,3,7,"{'60': 12.687, '40': 12.771, '29': 12.801, '58': 12.857}",-1,-1
126,"{'items': ['62', '60', '29', '58'], 'found': '58', 'support': 3001, 'level': 3, 'jaccard': -1, 'filled': 0}","{'items': ['62', '60', '29', '58'], 'found': '58', 'support': 3009, 'level': 3, 'jaccard': -1, 'filled': {'62': 12.358, '60': 12.687, '29': 12.801, '58': 12.857}}",3001,3009,3,8,"{'62': 12.358, '60': 12.687, '29': 12.801, '58': 12.857}",-1,-1
127,"{'items': ['62', '60', '52', '58'], 'found': '58', 'support': 3003, 'level': 3, 'jaccard': -1, 'filled': 0}","{'items': ['62', '60', '52', '58'], 'found': '58', 'support': 3011, 'level': 3, 'jaccard': -1, 'filled': {'62': 12.358, '60': 12.687, '52': 12.816, '58': 12.857}}",3003,3011,3,8,"{'62': 12.358, '60': 12.687, '52': 12.816, '58': 12.857}",-1,-1
128,"{'items': ['34', '40', '29', '58'], 'found': '58', 'support': 3012, 'level': 3, 'jaccard': -1, 'filled': 0}","{'items': ['34', '40', '29', '58'], 'found': '58', 'support': 3020, 'level': 3, 'jaccard': -1, 'filled': {'34': 12.27, '40': 12.771, '29': 12.801, '58': 12.857}}",3012,3020,3,8,"{'34': 12.27, '40': 12.771, '29': 12.801, '58': 12.857}",-1,-1
129,"{'items': ['36', '60', '40', '29'], 'found': '29', 'support': 3014, 'level': 3, 'jaccard': -1, 'filled': 0}","{'items': ['36', '60', '40', '29'], 'found': '29', 'support': 3022, 'level': 3, 'jaccard': -1, 'filled': {'36': 12.496, '60': 12.687, '40': 12.771, '29': 12.801}}",3014,3022,3,8,"{'36': 12.496, '60': 12.687, '40': 12.771, '29': 12.801}",-1,-1
130,"{'items': ['36', '60', '40', '52'], 'found': '52', 'support': 3016, 'level': 3, 'jaccard': -1, 'filled': 0}","{'items': ['36', '60', '40', '52'], 'found': '52', 'support': 3024, 'level': 3, 'jaccard': -1, 'filled': {'36': 12.496, '60': 12.687, '40': 12.771, '52': 12.816}}",3016,3024,3,8,"{'36': 12.496, '60': 12.687, '40': 12.771, '52': 12.816}",-1,-1
131,"{'items': ['62', '40', '29', '58'], 'found': '58', 'support': 3030, 'level': 3, 'jaccard': -1, 'filled': 0}","{'items': ['62', '40', '29', '58'], 'found': '58', 'support': 3038, 'level': 3, 'jaccard': -1, 'filled': {'62': 12.358, '40': 12.771, '29': 12.801, '58': 12.857}}",3030,3038,3,8,"{'62': 12.358, '40': 12.771, '29': 12.801, '58': 12.857}",-1,-1
132,"{'items': ['62', '40', '52', '58'], 'found': '58', 'support': 3034, 'level': 3, 'jaccard': -1, 'filled': 0}","{'items': ['62', '40', '52', '58'], 'found': '58', 'support': 3042, 'level': 3, 'jaccard': -1, 'filled': {'62': 12.358, '40': 12.771, '52': 12.816, '58': 12.857}}",3034,3042,3,8,"{'62': 12.358, '40': 12.771, '52': 12.816, '58': 12.857}",-1,-1
133,"{'items': ['60', '40', '52', '58'], 'found': '58', 'support': 3112, 'level': 3, 'jaccard': -1, 'filled': 0}","{'items': ['60', '40', '52', '58'], 'found': '58', 'support': 3120, 'level': 3, 'jaccard': -1, 'filled': {'60': 12.687, '40': 12.771, '52': 12.816, '58': 12.857}}",3112,3120,3,8,"{'60': 12.687, '40': 12.771, '52': 12.816, '58': 12.857}",-1,-1
134,"{'items': ['36', '60', '40', '58'], 'found': '58', 'support': 3026, 'level': 3, 'jaccard': -1, 'filled': 0}","{'items': ['36', '60', '40', '58'], 'found': '58', 'support': 3035, 'level': 3, 'jaccard': -1, 'filled': {'36': 12.496, '60': 12.687, '40': 12.771, '58': 12.857}}",3026,3035,3,9,"{'36': 12.496, '60': 12.687, '40': 12.771, '58': 12.857}",-1,-1
135,"{'items': ['7', '60', '29', '52'], 'found': '52', 'support': 3013, 'level': 3, 'jaccard': -1, 'filled': 0}","{'items': ['7', '60', '29', '52'], 'found': '52', 'support': 3024, 'level': 3, 'jaccard': -1, 'filled': {'7': 12.433, '60': 12.687, '29': 12.801, '52': 12.816}}",3013,3024,3,11,"{'7': 12.433, '60': 12.687, '29': 12.801, '52': 12.816}",-1,-1
136,"{'items': ['7', '29', '52', '58'], 'found': '58', 'support': 3057, 'level': 3, 'jaccard': -1, 'filled': 0}","{'items': ['7', '29', '52', '58'], 'found': '58', 'support': 3068, 'level': 3, 'jaccard': -1, 'filled': {'7': 12.433, '29': 12.801, '52': 12.816, '58': 12.857}}",3057,3068,3,11,"{'7': 12.433, '29': 12.801, '52': 12.816, '58': 12.857}",-1,-1
137,"{'items': ['7', '60', '52', '58'], 'found': '58', 'support': 3019, 'level': 3, 'jaccard': -1, 'filled': 0}","{'items': ['7', '60', '52', '58'], 'found': '58', 'support': 3031, 'level': 3, 'jaccard': -1, 'filled': {'7': 12.433, '60': 12.687, '52': 12.816, '58': 12.857}}",3019,3031,3,12,"{'7': 12.433, '60': 12.687, '52': 12.816, '58': 12.857}",-1,-1
138,"{'items': ['7', '60', '29', '58'], 'found': '58', 'support': 3023, 'level': 3, 'jaccard': -1, 'filled': 0}","{'items': ['7', '60', '29', '58'], 'found': '58', 'support': 3035, 'level': 3, 'jaccard': -1, 'filled': {'7': 12.433, '60': 12.687, '29': 12.801, '58': 12.857}}",3023,3035,3,12,"{'7': 12.433, '60': 12.687, '29': 12.801, '58': 12.857}",-1,-1
139,"{'items': ['7', '40', '29', '52'], 'found': '52', 'support': 3032, 'level': 3, 'jaccard': -1, 'filled': 0}","{'items': ['7', '40', '29', '52'], 'found': '52', 'support': 3045, 'level': 3, 'jaccard': -1, 'filled': {'7': 12.433, '40': 12.771, '29': 12.801, '52': 12.816}}",3032,3045,3,13,"{'7': 12.433, '40': 12.771, '29': 12.801, '52': 12.816}",-1,-1
140,"{'items': ['7', '40', '52', '58'], 'found': '58', 'support': 3038, 'level': 3, 'jaccard': -1, 'filled': 0}","{'items': ['7', '40', '52', '58'], 'found': '58', 'support': 3052, 'level': 3, 'jaccard': -1, 'filled': {'7': 12.433, '40': 12.771, '52': 12.816, '58': 12.857}}",3038,3052,3,14,"{'7': 12.433, '40': 12.771, '52': 12.816, '58': 12.857}",-1,-1
141,"{'items': ['7', '40', '29', '58'], 'found': '58', 'support': 3042, 'level': 3, 'jaccard': -1, 'filled': 0}","{'items': ['7', '40', '29', '58'], 'found': '58', 'support': 3056, 'level': 3, 'jaccard': -1, 'filled': {'7': 12.433, '40': 12.771, '29': 12.801, '58': 12.857}}",3042,3056,3,14,"{'7': 12.433, '40': 12.771, '29': 12.801, '58': 12.857}",-1,-1
142,"{'items': ['7', '60', '40', '58'], 'found': '58', 'support': 3005, 'level': 3, 'jaccard': -1, 'filled': 0}","{'items': ['7', '60', '40', '58'], 'found': '58', 'support': 3020, 'level': 3, 'jaccard': -1, 'filled': {'7': 12.433, '60': 12.687, '40': 12.771, '58': 12.857}}",3005,3020,3,15,"{'7': 12.433, '60': 12.687, '40': 12.771, '58': 12.857}",-1,-1
143,"{'items': ['66', '60', '29', '52', '58'], 'found': '58', 'support': 3001, 'level': 4, 'jaccard': -1, 'filled': 0}","{'items': ['66', '60', '29', '52', '58'], 'found': '58', 'support': 3004, 'level': 4, 'jaccard': -1, 'filled': {'66': 12.195, '60': 12.687, '29': 12.801, '52': 12.816, '58': 12.857}}",3001,3004,4,3,"{'66': 12.195, '60': 12.687, '29': 12.801, '52': 12.816, '58': 12.857}",-1,-1
144,"{'items': ['36', '60', '29', '52', '58'], 'found': '58', 'support': 3027, 'level': 4, 'jaccard': -1, 'filled': 0}","{'items': ['36', '60', '29', '52', '58'], 'found': '58', 'support': 3032, 'level': 4, 'jaccard': -1, 'filled': {'36': 12.496, '60': 12.687, '29': 12.801, '52': 12.816, '58': 12.857}}",3027,3032,4,5,"{'36': 12.496, '60': 12.687, '29': 12.801, '52': 12.816, '58': 12.857}",-1,-1
145,"{'items': ['36', '40', '29', '52', '58'], 'found': '58', 'support': 3046, 'level': 4, 'jaccard': -1, 'filled': 0}","{'items': ['36', '40', '29', '52', '58'], 'found': '58', 'support': 3052, 'level': 4, 'jaccard': -1, 'filled': {'36': 12.496, '40': 12.771, '29': 12.801, '52': 12.816, '58': 12.857}}",3046,3052,4,6,"{'36': 12.496, '40': 12.771, '29': 12.801, '52': 12.816, '58': 12.857}",-1,-1
146,"{'items': ['60', '40', '29', '52', '58'], 'found': '58', 'support': 3099, 'level': 4, 'jaccard': -1, 'filled': 0}","{'items': ['60', '40', '29', '52', '58'], 'found': '58', 'support': 3105, 'level': 4, 'jaccard': -1, 'filled': {'60': 12.687, '40': 12.771, '29': 12.801, '52': 12.816, '58': 12.857}}",3099,3105,4,6,"{'60': 12.687, '40': 12.771, '29': 12.801, '52': 12.816, '58': 12.857}",-1,-1
147,"{'items': ['34', '40', '29', '52', '58'], 'found': '58', 'support': 3003, 'level': 4, 'jaccard': -1, 'filled': 0}","{'items': ['34', '40', '29', '52', '58'], 'found': '58', 'support': 3010, 'level': 4, 'jaccard': -1, 'filled': {'34': 12.27, '40': 12.771, '29': 12.801, '52': 12.816, '58': 12.857}}",3003,3010,4,7,"{'34': 12.27, '40': 12.771, '29': 12.801, '52': 12.816, '58': 12.857}",-1,-1
148,"{'items': ['36', '60', '40', '29', '52'], 'found': '52', 'support': 3003, 'level': 4, 'jaccard': -1, 'filled': 0}","{'items': ['36', '60', '40', '29', '52'], 'found': '52', 'support': 3010, 'level': 4, 'jaccard': -1, 'filled': {'36': 12.496, '60': 12.687, '40': 12.771, '29': 12.801, '52': 12.816}}",3003,3010,4,7,"{'36': 12.496, '60': 12.687, '40': 12.771, '29': 12.801, '52': 12.816}",-1,-1
149,"{'items': ['36', '60', '40', '29', '58'], 'found': '58', 'support': 3013, 'level': 4, 'jaccard': -1, 'filled': 0}","{'items': ['36', '60', '40', '29', '58'], 'found': '58', 'support': 3020, 'level': 4, 'jaccard': -1, 'filled': {'36': 12.496, '60': 12.687, '40': 12.771, '29': 12.801, '58': 12.857}}",3013,3020,4,7,"{'36': 12.496, '60': 12.687, '40': 12.771, '29': 12.801, '58': 12.857}",-1,-1
150,"{'items': ['62', '40', '29', '52', '58'], 'found': '58', 'support': 3019, 'level': 4, 'jaccard': -1, 'filled': 0}","{'items': ['62', '40', '29', '52', '58'], 'found': '58', 'support': 3026, 'level': 4, 'jaccard': -1, 'filled': {'62': 12.358, '40': 12.771, '29': 12.801, '52': 12.816, '58': 12.857}}",3019,3026,4,7,"{'62': 12.358, '40': 12.771, '29': 12.801, '52': 12.816, '58': 12.857}",-1,-1
151,"{'items': ['36', '60', '40', '52', '58'], 'found': '58', 'support': 3015, 'level': 4, 'jaccard': -1, 'filled': 0}","{'items': ['36', '60', '40', '52', '58'], 'found': '58', 'support': 3023, 'level': 4, 'jaccard': -1, 'filled': {'36': 12.496, '60': 12.687, '40': 12.771, '52': 12.816, '58': 12.857}}",3015,3023,4,8,"{'36': 12.496, '60': 12.687, '40': 12.771, '52': 12.816, '58': 12.857}",-1,-1
152,"{'items': ['7', '60', '29', '52', '58'], 'found': '58', 'support': 3012, 'level': 4, 'jaccard': -1, 'filled': 0}","{'items': ['7', '60', '29', '52', '58'], 'found': '58', 'support': 3023, 'level': 4, 'jaccard': -1, 'filled': {'7': 12.433, '60': 12.687, '29': 12.801, '52': 12.816, '58': 12.857}}",3012,3023,4,11,"{'7': 12.433, '60': 12.687, '29': 12.801, '52': 12.816, '58': 12.857}",-1,-1
153,"{'items': ['7', '40', '29', '52', '58'], 'found': '58', 'support': 3031, 'level': 4, 'jaccard': -1, 'filled': 0}","{'items': ['7', '40', '29', '52', '58'], 'found': '58', 'support': 3044, 'level': 4, 'jaccard': -1, 'filled': {'7': 12.433, '40': 12.771, '29': 12.801, '52': 12.816, '58': 12.857}}",3031,3044,4,13,"{'7': 12.433, '40': 12.771, '29': 12.801, '52': 12.816, '58': 12.857}",-1,-1
154,"{'items': ['36', '60', '40', '29', '52', '58'], 'found': '58', 'support': 3002, 'level': 5, 'jaccard': -1, 'filled': 0}","{'items': ['36', '60', '40', '29', '52', '58'], 'found': '58', 'support': 3008, 'level': 5, 'jaccard': -1, 'filled': {'36': 12.496, '60': 12.687, '40': 12.771, '29': 12.801, '52': 12.816, '58': 12.857}}",3002,3008,5,6,"{'36': 12.496, '60': 12.687, '40': 12.771, '29': 12.801, '52': 12.816, '58': 12.857}",-1,-1
