,exact,approx_bloom,exact_support,approx_support,level,error,filled,jaccard_real,jaccard_approx
0,"{'items': ['29'], 'found': '29', 'support': 299191, 'level': 0, 'jaccard': -1, 'filled': 0}","{'items': ['29'], 'found': '29', 'support': 299051, 'level': 0, 'jaccard': -1, 'filled': 44.937}",299191,299051,0,-140,44.937,-1,-1
1,"{'items': ['31'], 'found': '31', 'support': 318014, 'level': 0, 'jaccard': -1, 'filled': 0}","{'items': ['31'], 'found': '31', 'support': 317897, 'level': 0, 'jaccard': -1, 'filled': 46.969}",318014,317897,0,-117,46.969,-1,-1
2,"{'items': ['12'], 'found': '12', 'support': 339601, 'level': 0, 'jaccard': -1, 'filled': 0}","{'items': ['12'], 'found': '12', 'support': 339519, 'level': 0, 'jaccard': -1, 'filled': 49.208}",339601,339519,0,-82,49.208,-1,-1
3,"{'items': ['43'], 'found': '43', 'support': 291396, 'level': 0, 'jaccard': -1, 'filled': 0}","{'items': ['43'], 'found': '43', 'support': 291320, 'level': 0, 'jaccard': -1, 'filled': 44.081}",291396,291320,0,-76,44.081,-1,-1
4,"{'items': ['18'], 'found': '18', 'support': 339095, 'level': 0, 'jaccard': -1, 'filled': 0}","{'items': ['18'], 'found': '18', 'support': 339024, 'level': 0, 'jaccard': -1, 'filled': 49.158}",339095,339024,0,-71,49.158,-1,-1
5,"{'items': ['17'], 'found': '17', 'support': 340151, 'level': 0, 'jaccard': -1, 'filled': 0}","{'items': ['17'], 'found': '17', 'support': 340103, 'level': 0, 'jaccard': -1, 'filled': 49.267}",340151,340103,0,-48,49.267,-1,-1
6,"{'items': ['16'], 'found': '16', 'support': 332414, 'level': 0, 'jaccard': -1, 'filled': 0}","{'items': ['16'], 'found': '16', 'support': 332403, 'level': 0, 'jaccard': -1, 'filled': 48.482}",332414,332403,0,-11,48.482,-1,-1
7,"{'items': ['21'], 'found': '21', 'support': 302446, 'level': 0, 'jaccard': -1, 'filled': 0}","{'items': ['21'], 'found': '21', 'support': 302549, 'level': 0, 'jaccard': -1, 'filled': 45.32}",302446,302549,0,103,45.32,-1,-1
8,"{'items': ['29', '17'], 'found': '17', 'support': 299159, 'level': 1, 'jaccard': -1, 'filled': 0}","{'items': ['29', '17'], 'found': '17', 'support': 299028, 'level': 1, 'jaccard': -1, 'filled': {'29': 44.937, '17': 49.267}}",299159,299028,1,-131,"{'29': 44.937, '17': 49.267}",-1,-1
9,"{'items': ['29', '12'], 'found': '12', 'support': 298680, 'level': 1, 'jaccard': -1, 'filled': 0}","{'items': ['29', '12'], 'found': '12', 'support': 298555, 'level': 1, 'jaccard': -1, 'filled': {'29': 44.937, '12': 49.208}}",298680,298555,1,-125,"{'29': 44.937, '12': 49.208}",-1,-1
10,"{'items': ['31', '17'], 'found': '17', 'support': 317988, 'level': 1, 'jaccard': -1, 'filled': 0}","{'items': ['31', '17'], 'found': '17', 'support': 317877, 'level': 1, 'jaccard': -1, 'filled': {'31': 46.969, '17': 49.267}}",317988,317877,1,-111,"{'31': 46.969, '17': 49.267}",-1,-1
11,"{'items': ['31', '12'], 'found': '12', 'support': 317536, 'level': 1, 'jaccard': -1, 'filled': 0}","{'items': ['31', '12'], 'found': '12', 'support': 317432, 'level': 1, 'jaccard': -1, 'filled': {'31': 46.969, '12': 49.208}}",317536,317432,1,-104,"{'31': 46.969, '12': 49.208}",-1,-1
12,"{'items': ['29', '18'], 'found': '18', 'support': 298197, 'level': 1, 'jaccard': -1, 'filled': 0}","{'items': ['29', '18'], 'found': '18', 'support': 298118, 'level': 1, 'jaccard': -1, 'filled': {'29': 44.937, '18': 49.158}}",298197,298118,1,-79,"{'29': 44.937, '18': 49.158}",-1,-1
13,"{'items': ['18', '12'], 'found': '12', 'support': 338921, 'level': 1, 'jaccard': -1, 'filled': 0}","{'items': ['18', '12'], 'found': '12', 'support': 338845, 'level': 1, 'jaccard': -1, 'filled': {'18': 49.158, '12': 49.208}}",338921,338845,1,-76,"{'18': 49.158, '12': 49.208}",-1,-1
14,"{'items': ['12', '17'], 'found': '17', 'support': 339569, 'level': 1, 'jaccard': -1, 'filled': 0}","{'items': ['12', '17'], 'found': '17', 'support': 339494, 'level': 1, 'jaccard': -1, 'filled': {'12': 49.208, '17': 49.267}}",339569,339494,1,-75,"{'12': 49.208, '17': 49.267}",-1,-1
15,"{'items': ['31', '18'], 'found': '18', 'support': 317103, 'level': 1, 'jaccard': -1, 'filled': 0}","{'items': ['31', '18'], 'found': '18', 'support': 317029, 'level': 1, 'jaccard': -1, 'filled': {'31': 46.969, '18': 49.158}}",317103,317029,1,-74,"{'31': 46.969, '18': 49.158}",-1,-1
16,"{'items': ['43', '17'], 'found': '17', 'support': 291366, 'level': 1, 'jaccard': -1, 'filled': 0}","{'items': ['43', '17'], 'found': '17', 'support': 291297, 'level': 1, 'jaccard': -1, 'filled': {'43': 44.081, '17': 49.267}}",291366,291297,1,-69,"{'43': 44.081, '17': 49.267}",-1,-1
17,"{'items': ['18', '17'], 'found': '17', 'support': 339063, 'level': 1, 'jaccard': -1, 'filled': 0}","{'items': ['18', '17'], 'found': '17', 'support': 338999, 'level': 1, 'jaccard': -1, 'filled': {'18': 49.158, '17': 49.267}}",339063,338999,1,-64,"{'18': 49.158, '17': 49.267}",-1,-1
18,"{'items': ['43', '12'], 'found': '12', 'support': 290899, 'level': 1, 'jaccard': -1, 'filled': 0}","{'items': ['43', '12'], 'found': '12', 'support': 290848, 'level': 1, 'jaccard': -1, 'filled': {'43': 44.081, '12': 49.208}}",290899,290848,1,-51,"{'43': 44.081, '12': 49.208}",-1,-1
19,"{'items': ['16', '12'], 'found': '12', 'support': 332165, 'level': 1, 'jaccard': -1, 'filled': 0}","{'items': ['16', '12'], 'found': '12', 'support': 332154, 'level': 1, 'jaccard': -1, 'filled': {'16': 48.482, '12': 49.208}}",332165,332154,1,-11,"{'16': 48.482, '12': 49.208}",-1,-1
20,"{'items': ['16', '17'], 'found': '17', 'support': 332382, 'level': 1, 'jaccard': -1, 'filled': 0}","{'items': ['16', '17'], 'found': '17', 'support': 332378, 'level': 1, 'jaccard': -1, 'filled': {'16': 48.482, '17': 49.267}}",332382,332378,1,-4,"{'16': 48.482, '17': 49.267}",-1,-1
21,"{'items': ['43', '18'], 'found': '18', 'support': 290493, 'level': 1, 'jaccard': -1, 'filled': 0}","{'items': ['43', '18'], 'found': '18', 'support': 290493, 'level': 1, 'jaccard': -1, 'filled': {'43': 44.081, '18': 49.158}}",290493,290493,1,0,"{'43': 44.081, '18': 49.158}",-1,-1
22,"{'items': ['16', '18'], 'found': '18', 'support': 331648, 'level': 1, 'jaccard': -1, 'filled': 0}","{'items': ['16', '18'], 'found': '18', 'support': 331654, 'level': 1, 'jaccard': -1, 'filled': {'16': 48.482, '18': 49.158}}",331648,331654,1,6,"{'16': 48.482, '18': 49.158}",-1,-1
23,"{'items': ['31', '16'], 'found': '16', 'support': 312204, 'level': 1, 'jaccard': -1, 'filled': 0}","{'items': ['31', '16'], 'found': '16', 'support': 312309, 'level': 1, 'jaccard': -1, 'filled': {'31': 46.969, '16': 48.482}}",312204,312309,1,105,"{'31': 46.969, '16': 48.482}",-1,-1
24,"{'items': ['21', '17'], 'found': '17', 'support': 302415, 'level': 1, 'jaccard': -1, 'filled': 0}","{'items': ['21', '17'], 'found': '17', 'support': 302525, 'level': 1, 'jaccard': -1, 'filled': {'21': 45.32, '17': 49.267}}",302415,302525,1,110,"{'21': 45.32, '17': 49.267}",-1,-1
25,"{'items': ['21', '12'], 'found': '12', 'support': 301939, 'level': 1, 'jaccard': -1, 'filled': 0}","{'items': ['21', '12'], 'found': '12', 'support': 302057, 'level': 1, 'jaccard': -1, 'filled': {'21': 45.32, '12': 49.208}}",301939,302057,1,118,"{'21': 45.32, '12': 49.208}",-1,-1
26,"{'items': ['21', '18'], 'found': '18', 'support': 301478, 'level': 1, 'jaccard': -1, 'filled': 0}","{'items': ['21', '18'], 'found': '18', 'support': 301631, 'level': 1, 'jaccard': -1, 'filled': {'21': 45.32, '18': 49.158}}",301478,301631,1,153,"{'21': 45.32, '18': 49.158}",-1,-1
27,"{'items': ['29', '16'], 'found': '16', 'support': 291958, 'level': 1, 'jaccard': -1, 'filled': 0}","{'items': ['29', '16'], 'found': '16', 'support': 292412, 'level': 1, 'jaccard': -1, 'filled': {'29': 44.937, '16': 48.482}}",291958,292412,1,454,"{'29': 44.937, '16': 48.482}",-1,-1
28,"{'items': ['21', '16'], 'found': '16', 'support': 295351, 'level': 1, 'jaccard': -1, 'filled': 0}","{'items': ['21', '16'], 'found': '16', 'support': 295986, 'level': 1, 'jaccard': -1, 'filled': {'21': 45.32, '16': 48.482}}",295351,295986,1,635,"{'21': 45.32, '16': 48.482}",-1,-1
29,"{'items': ['29', '12', '17'], 'found': '17', 'support': 298648, 'level': 2, 'jaccard': -1, 'filled': 0}","{'items': ['29', '12', '17'], 'found': '17', 'support': 298531, 'level': 2, 'jaccard': -1, 'filled': {'29': 44.937, '12': 49.208, '17': 49.267}}",298648,298531,2,-117,"{'29': 44.937, '12': 49.208, '17': 49.267}",-1,-1
30,"{'items': ['31', '12', '17'], 'found': '17', 'support': 317510, 'level': 2, 'jaccard': -1, 'filled': 0}","{'items': ['31', '12', '17'], 'found': '17', 'support': 317411, 'level': 2, 'jaccard': -1, 'filled': {'31': 46.969, '12': 49.208, '17': 49.267}}",317510,317411,2,-99,"{'31': 46.969, '12': 49.208, '17': 49.267}",-1,-1
31,"{'items': ['31', '18', '12'], 'found': '12', 'support': 316960, 'level': 2, 'jaccard': -1, 'filled': 0}","{'items': ['31', '18', '12'], 'found': '12', 'support': 316888, 'level': 2, 'jaccard': -1, 'filled': {'31': 46.969, '18': 49.158, '12': 49.208}}",316960,316888,2,-72,"{'31': 46.969, '18': 49.158, '12': 49.208}",-1,-1
32,"{'items': ['29', '18', '17'], 'found': '17', 'support': 298165, 'level': 2, 'jaccard': -1, 'filled': 0}","{'items': ['29', '18', '17'], 'found': '17', 'support': 298094, 'level': 2, 'jaccard': -1, 'filled': {'29': 44.937, '18': 49.158, '17': 49.267}}",298165,298094,2,-71,"{'29': 44.937, '18': 49.158, '17': 49.267}",-1,-1
33,"{'items': ['31', '18', '17'], 'found': '17', 'support': 317077, 'level': 2, 'jaccard': -1, 'filled': 0}","{'items': ['31', '18', '17'], 'found': '17', 'support': 317008, 'level': 2, 'jaccard': -1, 'filled': {'31': 46.969, '18': 49.158, '17': 49.267}}",317077,317008,2,-69,"{'31': 46.969, '18': 49.158, '17': 49.267}",-1,-1
34,"{'items': ['18', '12', '17'], 'found': '17', 'support': 338889, 'level': 2, 'jaccard': -1, 'filled': 0}","{'items': ['18', '12', '17'], 'found': '17', 'support': 338820, 'level': 2, 'jaccard': -1, 'filled': {'18': 49.158, '12': 49.208, '17': 49.267}}",338889,338820,2,-69,"{'18': 49.158, '12': 49.208, '17': 49.267}",-1,-1
35,"{'items': ['29', '18', '12'], 'found': '12', 'support': 298041, 'level': 2, 'jaccard': -1, 'filled': 0}","{'items': ['29', '18', '12'], 'found': '12', 'support': 297973, 'level': 2, 'jaccard': -1, 'filled': {'29': 44.937, '18': 49.158, '12': 49.208}}",298041,297973,2,-68,"{'29': 44.937, '18': 49.158, '12': 49.208}",-1,-1
36,"{'items': ['43', '12', '17'], 'found': '17', 'support': 290869, 'level': 2, 'jaccard': -1, 'filled': 0}","{'items': ['43', '12', '17'], 'found': '17', 'support': 290825, 'level': 2, 'jaccard': -1, 'filled': {'43': 44.081, '12': 49.208, '17': 49.267}}",290869,290825,2,-44,"{'43': 44.081, '12': 49.208, '17': 49.267}",-1,-1
37,"{'items': ['16', '12', '17'], 'found': '17', 'support': 332133, 'level': 2, 'jaccard': -1, 'filled': 0}","{'items': ['16', '12', '17'], 'found': '17', 'support': 332129, 'level': 2, 'jaccard': -1, 'filled': {'16': 48.482, '12': 49.208, '17': 49.267}}",332133,332129,2,-4,"{'16': 48.482, '12': 49.208, '17': 49.267}",-1,-1
38,"{'items': ['43', '18', '17'], 'found': '17', 'support': 290463, 'level': 2, 'jaccard': -1, 'filled': 0}","{'items': ['43', '18', '17'], 'found': '17', 'support': 290470, 'level': 2, 'jaccard': -1, 'filled': {'43': 44.081, '18': 49.158, '17': 49.267}}",290463,290470,2,7,"{'43': 44.081, '18': 49.158, '17': 49.267}",-1,-1
39,"{'items': ['43', '18', '12'], 'found': '12', 'support': 290341, 'level': 2, 'jaccard': -1, 'filled': 0}","{'items': ['43', '18', '12'], 'found': '12', 'support': 290349, 'level': 2, 'jaccard': -1, 'filled': {'43': 44.081, '18': 49.158, '12': 49.208}}",290341,290349,2,8,"{'43': 44.081, '18': 49.158, '12': 49.208}",-1,-1
40,"{'items': ['16', '18', '12'], 'found': '12', 'support': 331490, 'level': 2, 'jaccard': -1, 'filled': 0}","{'items': ['16', '18', '12'], 'found': '12', 'support': 331498, 'level': 2, 'jaccard': -1, 'filled': {'16': 48.482, '18': 49.158, '12': 49.208}}",331490,331498,2,8,"{'16': 48.482, '18': 49.158, '12': 49.208}",-1,-1
41,"{'items': ['16', '18', '17'], 'found': '17', 'support': 331616, 'level': 2, 'jaccard': -1, 'filled': 0}","{'items': ['16', '18', '17'], 'found': '17', 'support': 331629, 'level': 2, 'jaccard': -1, 'filled': {'16': 48.482, '18': 49.158, '17': 49.267}}",331616,331629,2,13,"{'16': 48.482, '18': 49.158, '17': 49.267}",-1,-1
42,"{'items': ['31', '16', '17'], 'found': '17', 'support': 312178, 'level': 2, 'jaccard': -1, 'filled': 0}","{'items': ['31', '16', '17'], 'found': '17', 'support': 312289, 'level': 2, 'jaccard': -1, 'filled': {'31': 46.969, '16': 48.482, '17': 49.267}}",312178,312289,2,111,"{'31': 46.969, '16': 48.482, '17': 49.267}",-1,-1
43,"{'items': ['31', '16', '12'], 'found': '12', 'support': 312009, 'level': 2, 'jaccard': -1, 'filled': 0}","{'items': ['31', '16', '12'], 'found': '12', 'support': 312125, 'level': 2, 'jaccard': -1, 'filled': {'31': 46.969, '16': 48.482, '12': 49.208}}",312009,312125,2,116,"{'31': 46.969, '16': 48.482, '12': 49.208}",-1,-1
44,"{'items': ['21', '12', '17'], 'found': '17', 'support': 301908, 'level': 2, 'jaccard': -1, 'filled': 0}","{'items': ['21', '12', '17'], 'found': '17', 'support': 302033, 'level': 2, 'jaccard': -1, 'filled': {'21': 45.32, '12': 49.208, '17': 49.267}}",301908,302033,2,125,"{'21': 45.32, '12': 49.208, '17': 49.267}",-1,-1
45,"{'items': ['31', '16', '18'], 'found': '18', 'support': 311569, 'level': 2, 'jaccard': -1, 'filled': 0}","{'items': ['31', '16', '18'], 'found': '18', 'support': 311717, 'level': 2, 'jaccard': -1, 'filled': {'31': 46.969, '16': 48.482, '18': 49.158}}",311569,311717,2,148,"{'31': 46.969, '16': 48.482, '18': 49.158}",-1,-1
46,"{'items': ['21', '18', '12'], 'found': '12', 'support': 301317, 'level': 2, 'jaccard': -1, 'filled': 0}","{'items': ['21', '18', '12'], 'found': '12', 'support': 301475, 'level': 2, 'jaccard': -1, 'filled': {'21': 45.32, '18': 49.158, '12': 49.208}}",301317,301475,2,158,"{'21': 45.32, '18': 49.158, '12': 49.208}",-1,-1
47,"{'items': ['21', '18', '17'], 'found': '17', 'support': 301447, 'level': 2, 'jaccard': -1, 'filled': 0}","{'items': ['21', '18', '17'], 'found': '17', 'support': 301608, 'level': 2, 'jaccard': -1, 'filled': {'21': 45.32, '18': 49.158, '17': 49.267}}",301447,301608,2,161,"{'21': 45.32, '18': 49.158, '17': 49.267}",-1,-1
48,"{'items': ['29', '16', '17'], 'found': '17', 'support': 291926, 'level': 2, 'jaccard': -1, 'filled': 0}","{'items': ['29', '16', '17'], 'found': '17', 'support': 292389, 'level': 2, 'jaccard': -1, 'filled': {'29': 44.937, '16': 48.482, '17': 49.267}}",291926,292389,2,463,"{'29': 44.937, '16': 48.482, '17': 49.267}",-1,-1
49,"{'items': ['29', '16', '12'], 'found': '12', 'support': 291738, 'level': 2, 'jaccard': -1, 'filled': 0}","{'items': ['29', '16', '12'], 'found': '12', 'support': 292212, 'level': 2, 'jaccard': -1, 'filled': {'29': 44.937, '16': 48.482, '12': 49.208}}",291738,292212,2,474,"{'29': 44.937, '16': 48.482, '12': 49.208}",-1,-1
50,"{'items': ['29', '16', '18'], 'found': '18', 'support': 291245, 'level': 2, 'jaccard': -1, 'filled': 0}","{'items': ['29', '16', '18'], 'found': '18', 'support': 291769, 'level': 2, 'jaccard': -1, 'filled': {'29': 44.937, '16': 48.482, '18': 49.158}}",291245,291769,2,524,"{'29': 44.937, '16': 48.482, '18': 49.158}",-1,-1
51,"{'items': ['21', '16', '17'], 'found': '17', 'support': 295320, 'level': 2, 'jaccard': -1, 'filled': 0}","{'items': ['21', '16', '17'], 'found': '17', 'support': 295963, 'level': 2, 'jaccard': -1, 'filled': {'21': 45.32, '16': 48.482, '17': 49.267}}",295320,295963,2,643,"{'21': 45.32, '16': 48.482, '17': 49.267}",-1,-1
52,"{'items': ['21', '16', '12'], 'found': '12', 'support': 295134, 'level': 2, 'jaccard': -1, 'filled': 0}","{'items': ['21', '16', '12'], 'found': '12', 'support': 295788, 'level': 2, 'jaccard': -1, 'filled': {'21': 45.32, '16': 48.482, '12': 49.208}}",295134,295788,2,654,"{'21': 45.32, '16': 48.482, '12': 49.208}",-1,-1
53,"{'items': ['21', '16', '18'], 'found': '18', 'support': 294663, 'level': 2, 'jaccard': -1, 'filled': 0}","{'items': ['21', '16', '18'], 'found': '18', 'support': 295356, 'level': 2, 'jaccard': -1, 'filled': {'21': 45.32, '16': 48.482, '18': 49.158}}",294663,295356,2,693,"{'21': 45.32, '16': 48.482, '18': 49.158}",-1,-1
54,"{'items': ['31', '18', '12', '17'], 'found': '17', 'support': 316934, 'level': 3, 'jaccard': -1, 'filled': 0}","{'items': ['31', '18', '12', '17'], 'found': '17', 'support': 316867, 'level': 3, 'jaccard': -1, 'filled': {'31': 46.969, '18': 49.158, '12': 49.208, '17': 49.267}}",316934,316867,3,-67,"{'31': 46.969, '18': 49.158, '12': 49.208, '17': 49.267}",-1,-1
55,"{'items': ['29', '18', '12', '17'], 'found': '17', 'support': 298009, 'level': 3, 'jaccard': -1, 'filled': 0}","{'items': ['29', '18', '12', '17'], 'found': '17', 'support': 297949, 'level': 3, 'jaccard': -1, 'filled': {'29': 44.937, '18': 49.158, '12': 49.208, '17': 49.267}}",298009,297949,3,-60,"{'29': 44.937, '18': 49.158, '12': 49.208, '17': 49.267}",-1,-1
56,"{'items': ['43', '18', '12', '17'], 'found': '17', 'support': 290311, 'level': 3, 'jaccard': -1, 'filled': 0}","{'items': ['43', '18', '12', '17'], 'found': '17', 'support': 290326, 'level': 3, 'jaccard': -1, 'filled': {'43': 44.081, '18': 49.158, '12': 49.208, '17': 49.267}}",290311,290326,3,15,"{'43': 44.081, '18': 49.158, '12': 49.208, '17': 49.267}",-1,-1
57,"{'items': ['16', '18', '12', '17'], 'found': '17', 'support': 331458, 'level': 3, 'jaccard': -1, 'filled': 0}","{'items': ['16', '18', '12', '17'], 'found': '17', 'support': 331473, 'level': 3, 'jaccard': -1, 'filled': {'16': 48.482, '18': 49.158, '12': 49.208, '17': 49.267}}",331458,331473,3,15,"{'16': 48.482, '18': 49.158, '12': 49.208, '17': 49.267}",-1,-1
58,"{'items': ['31', '16', '12', '17'], 'found': '17', 'support': 311983, 'level': 3, 'jaccard': -1, 'filled': 0}","{'items': ['31', '16', '12', '17'], 'found': '17', 'support': 312104, 'level': 3, 'jaccard': -1, 'filled': {'31': 46.969, '16': 48.482, '12': 49.208, '17': 49.267}}",311983,312104,3,121,"{'31': 46.969, '16': 48.482, '12': 49.208, '17': 49.267}",-1,-1
59,"{'items': ['31', '16', '18', '17'], 'found': '17', 'support': 311543, 'level': 3, 'jaccard': -1, 'filled': 0}","{'items': ['31', '16', '18', '17'], 'found': '17', 'support': 311697, 'level': 3, 'jaccard': -1, 'filled': {'31': 46.969, '16': 48.482, '18': 49.158, '17': 49.267}}",311543,311697,3,154,"{'31': 46.969, '16': 48.482, '18': 49.158, '17': 49.267}",-1,-1
60,"{'items': ['31', '16', '18', '12'], 'found': '12', 'support': 311437, 'level': 3, 'jaccard': -1, 'filled': 0}","{'items': ['31', '16', '18', '12'], 'found': '12', 'support': 311592, 'level': 3, 'jaccard': -1, 'filled': {'31': 46.969, '16': 48.482, '18': 49.158, '12': 49.208}}",311437,311592,3,155,"{'31': 46.969, '16': 48.482, '18': 49.158, '12': 49.208}",-1,-1
61,"{'items': ['21', '18', '12', '17'], 'found': '17', 'support': 301286, 'level': 3, 'jaccard': -1, 'filled': 0}","{'items': ['21', '18', '12', '17'], 'found': '17', 'support': 301452, 'level': 3, 'jaccard': -1, 'filled': {'21': 45.32, '18': 49.158, '12': 49.208, '17': 49.267}}",301286,301452,3,166,"{'21': 45.32, '18': 49.158, '12': 49.208, '17': 49.267}",-1,-1
62,"{'items': ['29', '16', '12', '17'], 'found': '17', 'support': 291706, 'level': 3, 'jaccard': -1, 'filled': 0}","{'items': ['29', '16', '12', '17'], 'found': '17', 'support': 292189, 'level': 3, 'jaccard': -1, 'filled': {'29': 44.937, '16': 48.482, '12': 49.208, '17': 49.267}}",291706,292189,3,483,"{'29': 44.937, '16': 48.482, '12': 49.208, '17': 49.267}",-1,-1
63,"{'items': ['29', '16', '18', '17'], 'found': '17', 'support': 291213, 'level': 3, 'jaccard': -1, 'filled': 0}","{'items': ['29', '16', '18', '17'], 'found': '17', 'support': 291746, 'level': 3, 'jaccard': -1, 'filled': {'29': 44.937, '16': 48.482, '18': 49.158, '17': 49.267}}",291213,291746,3,533,"{'29': 44.937, '16': 48.482, '18': 49.158, '17': 49.267}",-1,-1
64,"{'items': ['29', '16', '18', '12'], 'found': '12', 'support': 291104, 'level': 3, 'jaccard': -1, 'filled': 0}","{'items': ['29', '16', '18', '12'], 'found': '12', 'support': 291645, 'level': 3, 'jaccard': -1, 'filled': {'29': 44.937, '16': 48.482, '18': 49.158, '12': 49.208}}",291104,291645,3,541,"{'29': 44.937, '16': 48.482, '18': 49.158, '12': 49.208}",-1,-1
65,"{'items': ['21', '16', '12', '17'], 'found': '17', 'support': 295103, 'level': 3, 'jaccard': -1, 'filled': 0}","{'items': ['21', '16', '12', '17'], 'found': '17', 'support': 295764, 'level': 3, 'jaccard': -1, 'filled': {'21': 45.32, '16': 48.482, '12': 49.208, '17': 49.267}}",295103,295764,3,661,"{'21': 45.32, '16': 48.482, '12': 49.208, '17': 49.267}",-1,-1
66,"{'items': ['21', '16', '18', '17'], 'found': '17', 'support': 294632, 'level': 3, 'jaccard': -1, 'filled': 0}","{'items': ['21', '16', '18', '17'], 'found': '17', 'support': 295332, 'level': 3, 'jaccard': -1, 'filled': {'21': 45.32, '16': 48.482, '18': 49.158, '17': 49.267}}",294632,295332,3,700,"{'21': 45.32, '16': 48.482, '18': 49.158, '17': 49.267}",-1,-1
67,"{'items': ['21', '16', '18', '12'], 'found': '12', 'support': 294517, 'level': 3, 'jaccard': -1, 'filled': 0}","{'items': ['21', '16', '18', '12'], 'found': '12', 'support': 295220, 'level': 3, 'jaccard': -1, 'filled': {'21': 45.32, '16': 48.482, '18': 49.158, '12': 49.208}}",294517,295220,3,703,"{'21': 45.32, '16': 48.482, '18': 49.158, '12': 49.208}",-1,-1
68,"{'items': ['31', '16', '18', '12', '17'], 'found': '17', 'support': 311411, 'level': 4, 'jaccard': -1, 'filled': 0}","{'items': ['31', '16', '18', '12', '17'], 'found': '17', 'support': 311571, 'level': 4, 'jaccard': -1, 'filled': {'31': 46.969, '16': 48.482, '18': 49.158, '12': 49.208, '17': 49.267}}",311411,311571,4,160,"{'31': 46.969, '16': 48.482, '18': 49.158, '12': 49.208, '17': 49.267}",-1,-1
69,"{'items': ['29', '16', '18', '12', '17'], 'found': '17', 'support': 291072, 'level': 4, 'jaccard': -1, 'filled': 0}","{'items': ['29', '16', '18', '12', '17'], 'found': '17', 'support': 291622, 'level': 4, 'jaccard': -1, 'filled': {'29': 44.937, '16': 48.482, '18': 49.158, '12': 49.208, '17': 49.267}}",291072,291622,4,550,"{'29': 44.937, '16': 48.482, '18': 49.158, '12': 49.208, '17': 49.267}",-1,-1
70,"{'items': ['21', '16', '18', '12', '17'], 'found': '17', 'support': 294486, 'level': 4, 'jaccard': -1, 'filled': 0}","{'items': ['21', '16', '18', '12', '17'], 'found': '17', 'support': 295197, 'level': 4, 'jaccard': -1, 'filled': {'21': 45.32, '16': 48.482, '18': 49.158, '12': 49.208, '17': 49.267}}",294486,295197,4,711,"{'21': 45.32, '16': 48.482, '18': 49.158, '12': 49.208, '17': 49.267}",-1,-1
