,items,real_support,approx_support,error,level,fill
0,"['21', '16', '18']",294663,295356,693,2,"{'21': 45.32, '16': 48.482, '18': 49.158}"
1,"['21', '16', '18', '17']",294632,295332,700,3,"{'21': 45.32, '16': 48.482, '18': 49.158, '17': 49.267}"
2,"['21', '16', '18', '12']",294517,295220,703,3,"{'21': 45.32, '16': 48.482, '18': 49.158, '12': 49.208}"
3,"['21', '16', '18', '12', '17']",294486,295197,711,4,"{'21': 45.32, '16': 48.482, '18': 49.158, '12': 49.208, '17': 49.267}"
