,items,real_support,approx_support,error,level,fill
0,"['29', '21']",268665,270620,1955,1,"{'29': 44.937, '21': 45.32}"
1,"['43', '31', '16']",268464,270427,1963,2,"{'43': 44.081, '31': 46.969, '16': 48.482}"
2,"['29', '21', '17']",268634,270598,1964,2,"{'29': 44.937, '21': 45.32, '17': 49.267}"
3,"['29', '21', '12']",268212,270207,1995,2,"{'29': 44.937, '21': 45.32, '12': 49.208}"
4,"['43', '31', '16', '17']",268439,270408,1969,3,"{'43': 44.081, '31': 46.969, '16': 48.482, '17': 49.267}"
5,"['43', '31', '16', '12']",268296,270282,1986,3,"{'43': 44.081, '31': 46.969, '16': 48.482, '12': 49.208}"
6,"['29', '21', '12', '17']",268181,270185,2004,3,"{'29': 44.937, '21': 45.32, '12': 49.208, '17': 49.267}"
7,"['43', '31', '16', '12', '17']",268271,270264,1993,4,"{'43': 44.081, '31': 46.969, '16': 48.482, '12': 49.208, '17': 49.267}"
